####
#
# OBJ File Generated by Meshlab
#
####
# Object chair_6.obj
#
# Vertices: 371
# Faces: 735
#
####
mtllib ./chair_6.obj.mtl

vn 0.672123 0.084387 -0.735615
v 23.376541 -6.311827 0.375669
vn 0.197804 -0.281878 -0.938839
v 23.400045 -6.320344 0.399216
vn -0.124030 -0.974138 -0.188871
v 23.376535 -6.355536 0.422693
vn -0.172378 -0.636795 0.751517
v 23.541124 -6.571627 0.845914
vn 0.030302 -0.085075 0.995914
v 23.682198 -6.555484 0.848244
vn -0.104136 0.154171 0.982541
v 23.541124 -6.555479 0.848761
vn 0.006291 0.083827 -0.996460
v 23.470581 -6.249850 0.387404
vn -0.062816 0.018487 -0.997854
v 23.588150 -6.320335 0.389339
vn -0.178024 -0.567009 -0.804244
v 23.494095 -6.367376 0.415329
vn -0.438463 0.325698 -0.837658
v 23.423561 -6.249841 0.386570
vn -0.237412 -0.921244 0.308133
v 23.400040 -6.359674 0.446206
vn -0.135425 -0.978093 0.158098
v 23.490593 -6.390901 0.446212
vn -0.099560 -0.970247 0.220700
v 23.494095 -6.390908 0.446213
vn -0.075758 -0.356810 -0.931100
v 23.564632 -6.367389 0.390327
vn -0.044241 -0.961165 -0.272406
v 23.588148 -6.403761 0.422699
vn 0.027684 -0.185196 -0.982312
v 23.588148 -6.343887 0.389622
vn -0.023138 0.049098 -0.998526
v 23.611685 -6.320328 0.388794
vn 0.012602 -0.536312 -0.843925
v 23.564632 -6.387599 0.493229
vn -0.854219 -0.517354 0.051516
v 23.541136 -6.367374 0.484823
vn -0.237131 -0.572272 0.785031
v 23.517609 -6.352118 0.469725
vn 0.016548 -0.999541 -0.025383
v 23.588150 -6.583436 0.822410
vn 0.231090 -0.420423 0.877407
v 23.729225 -6.555487 0.845942
vn 0.254566 -0.396742 -0.881925
v 23.705709 -6.367378 0.390457
vn 0.134828 -0.551387 -0.823282
v 23.705709 -6.390900 0.420330
vn 0.062720 -0.833762 -0.548551
v 23.729219 -6.394412 0.422698
vn 0.077564 0.036989 -0.996301
v 23.658632 -6.320310 0.387707
vn 0.048678 -0.091031 0.994658
v 23.705711 -6.555485 0.847093
vn -0.936590 0.348076 0.040522
v 23.340664 -6.437920 0.681333
vn -0.993776 -0.080083 -0.077431
v 23.322090 -6.437971 0.634294
vn -0.712708 -0.682945 -0.160105
v 23.344017 -6.461455 0.657814
vn -0.982941 -0.082355 -0.164452
v 23.319527 -6.461462 0.704837
vn -0.055331 -0.780427 -0.622794
v 23.329514 -6.343878 0.321977
vn -0.759688 0.262326 -0.595029
v 23.305992 -6.320370 0.315516
vn 0.865873 0.364403 -0.342747
v 23.353025 -6.320360 0.328645
vn 0.014989 0.983434 0.180647
v 23.376535 -6.404184 0.657820
vn -0.214788 0.891529 0.398802
v 23.376526 -6.381240 0.634306
vn -0.672961 0.738584 0.040215
v 23.353022 -6.401641 0.634307
vn -0.037103 0.994322 -0.099735
v 23.353024 -6.336191 0.352158
vn -0.189991 -0.587180 -0.786844
v 23.423555 -6.437928 0.566218
vn 0.082127 -0.707357 -0.702070
v 23.376535 -6.437922 0.557173
vn 0.265045 -0.348177 -0.899180
v 23.400055 -6.414403 0.558670
vn -0.413995 -0.060143 -0.908290
v 23.423569 -6.132258 0.410963
vn -0.811952 0.084781 -0.577535
v 23.381910 -6.132261 0.422706
vn -0.676952 0.368448 -0.637168
v 23.400049 -6.108748 0.422700
vn -0.303666 0.487637 -0.818533
v 23.494087 -6.367391 0.522484
vn -0.459265 0.342387 -0.819663
v 23.430065 -6.390887 0.540279
vn -0.220151 0.975421 -0.009306
v 23.494099 -6.357570 0.540266
vn -0.616450 0.787337 0.009477
v 23.458792 -5.967633 0.422754
vn -0.924356 0.161184 -0.345812
v 23.435320 -6.014699 0.422700
vn -0.734703 0.575565 0.359076
v 23.436890 -5.991179 0.446219
vn -0.365943 -0.235292 -0.900402
v 23.541124 -6.461432 0.489084
vn -0.508245 -0.439615 -0.740557
v 23.494104 -6.461432 0.533245
vn -0.144537 -0.033084 -0.988946
v 23.564625 -6.414416 0.505013
vn 0.312291 0.828259 0.465254
v 23.517611 -5.933486 0.422696
vn -0.317384 0.619909 0.717621
v 23.494095 -5.955919 0.422695
vn 0.049848 0.712111 0.700295
v 23.541122 -5.957294 0.422701
vn -0.157074 0.800163 0.578849
v 23.611660 -6.496841 0.798914
vn -0.148571 0.545818 0.824627
v 23.611660 -6.531973 0.834574
vn -0.220906 0.591047 0.775799
v 23.635170 -6.508461 0.833960
vn -0.775045 -0.530467 0.343381
v 23.329512 -6.329697 0.446209
vn -0.877548 -0.479109 -0.019083
v 23.325329 -6.343865 0.375670
vn -0.927399 0.322349 0.189793
v 23.329506 -6.332955 0.375672
vn -0.360097 0.931362 0.053815
v 23.329515 -6.315287 0.352158
vn -0.204294 -0.887397 -0.413268
v 23.376530 -6.461428 0.587286
vn -0.452646 -0.884000 0.116854
v 23.376532 -6.520138 0.798895
vn -0.930987 -0.270347 0.245306
v 23.321419 -6.484962 0.775378
vn -0.797205 -0.393695 -0.457677
v 23.347578 -6.437929 0.563763
vn -0.414112 0.103197 0.904357
v 23.376535 -6.484942 0.828428
vn -0.456971 -0.811348 0.364543
v 23.400045 -6.528665 0.822414
vn -0.243446 -0.518819 0.819488
v 23.423561 -6.531970 0.832356
vn -0.277358 -0.960684 -0.012589
v 23.405790 -6.530324 0.822420
vn -0.610236 0.722743 0.324430
v 23.350183 -6.437922 0.775381
vn -0.500520 0.832102 0.238926
v 23.353020 -6.428663 0.728357
vn -0.510436 0.841799 0.175584
v 23.353025 -6.399742 0.681331
vn -0.478722 0.877129 0.038342
v 23.353016 -6.402544 0.657820
vn -0.029700 0.664869 0.746369
v 23.376535 -6.437924 0.806995
vn -0.447112 0.845680 -0.291406
v 23.376532 -6.382364 0.563769
vn -0.846411 0.092269 -0.524476
v 23.347729 -6.414416 0.540257
vn -0.831859 -0.227603 0.506169
v 23.329510 -6.320363 0.453252
vn -0.962776 -0.151947 -0.223551
v 23.329514 -6.296849 0.440198
vn -0.848581 0.115651 0.516271
v 23.329512 -6.296848 0.456131
vn -0.763283 -0.644087 0.050505
v 23.327559 -6.296847 0.446208
vn -0.670949 0.671139 -0.315277
v 23.353024 -6.287854 0.399183
vn -0.235770 0.813366 -0.531836
v 23.353024 -6.287905 0.375672
vn -0.826797 0.428517 -0.364390
v 23.326542 -6.273336 0.422695
vn -0.749062 0.661524 -0.035939
v 23.353022 -6.259034 0.446206
vn -0.491733 0.153370 0.857133
v 23.376526 -6.249828 0.487862
vn -0.907369 0.087837 0.411054
v 23.376535 -6.226310 0.472083
vn -0.943312 0.173818 -0.282753
v 23.371283 -6.226309 0.446206
vn -0.092886 0.572462 -0.814653
v 23.376537 -6.273335 0.411523
vn 0.001142 -0.851608 -0.524178
v 23.423561 -6.461372 0.587300
vn 0.125388 -0.082459 -0.988675
v 23.376535 -6.414409 0.528767
vn 0.088949 0.935544 0.341827
v 23.400040 -6.427631 0.775374
vn 0.256171 0.938084 0.233185
v 23.447067 -6.426952 0.728351
vn 0.016347 0.402718 -0.915178
v 23.400055 -6.390890 0.551666
vn 0.417296 0.878180 -0.233805
v 23.423561 -6.373412 0.563770
vn -0.512202 0.443745 -0.735350
v 23.423565 -6.390890 0.546779
vn -0.103803 -0.566332 0.817614
v 23.470583 -6.367389 0.460119
vn -0.273185 -0.385369 0.881397
v 23.376535 -6.320360 0.483395
vn -0.214135 0.422075 -0.880908
v 23.400045 -6.296846 0.411834
vn 0.013098 -0.049744 0.998676
v 23.400024 -6.273351 0.488272
vn -0.825519 -0.073938 -0.559510
v 23.367157 -6.202795 0.446207
vn -0.935453 -0.196419 0.293848
v 23.351677 -6.202797 0.469719
vn -0.919404 0.242265 0.309845
v 23.392759 -6.132257 0.469721
vn -0.857492 0.255634 -0.446496
v 23.376530 -6.161533 0.446204
vn -0.964438 0.030058 -0.262594
v 23.400047 -6.085237 0.443823
vn -0.869335 0.406615 0.280928
v 23.398027 -6.061728 0.469722
vn -0.992519 0.113932 -0.043873
v 23.400051 -6.076943 0.446208
vn -0.713054 0.700059 -0.038357
v 23.415056 -6.038212 0.446208
vn -0.277404 0.123047 0.952841
v 23.400007 -6.155794 0.485470
vn 0.170837 0.912149 0.372557
v 23.423561 -6.418354 0.704845
vn 0.267520 0.915916 0.299216
v 23.423561 -6.403300 0.681333
vn 0.206523 0.880916 0.425835
v 23.423561 -6.404187 0.634308
vn 0.385772 0.791734 0.473643
v 23.470585 -6.414402 0.634307
vn -0.278930 0.196122 -0.940071
v 23.423557 -6.226307 0.411043
vn -0.399911 0.172002 -0.900270
v 23.400051 -6.226309 0.413387
vn -0.210553 -0.935526 -0.283653
v 23.423645 -6.499684 0.728417
vn 0.141287 0.477279 0.867319
v 23.470581 -6.484950 0.831226
vn 0.254094 0.769201 0.586316
v 23.470573 -6.476172 0.822394
vn 0.118857 0.917961 0.378446
v 23.423561 -6.379686 0.610790
vn 0.000998 -0.313903 0.949455
v 23.494179 -6.343827 0.473648
vn 0.015371 0.098002 0.995068
v 23.635077 -6.108715 0.467196
vn 0.020192 0.392814 0.919396
v 23.473373 -6.014724 0.469726
vn 0.090515 0.255295 0.962617
v 23.588123 -6.296859 0.475013
vn 0.028031 0.148652 0.988492
v 23.658659 -6.367379 0.467266
vn 0.066447 0.368451 0.927270
v 23.588224 -6.014653 0.454442
vn -0.456457 0.045408 0.888586
v 23.399996 -6.132288 0.485459
vn -0.300360 -0.145235 0.942704
v 23.517658 -6.343847 0.475321
vn 0.809372 0.326083 0.488454
v 23.635139 -6.343889 0.474233
vn 0.269345 -0.773386 0.573871
v 23.611698 -6.367364 0.470197
vn -0.485495 0.386761 0.784035
v 23.400047 -6.061724 0.471806
vn -0.392220 0.172504 -0.903552
v 23.400047 -6.061723 0.413045
vn -0.582555 0.631502 -0.511698
v 23.400047 -6.050195 0.422696
vn -0.310189 0.447483 0.838774
v 23.447073 -6.014726 0.469680
vn -0.948139 0.288254 0.133951
v 23.437008 -6.014699 0.446208
vn -0.320122 -0.947375 0.001770
v 23.494179 -6.563288 0.822455
vn -0.371967 -0.915764 -0.151714
v 23.447178 -6.542274 0.822469
vn -0.222579 -0.931653 -0.287195
v 23.541138 -6.578938 0.822430
vn 0.242263 0.909701 0.337273
v 23.517614 -6.461426 0.728365
vn 0.278414 0.829910 0.483461
v 23.517605 -6.484999 0.797499
vn 0.151662 0.960705 0.232474
v 23.541128 -6.450253 0.681334
vn 0.447886 0.767827 0.458083
v 23.516340 -6.484964 0.798885
vn -0.539778 0.249340 -0.804033
v 23.517595 -6.367393 0.516711
vn -0.791728 0.535785 0.293428
v 23.539473 -6.343874 0.493226
vn -0.493144 0.600502 -0.629449
v 23.423559 -6.038209 0.437699
vn -0.850015 0.231237 -0.473290
v 23.435316 -6.038210 0.422696
vn -0.464732 -0.792866 -0.394192
v 23.494175 -6.484774 0.563822
vn -0.342550 -0.842295 -0.416171
v 23.447090 -6.461346 0.587307
vn -0.367547 -0.799144 -0.475686
v 23.517620 -6.483572 0.540273
vn 0.344171 0.838258 0.422929
v 23.517611 -6.432539 0.610795
vn 0.294490 0.647068 0.703263
v 23.541122 -6.427969 0.587261
vn -0.060393 0.600394 0.797420
v 23.670479 -5.985291 0.438564
vn -0.038610 0.556834 0.829726
v 23.670441 -5.944155 0.410955
vn 0.013020 0.981202 0.192546
v 23.588148 -5.932381 0.399224
vn -0.231386 0.971764 0.046216
v 23.564632 -5.932374 0.399225
vn -0.082798 -0.724839 0.683924
v 23.729221 -6.384336 0.469719
vn -0.201661 -0.915635 -0.347773
v 23.541153 -6.502526 0.563782
vn 0.044525 -0.929775 -0.365426
v 23.611633 -6.568493 0.798871
vn 0.105591 -0.238530 -0.965378
v 23.588146 -6.461442 0.488556
vn 0.044627 -0.919129 -0.391422
v 23.611649 -6.508288 0.540308
vn -0.114774 0.962516 0.245743
v 23.635166 -6.437877 0.610806
vn -0.026173 0.937877 0.345978
v 23.611660 -6.470818 0.751866
vn -0.007638 0.783565 0.621262
v 23.611662 -6.433189 0.587282
vn -0.094712 0.874040 0.476534
v 23.705696 -6.482859 0.798916
vn -0.006486 0.551552 0.834115
v 23.705709 -6.508451 0.830621
vn -0.559993 0.820608 0.114065
v 23.564634 -6.325134 0.493232
vn 0.166077 0.934964 0.313465
v 23.588148 -6.317908 0.493234
vn 0.421446 -0.583816 -0.693932
v 23.611660 -6.371513 0.493233
vn -0.586533 0.792635 0.166460
v 23.541121 -6.343863 0.516755
vn -0.421842 0.800169 0.426355
v 23.564634 -6.308577 0.516742
vn 0.157277 -0.927615 -0.338814
v 23.644188 -6.508275 0.563818
vn 0.164812 -0.916407 -0.364739
v 23.698317 -6.555472 0.798897
vn 0.023952 0.332233 -0.942893
v 23.682198 -6.414407 0.519192
vn 0.195872 -0.347037 -0.917169
v 23.658684 -6.461431 0.510119
vn 0.026070 0.036060 -0.999010
v 23.682196 -6.437926 0.504885
vn -0.031247 0.409623 0.911719
v 23.670475 -5.999311 0.450368
vn 0.048697 0.120214 0.991553
v 23.693901 -6.046342 0.456745
vn 0.187132 0.062965 0.980315
v 23.846748 -6.155735 0.490825
vn -0.289023 0.652330 0.700664
v 23.846788 -6.108771 0.486539
vn 0.479603 0.233370 0.845884
v 23.846786 -6.061730 0.473423
vn 0.319122 -0.719902 -0.616362
v 23.682192 -6.489101 0.540268
vn -0.280847 0.899631 0.334348
v 23.705715 -6.439640 0.681315
vn 0.808142 -0.272655 -0.522079
v 23.614109 -6.367384 0.493236
vn 0.254883 0.935250 0.245645
v 23.588150 -6.308577 0.516742
vn 0.166888 0.895293 0.413036
v 23.611660 -6.333035 0.516750
vn 0.451367 0.881601 0.138013
v 23.611660 -6.327391 0.493233
vn 0.142211 -0.986580 -0.080218
v 23.670443 -6.571573 0.822410
vn 0.982771 -0.105717 -0.151607
v 23.625210 -6.343873 0.493233
vn -0.267902 0.958877 0.093716
v 23.731810 -6.414411 0.634306
vn -0.190351 0.723555 0.663502
v 23.658680 -6.426101 0.587285
vn 0.609819 -0.144855 -0.779190
v 23.633646 -6.343869 0.516745
vn 0.266061 0.430356 -0.862557
v 23.635170 -6.320359 0.505086
vn 0.365285 0.269053 -0.891167
v 23.705708 -6.390898 0.529836
vn 0.430337 0.161460 -0.888111
v 23.658686 -6.367383 0.528466
vn -0.060231 0.963277 0.261667
v 23.635170 -6.306875 0.516744
vn 0.454700 0.816297 -0.356241
v 23.651920 -6.320357 0.516748
vn -0.113820 -0.008317 0.993467
v 23.740913 -6.191026 0.478633
vn 0.295909 -0.921084 -0.253064
v 23.671251 -6.531874 0.681358
vn 0.122509 -0.957731 -0.260273
v 23.752754 -6.486299 0.610779
vn 0.334478 -0.836927 -0.433218
v 23.705700 -6.491621 0.563780
vn 0.688425 0.621283 -0.374271
v 23.705709 -6.350770 0.540256
vn 0.421152 0.897793 -0.128834
v 23.682198 -6.327398 0.540255
vn 0.424845 -0.179261 -0.887340
v 23.658684 -6.343873 0.518171
vn -0.939860 -0.131280 -0.315324
v 23.840548 -6.390901 0.234597
vn -0.080269 0.664018 -0.743396
v 23.846783 -6.384661 0.234597
vn 0.225306 -0.636558 -0.737585
v 23.870296 -6.440139 0.187572
vn -0.045115 0.973812 -0.222834
v 23.846779 -6.359789 0.258109
vn 0.476000 -0.211839 0.853550
v 23.846664 -6.343874 0.482718
vn 0.652187 0.565218 0.505154
v 23.870295 -6.343875 0.462862
vn 0.964589 0.187428 0.185580
v 23.876453 -6.343874 0.446206
vn -0.081872 0.128129 0.988372
v 23.740911 -6.132225 0.479011
vn 0.012840 0.178692 0.983821
v 23.705654 -6.056920 0.456867
vn -0.585038 0.120771 -0.801963
v 23.423561 -6.085234 0.420560
vn 0.058178 0.414436 0.908217
v 23.564632 -6.377578 0.563763
vn -0.267987 -0.132749 -0.954233
v 23.494133 -6.155730 0.380084
vn -0.767987 -0.115974 -0.629878
v 23.494085 -6.202821 0.395925
vn -0.326071 -0.144156 -0.934289
v 23.470583 -6.179287 0.397518
vn 0.294384 0.779323 -0.553166
v 23.517611 -5.957194 0.399183
vn -0.415746 0.003132 -0.909475
v 23.447065 -6.179286 0.407632
vn 0.083041 0.033712 -0.995976
v 23.494087 -6.226333 0.399067
vn -0.177249 -0.020395 -0.983955
v 23.541122 -6.061710 0.366097
vn -0.593290 0.249135 -0.765467
v 23.453924 -6.014699 0.399191
vn -0.240582 0.157942 -0.957693
v 23.541107 -5.991184 0.367804
vn -0.527555 0.316063 -0.788537
v 23.470585 -5.991186 0.401487
vn -0.647567 0.469799 -0.599955
v 23.470585 -5.967674 0.406190
vn -0.030289 0.774800 0.631480
v 23.541122 -6.367395 0.558281
vn -0.261979 0.455962 -0.850568
v 23.517611 -5.967674 0.387167
vn -0.163250 0.351928 -0.921681
v 23.564632 -5.967652 0.367911
vn -0.628107 0.510557 -0.587207
v 23.564634 -5.944164 0.379833
vn -0.323828 0.864634 -0.384115
v 23.494095 -5.930861 0.399182
vn 0.093500 -0.171969 -0.980655
v 23.682196 -6.249899 0.394957
vn -0.286272 -0.278885 -0.916663
v 23.658691 -6.132240 0.368608
vn 0.016593 -0.352605 -0.935625
v 23.658699 -6.226270 0.380851
vn -0.293332 -0.007465 -0.955981
v 23.658686 -6.108723 0.364548
vn 0.190948 0.642661 0.741974
v 23.682198 -6.343881 0.563752
vn -0.072435 0.522111 0.849796
v 23.611660 -6.367380 0.563771
vn 0.072725 0.015330 -0.997234
v 23.682194 -6.085235 0.361698
vn 0.015472 0.999783 0.013930
v 23.682198 -5.932419 0.399182
vn 0.133525 0.462410 -0.876555
v 23.776239 -5.967675 0.356886
vn 0.395415 0.897598 0.194845
v 23.776249 -5.949506 0.399173
vn 0.958585 -0.030592 -0.283158
v 23.815380 -5.967664 0.375665
vn 0.713072 0.322620 -0.622451
v 23.799744 -5.967669 0.359771
vn 0.025162 0.607111 0.794219
v 23.705711 -6.390903 0.580286
vn -0.052031 0.000742 -0.998645
v 23.670435 -5.967664 0.362398
vn -0.293579 0.920287 0.258619
v 23.744001 -6.414404 0.610798
vn 0.243257 -0.117577 -0.962809
v 23.752733 -6.343873 0.412051
vn 0.185470 0.146960 -0.971599
v 23.729221 -6.343873 0.388964
vn 0.224116 0.095451 -0.969877
v 23.729212 -6.320352 0.409582
vn -0.413443 0.728054 0.546810
v 23.752731 -6.434679 0.704846
vn -0.068320 0.993497 0.091088
v 23.776255 -6.406968 0.704848
vn 0.063681 0.993270 0.096746
v 23.776247 -6.421574 0.681332
vn -0.236971 0.096500 -0.966712
v 23.799759 -6.437922 0.528811
vn -0.061502 -0.673461 -0.736660
v 23.799757 -6.461432 0.555442
vn 0.253151 0.502617 -0.826614
v 23.799757 -6.414410 0.547388
vn 0.571620 0.776393 0.265452
v 23.799767 -6.432109 0.704850
vn -0.081174 0.842759 -0.532135
v 23.846786 -6.333116 0.328646
vn -0.125785 0.871407 -0.474161
v 23.846785 -6.334383 0.375670
vn 0.720937 0.576472 -0.384615
v 23.861935 -6.343873 0.375671
vn 0.602579 0.732928 -0.315777
v 23.870296 -6.098307 0.399183
vn 0.607796 -0.450471 -0.653957
v 23.870296 -6.140906 0.399183
vn -0.027034 0.475464 -0.879320
v 23.846785 -6.108749 0.388791
vn 0.925330 0.360127 0.118625
v 23.857578 -6.132259 0.446209
vn 0.934641 0.345298 -0.084941
v 23.881128 -6.132260 0.469721
vn 0.951945 0.075373 0.296848
v 23.863289 -6.155772 0.469721
vn 0.183980 0.450084 0.873828
v 23.752728 -5.983970 0.446294
vn 0.105572 -0.403987 0.908653
v 23.799713 -6.367383 0.483811
vn 0.066720 -0.871289 0.486213
v 23.776247 -6.390893 0.469717
vn 0.254833 -0.961506 0.102787
v 23.752735 -6.559711 0.822409
vn 0.556842 -0.772352 0.305613
v 23.799772 -6.550045 0.798895
vn 0.178404 0.464069 0.867647
v 23.776234 -6.005125 0.446539
vn 0.719694 0.234017 0.653664
v 23.870289 -6.132226 0.486783
vn 0.348248 0.808146 0.474999
v 23.799755 -6.451183 0.751861
vn 0.277761 0.548778 0.788475
v 23.776230 -6.484750 0.820667
vn 0.106266 -0.909708 -0.401421
v 23.729202 -6.548820 0.798919
vn -0.354775 0.837182 0.416247
v 23.729223 -6.422487 0.681330
vn -0.076108 0.964648 0.252313
v 23.752735 -6.414412 0.660775
vn 0.196821 -0.270876 -0.942278
v 23.752731 -6.437922 0.546483
vn 0.257106 0.201983 -0.945039
v 23.743553 -6.414408 0.540260
vn 0.567618 0.374699 -0.733083
v 23.720945 -6.390895 0.541636
vn 0.482157 -0.179632 0.857471
v 23.846750 -6.273337 0.490069
vn 0.758502 0.155682 0.632801
v 23.870182 -6.179288 0.486706
vn 0.640877 -0.313072 0.700902
v 23.870289 -6.249824 0.494694
vn 0.192202 -0.766220 -0.613160
v 23.729216 -6.484925 0.563776
vn 0.059711 -0.948481 -0.311156
v 23.776245 -6.479584 0.587283
vn -0.150875 -0.222407 -0.963209
v 23.776249 -6.343870 0.413014
vn -0.469973 -0.672925 -0.571224
v 23.823269 -6.378187 0.422696
vn -0.015289 -0.309633 -0.950733
v 23.752716 -6.320343 0.412137
vn -0.346847 -0.279280 -0.895377
v 23.776247 -6.320360 0.412107
vn 0.087884 -0.935163 -0.343142
v 23.799761 -6.511450 0.657825
vn 0.833049 0.005701 0.553170
v 23.819309 -6.508461 0.798890
vn 0.482008 -0.812396 -0.328148
v 23.823269 -6.486785 0.587284
vn 0.452860 -0.460279 -0.763584
v 23.823275 -6.461434 0.557210
vn 0.329651 0.820093 0.467736
v 23.823284 -6.427367 0.657820
vn 0.097625 0.873375 0.477164
v 23.776247 -6.414408 0.657821
vn 0.531563 0.792172 0.299840
v 23.823284 -6.427840 0.681330
vn -0.291511 -0.949078 -0.119467
v 23.817123 -6.390893 0.446211
vn 0.559536 -0.783136 -0.271324
v 23.823269 -6.496469 0.634306
vn 0.106854 -0.325147 -0.939607
v 23.785862 -6.296848 0.399184
vn -0.311440 -0.020117 -0.950053
v 23.752733 -6.296847 0.388507
vn 0.199783 -0.096745 -0.975052
v 23.799747 -6.273334 0.387443
vn 0.305532 -0.550961 -0.776590
v 23.776247 -6.306460 0.399183
vn 0.231168 0.723154 0.650853
v 23.752733 -5.955929 0.422686
vn 0.872321 0.394782 0.288451
v 23.799761 -5.973485 0.399182
vn 0.977154 0.125575 0.171468
v 23.846786 -6.461429 0.682534
vn 0.999608 0.024017 -0.014412
v 23.846794 -6.461430 0.681337
vn 0.500176 0.818644 0.282218
v 23.823271 -6.403239 0.634306
vn 0.268496 0.896359 0.352775
v 23.799759 -6.405274 0.634307
vn -0.019230 0.993058 0.116040
v 23.776247 -6.379154 0.634307
vn -0.042212 -0.985791 0.162586
v 23.823269 -6.393463 0.446208
vn 0.704750 -0.552657 0.444856
v 23.870296 -6.367384 0.453867
vn -0.521263 -0.219569 -0.824666
v 23.823267 -6.343875 0.390941
vn -0.903005 0.188047 -0.386290
v 23.837296 -6.343874 0.375668
vn -0.319807 -0.945408 -0.062670
v 23.846783 -6.390894 0.399184
vn 0.344707 0.529896 -0.774846
v 23.846788 -6.320356 0.388028
vn 0.670258 -0.724341 -0.161508
v 23.823284 -6.502772 0.657821
vn 0.858937 -0.291596 -0.420949
v 23.829865 -6.461431 0.563769
vn 0.778525 0.477428 -0.407383
v 23.834049 -6.414412 0.563770
vn 0.410599 0.910668 -0.045751
v 23.799759 -6.402917 0.587280
vn -0.220855 0.891049 -0.396553
v 23.846786 -6.359494 0.305133
vn 0.687823 -0.549740 0.474011
v 23.870293 -6.415771 0.234597
vn 0.825280 -0.559411 0.077284
v 23.856361 -6.390903 0.258109
vn 0.618117 -0.780539 0.093225
v 23.870293 -6.390903 0.375671
vn 0.214284 -0.632076 -0.744689
v 23.870304 -6.414402 0.275114
vn 0.732544 0.584559 -0.348811
v 23.855066 -6.390895 0.234597
vn 0.821808 -0.547392 -0.158095
v 23.835026 -6.155772 0.375671
vn -0.001432 -0.577506 -0.816385
v 23.823269 -6.155772 0.363915
vn 0.057490 0.374125 -0.925595
v 23.823269 -6.132260 0.363915
vn 0.894486 0.321440 -0.310758
v 23.835026 -6.132259 0.375671
vn 0.182505 0.879891 0.438731
v 23.823252 -6.004851 0.446607
vn 0.944364 0.220532 0.244013
v 23.856255 -6.038210 0.446207
vn 0.801567 0.524085 -0.287796
v 23.858538 -6.014699 0.422695
vn 0.996195 0.015748 -0.085719
v 23.871828 -6.390893 0.352158
vn 0.916220 0.378446 -0.131606
v 23.879078 -6.343874 0.399184
vn 0.990139 0.137360 0.027509
v 23.857309 -6.296847 0.446209
vn 0.610543 0.447210 -0.653636
v 23.846785 -6.285937 0.399183
vn 0.995181 -0.023471 -0.095206
v 23.857841 -6.273335 0.446208
vn 0.918170 -0.164571 -0.360389
v 23.858418 -6.249823 0.446210
vn 0.805789 -0.210190 -0.553647
v 23.870298 -6.202796 0.434450
vn 0.507441 -0.115883 -0.853859
v 23.846792 -6.226312 0.434438
vn 0.954849 0.289440 0.066986
v 23.870306 -6.155773 0.446189
vn 0.986898 0.152095 0.053854
v 23.870304 -6.156317 0.442472
vn 0.842637 -0.249731 -0.477072
v 23.870289 -6.155771 0.419282
vn 1.000000 -0.000015 -0.000600
v 23.870289 -6.159203 0.422708
vn -0.005852 0.901025 0.433729
v 23.799746 -6.004989 0.446573
vn 0.146770 -0.208144 -0.967023
v 23.705713 -6.226315 0.391928
vn 0.193495 -0.180838 -0.964291
v 23.682188 -6.202774 0.379467
vn 0.420340 -0.171993 -0.890917
v 23.705709 -6.140573 0.375671
vn 0.064593 -0.254025 -0.965038
v 23.682198 -6.132260 0.340402
vn -0.430371 0.894513 0.120944
v 23.752735 -6.408069 0.634300
vn -0.007795 0.995082 0.098742
v 23.776247 -6.398103 0.610796
vn 0.505458 -0.283015 -0.815116
v 23.809048 -6.179286 0.399185
vn 0.302096 0.005175 -0.953263
v 23.799730 -6.226280 0.401389
vn 0.760848 -0.510660 -0.400421
v 23.824539 -6.132259 0.399192
vn 0.519946 -0.582593 -0.624694
v 23.820883 -6.273335 0.399201
vn 0.357814 -0.178969 -0.916482
v 23.799725 -6.179519 0.392256
vn 0.747352 0.591910 -0.301841
v 23.846783 -6.101834 0.422697
vn 0.644175 0.022472 -0.764548
v 23.823275 -6.085237 0.404180
vn 0.260951 0.342885 -0.902405
v 23.823265 -6.108942 0.400391
vn 0.258028 -0.315426 -0.913197
v 23.696558 -6.155790 0.375552
vn 0.426772 0.893500 0.139724
v 23.729219 -6.383566 0.563771
vn 0.211136 0.970572 0.115808
v 23.776247 -6.379139 0.587283
vn 0.437914 -0.207975 -0.874630
v 23.776243 -5.991183 0.361752
vn 0.245059 0.121070 -0.961919
v 23.799757 -6.108751 0.387729
vn -0.150628 -0.261282 -0.953437
v 23.799723 -6.155738 0.387611
vn 0.000813 -0.131338 -0.991337
v 23.729210 -6.296838 0.405303
vn 0.727745 0.497854 -0.471729
v 23.729221 -6.390894 0.548045
vn 0.560239 0.068961 -0.825456
v 23.823271 -6.273336 0.403535
vn 0.832224 0.289597 -0.472798
v 23.846783 -6.274883 0.422695
vn 0.606600 0.109887 -0.787376
v 23.823269 -6.038209 0.400847
vn 0.420762 0.858642 -0.292734
v 23.823271 -6.010561 0.422696
vn 0.062595 0.549350 -0.833244
v 23.823265 -6.116440 0.399192
# 371 vertices, 0 vertices normals


usemtl material_0
vt 0.979761 0.010443
vt 0.978135 0.014728
vt 0.970492 0.013031
f 1/1/1 2/2/2 3/3/3
vt 0.995204 0.124859
vt 0.992920 0.147859
vt 0.992920 0.124926
f 4/4/4 5/5/5 6/6/6
vt 0.992233 0.022099
vt 0.987901 0.043780
vt 0.975012 0.031755
f 7/7/7 8/8/8 9/9/9
f 9/9/9 2/2/2 7/7/7
f 9/9/9 3/3/3 2/2/2
vt 0.990013 0.014805
f 2/2/2 10/10/10 7/7/7
vt 0.969482 0.017102
vt 0.969482 0.032659
f 11/11/11 9/9/9 12/12/12
vt 0.969651 0.033202
f 9/9/9 13/13/13 12/12/12
vt 0.980091 0.042445
f 9/9/9 14/14/14 13/13/13
vt 0.973967 0.048178
f 14/14/14 15/15/15 13/13/13
vt 0.984576 0.044933
f 14/14/14 8/8/8 16/16/16
f 14/14/14 9/9/9 8/8/8
vt 0.989078 0.047421
f 8/8/8 17/17/17 16/16/16
vt 0.875732 0.031914
vt 0.876410 0.037097
vt 0.875732 0.042236
f 18/18/18 19/19/19 20/20/20
vt 0.999150 0.132598
vt 0.993148 0.155518
f 21/21/21 22/22/22 4/4/4
vt 0.986915 0.064305
vt 0.981622 0.065743
f 15/15/15 23/23/23 24/24/24
f 15/15/15 16/16/16 23/23/23
vt 0.982110 0.069580
f 24/24/24 25/25/25 15/15/15
f 15/15/15 14/14/14 16/16/16
vt 0.991426 0.054684
f 16/16/16 17/17/17 26/26/26
f 26/26/26 23/23/23 16/16/16
vt 0.993034 0.151688
f 4/4/4 22/22/22 27/27/27
f 4/4/4 27/27/27 5/5/5
vt 0.227295 0.288330
vt 0.235526 0.288330
vt 0.230659 0.284051
f 28/28/28 29/29/29 30/30/30
vt 0.865743 0.855007
vt 0.865547 0.862439
vt 0.861880 0.857351
f 30/31/30 31/32/31 28/33/28
vt 0.322574 0.821841
vt 0.321045 0.827111
vt 0.327111 0.822625
f 32/34/32 33/35/33 34/36/34
vt 0.845917 0.861915
vt 0.847244 0.866691
vt 0.850444 0.864605
f 35/37/35 36/38/36 37/39/37
vt 0.328790 0.820885
vt 0.335305 0.821989
f 34/36/34 38/40/38 1/41/1
vt 0.160550 0.014259
vt 0.167940 0.014811
vt 0.164049 0.018390
f 39/42/39 40/43/40 41/44/41
vt 0.207295 0.537676
vt 0.210163 0.531294
vt 0.205496 0.532408
f 42/45/42 43/46/43 44/47/44
vt 0.147855 0.025914
vt 0.158688 0.022296
vt 0.148177 0.027160
f 45/48/45 46/49/46 47/50/47
vt 0.150952 0.297289
vt 0.142560 0.296081
vt 0.145903 0.299880
f 48/51/48 49/52/49 50/53/50
vt 0.140077 0.010991
vt 0.148600 0.010526
vt 0.136367 0.018088
f 51/54/51 52/55/52 53/56/53
vt 0.075371 0.546504
vt 0.071513 0.542903
vt 0.071741 0.550556
f 54/57/54 55/58/55 56/59/56
vt 0.802021 0.845027
vt 0.800003 0.837766
vt 0.796898 0.840120
f 57/60/57 58/61/58 59/62/59
vt 0.163302 0.182186
vt 0.156222 0.175804
vt 0.153076 0.186768
f 3/63/3 60/64/60 61/65/61
vt 0.445821 0.823005
vt 0.438232 0.827393
vt 0.456423 0.827393
f 61/66/61 32/67/32 3/68/3
vt 0.168037 0.179716
f 3/63/3 11/69/11 60/64/60
vt 0.108586 0.178125
vt 0.107243 0.179463
vt 0.114483 0.184506
f 61/70/61 62/71/62 32/72/32
vt 0.114137 0.186768
f 62/71/62 33/73/33 32/72/32
vt 0.327835 0.825899
f 33/35/33 63/74/63 34/36/34
vt 0.108128 0.184065
f 33/73/33 62/71/62 63/75/63
f 63/74/63 38/40/38 34/36/34
vt 0.097206 0.382700
vt 0.085780 0.387357
vt 0.121333 0.390648
f 30/76/30 64/77/64 65/78/65
vt 0.116879 0.380654
f 65/78/65 66/79/66 30/76/30
vt 0.104868 0.379144
f 66/79/66 31/80/31 30/76/30
vt 0.092786 0.378348
f 30/76/30 29/81/29 64/77/64
vt 0.081471 0.381879
f 29/81/29 67/82/67 64/77/64
vt 0.164795 0.208409
vt 0.170364 0.214111
vt 0.174352 0.213506
f 68/83/68 69/84/69 70/85/70
vt 0.838772 0.827393
vt 0.842111 0.820701
vt 0.836670 0.819549
f 68/86/68 65/87/65 69/88/69
vt 0.851211 0.827393
f 68/86/68 66/89/66 65/87/65
vt 0.125006 0.394836
vt 0.124995 0.395802
vt 0.126328 0.398772
f 69/90/69 71/91/71 70/92/70
vt 0.864763 0.874498
vt 0.856256 0.871647
vt 0.857220 0.863919
f 66/93/66 72/94/72 73/95/73
f 73/95/73 31/32/31 66/93/66
f 73/95/73 28/33/28 31/32/31
vt 0.855958 0.855143
f 73/95/73 74/96/74 28/33/28
vt 0.857506 0.851699
f 74/96/74 75/97/75 28/33/28
vt 0.865935 0.850337
f 75/97/75 29/98/29 28/33/28
vt 0.857139 0.882080
vt 0.852295 0.876229
f 68/99/68 76/100/76 72/94/72
f 72/94/72 66/93/66 68/99/68
vt 0.867230 0.839297
vt 0.858584 0.848053
vt 0.857630 0.835979
f 67/101/67 37/102/37 77/103/77
f 67/101/67 29/98/29 37/102/37
vt 0.853909 0.846709
f 37/102/37 36/104/36 77/103/77
vt 0.865443 0.834414
f 77/103/77 78/105/78 67/101/67
f 29/98/29 75/97/75 37/102/37
vt 0.098860 0.171658
vt 0.097106 0.171838
vt 0.096202 0.175853
f 60/106/60 79/107/79 80/108/80
f 80/108/80 61/70/61 60/106/60
vt 0.094383 0.174012
f 79/107/79 81/109/81 80/108/80
vt 0.095625 0.175077
f 81/109/81 82/110/82 80/108/80
vt 0.098659 0.182543
f 61/70/61 80/108/80 83/111/83
f 83/111/83 62/71/62 61/70/61
vt 0.101347 0.185255
f 83/111/83 84/112/84 62/71/62
f 84/112/84 63/75/63 62/71/62
vt 0.095972 0.180257
f 80/108/80 85/113/85 83/111/83
f 80/108/80 82/110/82 85/113/85
vt 0.090358 0.180179
vt 0.083357 0.177335
vt 0.082764 0.181666
f 86/114/86 87/115/87 88/116/88
f 86/114/86 81/109/81 87/115/87
vt 0.086010 0.184436
f 88/116/88 89/117/89 86/114/86
f 86/114/86 85/113/85 81/109/81
f 85/113/85 82/110/82 81/109/81
vt 0.094463 0.183654
f 85/113/85 86/114/86 90/118/90
f 90/118/90 83/111/83 85/113/85
f 90/118/90 84/112/84 83/111/83
vt 0.080639 0.394065
vt 0.085029 0.394887
f 64/77/64 39/119/39 91/120/91
vt 0.079990 0.386465
f 64/77/64 40/121/40 39/119/39
f 64/77/64 67/82/67 40/121/40
vt 0.076700 0.381062
f 67/82/67 78/122/78 40/121/40
vt 0.074464 0.385585
f 78/122/78 92/123/92 40/121/40
vt 0.837844 0.844180
vt 0.831964 0.852983
vt 0.846744 0.849207
f 93/124/93 94/125/94 73/126/73
vt 0.845447 0.841641
f 73/126/73 72/127/72 93/124/93
vt 0.840274 0.838015
f 72/127/72 76/128/76 93/124/93
vt 0.863449 0.832377
vt 0.857216 0.834367
f 92/129/92 77/103/77 95/130/95
f 92/129/92 78/105/78 77/103/77
vt 0.852295 0.835035
f 77/103/77 96/131/96 95/130/95
vt 0.855362 0.833392
f 96/131/96 97/132/97 95/130/95
vt 0.386099 0.827393
vt 0.383932 0.822356
vt 0.375541 0.820272
f 32/133/32 34/134/34 1/135/1
vt 0.367920 0.827393
f 1/135/1 3/136/3 32/133/32
vt 0.182977 0.184169
vt 0.179733 0.179926
f 11/69/11 12/137/12 98/138/98
vt 0.164728 0.170877
f 98/138/98 99/139/99 11/69/11
f 99/139/99 60/64/60 11/69/11
vt 0.156222 0.174082
f 99/139/99 79/140/79 60/64/60
vt 0.341841 0.827393
vt 0.342667 0.822047
f 90/141/90 100/142/100 1/41/1
vt 0.334540 0.827393
f 1/41/1 84/143/84 90/141/90
f 1/41/1 63/74/63 84/143/84
f 1/41/1 38/40/38 63/74/63
vt 0.339734 0.818865
f 100/142/100 2/144/2 1/41/1
vt 0.010556 0.527262
vt 0.021915 0.526566
vt 0.014282 0.519436
f 99/145/99 87/146/87 81/147/81
vt 0.018326 0.530612
f 99/145/99 101/148/101 87/146/87
vt 0.010514 0.519670
f 81/147/81 79/149/79 99/145/99
vt 0.083846 0.186768
f 102/150/102 89/117/89 88/116/88
vt 0.838656 0.780518
vt 0.834847 0.776437
vt 0.832764 0.780518
f 88/151/88 103/152/103 102/153/102
vt 0.108733 0.299093
vt 0.121584 0.301165
vt 0.116669 0.296674
f 103/154/103 104/155/104 105/156/105
vt 0.221919 0.057355
vt 0.216998 0.062167
vt 0.219702 0.065674
f 105/157/105 102/158/102 103/159/103
vt 0.121840 0.293327
f 104/155/104 43/160/43 105/156/105
vt 0.126330 0.294222
f 104/155/104 44/161/44 43/160/43
vt 0.129637 0.297575
f 104/155/104 106/162/106 44/161/44
vt 0.132773 0.301579
f 104/155/104 107/163/107 106/162/106
vt 0.130885 0.297967
f 107/163/107 108/164/108 106/162/106
vt 0.137592 0.298755
f 107/163/107 109/165/109 108/164/108
vt 0.106200 0.300556
vt 0.102295 0.302960
vt 0.118014 0.303901
f 88/166/88 87/167/87 110/168/110
f 110/168/110 103/154/103 88/166/88
f 110/168/110 104/155/104 103/154/103
vt 0.848974 0.857788
vt 0.836639 0.856018
f 74/169/74 73/126/73 111/170/111
vt 0.837769 0.860341
f 111/170/111 112/171/112 74/169/74
f 73/126/73 94/125/94 111/170/111
vt 0.839263 0.867217
f 112/171/112 113/172/113 35/37/35
f 35/37/35 74/169/74 112/171/112
vt 0.831599 0.868471
f 112/171/112 114/173/114 113/172/113
vt 0.849665 0.861090
f 35/37/35 75/174/75 74/169/74
f 35/37/35 37/39/37 75/174/75
vt 0.204457 0.064933
vt 0.208092 0.055366
vt 0.200141 0.064485
f 90/175/90 115/176/115 100/177/100
vt 0.209532 0.058161
f 90/175/90 116/178/116 115/176/115
vt 0.213689 0.063854
f 90/175/90 89/179/89 116/178/116
f 90/118/90 86/114/86 89/117/89
f 89/179/89 102/158/102 116/178/116
f 102/158/102 105/157/105 116/178/116
vt 0.108697 0.397072
f 117/180/117 65/78/65 64/77/64
f 117/180/117 69/90/69 65/78/65
vt 0.193953 0.211594
vt 0.179385 0.203960
vt 0.194655 0.214111
f 6/181/6 118/182/118 4/183/4
f 118/182/118 70/85/70 4/183/4
f 118/182/118 68/83/68 70/85/70
vt 0.838421 0.832169
vt 0.824011 0.837236
f 68/184/68 119/185/119 93/124/93
vt 0.823508 0.835433
f 68/184/68 118/186/118 119/185/119
vt 0.709319 0.788330
vt 0.703692 0.784829
vt 0.696045 0.788330
f 93/187/93 76/188/76 68/189/68
vt 0.598389 0.774596
vt 0.604883 0.774871
vt 0.603278 0.778395
f 92/190/92 95/191/95 41/192/41
vt 0.598389 0.780518
f 41/192/41 40/193/40 92/190/92
f 36/38/36 35/37/35 113/172/113
vt 0.840627 0.872082
f 113/172/113 120/194/120 36/38/36
vt 0.849489 0.877015
f 77/195/77 36/38/36 120/194/120
vt 0.842297 0.879366
f 120/194/120 96/196/96 77/195/77
vt 0.181483 0.186768
f 11/69/11 3/63/3 9/197/9
vt 0.008016 0.546619
f 99/145/99 121/198/121 101/148/101
vt 0.004159 0.543036
f 99/145/99 98/199/98 121/198/121
vt 0.037398 0.529467
vt 0.047522 0.567226
vt 0.061156 0.540035
f 110/200/110 122/201/122 123/202/123
vt 0.016503 0.561421
f 110/200/110 124/203/124 122/201/122
f 110/200/110 101/148/101 124/203/124
vt 0.005866 0.573580
f 124/203/124 125/204/125 122/201/122
f 101/148/101 121/198/121 124/203/124
vt 0.062475 0.558718
f 122/201/122 126/205/126 123/202/123
vt 0.041204 0.529236
f 123/202/123 127/206/127 110/200/110
f 110/200/110 87/146/87 101/148/101
vt 0.008216 0.550431
f 121/198/121 128/207/128 124/203/124
vt 0.290402 0.815674
vt 0.279615 0.815010
vt 0.274170 0.815674
f 124/208/124 129/209/129 125/210/125
vt 0.009350 0.569519
vt 0.005379 0.565946
f 129/211/129 130/212/130 125/204/125
vt 0.132833 0.301997
f 131/213/131 107/163/107 104/155/104
vt 0.121661 0.303955
f 104/155/104 127/214/127 131/213/131
f 104/155/104 110/168/110 127/214/127
vt 0.133783 0.292829
vt 0.135416 0.294363
f 132/215/132 108/164/108 133/216/133
f 132/215/132 106/162/106 108/164/108
vt 0.142342 0.303955
vt 0.142259 0.299827
f 109/165/109 134/217/134 135/218/135
f 109/165/109 131/213/131 134/217/134
f 109/165/109 107/163/107 131/213/131
vt 0.125180 0.410880
vt 0.128461 0.418815
f 70/92/70 136/219/136 4/220/4
vt 0.124919 0.402765
f 70/92/70 137/221/137 136/219/136
vt 0.125182 0.418838
f 136/219/136 138/222/138 4/220/4
f 70/92/70 71/91/71 137/221/137
vt 0.819993 0.853767
f 119/185/119 139/223/139 94/125/94
f 94/125/94 93/124/93 119/185/119
vt 0.817183 0.842236
f 119/185/119 140/224/140 139/223/139
vt 0.818079 0.862252
f 139/223/139 141/225/141 94/125/94
vt 0.817339 0.841984
f 119/185/119 142/226/142 140/224/140
f 46/49/46 45/48/45 52/55/52
f 52/55/52 39/42/39 46/49/46
f 45/48/45 53/56/53 52/55/52
vt 0.143941 0.025834
f 45/48/45 143/227/143 53/56/53
vt 0.139465 0.026256
f 143/227/143 19/228/19 53/56/53
vt 0.135966 0.022642
f 19/228/19 18/229/18 53/56/53
f 39/42/39 41/44/41 46/49/46
vt 0.159875 0.022223
f 41/44/41 97/230/97 46/49/46
vt 0.163770 0.022319
f 41/44/41 95/231/95 97/230/97
vt 0.139783 0.029903
f 143/227/143 144/232/144 19/228/19
vt 0.203044 0.055658
f 10/233/10 100/177/100 115/176/115
vt 0.196045 0.065674
f 10/233/10 2/234/2 100/177/100
vt 0.052815 0.528578
vt 0.060904 0.535763
f 131/235/131 123/202/123 134/236/134
f 131/235/131 127/206/127 123/202/123
vt 0.193717 0.530880
vt 0.189480 0.531122
vt 0.192733 0.532932
f 145/237/145 135/238/135 146/239/146
vt 0.194394 0.529446
f 145/237/145 109/240/109 135/238/135
vt 0.081401 0.406668
f 117/180/117 147/241/147 136/219/136
vt 0.084654 0.398654
f 117/180/117 148/242/148 147/241/147
f 136/219/136 137/221/137 117/180/117
vt 0.075548 0.405765
f 52/243/52 147/241/147 148/242/148
f 148/242/148 39/119/39 52/243/52
f 148/242/148 91/120/91 39/119/39
vt 0.077328 0.410205
f 52/243/52 149/244/149 147/241/147
vt 0.067970 0.412951
f 52/243/52 51/245/51 149/244/149
f 111/170/111 114/173/114 112/171/112
vt 0.824498 0.872734
f 111/170/111 150/246/150 114/173/114
vt 0.821663 0.877381
f 150/246/150 151/247/151 114/173/114
f 111/170/111 94/125/94 141/225/141
f 141/225/141 150/246/150 111/170/111
f 135/218/135 134/217/134 50/53/50
f 50/53/50 49/52/49 135/218/135
vt 0.138912 0.296024
f 49/52/49 146/248/146 135/218/135
vt 0.068233 0.571819
vt 0.075268 0.571456
vt 0.076544 0.557990
f 152/249/152 153/250/153 154/251/154
f 154/251/154 56/59/56 126/205/126
f 56/59/56 123/202/123 126/205/126
f 56/59/56 55/58/55 123/202/123
vt 0.069277 0.537282
f 55/58/55 48/252/48 123/202/123
vt 0.064937 0.533916
f 48/252/48 50/253/50 123/202/123
vt 0.076320 0.554170
f 154/251/154 155/254/155 56/59/56
f 50/253/50 134/236/134 123/202/123
f 142/226/142 119/185/119 118/186/118
vt 0.810082 0.831574
f 118/186/118 6/255/6 142/226/142
vt 0.000765 0.547108
vt 0.006952 0.550512
f 13/256/13 130/212/130 20/257/20
vt 0.003764 0.585205
f 13/256/13 156/258/156 130/212/130
f 156/258/156 125/204/125 130/212/130
f 20/257/20 98/199/98 13/256/13
f 20/257/20 121/198/121 98/199/98
vt 0.000732 0.546538
f 98/199/98 12/259/12 13/256/13
f 20/257/20 128/207/128 121/198/121
vt 0.081501 0.414688
vt 0.119911 0.429652
f 136/219/136 157/260/157 158/261/158
f 136/219/136 147/241/147 157/260/157
f 158/261/158 138/222/138 136/219/136
vt 0.124646 0.426493
f 158/261/158 21/262/21 138/222/138
f 147/241/147 149/244/149 157/260/157
f 6/255/6 58/61/58 57/60/57
f 57/60/57 140/224/140 6/255/6
f 140/224/140 142/226/142 6/255/6
vt 0.787864 0.837165
f 6/255/6 5/263/5 58/61/58
vt 0.157240 0.372316
vt 0.134326 0.370450
vt 0.133545 0.378174
f 15/264/15 25/265/25 156/266/156
vt 0.172007 0.378174
f 156/266/156 13/267/13 15/264/15
vt 0.067139 0.420478
vt 0.077025 0.425956
f 157/260/157 159/268/159 160/269/160
f 157/260/157 51/245/51 159/268/159
f 157/260/157 149/244/149 51/245/51
vt 0.805837 0.877023
f 161/270/161 151/247/151 141/225/141
vt 0.804180 0.853445
f 141/225/141 162/271/162 161/270/161
f 141/225/141 139/223/139 162/271/162
vt 0.810416 0.879837
f 161/270/161 163/272/163 151/247/151
f 151/247/151 150/246/150 141/225/141
f 162/271/162 140/224/140 57/60/57
f 162/271/162 139/223/139 140/224/140
f 57/60/57 59/62/59 162/271/162
vt 0.787545 0.849503
f 59/62/59 164/273/164 162/271/162
vt 0.785889 0.843370
f 59/62/59 165/274/165 164/273/164
vt 0.975598 0.846411
vt 0.979937 0.841381
vt 0.968078 0.846206
f 166/275/166 124/276/124 128/277/128
vt 0.971347 0.848372
f 128/277/128 144/278/144 166/275/166
vt 0.979473 0.845885
f 166/275/166 167/279/167 124/276/124
vt 0.265787 0.768174
vt 0.264208 0.767831
vt 0.266519 0.772705
f 128/280/128 20/281/20 144/282/144
vt 0.262451 0.772705
f 20/281/20 19/283/19 144/282/144
vt 0.680420 0.811768
vt 0.695813 0.811768
vt 0.688742 0.805973
f 20/284/20 130/285/130 18/286/18
vt 0.696177 0.808505
f 130/285/130 168/287/168 18/286/18
vt 0.971270 0.850763
vt 0.975414 0.846673
f 166/275/166 169/288/169 170/289/170
f 166/275/166 144/278/144 169/288/169
vt 0.967238 0.853354
f 144/278/144 143/290/143 169/288/169
f 4/220/4 138/222/138 21/262/21
vt 0.080141 0.431350
vt 0.117905 0.443170
f 158/261/158 171/291/171 172/292/172
f 158/261/158 157/260/157 171/291/171
f 157/260/157 160/269/160 171/291/171
vt 0.117708 0.016873
vt 0.121566 0.009644
f 53/56/53 173/293/173 174/294/174
vt 0.132483 0.010621
f 174/294/174 159/295/159 53/56/53
f 159/295/159 51/54/51 53/56/53
vt 0.117534 0.013349
f 173/293/173 175/296/175 174/294/174
vt 0.065803 0.571937
vt 0.058327 0.576191
f 176/297/176 126/205/126 177/298/177
vt 0.176449 0.327393
vt 0.168806 0.326687
vt 0.160889 0.327393
f 178/299/178 179/300/179 180/301/180
vt 0.069348 0.431941
vt 0.074969 0.436716
f 174/302/174 181/303/181 171/291/171
f 171/291/171 160/269/160 174/302/174
f 160/269/160 159/268/159 174/302/174
vt 0.792401 0.869296
f 182/304/182 162/271/162 164/273/164
f 182/304/182 161/270/161 162/271/162
vt 0.128294 0.024860
vt 0.127876 0.025507
f 173/293/173 168/305/168 183/306/183
f 173/293/173 53/56/53 168/305/168
f 53/56/53 18/229/18 168/305/168
vt 0.292381 0.807992
vt 0.289485 0.808777
vt 0.288309 0.811866
f 170/307/170 184/308/184 167/309/167
vt 0.290437 0.810720
f 167/309/167 166/310/166 170/307/170
vt 0.283995 0.808338
f 184/308/184 185/311/185 167/309/167
vt 0.284407 0.812177
f 185/311/185 186/312/186 167/309/167
f 21/262/21 158/261/158 172/292/172
vt 0.122762 0.439340
f 172/292/172 187/313/187 21/262/21
f 186/312/186 129/209/129 124/208/124
f 124/208/124 167/309/167 186/312/186
vt 0.280989 0.811805
f 186/312/186 188/314/188 129/209/129
vt 0.651482 0.799131
vt 0.661447 0.803955
vt 0.662175 0.794996
f 59/315/59 5/316/5 165/317/165
vt 0.649170 0.803955
f 59/315/59 58/318/58 5/316/5
vt 0.790427 0.878682
vt 0.803180 0.882080
f 161/270/161 189/319/189 190/320/190
f 161/270/161 182/304/182 189/319/189
f 190/320/190 163/272/163 161/270/161
vt 0.849244 0.800549
vt 0.844420 0.798366
vt 0.843532 0.801057
f 130/321/130 129/322/129 188/323/188
vt 0.846963 0.803514
f 188/323/188 183/324/183 130/321/130
vt 0.840701 0.803955
f 188/323/188 191/325/191 183/324/183
vt 0.839125 0.800174
f 188/323/188 192/326/192 191/325/191
vt 0.847607 0.803955
f 183/324/183 168/327/168 130/321/130
vt 0.114014 0.020276
f 175/296/175 173/293/173 193/328/193
vt 0.121438 0.024477
f 173/293/173 194/329/194 193/328/193
vt 0.336670 0.803955
vt 0.350784 0.803955
vt 0.343342 0.799461
f 173/330/173 183/331/183 194/332/194
vt 0.349190 0.798651
f 183/331/183 191/333/191 194/332/194
vt 0.282353 0.811521
vt 0.283877 0.810432
vt 0.280383 0.810317
f 192/334/192 195/335/195 196/336/196
vt 0.836670 0.801349
f 196/337/196 191/325/191 192/326/192
f 185/311/185 195/335/195 192/334/192
f 192/334/192 186/312/186 185/311/185
vt 0.842911 0.799780
f 192/326/192 188/323/188 186/338/186
vt 0.035054 0.585205
f 122/201/122 125/204/125 197/339/197
vt 0.099023 0.437260
vt 0.084612 0.448486
f 198/340/198 171/291/171 199/341/199
vt 0.078351 0.440734
f 171/291/171 200/342/200 199/341/199
f 171/291/171 181/303/181 200/342/200
vt 0.114014 0.026555
vt 0.117677 0.030518
f 201/343/201 194/329/194 202/344/202
f 201/343/201 193/328/193 194/329/194
vt 0.345930 0.796432
vt 0.343280 0.791761
f 194/332/194 203/345/203 202/346/202
vt 0.178641 0.270490
vt 0.178108 0.271823
vt 0.190220 0.272705
f 204/347/204 205/348/205 206/349/206
vt 0.172607 0.272705
f 205/348/205 204/347/204 207/350/207
vt 0.164652 0.112549
vt 0.159717 0.111612
vt 0.156982 0.112549
f 208/351/208 209/352/209 210/353/210
f 64/77/64 91/120/91 117/180/117
f 91/120/91 148/242/148 117/180/117
f 137/221/137 71/91/71 117/180/117
f 71/91/71 69/90/69 117/180/117
vt 0.044570 0.584631
f 122/201/122 197/339/197 211/354/211
vt 0.056725 0.578204
f 122/201/122 211/354/211 212/355/212
f 126/205/126 152/249/152 154/251/154
f 122/201/122 212/355/212 177/298/177
f 177/298/177 126/205/126 122/201/122
f 126/205/126 176/297/176 152/249/152
vt 0.124688 0.448486
f 21/262/21 187/313/187 22/356/22
vt 0.358241 0.780518
vt 0.361759 0.776443
vt 0.356201 0.776299
f 213/357/213 106/358/106 132/359/132
vt 0.989014 0.780518
vt 0.994810 0.780518
vt 0.990076 0.775692
f 133/360/133 108/361/108 109/362/109
vt 0.957462 0.870361
vt 0.969433 0.868526
vt 0.974065 0.860158
f 114/363/114 151/364/151 214/365/214
vt 0.205762 0.550275
vt 0.213001 0.553043
vt 0.211046 0.547994
f 215/366/215 216/367/216 217/368/217
vt 0.071851 0.546773
f 155/254/155 218/369/218 56/59/56
vt 0.348935 0.793848
f 203/345/203 196/370/196 202/346/202
vt 0.215213 0.531934
vt 0.212717 0.544316
f 105/371/105 42/45/42 219/372/219
vt 0.222830 0.540384
f 219/372/219 116/373/116 105/371/105
f 105/371/105 43/46/43 42/45/42
vt 0.221383 0.552878
vt 0.221276 0.543893
f 217/368/217 7/374/7 115/375/115
vt 0.216542 0.554531
f 217/368/217 220/376/220 7/374/7
f 115/375/115 219/372/219 217/368/217
vt 0.224408 0.545976
f 7/374/7 10/377/10 115/375/115
f 115/375/115 116/373/116 219/372/219
f 217/368/217 216/367/216 220/376/220
vt 0.188542 0.551272
f 42/45/42 221/378/221 215/366/215
vt 0.187685 0.534620
f 42/45/42 222/379/222 221/378/221
vt 0.178086 0.546568
f 222/379/222 223/380/223 221/378/221
f 215/366/215 219/372/219 42/45/42
f 215/366/215 217/368/217 219/372/219
vt 0.200450 0.534359
f 213/381/213 222/379/222 42/45/42
f 213/381/213 146/239/146 222/379/222
f 213/381/213 145/237/145 146/239/146
f 42/45/42 44/47/44 213/381/213
vt 0.189238 0.531378
f 146/239/146 49/382/49 222/379/222
vt 0.183147 0.535467
f 49/382/49 224/383/224 222/379/222
vt 0.180727 0.531718
f 49/382/49 48/384/48 224/383/224
vt 0.179723 0.533811
f 48/384/48 225/385/225 224/383/224
vt 0.362778 0.780518
f 44/386/44 106/358/106 213/357/213
vt 0.198363 0.529505
vt 0.196793 0.528535
f 213/381/213 132/387/132 133/388/133
f 133/388/133 145/237/145 213/381/213
vt 0.989161 0.775888
f 133/360/133 109/362/109 145/389/145
vt 0.970438 0.857924
vt 0.963186 0.854085
f 114/363/114 226/390/226 47/391/47
f 114/363/114 214/365/214 226/390/226
vt 0.950530 0.862810
f 47/391/47 120/392/120 114/363/114
vt 0.949951 0.868284
f 120/392/120 113/393/113 114/363/114
f 226/390/226 169/288/169 47/391/47
vt 0.952504 0.857252
f 46/394/46 120/392/120 47/391/47
vt 0.841598 0.882080
f 46/395/46 96/196/96 120/194/120
vt 0.855110 0.832334
f 46/396/46 97/132/97 96/131/96
vt 0.176400 0.541140
f 223/380/223 224/383/224 227/397/227
f 223/380/223 222/379/222 224/383/224
vt 0.173070 0.548471
f 227/397/227 228/398/228 223/380/223
vt 0.175022 0.540189
f 227/397/227 218/399/218 228/398/228
vt 0.168294 0.545465
f 218/399/218 155/400/155 228/398/228
vt 0.169757 0.546662
f 155/400/155 229/401/229 228/398/228
vt 0.904773 0.796143
vt 0.910054 0.796143
vt 0.907522 0.791421
f 55/402/55 54/403/54 230/404/230
vt 0.900692 0.793177
f 230/404/230 225/405/225 55/402/55
vt 0.899170 0.795046
f 225/405/225 48/406/48 55/402/55
vt 0.224290 0.574800
vt 0.207827 0.583860
f 8/407/8 220/376/220 231/408/231
f 8/407/8 7/374/7 220/376/220
vt 0.172627 0.534986
f 227/397/227 225/385/225 230/409/230
f 227/397/227 224/383/224 225/385/225
vt 0.140018 0.029443
f 143/227/143 47/50/47 169/410/169
f 143/227/143 45/48/45 47/50/47
vt 0.191465 0.573184
vt 0.205623 0.579142
f 215/366/215 232/411/232 233/412/233
f 233/412/233 220/376/220 215/366/215
f 215/366/215 221/378/221 232/411/232
f 233/412/233 231/408/231 220/376/220
vt 0.187909 0.571715
f 221/378/221 234/413/234 232/411/232
f 220/376/220 216/367/216 215/366/215
vt 0.171849 0.538116
f 218/399/218 230/409/230 54/414/54
f 218/399/218 227/397/227 230/409/230
vt 0.173868 0.543150
f 54/414/54 56/415/56 218/399/218
vt 0.988474 0.870242
vt 0.993413 0.857831
vt 0.981772 0.859645
f 190/416/190 235/417/235 236/418/236
vt 0.980798 0.870361
f 236/418/236 163/419/163 190/416/190
f 236/418/236 214/365/214 163/419/163
f 214/365/214 151/364/151 163/419/163
f 236/418/236 226/390/226 214/365/214
vt 0.979219 0.847063
f 226/390/226 236/418/236 184/420/184
f 184/420/184 169/288/169 226/390/226
f 184/420/184 170/289/170 169/288/169
vt 0.182856 0.573682
f 237/421/237 221/378/221 228/398/228
f 237/421/237 234/413/234 221/378/221
f 221/378/221 223/380/223 228/398/228
vt 0.160703 0.562770
f 228/398/228 229/401/229 238/422/238
vt 0.159233 0.579849
f 238/422/238 239/423/239 228/398/228
vt 0.157164 0.577741
f 238/422/238 240/424/240 239/423/239
vt 0.156982 0.585205
f 240/424/240 241/425/241 239/423/239
vt 0.157756 0.583246
f 241/425/241 242/426/242 239/423/239
vt 0.166776 0.548927
f 229/401/229 155/400/155 154/427/154
f 154/427/154 238/422/238 229/401/229
vt 0.989426 0.849618
f 236/418/236 235/417/235 196/428/196
vt 0.982789 0.850559
f 196/428/196 185/429/185 236/418/236
vt 0.993914 0.853377
f 235/417/235 202/430/202 196/428/196
f 185/429/185 184/420/184 236/418/236
vt 0.986845 0.847628
f 196/428/196 195/431/195 185/429/185
f 191/333/191 196/370/196 203/345/203
f 203/345/203 194/332/194 191/333/191
vt 0.997495 0.856734
vt 0.996525 0.865852
f 201/432/201 235/417/235 243/433/243
f 201/432/201 202/430/202 235/417/235
vt 0.219707 0.585205
vt 0.222760 0.578274
f 231/408/231 26/434/26 17/435/17
f 231/408/231 17/435/17 8/407/8
vt 0.166152 0.564160
f 228/398/228 244/436/244 237/421/237
vt 0.590576 0.826989
vt 0.604794 0.829985
vt 0.590576 0.831299
f 245/437/245 190/438/190 189/439/189
vt 0.239113 0.370774
vt 0.234527 0.370452
vt 0.235383 0.366908
f 246/440/246 247/441/247 248/442/248
vt 0.678894 0.818071
vt 0.676514 0.823486
vt 0.681019 0.823486
f 249/443/249 250/444/250 251/445/251
vt 0.942736 0.835485
vt 0.938232 0.839111
vt 0.945997 0.839111
f 252/446/252 253/447/253 254/448/254
vt 0.670436 0.819328
vt 0.668701 0.823486
vt 0.674304 0.823486
f 251/449/251 250/450/250 255/451/255
vt 0.595807 0.970147
vt 0.602443 0.966374
vt 0.601528 0.964381
f 256/452/256 257/453/257 258/454/258
vt 0.287591 0.655645
vt 0.284049 0.660053
vt 0.290296 0.657971
f 259/455/259 260/456/260 261/457/261
vt 0.257701 0.057357
vt 0.253716 0.057861
vt 0.254042 0.053557
f 262/458/262 263/459/263 264/460/264
vt 0.224087 0.520921
vt 0.237327 0.523812
vt 0.223887 0.523391
f 176/461/176 265/462/265 152/463/152
vt 0.234910 0.458531
vt 0.246490 0.461325
vt 0.223389 0.461026
f 156/464/156 266/465/266 125/466/125
vt 0.242552 0.457664
f 156/464/156 267/467/267 266/465/266
vt 0.564242 0.975842
vt 0.560601 0.988795
vt 0.564759 0.986399
f 187/468/187 268/469/268 22/470/22
vt 0.963612 0.861736
vt 0.957131 0.855940
vt 0.966076 0.866455
f 268/471/268 269/472/269 22/473/22
vt 0.230035 0.511633
vt 0.241198 0.520481
f 212/474/212 270/475/270 265/462/265
vt 0.236260 0.499216
vt 0.253647 0.495647
f 211/476/211 178/477/178 270/475/270
vt 0.253161 0.511154
f 178/477/178 180/478/180 270/475/270
vt 0.289658 0.460205
vt 0.285785 0.456364
vt 0.281982 0.460205
f 178/479/178 271/480/271 179/481/179
vt 0.668192 0.997606
vt 0.657437 0.983538
vt 0.648188 0.999268
f 164/482/164 272/483/272 182/484/182
vt 0.670204 0.986127
f 164/482/164 273/485/273 272/483/272
vt 0.558855 0.979444
vt 0.557376 0.984365
f 172/486/172 274/487/274 268/469/268
vt 0.223389 0.366562
vt 0.230771 0.374268
f 26/488/26 248/442/248 23/489/23
f 248/442/248 247/441/247 23/489/23
vt 0.681349 0.999268
vt 0.680787 0.995496
vt 0.674702 0.996793
f 5/490/5 27/491/27 165/492/165
vt 0.646417 0.995937
vt 0.639112 0.995948
f 182/484/182 275/493/275 189/494/189
vt 0.642479 0.992465
f 275/493/275 276/495/276 189/494/189
vt 0.988958 0.926778
vt 0.986476 0.916210
vt 0.980896 0.928110
f 193/496/193 277/497/277 175/498/175
vt 0.988952 0.919541
f 193/496/193 278/499/278 277/497/277
vt 0.990119 0.924001
f 193/496/193 279/500/279 278/499/278
vt 0.236412 0.489708
vt 0.253952 0.476630
f 197/501/197 280/502/280 178/477/178
f 125/466/125 266/465/266 280/502/280
vt 0.257453 0.492002
f 280/502/280 281/503/281 178/477/178
vt 0.254024 0.465341
f 266/465/266 208/504/208 280/502/280
vt 0.257770 0.480453
f 280/502/280 282/505/282 281/503/281
vt 0.525078 0.980801
f 172/486/172 199/506/199 274/487/274
vt 0.520054 0.971228
vt 0.518839 0.975016
f 200/507/200 283/508/283 199/506/199
vt 0.520349 0.983484
f 283/508/283 284/509/284 199/506/199
vt 0.974752 0.916911
f 175/498/175 277/497/277 200/510/200
vt 0.973389 0.921768
f 200/510/200 181/511/181 175/498/175
vt 0.975543 0.928955
f 181/511/181 174/512/174 175/498/175
f 165/492/165 273/485/273 164/482/164
vt 0.680226 0.991725
f 165/492/165 22/513/22 273/485/273
f 165/492/165 27/491/27 22/513/22
vt 0.987306 0.907928
vt 0.977742 0.914450
f 277/497/277 253/514/253 283/515/283
f 283/515/283 200/510/200 277/497/277
vt 0.993814 0.911964
f 277/497/277 254/516/254 253/514/253
f 277/497/277 278/499/278 254/516/254
vt 0.647681 0.988677
vt 0.650301 0.991736
f 272/483/272 250/517/250 249/518/249
f 249/518/249 182/484/182 272/483/272
f 249/518/249 275/493/275 182/484/182
vt 0.695854 0.845588
vt 0.690452 0.845950
vt 0.688232 0.850830
f 23/519/23 247/520/247 246/521/246
vt 0.699139 0.850830
f 246/521/246 24/522/24 23/519/23
vt 0.363670 0.889893
vt 0.357198 0.881075
vt 0.349354 0.886307
f 25/523/25 285/524/285 286/525/286
vt 0.360841 0.881298
f 25/523/25 246/526/246 285/524/285
vt 0.367347 0.889502
f 25/523/25 24/527/24 246/526/246
vt 0.361428 0.877690
f 246/526/246 287/528/287 285/524/285
vt 0.357745 0.877417
f 287/528/287 288/529/288 285/524/285
vt 0.365010 0.877830
f 246/526/246 248/530/248 287/528/287
vt 0.531719 0.989567
vt 0.554852 0.995171
f 274/487/274 289/531/289 269/532/269
f 274/487/274 199/506/199 289/531/289
f 269/532/269 268/469/268 274/487/274
vt 0.951728 0.866455
vt 0.949951 0.857963
f 273/533/273 269/472/269 290/534/290
f 273/533/273 22/473/22 269/472/269
vt 0.513768 0.986080
vt 0.519007 0.990517
f 253/535/253 291/536/291 284/509/284
vt 0.513171 0.989775
f 253/535/253 292/537/292 291/536/291
f 284/509/284 283/508/283 253/535/253
vt 0.508545 0.985450
f 253/535/253 252/538/252 292/537/292
vt 0.645544 0.988408
vt 0.641903 0.980811
vt 0.641664 0.988702
f 251/539/251 293/540/293 294/541/294
vt 0.645247 0.980691
f 251/539/251 295/542/295 293/540/293
vt 0.649297 0.984248
f 251/539/251 255/543/255 295/542/295
f 294/541/294 276/495/276 251/539/251
f 276/495/276 275/493/275 251/539/251
f 275/493/275 249/518/249 251/539/251
vt 0.781689 0.881961
vt 0.783336 0.878904
vt 0.790069 0.875239
f 286/544/286 296/545/296 267/546/267
vt 0.797180 0.882718
f 267/546/267 25/547/25 286/544/286
vt 0.797318 0.874920
f 267/546/267 156/548/156 25/547/25
vt 0.526550 0.992469
f 199/506/199 284/509/284 297/549/297
f 297/549/297 289/531/289 199/506/199
f 284/509/284 291/536/291 297/549/297
vt 0.244055 0.362999
vt 0.238410 0.362834
vt 0.245904 0.359039
f 298/550/298 299/551/299 300/552/300
vt 0.242496 0.364551
f 298/550/298 301/553/301 299/551/299
vt 0.330964 0.915959
vt 0.335869 0.923795
vt 0.335414 0.917986
f 270/554/270 302/555/302 265/556/265
vt 0.327295 0.925279
f 270/554/270 303/557/303 302/555/302
vt 0.647709 0.976039
f 304/558/304 255/543/255 272/483/272
vt 0.668309 0.978694
f 272/483/272 290/559/290 304/558/304
f 272/483/272 273/485/273 290/559/290
f 304/558/304 295/542/295 255/543/255
f 255/543/255 250/517/250 272/483/272
vt 0.647540 0.976043
f 304/558/304 305/560/305 295/542/295
vt 0.636662 0.981548
vt 0.637225 0.985272
f 293/540/293 306/561/306 307/562/307
f 307/562/307 294/541/294 293/540/293
vt 0.635532 0.989726
f 307/562/307 308/563/308 294/541/294
vt 0.782447 0.879028
vt 0.777422 0.870990
vt 0.785688 0.871930
f 309/564/309 208/565/208 266/566/266
vt 0.774170 0.876602
f 309/564/309 310/567/310 208/565/208
f 266/566/266 296/545/296 309/564/309
f 266/566/266 267/546/267 296/545/296
vt 0.289158 0.046143
vt 0.286159 0.043351
vt 0.281982 0.046143
f 310/568/310 209/569/209 208/570/208
vt 0.349015 0.879364
vt 0.346250 0.878395
vt 0.344482 0.886744
f 311/571/311 312/572/312 313/573/313
f 313/573/313 286/525/286 311/571/311
f 286/525/286 285/524/285 311/571/311
vt 0.349856 0.889893
f 313/573/313 309/574/309 286/525/286
f 309/564/309 296/545/296 286/544/286
vt 0.356338 0.873014
vt 0.345807 0.875326
f 311/571/311 298/575/298 314/576/314
f 311/571/311 285/524/285 298/575/298
f 285/524/285 288/529/288 298/575/298
vt 0.242927 0.366977
f 288/577/288 301/553/301 298/550/298
vt 0.530398 0.993409
f 289/531/289 297/549/297 315/578/315
f 315/578/315 269/532/269 289/531/289
vt 0.551941 0.999268
vt 0.531051 0.999268
f 290/579/290 315/578/315 304/580/304
f 290/579/290 269/532/269 315/578/315
vt 0.375470 0.886459
vt 0.387988 0.888871
vt 0.372851 0.876885
f 297/581/297 316/582/316 305/583/305
vt 0.382464 0.889893
f 297/581/297 291/584/291 316/582/316
vt 0.371826 0.884928
f 305/583/305 315/585/315 297/581/297
vt 0.647945 0.978855
f 305/560/305 304/558/304 315/586/315
vt 0.513911 0.991095
f 291/536/291 292/537/292 316/587/316
vt 0.388859 0.889643
vt 0.394947 0.885046
vt 0.392686 0.882792
f 292/588/292 254/589/254 317/590/317
vt 0.394967 0.889893
f 292/588/292 252/591/252 254/589/254
f 317/590/317 316/582/316 292/588/292
vt 0.630422 0.985550
f 318/592/318 307/562/307 306/561/306
vt 0.627454 0.979853
f 306/561/306 317/593/317 318/592/318
vt 0.625732 0.985437
f 317/593/317 254/594/254 318/592/318
vt 0.883101 0.944826
vt 0.883064 0.943200
vt 0.875414 0.942978
f 312/595/312 257/596/257 256/597/256
vt 0.871573 0.947258
f 256/597/256 319/598/319 312/595/312
vt 0.885083 0.940925
f 312/595/312 314/599/314 257/596/257
vt 0.885649 0.944953
f 312/595/312 311/600/311 314/599/314
vt 0.384824 0.874558
f 316/582/316 317/590/317 306/601/306
f 306/601/306 305/583/305 316/582/316
f 306/561/306 293/540/293 305/560/305
vt 0.289730 0.280518
vt 0.287785 0.277222
vt 0.281982 0.280518
f 293/602/293 295/603/295 305/604/305
vt 0.250733 0.096924
vt 0.251576 0.088696
vt 0.257653 0.087794
f 206/605/206 320/606/320 204/607/204
vt 0.253731 0.061486
vt 0.254916 0.084130
f 313/608/313 204/607/204 321/609/321
vt 0.250733 0.065398
f 321/609/321 322/610/322 313/608/313
vt 0.250928 0.082171
f 321/609/321 323/611/323 322/610/322
f 204/607/204 320/606/320 321/609/321
vt 0.886857 0.952393
f 313/612/313 312/595/312 319/598/319
vt 0.860107 0.952393
f 319/598/319 204/613/204 313/612/313
vt 0.863923 0.947290
f 319/598/319 207/614/207 204/613/204
vt 0.778144 0.886229
vt 0.774170 0.889893
f 313/615/313 322/616/322 310/567/310
f 310/567/310 309/564/309 313/615/313
vt 0.578404 0.970344
vt 0.583670 0.971924
vt 0.577824 0.969112
f 205/617/205 207/618/207 324/619/324
vt 0.251492 0.339838
vt 0.249191 0.339674
vt 0.249279 0.335860
f 325/620/325 326/621/326 327/622/327
vt 0.251580 0.336024
f 327/622/327 328/623/328 325/620/325
vt 0.695511 0.871960
vt 0.684758 0.871433
vt 0.689287 0.875323
f 329/624/329 180/625/180 330/626/330
vt 0.693898 0.878174
f 330/626/330 331/627/331 329/624/329
vt 0.567139 0.965313
vt 0.575733 0.965024
f 206/628/206 324/619/324 320/629/320
f 206/628/206 205/617/205 324/619/324
vt 0.581173 0.967250
f 324/619/324 321/630/321 320/629/320
vt 0.594446 0.959331
f 332/631/332 256/452/256 258/454/258
vt 0.590425 0.968363
f 332/631/332 319/632/319 256/452/256
vt 0.581638 0.962107
f 332/631/332 323/633/323 319/632/319
f 323/633/323 321/630/321 319/632/319
f 321/630/321 207/618/207 319/632/319
f 321/630/321 324/619/324 207/618/207
vt 0.605283 0.967334
vt 0.604679 0.961783
f 258/454/258 314/634/314 333/635/333
f 258/454/258 257/453/257 314/634/314
f 333/635/333 332/631/332 258/454/258
vt 0.611445 0.958305
vt 0.615277 0.965585
f 210/636/210 314/634/314 334/637/334
f 210/636/210 333/635/333 314/634/314
vt 0.609510 0.971157
f 314/634/314 335/638/335 334/637/334
vt 0.617045 0.956893
vt 0.623485 0.965912
f 208/639/208 334/637/334 280/640/280
f 208/639/208 210/636/210 334/637/334
vt 0.617067 0.968755
f 334/637/334 336/641/336 280/640/280
vt 0.618856 0.971924
f 336/641/336 337/642/337 280/640/280
vt 0.258690 0.038635
vt 0.260117 0.046618
vt 0.250732 0.038535
f 337/643/337 338/644/338 282/645/282
vt 0.290106 0.343018
vt 0.286499 0.340037
vt 0.281982 0.343018
f 337/646/337 339/647/339 338/648/338
vt 0.251850 0.034098
f 282/645/282 280/649/280 337/643/337
vt 0.251433 0.049857
f 338/644/338 281/650/281 282/645/282
vt 0.257813 0.054003
f 338/644/338 340/651/340 281/650/281
f 340/651/340 264/460/264 281/650/281
f 340/651/340 262/458/262 264/460/264
vt 0.251022 0.057365
vt 0.250732 0.052845
f 264/460/264 271/652/271 178/653/178
vt 0.614014 0.823486
vt 0.619463 0.823486
vt 0.616325 0.819784
f 178/654/178 281/655/281 264/656/264
f 264/460/264 263/459/263 271/652/271
vt 0.675047 0.878174
vt 0.677020 0.870928
vt 0.672607 0.873238
f 262/657/262 179/658/179 271/659/271
vt 0.312340 0.831299
vt 0.310218 0.828785
vt 0.305420 0.831299
f 271/660/271 263/661/263 262/662/262
f 262/657/262 180/625/180 179/658/179
f 262/657/262 330/626/330 180/625/180
vt 0.610823 0.954809
f 333/635/333 210/636/210 310/663/310
vt 0.597831 0.957601
f 310/663/310 322/664/322 333/635/333
f 322/664/322 332/631/332 333/635/333
vt 0.613906 0.957315
f 210/636/210 209/665/209 310/663/310
f 322/664/322 323/633/323 332/631/332
vt 0.865664 0.834965
vt 0.860107 0.839111
vt 0.871888 0.839111
f 260/666/260 259/667/259 341/668/341
vt 0.869560 0.836139
f 341/668/341 342/669/342 260/666/260
vt 0.870341 0.836252
f 341/668/341 343/670/343 342/669/342
vt 0.248822 0.520718
vt 0.245011 0.520600
f 180/478/180 329/671/329 344/672/344
f 180/478/180 344/672/344 270/475/270
f 197/501/197 125/466/125 280/502/280
vt 0.541023 0.970393
f 172/486/172 198/673/198 199/506/199
f 211/476/211 197/501/197 178/477/178
vt 0.236926 0.528752
f 152/463/152 265/462/265 302/674/302
f 212/474/212 211/476/211 270/475/270
vt 0.228099 0.513299
f 177/675/177 212/474/212 265/462/265
vt 0.223389 0.530518
f 152/463/152 302/674/302 153/676/153
f 265/462/265 176/461/176 177/675/177
f 172/486/172 268/469/268 187/468/187
vt 0.227655 0.355253
vt 0.223495 0.351216
vt 0.231355 0.351403
f 231/677/231 233/678/233 345/679/345
vt 0.227251 0.347403
f 345/679/345 233/678/233 346/680/346
vt 0.287656 0.490976
vt 0.281982 0.499268
vt 0.289013 0.499268
f 237/681/237 347/682/347 348/683/348
vt 0.287648 0.554103
vt 0.281982 0.554419
vt 0.283550 0.557861
f 349/684/349 308/685/308 350/686/350
vt 0.284822 0.549967
f 294/687/294 308/685/308 349/684/349
vt 0.255285 0.352066
vt 0.258704 0.340439
vt 0.259096 0.348268
f 339/688/339 342/689/342 338/690/338
vt 0.248167 0.343944
f 339/688/339 351/691/351 342/689/342
vt 0.246598 0.351590
f 339/688/339 352/692/352 351/691/351
vt 0.250797 0.336327
f 351/691/351 353/693/353 342/689/342
vt 0.249690 0.359210
f 339/688/339 354/694/354 352/692/352
f 354/694/354 300/552/300 352/692/352
vt 0.974449 0.834862
vt 0.974856 0.835539
vt 0.981277 0.839111
f 342/695/342 343/696/343 338/697/338
vt 0.246431 0.343884
f 352/692/352 355/698/355 351/691/351
vt 0.257927 0.321714
vt 0.255311 0.331718
vt 0.250959 0.328764
f 330/699/330 356/700/356 357/701/357
vt 0.891357 0.850830
vt 0.904542 0.850830
vt 0.901923 0.846080
f 357/702/357 331/703/331 330/704/330
vt 0.262451 0.343018
vt 0.277760 0.343018
vt 0.272784 0.338835
f 330/705/330 262/706/262 356/707/356
vt 0.250727 0.332559
f 356/700/356 358/708/358 357/701/357
vt 0.223389 0.335801
f 232/709/232 346/680/346 233/678/233
vt 0.229557 0.339740
f 232/709/232 359/710/359 346/680/346
vt 0.918701 0.889893
vt 0.926343 0.884218
vt 0.922516 0.876796
f 190/711/190 243/712/243 235/713/235
vt 0.225633 0.309029
vt 0.242184 0.309034
vt 0.227029 0.328101
f 244/714/244 239/715/239 237/716/237
vt 0.347227 0.928955
vt 0.331854 0.927551
f 238/717/238 302/555/302 240/718/240
vt 0.361982 0.928695
f 238/717/238 154/719/154 302/555/302
vt 0.933105 0.889893
vt 0.929733 0.881381
f 245/720/245 360/721/360 243/712/243
vt 0.937937 0.882700
f 245/720/245 361/722/361 360/721/360
f 243/712/243 190/711/190 245/720/245
vt 0.938408 0.887483
f 245/720/245 350/723/350 361/722/361
vt 0.289422 0.557861
f 245/724/245 349/684/349 350/686/350
vt 0.242278 0.312912
vt 0.246532 0.332344
f 237/716/237 362/725/362 363/726/363
f 237/716/237 239/715/239 362/725/362
vt 0.231068 0.337279
f 363/726/363 347/727/347 237/716/237
vt 0.246346 0.339965
f 363/726/363 364/728/364 347/727/347
f 364/728/364 345/679/345 347/727/347
vt 0.235311 0.363038
f 352/692/352 365/729/365 345/679/345
f 345/679/345 346/680/346 347/727/347
f 365/729/365 231/677/231 345/679/345
f 365/729/365 26/488/26 231/677/231
f 365/729/365 248/442/248 26/488/26
f 346/680/346 359/710/359 347/727/347
vt 0.246014 0.309088
f 239/715/239 242/730/242 362/725/362
vt 0.239201 0.366958
f 365/729/365 287/731/287 248/442/248
vt 0.226058 0.335448
f 359/710/359 348/732/348 347/727/347
vt 0.355845 0.835461
vt 0.349840 0.833448
vt 0.351542 0.839111
f 359/733/359 232/734/232 348/735/348
vt 0.346372 0.835107
f 348/735/348 232/734/232 234/736/234
vt 0.344482 0.839111
f 234/736/234 237/737/237 348/735/348
vt 0.925604 0.875073
f 201/738/201 243/712/243 360/721/360
vt 0.991492 0.921878
vt 0.990749 0.922493
vt 0.994235 0.928955
f 360/739/360 366/740/366 201/741/201
vt 0.995879 0.914578
f 278/499/278 361/742/361 254/516/254
f 278/499/278 360/739/360 361/742/361
vt 0.994736 0.909884
f 361/742/361 318/743/318 254/516/254
f 278/499/278 366/740/366 360/739/360
f 278/499/278 279/500/279 366/740/366
vt 0.288134 0.549712
f 276/744/276 294/687/294 349/684/349
vt 0.291114 0.554181
f 349/684/349 189/745/189 276/744/276
f 349/684/349 245/724/245 189/745/189
vt 0.284459 0.311768
vt 0.287321 0.307161
vt 0.281982 0.307958
f 299/746/299 287/747/287 365/748/365
vt 0.288866 0.311768
f 299/746/299 301/749/301 287/747/287
vt 0.290516 0.309157
f 301/749/301 288/750/288 287/747/287
f 300/552/300 365/729/365 352/692/352
f 300/552/300 299/551/299 365/729/365
vt 0.324496 0.928955
f 303/557/303 241/751/241 240/718/240
f 240/718/240 302/555/302 303/557/303
vt 0.633743 0.989343
f 350/752/350 308/563/308 307/562/307
f 307/562/307 318/592/318 350/752/350
vt 0.628917 0.989944
f 318/592/318 361/753/361 350/752/350
vt 0.253200 0.366709
vt 0.250230 0.359269
vt 0.253745 0.361273
f 314/754/314 367/755/367 335/756/335
f 314/754/314 298/550/298 367/755/367
vt 0.501562 0.850250
vt 0.504444 0.846534
vt 0.500732 0.847478
f 367/757/367 368/758/368 335/759/335
f 300/552/300 354/694/354 367/755/367
f 367/755/367 298/550/298 300/552/300
vt 0.251009 0.321091
f 363/726/363 369/760/369 357/701/357
f 363/726/363 362/725/362 369/760/369
vt 0.257499 0.317591
f 369/760/369 331/761/331 357/701/357
vt 0.321297 0.918824
vt 0.322821 0.918667
f 369/762/369 303/557/303 370/763/370
vt 0.247466 0.310553
f 369/760/369 362/725/362 303/764/303
f 362/725/362 242/730/242 303/764/303
vt 0.249084 0.309308
f 242/730/242 241/765/241 303/764/303
vt 0.327282 0.916032
f 270/554/270 344/766/344 370/763/370
f 370/763/370 303/557/303 270/554/270
vt 0.511350 0.850830
f 339/767/339 368/758/368 367/757/367
vt 0.501006 0.850830
f 367/757/367 354/768/354 339/767/339
vt 0.510343 0.846261
f 339/767/339 337/769/337 368/758/368
vt 0.507556 0.843701
f 337/769/337 336/770/336 368/758/368
vt 0.282219 0.194580
vt 0.286956 0.190791
vt 0.281982 0.192364
f 325/771/325 364/772/364 326/773/326
vt 0.288914 0.194580
f 325/771/325 351/774/351 364/772/364
f 351/691/351 355/698/355 364/728/364
vt 0.411768 0.839111
vt 0.414859 0.834388
vt 0.411243 0.834985
f 353/775/353 325/776/325 328/777/328
vt 0.419825 0.839111
f 353/775/353 351/778/351 325/776/325
vt 0.406982 0.836525
f 328/777/328 261/779/261 353/775/353
vt 0.285809 0.030518
vt 0.289630 0.025080
vt 0.281982 0.025071
f 327/780/327 364/781/364 363/782/363
vt 0.289635 0.030518
f 327/780/327 326/783/326 364/781/364
vt 0.250654 0.333760
f 327/622/327 371/784/371 328/623/328
f 327/622/327 363/726/363 371/784/371
vt 0.254020 0.332392
f 371/784/371 261/785/261 328/623/328
f 371/784/371 358/708/358 261/785/261
vt 0.996170 0.845960
vt 0.994490 0.846188
vt 0.997186 0.849745
f 358/786/358 356/787/356 261/788/261
vt 0.997169 0.850830
f 356/787/356 259/789/259 261/788/261
vt 0.251929 0.316895
f 331/761/331 369/760/369 370/790/370
vt 0.323600 0.916106
vt 0.317139 0.918361
f 370/763/370 329/791/329 331/792/331
f 370/763/370 344/766/344 329/791/329
vt 0.290884 0.663330
vt 0.281982 0.663330
f 353/793/353 260/456/260 342/794/342
f 353/793/353 261/457/261 260/456/260
vt 0.504773 0.841136
f 334/795/334 368/758/368 336/770/336
f 334/795/334 335/759/335 368/758/368
vt 0.988146 0.847372
f 259/789/259 356/787/356 262/796/262
vt 0.985430 0.850830
f 262/796/262 341/797/341 259/789/259
vt 0.985107 0.850455
f 262/796/262 340/798/340 341/797/341
f 279/500/279 201/741/201 366/740/366
f 193/496/193 201/741/201 279/500/279
f 364/728/364 355/698/355 345/679/345
f 355/698/355 352/692/352 345/679/345
vt 0.973621 0.838546
f 343/696/343 341/799/341 338/697/338
vt 0.973389 0.839111
f 341/799/341 340/800/340 338/697/338
f 357/701/357 358/708/358 363/726/363
f 358/708/358 371/784/371 363/726/363
# 735 faces, 800 coords texture

# End of File
