####
#
# OBJ File Generated by Meshlab
#
####
# Object hallway_chair_2.obj
#
# Vertices: 451
# Faces: 822
#
####
mtllib ./hallway_chair_2.obj.mtl

vn 0.474507 0.615625 -0.629165
v -11.711101 -14.358635 0.004008
vn -0.317762 0.621738 -0.715869
v -11.758127 -14.356301 0.004008
vn 0.066641 0.996093 -0.057938
v -11.734612 -14.338481 0.027519
vn 0.723568 0.660429 -0.200706
v -11.716567 -14.360788 0.027519
vn -0.160965 0.984811 0.065092
v -11.734613 -14.342963 0.051033
vn 0.175896 0.968157 0.178136
v -11.711102 -14.334295 0.051033
vn -0.965718 0.233574 0.113280
v -11.694749 -14.925114 0.403718
vn -0.989653 0.143046 0.011195
v -11.711104 -14.966130 0.474255
vn -0.853633 0.504276 0.130446
v -11.685056 -14.948602 0.450744
vn 0.275776 0.957723 0.081935
v -11.687560 -14.361094 0.058100
vn 0.195432 0.961927 -0.191057
v -11.687587 -14.354531 0.121612
vn 0.052036 0.951802 -0.302267
v -11.664086 -14.362079 0.121352
vn 0.756368 0.571228 -0.318757
v -11.653647 -14.948600 -0.019505
vn -0.129584 0.967715 -0.216184
v -11.687589 -14.941482 0.004007
vn 0.792609 0.581372 -0.183787
v -11.654495 -14.972114 0.004007
vn -0.236617 0.539752 -0.807886
v -11.523187 -15.007291 0.004103
vn -0.038260 0.412576 -0.910119
v -11.499491 -14.995625 -0.007747
vn -0.098391 0.419672 -0.902328
v -11.499490 -15.019141 -0.007746
vn 0.000000 0.000000 0.000000
v -11.499490 -15.019147 0.765158
vn 0.010404 0.364223 0.931254
v -11.499490 -14.995622 0.785760
vn -0.120736 0.856955 0.501050
v -11.428954 -14.995627 0.789634
vn -0.488845 -0.612320 0.621365
v -11.428953 -15.019137 0.766467
vn -0.213252 -0.501586 0.838412
v -11.411856 -15.019137 0.779918
vn 0.007350 0.645713 0.763544
v -11.358414 -14.995631 0.788273
vn 0.058817 0.003323 0.998263
v -11.334904 -15.019137 0.786966
vn 0.106550 -0.092936 0.989955
v -11.287896 -14.713529 -0.141939
vn 0.013051 0.035440 0.999287
v -11.287892 -14.807568 -0.144045
vn 0.273680 0.041743 0.960915
v -11.264364 -14.760501 -0.156736
vn -0.234761 0.726145 -0.646220
v -11.217345 -14.340557 0.027513
vn -0.106700 0.891410 -0.440457
v -11.264398 -14.331809 0.050801
vn -0.341314 0.934331 -0.102615
v -11.217309 -14.322233 0.074550
vn 0.580130 0.529530 0.618908
v -11.193834 -14.290257 0.277640
vn -0.131759 0.726532 0.674382
v -11.240855 -14.290236 0.266939
vn 0.543613 0.488167 0.682772
v -11.193831 -14.337102 0.292614
vn 0.046618 -0.452568 0.890510
v -11.193829 -15.042649 0.775564
vn 0.035433 0.051113 0.998064
v -11.193829 -15.019134 0.787515
vn 0.374518 -0.066693 0.924818
v -11.217341 -15.043162 0.795304
vn 0.363640 0.899296 0.242965
v -11.190329 -14.995616 0.756422
vn 0.081443 0.679601 0.729047
v -11.217342 -14.979329 0.756304
vn 0.106884 0.867893 0.485117
v -11.193829 -14.980632 0.779926
vn -0.952795 -0.164598 0.255128
v -11.193826 -14.360790 -0.091274
vn -0.797347 -0.431222 0.422238
v -11.217343 -14.360787 -0.130639
vn -0.561548 -0.365171 0.742506
v -11.193815 -14.382351 -0.140144
vn -0.111680 0.032436 0.993215
v -11.170317 -15.042649 0.791501
vn 0.850984 -0.076874 0.519534
v -11.146813 -14.948605 0.709376
vn 0.515403 -0.085034 0.852718
v -11.146819 -14.925090 0.725917
vn 0.470823 0.249957 0.846078
v -11.170316 -14.925089 0.730650
vn 0.905258 0.371353 -0.206411
v -11.146780 -14.807519 0.333181
vn 0.487030 0.868788 -0.089491
v -11.168571 -14.783934 0.333186
vn 0.449545 0.743356 -0.495310
v -11.146802 -14.783942 0.341947
vn 0.996497 0.039715 -0.073594
v -11.151966 -14.501859 0.215642
vn 0.994452 0.034670 0.099309
v -11.133848 -14.501865 0.239130
vn 0.977983 -0.120487 0.170390
v -11.151101 -14.525382 0.239117
vn 0.975682 0.163494 0.145997
v -11.154462 -14.478354 0.239126
vn 0.836792 0.061103 0.544101
v -11.163886 -14.501846 0.262709
vn -0.949927 0.312115 0.014896
v -11.724159 -15.042705 -0.145370
vn -0.470008 0.305451 0.828126
v -11.712250 -14.954928 -0.146553
vn -0.116128 0.199406 0.973012
v -11.726093 -14.927638 -0.153798
vn -0.694077 0.172165 0.699011
v -11.716304 -15.019198 -0.145724
vn -0.086220 0.577819 0.811598
v -11.687578 -14.924973 -0.153931
vn 0.099868 0.303932 0.947445
v -11.570060 -14.948625 -0.154082
vn -0.547188 -0.556546 0.625173
v -11.758266 -14.450300 -0.150206
vn -0.606463 0.712944 0.352014
v -11.758237 -14.345572 -0.149379
vn 0.952568 -0.019695 0.303689
v -11.687620 -14.431227 -0.150034
vn 0.161557 -0.143178 0.976422
v -11.693458 -14.454744 -0.150221
vn -0.123379 0.080854 0.989060
v -11.687585 -14.454774 -0.149486
vn -0.871889 0.479439 0.099742
v -11.734604 -15.059449 -0.113594
vn -0.785145 0.615564 0.068027
v -11.711096 -15.076262 0.098035
vn -0.797211 0.603684 -0.004478
v -11.711093 -15.076268 0.144969
vn -0.325918 0.570770 0.753657
v -11.193817 -14.290272 -0.140843
vn 0.163920 0.746035 0.645417
v -11.146789 -14.290271 -0.140622
vn -0.279960 0.064840 0.957819
v -11.240837 -14.337306 -0.140707
vn -0.305350 0.209752 0.928852
v -11.452441 -14.572453 -0.139911
vn 0.169904 0.271163 0.947419
v -11.311376 -14.542114 -0.139484
vn -0.283292 -0.145240 0.947972
v -11.452457 -14.619474 -0.139559
vn -0.497763 -0.155327 0.853291
v -11.187710 -14.431348 -0.139744
vn -0.302010 -0.459861 0.835056
v -11.170305 -14.457804 -0.139461
vn -0.311531 0.313174 0.897146
v -11.193837 -14.595920 -0.138518
vn -0.001231 0.025985 0.999662
v -11.758125 -14.478312 -0.149688
vn 0.218541 -0.022778 0.975562
v -11.287875 -14.596000 -0.138961
vn -0.373046 0.223652 0.900454
v -11.217340 -14.619485 -0.138453
vn -0.650875 0.184833 0.736341
v -11.170332 -15.019200 -0.149218
vn 0.006585 -0.141440 0.989925
v -11.358392 -14.666379 -0.136536
vn -0.486632 -0.235273 0.841330
v -11.189219 -14.971992 -0.141738
vn -0.012592 -0.273499 0.961790
v -11.191931 -14.854471 -0.140164
vn -0.349710 -0.055985 0.935184
v -11.240853 -14.689982 -0.139759
vn -0.259111 -0.443378 0.858066
v -11.170346 -14.854675 -0.147345
vn -0.275468 -0.034657 0.960685
v -11.233509 -14.807456 -0.139676
vn -0.392582 -0.125280 0.911145
v -11.170327 -14.995688 -0.148871
vn 0.001500 0.018496 0.999828
v -11.758196 -14.464307 -0.149947
vn 0.620079 -0.758627 -0.199965
v -11.711076 -14.441460 -0.066528
vn -0.822159 -0.569041 -0.015711
v -11.760727 -14.431326 -0.066527
vn -0.454358 -0.798397 -0.395123
v -11.734614 -14.444000 -0.043020
vn -0.995213 -0.096816 -0.013340
v -11.760846 -14.431333 0.074550
vn -0.794318 0.607002 0.024628
v -11.758076 -14.360791 0.121567
vn -0.826083 0.547003 -0.135556
v -11.764418 -14.360786 0.004005
vn -0.893700 -0.445831 -0.050361
v -11.758156 -14.435206 0.027520
vn -0.755961 0.631160 0.173665
v -11.758225 -14.360786 -0.118546
vn -0.822564 -0.562458 0.083837
v -11.758171 -14.441771 0.004010
vn -0.839104 -0.503856 -0.205022
v -11.758121 -14.447108 0.051036
vn -0.722537 -0.647778 -0.241503
v -11.745544 -14.454840 -0.019505
vn -0.453782 -0.269788 -0.849292
v -11.743909 -14.478353 0.074612
vn -0.926393 -0.065562 -0.370806
v -11.745428 -14.619431 0.098009
vn -0.975808 -0.103303 0.192686
v -11.731430 -14.807466 0.145141
vn -0.950295 -0.102247 0.294085
v -11.756763 -14.454832 0.168569
vn -0.940015 -0.147812 -0.307446
v -11.750116 -14.736966 0.098043
vn -0.996615 -0.078746 0.023599
v -11.753137 -14.525383 0.086280
vn -0.930470 0.365753 0.021198
v -11.758606 -14.360795 0.168564
vn -0.917049 0.308191 0.253061
v -11.758146 -14.360795 0.192111
vn -0.694510 -0.359051 -0.623489
v -11.733980 -14.762441 0.098063
vn -0.910927 -0.103887 0.399273
v -11.734462 -14.483710 0.192085
vn -0.931144 0.225840 0.286300
v -11.745411 -14.360764 0.215600
vn 0.753529 0.647932 -0.111259
v -11.708951 -14.360785 0.004007
vn 0.720322 0.681522 0.129089
v -11.711086 -14.368751 -0.090044
vn 0.564268 0.754318 0.335568
v -11.711090 -14.358179 -0.113802
vn -0.166020 0.984600 -0.054773
v -11.734602 -14.353695 0.121722
vn -0.852957 0.515909 -0.079388
v -11.759065 -14.360794 0.145043
vn -0.127196 0.866843 -0.482083
v -11.711103 -14.341886 0.145065
vn -0.544343 0.564243 0.620742
v -11.717326 -14.313742 0.262644
vn -0.510447 0.836412 -0.199646
v -11.713139 -14.313761 0.192109
vn -0.855282 0.400042 0.329331
v -11.731614 -14.337333 0.262693
vn 0.020398 0.707507 0.706412
v -11.664080 -14.974652 0.779910
vn -0.181617 0.897869 0.401056
v -11.640567 -14.980884 0.756449
vn 0.007945 0.326082 0.945308
v -11.664078 -14.995624 0.787144
vn -0.707196 -0.031230 -0.706328
v -11.711123 -14.713479 0.067242
vn -0.919584 -0.141626 -0.366479
v -11.725551 -14.784060 0.098064
vn -0.431369 -0.390888 -0.813097
v -11.711176 -14.478356 0.065144
vn -0.178299 -0.088977 -0.979945
v -11.687590 -14.595915 0.039583
vn -0.113564 0.052486 -0.992143
v -11.687576 -14.807521 0.041127
vn -0.287155 -0.385404 -0.876930
v -11.664199 -14.478357 0.029791
vn -0.844044 -0.017365 -0.535993
v -11.716519 -14.878062 0.074552
vn -0.931862 0.148254 0.331141
v -11.695161 -14.925076 0.192091
vn -0.978116 -0.070575 0.195727
v -11.716212 -14.948606 0.168561
vn 0.172111 -0.848759 -0.499986
v -11.711103 -14.464685 -0.043017
vn -0.119546 -0.875125 -0.468898
v -11.687591 -14.466430 0.027519
vn -0.290078 -0.945354 -0.148866
v -11.711100 -14.463904 0.027520
vn -0.828247 -0.085547 0.553795
v -11.711235 -14.619439 0.286170
vn -0.986537 -0.064710 0.150191
v -11.719709 -14.490142 0.286216
vn -0.986537 -0.064707 0.150191
v -11.731322 -14.422277 0.239174
vn -0.798817 0.200549 0.567162
v -11.728183 -14.360845 0.286263
vn 0.474933 0.799260 0.368268
v -11.711095 -14.342365 -0.149340
vn -0.143986 0.946065 -0.290221
v -11.687569 -14.304925 0.192187
vn -0.952077 0.303026 0.041538
v -11.703234 -15.066237 0.098062
vn -0.972425 0.233176 -0.004212
v -11.703547 -15.066232 0.145085
vn -0.975809 0.218618 0.001636
v -11.708814 -14.972175 0.544792
vn -0.970965 0.209863 0.114820
v -11.711870 -14.961898 0.192109
vn -0.995844 -0.026162 -0.087242
v -11.711948 -14.962255 0.074550
vn -0.932095 0.347892 0.100849
v -11.711662 -14.995667 -0.100093
vn -0.943995 0.168531 0.283673
v -11.708845 -14.972219 0.638833
vn -0.902253 0.353374 -0.247117
v -11.706666 -14.948603 0.027520
vn -0.135099 0.944455 -0.299588
v -11.687607 -14.967145 -0.043020
vn -0.127591 0.868265 0.479412
v -11.687598 -14.972098 -0.113557
vn -0.931480 0.349660 -0.100417
v -11.703362 -14.948602 0.051043
vn -0.536226 0.331059 -0.776442
v -11.697455 -14.925090 0.051038
vn -0.981331 0.168420 0.092870
v -11.692654 -14.923409 0.215557
vn -0.975178 0.217041 -0.043839
v -11.699556 -14.925126 0.356691
vn -0.944674 0.317719 0.081524
v -11.687623 -14.920062 0.262649
vn -0.977088 0.144612 0.156162
v -11.674532 -14.901585 0.286157
vn -0.870805 0.430078 -0.238184
v -11.699102 -14.948569 0.474261
vn -0.177992 0.632588 0.753758
v -11.687594 -14.942661 -0.137146
vn 0.108892 0.102537 -0.988751
v -11.640559 -14.878056 0.039250
vn -0.099141 0.150339 -0.983651
v -11.664078 -14.901576 0.040730
vn 0.595051 0.191923 -0.780435
v -11.677564 -14.807508 0.051016
vn -0.963053 0.265994 0.042159
v -11.676978 -14.831037 0.309659
vn -0.640388 0.625241 0.446069
v -11.664027 -14.819433 0.309545
vn -0.276424 0.511927 0.813339
v -11.640574 -14.790013 0.309068
vn -0.347672 0.015087 0.937495
v -11.691262 -14.454813 0.313056
vn -0.341051 0.318591 0.884412
v -11.711123 -14.360507 0.299251
vn 0.902024 0.025128 -0.430955
v -11.701196 -14.431331 -0.043019
vn 0.575687 0.618445 -0.534893
v -11.701017 -14.384303 0.027515
vn 0.288053 0.727217 -0.623042
v -11.686096 -14.408055 0.004315
vn 0.778169 0.051269 -0.625959
v -11.675833 -14.431330 -0.019504
vn 0.374275 0.802770 -0.464197
v -11.687555 -14.361143 0.051096
vn 0.023731 0.957954 -0.285940
v -11.240852 -14.276879 0.192196
vn -0.237865 0.942816 -0.233490
v -11.217311 -14.321969 0.121718
vn 0.255164 0.954226 -0.156026
v -11.170350 -14.295138 0.168492
vn -0.291972 0.842062 0.453524
v -11.711100 -14.310342 0.262821
vn -0.058018 0.879715 0.471948
v -11.499507 -14.301883 0.262789
vn 0.040849 0.999153 0.004922
v -11.240859 -14.275376 0.215620
vn -0.937029 -0.151068 0.314890
v -11.673401 -14.995624 0.685866
vn -0.784577 -0.206376 0.584678
v -11.688885 -14.948585 0.662357
vn -0.009558 0.841960 0.539456
v -11.358416 -14.992156 0.782849
vn -0.106859 0.707733 0.698352
v -11.217342 -14.988688 0.779938
vn 0.028376 0.958002 -0.285353
v -11.687587 -14.942093 0.027518
vn -0.986862 0.046117 -0.154842
v -11.691080 -14.925054 0.474263
vn -0.783624 0.598382 0.166947
v -11.687394 -14.837393 0.450722
vn -0.823934 0.473390 0.311502
v -11.687467 -14.901541 0.685876
vn -0.988533 0.092623 0.119264
v -11.693728 -14.854599 0.427219
vn -0.892710 -0.041057 0.448757
v -11.676143 -14.972108 0.709385
vn 0.569549 0.573472 -0.588849
v -11.664079 -14.948601 0.031426
vn -0.907150 0.416861 -0.057500
v -11.697878 -14.831040 0.356697
vn -0.845615 0.348599 -0.404244
v -11.687581 -14.831038 0.324906
vn -0.623445 0.750498 -0.219244
v -11.671632 -14.807460 0.333197
vn 0.470486 -0.656798 -0.589287
v -11.687589 -14.454841 0.015931
vn 0.234982 -0.121660 -0.964356
v -11.664078 -14.431326 -0.007749
vn 0.098584 0.044713 0.994124
v -11.264448 -14.431355 0.326963
vn -0.119274 0.553004 0.824597
v -11.593471 -14.783903 0.314397
vn 0.126792 0.255253 0.958525
v -11.240885 -14.737033 0.317929
vn 0.325032 0.264489 0.907965
v -11.226169 -14.737120 0.313307
vn 0.089629 0.425455 0.900530
v -11.240871 -14.337238 0.310205
vn 0.126259 0.144431 0.981427
v -11.240894 -14.407705 0.319961
vn 0.134933 0.714624 0.686372
v -11.240856 -14.305863 0.286101
vn 0.421120 0.318978 0.849065
v -11.193828 -14.360595 0.309918
vn -0.598667 0.529996 0.600584
v -11.675663 -14.901339 0.709738
vn -0.346643 0.347279 0.871342
v -11.640580 -14.948383 0.738765
vn 0.799610 0.117952 -0.588823
v -11.664086 -14.972123 -0.019505
vn 0.352493 0.867115 -0.351937
v -11.617051 -15.013322 0.004015
vn 0.371267 0.829450 0.417341
v -11.640584 -14.991881 -0.113555
vn 0.155943 0.537295 0.828852
v -11.523000 -15.019134 -0.134119
vn -0.002835 0.573077 0.819497
v -11.217341 -15.042714 -0.137194
vn -0.548522 0.600219 0.582117
v -11.170323 -15.037442 -0.137250
vn 0.343681 0.862406 0.371671
v -11.570038 -15.019166 -0.112185
vn 0.297002 0.841897 0.450555
v -11.523003 -15.038356 -0.113569
vn 0.350702 0.593366 -0.724517
v -11.640565 -14.967753 0.051033
vn 0.194339 0.023878 -0.980644
v -11.640568 -14.948605 0.062789
vn 0.097362 0.397570 0.912392
v -11.217342 -14.878112 0.734667
vn -0.029040 0.689770 0.723446
v -11.240861 -14.847062 0.709668
vn -0.174953 0.717111 0.674643
v -11.609756 -14.877838 0.709535
vn 0.313756 0.669150 0.673643
v -11.170337 -14.848110 0.709764
vn -0.264813 0.914078 0.307140
v -11.617091 -14.858734 0.662486
vn -0.239685 0.949911 0.200552
v -11.617006 -14.810896 0.474144
vn -0.472224 0.877884 -0.079529
v -11.664101 -14.802181 0.333196
vn 0.352630 0.023808 -0.935460
v -11.617052 -14.431328 -0.007752
vn -0.158138 0.524244 -0.836756
v -11.311403 -14.407701 -0.007892
vn -0.058906 0.617265 -0.784547
v -11.499487 -14.384339 0.018083
vn 0.099503 0.555493 -0.825546
v -11.617057 -14.407711 0.016753
vn -0.080119 0.138909 -0.987059
v -11.452454 -14.407921 -0.007614
vn -0.094192 0.154395 -0.983509
v -11.546537 -14.407602 0.016155
vn -0.160995 0.597310 -0.785685
v -11.217346 -14.407781 -0.019549
vn 0.071708 0.128815 -0.989073
v -11.499472 -14.407992 -0.007522
vn 0.115699 -0.186929 -0.975536
v -11.640566 -14.926766 0.051032
vn -0.030682 -0.217898 -0.975489
v -11.640565 -14.901575 0.049810
vn -0.106480 0.979173 0.172867
v -11.522983 -14.781332 0.333153
vn -0.048326 0.988677 0.142065
v -11.334929 -14.770288 0.403798
vn -0.063480 0.908120 0.413870
v -11.334888 -14.763815 0.333156
vn 0.159070 0.932299 -0.324830
v -11.499483 -15.058434 -0.043013
vn 0.169648 0.967412 0.187970
v -11.475975 -15.061933 -0.090041
vn -0.074535 0.446360 -0.891744
v -11.546515 -14.995627 0.015767
vn -0.190289 0.584930 -0.788446
v -11.593540 -14.993325 0.027516
vn -0.577368 0.270516 -0.770368
v -11.593540 -14.972117 0.039281
vn 0.084331 0.601865 -0.794133
v -11.475978 -15.019135 -0.007664
vn -0.017756 0.892719 -0.450263
v -11.452464 -15.057740 -0.043026
vn 0.551449 0.320500 0.770184
v -11.170315 -14.928288 0.732308
vn 0.451379 0.283801 0.845999
v -11.170314 -14.948586 0.742823
vn -0.387069 -0.084570 -0.918164
v -11.617053 -14.948598 0.051028
vn -0.588053 -0.275251 -0.760546
v -11.593540 -14.948600 0.038792
vn -0.159733 -0.057527 -0.985483
v -11.617028 -14.925076 0.039245
vn 0.167069 0.132706 -0.976973
v -11.617056 -14.901578 0.039280
vn 0.039711 0.915382 0.400623
v -11.240829 -14.826448 0.685775
vn 0.119929 0.972841 0.197985
v -11.264440 -14.803943 0.568465
vn 0.104351 0.968285 0.227014
v -11.240885 -14.777876 0.474304
vn -0.372216 0.296944 -0.879363
v -11.582264 -14.948601 0.027518
vn 0.134081 0.434111 -0.890825
v -11.546521 -14.948609 0.015770
vn 0.217305 0.885573 0.410536
v -11.217343 -14.768600 0.333194
vn 0.043459 0.891341 0.451246
v -11.405441 -15.063872 -0.113541
vn 0.029650 0.929112 0.368608
v -11.287880 -15.063983 -0.113562
vn -0.178294 0.915281 0.361209
v -11.217355 -15.066163 -0.113561
vn 0.020208 0.989695 -0.141756
v -11.381928 -15.059932 -0.066520
vn -0.079833 0.960801 0.265496
v -11.287878 -14.280698 0.239125
vn 0.019286 0.928068 0.371912
v -11.217342 -14.280912 0.262632
vn 0.495466 0.808633 0.317217
v -11.146835 -14.846576 0.685868
vn 0.560776 0.812559 0.158993
v -11.146791 -14.823915 0.521306
vn 0.335374 0.936773 0.099905
v -11.170310 -14.773256 0.380211
vn 0.397768 0.560865 0.726093
v -11.193830 -14.762114 0.309665
vn 0.899600 0.436710 0.002018
v -11.137237 -14.783997 0.356688
vn 0.451826 0.123230 0.883554
v -11.193851 -14.736985 0.304245
vn 0.785305 0.082290 0.613615
v -11.158456 -14.548897 0.286387
vn 0.538723 -0.039363 0.841563
v -11.193773 -14.478356 0.298310
vn 0.408725 -0.059530 0.910714
v -11.193900 -14.407810 0.314351
vn -0.536133 0.095059 0.838764
v -11.226723 -14.784013 -0.137056
vn -0.245538 0.092219 0.964991
v -11.240854 -14.760502 -0.170767
vn 0.636543 0.733365 0.238722
v -11.193832 -14.287189 0.262646
vn -0.818497 0.379294 -0.431508
v -11.208416 -14.337263 0.027510
vn -0.545335 0.284968 -0.788291
v -11.190538 -14.431326 -0.043021
vn -0.316359 -0.019080 -0.948448
v -11.264360 -14.431334 -0.031248
vn 0.625521 0.512984 0.587853
v -11.170323 -14.760502 0.297156
vn 0.609414 0.651633 0.451652
v -11.170314 -14.774406 0.309669
vn 0.925643 -0.142456 0.350558
v -11.155190 -14.478365 0.262606
vn 0.810762 0.119665 0.573014
v -11.170269 -14.384299 0.297460
vn 0.456484 0.830610 0.318918
v -11.146798 -14.313749 -0.113553
vn -0.460267 0.781545 0.421119
v -11.180974 -14.313739 -0.113556
vn 0.767011 0.511888 0.386866
v -11.146782 -14.308147 0.192107
vn 0.642246 0.742795 0.189147
v -11.169732 -14.290256 0.215726
vn 0.786279 0.137960 0.602273
v -11.133367 -14.901522 0.709372
vn 0.804745 0.482328 0.346042
v -11.138779 -14.854597 0.685861
vn 0.087916 -0.607673 -0.789306
v -11.193828 -14.454840 -0.054774
vn -0.470172 0.260242 -0.843334
v -11.217341 -14.443083 -0.043016
vn -0.479539 -0.306584 -0.822221
v -11.217341 -14.454842 -0.054774
vn 0.233069 -0.656133 -0.717753
v -11.170321 -14.429678 -0.058311
vn -0.995028 0.011778 -0.098893
v -11.190822 -14.337256 -0.066532
vn -0.447574 -0.842607 -0.299485
v -11.170326 -14.422793 -0.066533
vn -0.853771 0.372793 0.363456
v -11.193838 -14.337277 -0.111254
vn 0.236911 0.557310 0.795788
v -11.103208 -15.019137 0.779914
vn 0.723071 0.689584 0.040539
v -11.146805 -14.993148 0.732892
vn 0.741421 0.139421 0.656397
v -11.160699 -14.972112 0.732893
vn 0.352145 0.932244 0.083160
v -11.140639 -14.995650 0.756414
vn 0.927205 0.362015 0.096110
v -11.147961 -14.807515 0.309667
vn 0.927607 0.154199 0.340248
v -11.147949 -14.760492 0.262680
vn 0.621378 -0.749674 -0.227766
v -11.170310 -14.442483 -0.043018
vn 0.212681 -0.803435 0.556111
v -11.146811 -14.431322 -0.119362
vn -0.585507 -0.506053 0.633318
v -11.170322 -14.431330 -0.127837
vn 0.230089 -0.413159 0.881112
v -11.123292 -14.431327 -0.125506
vn 0.798390 -0.502314 0.332045
v -11.123346 -14.407800 -0.118860
vn 0.997288 -0.060353 0.042118
v -11.118881 -14.384294 -0.113557
vn 0.941743 0.218113 0.256020
v -11.123287 -15.046914 0.685864
vn 0.980761 0.041261 0.190802
v -11.106002 -15.019118 0.615325
vn 0.886973 0.457831 0.060581
v -11.135809 -14.831046 0.474255
vn 0.864763 0.460263 0.200856
v -11.146835 -14.794485 0.380206
vn 0.976092 0.215306 0.029784
v -11.142824 -14.831028 0.286129
vn 0.983327 0.181680 -0.007716
v -11.104800 -14.925129 0.403723
vn 0.991202 0.131568 -0.014454
v -11.108407 -14.948611 0.192080
vn 0.986475 0.119147 0.112570
v -11.128395 -14.854580 0.192118
vn 0.933935 -0.057015 0.352866
v -11.147150 -14.360811 0.192048
vn 0.990984 -0.003592 0.133935
v -11.145112 -14.454835 0.168600
vn 0.962487 0.120104 0.243297
v -11.146585 -14.548875 0.192146
vn 0.970641 0.024317 0.239300
v -11.146669 -14.642925 0.225569
vn 0.978209 0.026918 0.205872
v -11.143947 -14.689951 0.215638
vn 0.923053 -0.376000 0.081223
v -11.137160 -14.360821 0.145005
vn 0.945324 0.199855 -0.257723
v -11.133492 -14.501864 0.098062
vn 0.873569 0.425144 0.236917
v -11.116408 -14.548892 0.121565
vn 0.965097 -0.070583 -0.252203
v -11.137913 -14.454828 0.098054
vn 0.846086 0.281725 -0.452514
v -11.128716 -14.525373 0.098057
vn 0.779864 0.075315 -0.621402
v -11.170336 -14.478342 0.064142
vn 0.800196 0.146810 -0.581493
v -11.146810 -14.508142 0.074550
vn 0.787522 -0.297918 -0.539494
v -11.160169 -14.454840 0.074544
vn 0.261495 0.073309 -0.962417
v -11.170296 -14.501876 0.039969
vn 0.566263 -0.823905 -0.022941
v -11.146804 -14.417228 -0.043018
vn 0.927543 -0.369112 -0.058482
v -11.138765 -14.407817 0.051035
vn 0.572613 -0.819619 -0.018426
v -11.170313 -14.442559 -0.019504
vn 0.793467 -0.537139 -0.286168
v -11.159607 -14.431326 0.051031
vn 0.961446 0.009877 0.274815
v -11.116825 -14.337271 0.168595
vn 0.961123 0.274608 0.028853
v -11.121993 -14.337264 0.027516
vn 0.890831 0.452201 0.043992
v -11.127811 -14.337280 -0.113548
vn 0.982129 0.092419 0.163958
v -11.105019 -14.948612 0.615331
vn 0.984038 0.115427 0.135449
v -11.108250 -15.019143 0.192095
vn 0.999122 0.041593 -0.004971
v -11.098166 -15.066195 0.380212
vn 0.756705 0.495892 0.426015
v -11.079626 -15.089694 0.192105
vn 0.885654 0.265500 0.380956
v -11.102161 -15.019155 0.168589
vn 0.130737 -0.572842 -0.809173
v -11.617048 -14.454846 0.011888
vn 0.158685 0.103985 -0.981838
v -11.593537 -14.431333 0.014640
vn 0.148443 0.498077 -0.854332
v -11.522978 -14.972079 0.026108
vn -0.101646 0.051506 -0.993486
v -11.475977 -14.431330 0.004015
vn 0.060120 -0.141133 -0.988163
v -11.475984 -14.831042 0.163107
vn 0.475284 0.089609 -0.875257
v -11.499521 -14.831043 0.153962
vn 0.137597 -0.145186 -0.979790
v -11.499510 -14.760476 0.143745
vn -0.059821 0.074760 0.995406
v -11.381929 -14.595915 -0.111433
vn -0.057512 0.028490 -0.997938
v -11.311404 -14.431307 -0.031169
vn 0.034256 -0.267384 -0.962981
v -11.311394 -14.454838 -0.011060
vn -0.329760 0.222002 -0.917591
v -11.334908 -14.431322 -0.005758
vn 0.292571 -0.857150 -0.423906
v -11.240855 -14.472757 0.004005
vn 0.113178 -0.975099 -0.190715
v -11.217341 -14.456162 -0.019506
vn 0.460593 -0.779832 -0.423930
v -11.193830 -14.461314 0.027519
vn -0.207104 -0.800728 -0.562087
v -11.226485 -14.454843 -0.019506
vn -0.815741 0.090507 0.571293
v -11.149341 -14.972114 -0.113557
vn -0.586637 -0.452091 0.671916
v -11.170318 -14.831038 -0.115961
vn 0.296812 0.235898 -0.925340
v -11.170324 -14.548880 0.055175
vn 0.425748 0.554719 -0.714860
v -11.559973 -14.901561 0.074547
vn 0.300975 0.388267 -0.871012
v -11.452458 -14.901570 0.162111
vn 0.058426 -0.132850 -0.989413
v -11.499572 -14.666451 0.136994
vn 0.584350 -0.016150 -0.811341
v -11.682577 -14.701712 0.045299
vn 0.451921 -0.026765 -0.891656
v -11.638079 -14.666447 0.066794
vn 0.451922 -0.026766 -0.891656
v -11.588568 -14.736979 0.094005
vn 0.049895 -0.304138 -0.951320
v -11.664073 -14.548901 0.039248
vn 0.237989 -0.407967 -0.881433
v -11.523001 -14.619435 0.121557
vn 0.443919 -0.052092 -0.894552
v -11.593581 -14.631183 0.088288
vn -0.096727 -0.532335 -0.840989
v -11.499500 -14.619434 0.123784
vn -0.417428 -0.009274 -0.908662
v -11.637759 -14.501864 0.027517
vn -0.297037 0.318032 -0.900347
v -11.617060 -14.501853 0.019375
vn -0.119794 -0.024222 -0.992503
v -11.593539 -14.454843 0.013325
vn -0.128181 -0.864592 -0.485850
v -11.593544 -14.561806 0.051006
vn -0.020579 -0.822487 -0.568411
v -11.523002 -14.595911 0.098059
vn -0.331771 -0.568671 -0.752690
v -11.640565 -14.548867 0.015780
vn -0.472149 -0.006608 -0.881494
v -11.628811 -14.525383 0.004003
vn -0.448414 -0.782747 -0.431546
v -11.570027 -14.550911 0.004009
vn -0.444264 0.070721 -0.893101
v -11.570031 -14.525382 -0.016661
vn -0.218550 -0.975826 -0.000137
v -11.546512 -14.559144 0.004029
vn -0.150967 0.262306 -0.953103
v -11.546512 -14.466112 0.004032
vn -0.193780 -0.558900 -0.806276
v -11.334910 -14.407806 0.002052
vn 0.058421 -0.044296 -0.997309
v -11.405443 -14.501857 -0.015925
vn 0.041406 -0.932798 -0.358013
v -11.522998 -14.562607 0.004026
vn -0.007030 -0.775847 -0.630882
v -11.381926 -14.595892 0.074558
vn -0.151011 -0.262152 -0.953138
v -11.546515 -14.548892 -0.035014
vn -0.161837 -0.900223 -0.404237
v -11.546515 -14.565208 -0.019505
vn 0.166094 0.559164 -0.812249
v -11.428963 -14.925116 0.155371
vn 0.390852 0.755962 -0.525125
v -11.499507 -14.955590 0.051053
vn 0.077091 0.132731 -0.988150
v -11.523003 -14.525377 -0.026258
vn 0.069599 0.691447 -0.719066
v -11.499511 -14.979384 0.004039
vn 0.369296 -0.587776 -0.719819
v -11.523000 -14.548898 -0.017314
vn 0.161432 -0.564056 -0.809803
v -11.358416 -14.541627 0.003992
vn 0.049286 -0.743151 -0.667307
v -11.331006 -14.572425 0.051000
vn 0.184827 0.728841 -0.659265
v -11.334903 -14.995654 0.093467
vn 0.511312 0.540504 -0.668143
v -11.358459 -15.053132 -0.042956
vn 0.357296 0.772367 -0.525156
v -11.475977 -14.980144 0.027525
vn 0.373931 0.914036 -0.157207
v -11.311357 -15.062898 0.003953
vn -0.239822 0.334838 -0.911246
v -11.405488 -14.925200 0.152370
vn -0.218573 -0.434045 -0.873974
v -11.428930 -14.619415 0.103553
vn -0.123392 -0.353371 -0.927310
v -11.311343 -14.595901 0.069524
vn 0.180111 -0.524444 -0.832177
v -11.264373 -14.478344 -0.000057
vn -0.147306 -0.321588 -0.935352
v -11.287875 -14.431334 -0.012161
vn -0.224025 -0.058834 -0.972806
v -11.428999 -14.878093 0.165577
vn -0.358964 0.032850 -0.932773
v -11.405433 -14.901569 0.156768
vn -0.339213 -0.068313 -0.938226
v -11.381867 -14.760479 0.110320
vn -0.406637 -0.187118 -0.894222
v -11.382012 -14.783995 0.112632
vn -0.357922 -0.033915 -0.933135
v -11.240785 -14.807570 0.035640
vn -0.424841 -0.118129 -0.897528
v -11.213426 -14.901588 0.051035
vn -0.258570 0.054051 -0.964479
v -11.217240 -14.689943 0.053877
vn 0.032348 -0.274008 -0.961183
v -11.264363 -14.572369 0.058527
vn -0.493625 0.302700 -0.815296
v -11.193840 -15.044158 0.051005
vn 0.200040 0.849551 -0.488105
v -11.264359 -15.083600 0.051046
vn -0.097356 0.654405 -0.749850
v -11.240852 -15.084903 0.051012
vn -0.694519 0.195977 -0.692269
v -11.146767 -15.019139 0.019829
vn -0.581550 -0.019199 -0.813284
v -11.146823 -14.854551 0.021109
vn -0.057912 0.985027 0.162385
v -11.217336 -15.071881 -0.043026
vn 0.531720 0.835313 -0.139736
v -11.301504 -15.066171 0.027515
vn -0.380428 0.072422 -0.921971
v -11.146925 -14.807464 0.017881
vn -0.222362 0.241677 -0.944536
v -11.123369 -14.695936 0.027368
vn -0.819761 0.324648 -0.471800
v -11.118027 -14.783989 0.003867
vn -0.242459 0.286895 -0.926771
v -11.099883 -14.713421 0.015811
vn -0.892941 0.093749 -0.440304
v -11.128239 -14.830988 0.003728
vn 0.354572 -0.403957 -0.843266
v -11.193798 -14.478383 0.048345
vn -0.227382 0.955218 -0.189358
v -11.217324 -15.089711 0.027515
vn -0.363259 -0.277834 0.889298
v -11.240864 -14.736988 -0.150971
vn 0.089134 0.319734 -0.943306
v -11.170298 -14.572405 0.039575
vn -0.020122 0.168649 -0.985471
v -11.123288 -14.666448 0.034734
vn 0.738315 -0.652660 -0.170077
v -11.170316 -14.442861 0.027519
vn -0.614886 0.783614 -0.088684
v -11.146802 -15.063380 -0.019502
vn -0.936795 0.244059 -0.250701
v -11.119093 -15.019143 -0.019501
vn -0.547319 -0.105818 0.830207
v -11.193838 -14.784011 -0.116605
vn -0.823655 0.167634 0.541748
v -11.127873 -14.784016 -0.066527
vn -0.762264 0.279794 0.583669
v -11.092583 -14.737050 -0.043179
vn -0.483174 0.120062 0.867253
v -11.146814 -14.666435 -0.097574
vn -0.553781 0.011380 0.832584
v -11.193827 -14.760502 -0.115312
vn -0.811248 0.528034 0.251111
v -11.099784 -14.749534 -0.043034
vn -0.932907 0.283049 0.222639
v -11.120635 -15.019135 -0.043018
vn -0.726601 0.033850 0.686225
v -11.150348 -14.901575 -0.137069
vn -0.815082 -0.178877 0.551039
v -11.152813 -14.878062 -0.137072
vn -0.824151 -0.136284 0.549729
v -11.146766 -14.831037 -0.087746
vn -0.875533 0.305109 0.374634
v -11.132433 -14.831038 -0.066530
vn 0.000000 0.000000 0.000000
v -11.076214 -14.718586 -0.043180
vn -0.994198 -0.047084 -0.096709
v -11.123275 -14.854549 -0.019494
vn 0.930623 0.275186 0.241275
v -11.088718 -14.595921 0.098057
vn 0.801552 0.402602 -0.442071
v -11.086229 -14.595919 0.074549
vn -0.110194 0.334474 -0.935940
v -11.099777 -14.687738 0.027520
vn 0.963062 -0.020043 0.268534
v -11.117214 -14.737003 0.121564
vn 0.959955 0.162935 0.227900
v -11.121505 -14.878061 0.121530
vn -0.537948 0.753351 0.378251
v -11.098594 -14.760499 -0.019502
vn 0.760818 0.302528 0.574136
v -11.076314 -14.901597 0.072393
vn 0.738823 0.227275 -0.634418
v -11.078941 -14.619669 0.074528
vn 0.761627 0.385009 0.521242
v -11.052755 -15.087249 0.145081
vn 0.670427 0.615010 0.415079
v -11.076283 -15.093335 0.192101
vn 0.702692 -0.005147 -0.711475
v -11.687583 -14.701717 0.040355
# 451 vertices, 0 vertices normals


usemtl material_0
vt 0.081027 0.161052
vt 0.076035 0.166867
vt 0.082113 0.167236
f 1/1/1 2/2/2 3/3/3
vt 0.079388 0.053955
vt 0.084190 0.052212
vt 0.082651 0.049123
f 4/4/4 5/5/5 6/6/6
vt 0.063232 0.249268
vt 0.076777 0.249268
vt 0.071294 0.245997
f 7/7/7 8/8/8 9/9/9
vt 0.036316 0.489023
vt 0.026307 0.489077
vt 0.026885 0.492811
f 10/10/10 11/11/11 12/12/12
vt 0.074637 0.542106
vt 0.077202 0.537597
vt 0.070900 0.541311
f 13/13/13 14/14/14 15/15/15
vt 0.016234 0.167109
vt 0.012846 0.164705
vt 0.011540 0.167622
f 16/16/16 17/17/17 18/18/18
vt 0.975585 0.673902
vt 0.974306 0.678955
vt 0.977070 0.678583
f 21/19/21 22/20/22 23/21/23
vt 0.503749 0.941725
vt 0.504141 0.957021
vt 0.507759 0.949243
f 26/22/26 27/23/27 28/24/28
vt 0.041517 0.565614
vt 0.037290 0.558064
vt 0.033303 0.565810
f 29/25/29 30/26/30 31/27/31
vt 0.499399 0.652971
vt 0.499658 0.660789
vt 0.492920 0.652261
f 32/28/32 33/29/33 34/30/34
vt 0.078785 0.104097
vt 0.074951 0.104728
vt 0.077297 0.108643
f 35/31/35 36/32/36 37/33/37
vt 0.516622 0.800450
vt 0.521062 0.800761
vt 0.517418 0.796737
f 38/34/38 39/35/39 40/36/40
vt 0.083645 0.007080
vt 0.077784 0.002459
vt 0.074951 0.007080
f 41/37/41 42/38/42 43/39/43
vt 0.081375 0.085205
vt 0.077644 0.082382
vt 0.074951 0.085205
f 45/40/45 46/41/46 47/42/47
vt 0.082149 0.362395
vt 0.078857 0.366455
vt 0.082677 0.366455
f 48/43/48 49/44/49 50/45/50
vt 0.087914 0.354736
vt 0.090682 0.350780
vt 0.086670 0.350068
f 51/46/51 52/47/52 53/48/53
vt 0.092760 0.354736
f 54/49/54 52/47/52 51/46/51
vt 0.078919 0.264892
vt 0.083459 0.260648
vt 0.078857 0.259593
f 55/50/55 52/51/52 54/52/54
vt 0.434143 0.997107
vt 0.435712 0.982774
vt 0.433337 0.978380
f 56/53/56 57/54/57 58/55/58
vt 0.435322 0.993250
f 56/53/56 59/56/59 57/54/57
vt 0.437521 0.897460
vt 0.436670 0.901311
vt 0.437626 0.901292
f 64/57/64 65/58/65 66/59/66
vt 0.518870 0.895398
vt 0.517670 0.887451
vt 0.509831 0.880319
f 76/60/76 43/61/43 72/62/72
vt 0.458812 0.981138
vt 0.524150 0.990951
f 61/63/61 82/64/82 27/23/27
vt 0.492087 0.934359
vt 0.476582 0.927118
f 27/23/27 83/65/83 75/66/75
vt 0.547957 0.827393
vt 0.539723 0.825918
vt 0.508545 0.827393
f 82/67/82 84/68/84 27/69/27
vt 0.520887 0.983362
vt 0.519955 0.964256
f 84/70/84 85/71/85 27/23/27
f 27/23/27 26/22/26 83/65/83
vt 0.503263 0.922608
f 26/22/26 80/72/80 83/65/83
vt 0.523460 0.964186
f 84/70/84 87/73/87 85/71/85
vt 0.512993 0.956782
f 85/71/85 88/74/88 27/23/27
vt 0.828858 0.694028
vt 0.830353 0.697551
vt 0.828858 0.702393
f 82/75/82 89/76/89 84/77/84
vt 0.426247 0.905418
f 79/78/79 66/59/66 65/58/65
vt 0.426177 0.903139
f 65/58/65 90/79/90 79/78/79
vt 0.043701 0.255432
vt 0.054206 0.254830
vt 0.051925 0.268723
f 62/80/62 65/81/65 91/82/91
vt 0.043701 0.269287
f 91/82/91 92/83/92 62/80/62
vt 0.426107 0.900860
f 62/84/62 90/79/90 65/58/65
vt 0.048467 0.272680
f 91/82/91 93/85/93 92/83/92
vt 0.950221 0.696994
vt 0.941860 0.707972
vt 0.960977 0.709127
f 94/86/94 95/87/95 96/88/96
vt 0.957837 0.696776
f 96/88/96 97/89/97 94/86/94
vt 0.973057 0.698305
f 96/88/96 92/90/92 97/89/97
vt 0.980732 0.710205
f 96/88/96 98/91/98 92/90/92
vt 0.986762 0.695981
f 98/91/98 62/92/62 92/90/92
vt 0.065669 0.384855
vt 0.063232 0.389893
vt 0.080279 0.389893
f 98/93/98 63/94/63 62/95/62
vt 0.961709 0.695930
f 92/90/92 99/96/99 97/89/97
vt 0.954150 0.694627
f 97/89/97 100/97/100 94/86/94
vt 0.621826 0.581299
vt 0.630395 0.581299
vt 0.626255 0.579354
f 99/98/99 93/99/93 101/100/101
vt 0.045132 0.280518
f 99/101/99 92/83/92 93/85/93
vt 0.950456 0.689201
f 94/86/94 100/97/100 102/102/102
vt 0.516482 0.815354
vt 0.539015 0.809833
vt 0.508545 0.814206
f 102/103/102 103/104/103 94/105/94
vt 0.624011 0.745442
vt 0.596744 0.729510
vt 0.635114 0.772276
f 103/106/103 104/107/104 105/108/105
vt 0.610449 0.731941
f 103/106/103 106/109/106 104/107/104
vt 0.636304 0.754767
f 105/108/105 107/110/107 103/106/103
vt 0.935183 0.692269
vt 0.934260 0.707540
f 105/111/105 108/112/108 94/86/94
vt 0.930441 0.707316
f 105/111/105 109/113/109 108/112/108
vt 0.607349 0.729212
f 106/109/106 110/114/110 104/107/104
vt 0.931366 0.687147
vt 0.926466 0.706978
f 105/111/105 111/115/111 112/116/112
f 112/116/112 109/113/109 105/111/105
vt 0.063232 0.210205
vt 0.072253 0.210205
vt 0.072014 0.195107
f 96/117/96 113/118/113 114/119/114
vt 0.064316 0.190361
f 114/119/114 98/120/98 96/117/96
vt 0.074951 0.167236
vt 0.081078 0.160613
f 96/121/96 2/2/2 113/122/113
vt 0.071963 0.191086
f 114/119/114 115/123/115 98/120/98
f 2/2/2 1/1/1 113/122/113
vt 0.026418 0.477562
vt 0.026061 0.481452
vt 0.036128 0.481582
f 95/124/95 116/125/116 5/126/5
vt 0.044197 0.476557
f 5/126/5 96/127/96 95/124/95
vt 0.072747 0.007080
vt 0.069892 0.004432
vt 0.063232 0.007080
f 5/128/5 3/129/3 96/130/96
vt 0.063976 0.006073
f 3/129/3 2/131/2 96/130/96
vt 0.022859 0.477397
f 95/124/95 117/132/117 116/125/116
vt 0.021913 0.485392
f 117/132/117 118/133/118 116/125/116
vt 0.817644 0.596977
vt 0.824945 0.588091
vt 0.827466 0.599040
f 112/134/112 119/135/119 120/136/120
vt 0.820550 0.588830
f 112/134/112 121/137/121 119/135/119
vt 0.817139 0.601188
f 120/136/120 109/138/109 112/134/112
vt 0.562310 0.808231
vt 0.555134 0.815239
vt 0.565973 0.808843
f 110/139/110 125/140/125 126/141/126
vt 0.557863 0.806719
f 110/139/110 106/142/106 125/140/125
vt 0.517246 0.820465
vt 0.536890 0.823486
f 102/103/102 127/143/127 128/144/128
f 128/144/128 103/104/103 102/103/102
f 128/144/128 125/140/125 103/104/103
vt 0.570990 0.818812
f 128/144/128 129/145/129 125/140/125
vt 0.074951 0.210205
vt 0.084520 0.210205
vt 0.080520 0.191044
f 127/146/127 130/147/130 128/148/128
f 125/140/125 106/142/106 103/104/103
vt 0.581496 0.810310
f 129/145/129 131/149/131 125/140/125
vt 0.577441 0.721872
vt 0.628882 0.771934
f 104/107/104 132/150/132 111/151/111
f 111/151/111 105/108/105 104/107/104
vt 0.577598 0.716228
f 104/107/104 133/152/133 132/150/132
vt 0.044266 0.197684
vt 0.055714 0.195017
vt 0.053992 0.191809
f 134/153/134 135/154/135 136/155/136
vt 0.044677 0.190734
f 136/155/136 101/156/101 134/153/134
vt 0.049305 0.184220
f 136/155/136 97/157/97 101/156/101
vt 0.046394 0.186487
f 97/157/97 99/158/99 101/156/101
vt 0.511325 0.816540
f 127/143/127 102/103/102 100/159/100
vt 0.053188 0.182866
vt 0.059954 0.189399
f 100/160/100 136/155/136 127/161/127
f 100/160/100 97/157/97 136/155/136
vt 0.602226 0.767501
f 137/162/137 111/151/111 132/150/132
vt 0.617262 0.782207
vt 0.630590 0.784424
f 138/163/138 139/164/139 111/151/111
vt 0.914795 0.706139
f 140/165/140 112/116/112 111/115/111
vt 0.918420 0.710205
f 140/165/140 121/166/121 112/116/112
vt 0.041592 0.193579
vt 0.039795 0.198486
f 134/153/134 93/167/93 91/168/91
f 134/153/134 101/156/101 93/167/93
vt 0.071886 0.185071
vt 0.064239 0.185118
f 98/120/98 141/169/141 63/170/63
f 98/120/98 115/123/115 141/169/141
vt 0.013107 0.485359
vt 0.012667 0.489608
f 118/133/118 120/171/120 142/172/142
f 118/133/118 117/132/117 120/171/120
vt 0.597130 0.670839
vt 0.571907 0.694796
vt 0.605283 0.671955
f 67/173/67 143/174/143 59/175/59
vt 0.570824 0.693556
f 67/173/67 68/176/68 143/174/143
vt 0.602595 0.669216
f 59/175/59 56/177/56 67/173/67
vt 0.565469 0.698960
f 143/174/143 68/176/68 69/178/69
vt 0.566547 0.700208
f 69/178/69 144/179/144 143/174/143
vt 0.573333 0.717469
vt 0.586704 0.703889
f 146/180/146 147/181/147 144/179/144
f 147/181/147 143/174/143 144/179/144
vt 0.602757 0.679957
f 147/181/147 148/182/148 143/174/143
f 148/182/148 59/175/59 143/174/143
f 146/180/146 133/152/133 147/181/147
f 133/152/133 104/107/104 147/181/147
vt 0.604768 0.726835
f 104/107/104 126/183/126 147/181/147
f 104/107/104 110/114/110 126/183/126
vt 0.612777 0.679262
f 148/182/148 57/184/57 59/175/59
vt 0.593599 0.700096
vt 0.599323 0.690069
f 147/181/147 150/185/150 151/186/151
vt 0.660159 0.588317
vt 0.668005 0.580824
vt 0.641357 0.589111
f 151/187/151 148/188/148 147/189/147
vt 0.671204 0.585775
f 151/187/151 152/190/152 148/188/148
vt 0.590885 0.702843
f 147/181/147 153/191/153 150/185/150
vt 0.593551 0.705601
f 153/191/153 154/192/154 150/185/150
vt 0.616317 0.731528
vt 0.596489 0.713472
f 126/183/126 125/193/125 131/194/131
f 131/194/131 147/181/147 126/183/126
f 131/194/131 153/191/153 147/181/147
vt 0.574933 0.724794
f 132/150/132 146/180/146 155/195/155
f 132/150/132 133/152/133 146/180/146
vt 0.540651 0.749485
vt 0.558699 0.740771
f 146/180/146 8/196/8 156/197/156
vt 0.531883 0.756942
f 146/180/146 145/198/145 8/196/8
vt 0.569902 0.730658
f 156/197/156 157/199/157 146/180/146
vt 0.553291 0.746243
f 8/196/8 7/200/7 156/197/156
vt 0.569236 0.735630
f 156/197/156 158/201/158 157/199/157
f 157/199/157 155/195/155 146/180/146
vt 0.542570 0.751633
f 145/198/145 159/202/159 8/196/8
vt 0.676735 0.583293
vt 0.675931 0.587906
f 57/203/57 152/190/152 160/204/160
f 57/203/57 148/188/148 152/190/152
vt 0.679186 0.589111
f 160/204/160 60/205/60 57/203/57
vt 0.439593 0.977784
f 60/206/60 58/55/58 57/54/57
vt 0.583368 0.823486
vt 0.586652 0.819838
f 131/149/131 161/207/161 162/208/162
f 131/149/131 129/145/129 161/207/161
vt 0.641357 0.659242
vt 0.643571 0.659312
vt 0.646697 0.646637
f 129/209/129 163/210/163 161/211/161
vt 0.589659 0.814060
f 162/208/162 154/212/154 131/149/131
vt 0.593324 0.812803
f 154/212/154 153/213/153 131/149/131
vt 0.789350 0.702392
vt 0.824285 0.699091
vt 0.822545 0.696864
f 137/214/137 164/215/164 165/216/165
vt 0.574742 0.746382
f 137/162/137 157/199/157 164/217/164
f 157/199/157 158/201/158 164/217/164
vt 0.818029 0.692742
vt 0.763336 0.697408
f 137/214/137 166/218/166 167/219/167
f 137/214/137 165/216/165 166/218/166
vt 0.747348 0.702393
f 167/219/167 140/220/140 137/214/137
vt 0.747668 0.699624
f 167/219/167 168/221/168 140/220/140
vt 0.976854 0.870611
vt 0.977077 0.856760
vt 0.988300 0.865862
f 91/222/91 64/223/64 114/224/114
vt 0.973389 0.857079
f 91/222/91 65/225/65 64/223/64
vt 0.978586 0.874211
f 114/224/114 169/226/169 91/222/91
vt 0.990667 0.880984
f 114/224/114 113/227/113 169/226/169
vt 0.987009 0.885034
f 113/227/113 170/228/170 169/226/169
vt 0.068858 0.077393
vt 0.065451 0.074198
vt 0.063232 0.077393
f 4/229/4 3/230/3 5/231/5
vt 0.071754 0.074724
f 4/229/4 1/232/1 3/230/3
vt 0.991087 0.884855
vt 0.991054 0.880973
f 4/233/4 113/227/113 1/234/1
f 4/233/4 170/228/170 113/227/113
vt 0.047261 0.488759
vt 0.052293 0.490177
vt 0.055757 0.486063
f 171/235/171 172/236/172 169/237/169
vt 0.042278 0.486591
f 169/237/169 170/238/170 171/235/171
vt 0.037380 0.489025
f 170/238/170 173/239/173 171/235/171
vt 0.074951 0.053955
vt 0.076959 0.048504
f 170/240/170 4/4/4 173/241/173
f 4/4/4 6/6/6 173/241/173
f 116/125/116 11/11/11 10/10/10
f 10/10/10 5/126/5 116/125/116
vt 0.083239 0.116455
vt 0.077985 0.113730
vt 0.074951 0.116455
f 10/242/10 6/243/6 5/244/5
vt 0.639463 0.581299
vt 0.639248 0.580179
vt 0.633545 0.581299
f 10/245/10 173/246/173 6/247/6
vt 0.012698 0.562458
vt 0.026144 0.565803
f 174/248/174 175/249/175 12/12/12
f 12/12/12 142/172/142 174/248/174
f 12/12/12 118/133/118 142/172/142
vt 0.017642 0.573712
f 174/248/174 176/250/176 175/249/175
f 12/12/12 11/11/11 118/133/118
f 11/11/11 116/125/116 118/133/118
vt 0.818410 0.582420
vt 0.817139 0.585152
f 168/251/168 121/137/121 140/252/140
vt 0.825968 0.587789
f 168/251/168 177/253/177 121/137/121
f 177/253/177 119/135/119 121/137/121
vt 0.002509 0.520166
f 178/254/178 174/248/174 142/172/142
vt 0.009061 0.562468
f 178/254/178 179/255/179 174/248/174
vt 0.002203 0.485712
f 142/172/142 177/256/177 178/254/178
f 142/172/142 120/171/120 177/256/177
vt 0.002408 0.484664
f 120/171/120 119/257/119 177/256/177
vt 0.512746 0.770910
vt 0.521016 0.773409
vt 0.521151 0.767766
f 180/258/180 181/259/181 149/260/149
vt 0.679955 0.827393
vt 0.657013 0.826358
vt 0.656982 0.827393
f 20/261/20 24/262/24 182/263/182
vt 0.910570 0.997930
vt 0.983288 0.999268
vt 0.956456 0.996074
f 183/264/183 122/265/122 20/266/20
vt 0.983235 0.995697
f 122/265/122 124/267/124 20/266/20
vt 0.668495 0.826484
f 20/261/20 21/268/21 24/262/24
vt 0.039795 0.120361
vt 0.051952 0.120361
vt 0.048082 0.117655
f 151/269/151 150/270/150 14/271/14
vt 0.042659 0.113602
f 14/271/14 13/272/13 151/269/151
vt 0.051428 0.117122
f 150/270/150 184/273/184 14/271/14
vt 0.545216 0.754416
vt 0.545118 0.749081
f 159/202/159 185/274/185 9/275/9
f 9/275/9 8/196/8 159/202/159
vt 0.558011 0.761780
f 145/198/145 186/276/186 185/274/185
vt 0.523764 0.781518
f 145/198/145 187/277/187 186/276/186
f 145/198/145 149/260/149 187/277/187
vt 0.558760 0.757031
f 186/276/186 188/278/188 185/274/185
vt 0.996826 0.899080
vt 0.998957 0.905036
vt 0.996826 0.913330
f 149/279/149 181/280/181 187/281/187
f 185/274/185 159/202/159 145/198/145
vt 0.512810 0.776279
f 181/259/181 189/282/189 187/277/187
f 181/259/181 180/258/180 189/282/189
vt 0.594303 0.819752
f 154/212/154 162/208/162 190/283/190
vt 0.050482 0.113923
vt 0.056291 0.116986
f 190/284/190 184/273/184 154/285/154
f 184/273/184 150/270/150 154/285/154
vt 0.569570 0.751559
vt 0.573101 0.748016
f 156/197/156 191/286/191 192/287/192
f 192/287/192 158/201/158 156/197/156
f 192/287/192 164/217/164 158/201/158
f 188/278/188 156/197/156 7/200/7
f 188/278/188 191/286/191 156/197/156
f 7/200/7 185/274/185 188/278/188
f 7/200/7 9/275/9 185/274/185
vt 0.832764 0.657926
vt 0.834173 0.642808
vt 0.837398 0.662447
f 191/288/191 186/289/186 193/290/193
f 191/286/191 188/278/188 186/276/186
vt 0.574735 0.751852
f 193/291/193 192/287/192 191/286/191
vt 0.973389 0.874721
vt 0.975248 0.883959
vt 0.973517 0.885986
f 134/292/134 194/293/194 135/294/135
vt 0.978401 0.877820
f 134/292/134 172/295/172 194/293/194
f 134/292/134 169/226/169 172/295/172
vt 0.978326 0.879631
f 172/295/172 195/296/195 194/293/194
f 134/292/134 91/222/91 169/226/169
vt 0.764290 0.627845
vt 0.817621 0.685029
vt 0.813844 0.627267
f 196/297/196 197/298/197 198/299/198
f 196/297/196 167/219/167 197/298/197
f 167/219/167 166/218/166 197/298/197
vt 0.813946 0.624876
f 198/299/198 199/300/199 196/297/196
vt 0.749070 0.623006
f 168/221/168 196/297/196 200/301/200
f 168/221/168 167/219/167 196/297/196
vt 0.760611 0.623764
f 196/297/196 201/302/201 200/301/200
vt 0.743638 0.622660
vt 0.739896 0.664615
f 200/301/200 202/303/202 178/304/178
f 178/304/178 168/221/168 200/301/200
vt 0.739014 0.699070
f 178/304/178 177/305/177 168/221/168
vt 0.749287 0.615358
f 200/301/200 34/306/34 202/303/202
vt 0.495679 0.660211
f 34/30/34 33/29/33 202/307/202
vt 0.753343 0.615615
f 200/301/200 203/308/203 34/306/34
vt 0.520955 0.784424
f 204/309/204 187/277/187 189/282/189
vt 0.968544 0.837027
vt 0.962538 0.838773
vt 0.967710 0.847889
f 189/310/189 205/311/205 204/312/204
vt 0.506094 0.781101
vt 0.511873 0.782784
f 189/282/189 123/313/123 205/314/205
vt 0.078937 0.546143
vt 0.073914 0.544128
vt 0.063232 0.546143
f 151/315/151 206/316/206 207/317/207
vt 0.919136 0.802692
vt 0.921482 0.822340
vt 0.931198 0.812440
f 207/318/207 208/319/208 151/320/151
vt 0.929652 0.823486
f 208/319/208 152/321/152 151/320/151
vt 0.466785 0.992447
f 209/322/209 82/64/82 61/63/61
vt 0.516612 0.994994
f 209/322/209 210/323/210 82/64/82
vt 0.439681 0.980691
f 61/63/61 160/324/160 209/322/209
f 61/63/61 60/206/60 160/324/160
vt 0.524240 0.993939
f 210/323/210 211/325/211 82/64/82
vt 0.909350 0.820484
vt 0.901593 0.823486
f 208/319/208 212/326/212 209/327/209
vt 0.447561 0.988542
f 209/322/209 160/324/160 208/328/208
vt 0.439828 0.985521
f 160/324/160 152/329/152 208/328/208
vt 0.901175 0.819577
f 212/326/212 213/330/213 209/327/209
f 206/316/206 13/13/13 15/15/15
f 206/316/206 151/315/151 13/13/13
f 207/317/207 206/316/206 15/15/15
vt 0.065827 0.535138
f 15/15/15 214/331/214 207/317/207
vt 0.071688 0.535284
f 15/15/15 190/332/190 214/331/214
f 15/15/15 14/14/14 190/332/190
vt 0.075238 0.534618
f 14/14/14 184/333/184 190/332/190
vt 0.066434 0.531776
f 190/332/190 215/334/215 214/331/214
vt 0.909216 0.593808
vt 0.905887 0.599152
vt 0.845643 0.599977
f 216/335/216 217/336/217 218/337/218
vt 0.956755 0.850830
vt 0.893047 0.845404
f 218/338/218 205/311/205 216/339/216
f 218/338/218 204/312/204 205/311/205
vt 0.917308 0.598697
f 216/335/216 219/340/219 217/336/217
vt 0.844820 0.608209
vt 0.845904 0.639817
f 186/289/186 220/341/220 221/342/221
vt 0.832764 0.603162
f 186/289/186 187/343/187 220/341/220
vt 0.838692 0.662622
f 221/342/221 222/344/222 186/289/186
f 222/344/222 193/290/193 186/289/186
f 187/343/187 218/337/218 220/341/220
vt 0.834629 0.599349
f 187/343/187 204/345/204 218/337/218
vt 0.073264 0.066568
vt 0.069339 0.069580
vt 0.072154 0.069380
f 192/346/192 165/347/165 164/348/164
vt 0.068651 0.065150
f 192/346/192 193/349/193 165/347/165
vt 0.067190 0.065328
f 193/349/193 222/350/222 165/347/165
vt 0.063232 0.069580
f 222/350/222 166/351/166 165/347/165
vt 0.050736 0.499720
vt 0.050557 0.492083
f 171/235/171 223/352/223 195/353/195
f 195/353/195 172/236/172 171/235/171
vt 0.050516 0.549613
vt 0.044476 0.519320
f 30/26/30 224/354/224 225/355/225
f 225/355/225 173/239/173 30/26/30
vt 0.045620 0.499972
f 225/355/225 226/356/226 173/239/173
vt 0.049949 0.526705
f 224/354/224 227/357/227 225/355/225
vt 0.086670 0.577393
vt 0.089653 0.569382
vt 0.088846 0.558104
f 225/358/225 228/359/228 226/360/226
vt 0.052644 0.564889
f 30/26/30 229/361/229 224/354/224
f 226/356/226 171/235/171 173/239/173
vt 0.091986 0.577393
f 225/358/225 230/362/230 228/359/228
f 30/26/30 12/12/12 175/249/175
f 30/26/30 173/239/173 12/12/12
f 175/249/175 31/27/31 30/26/30
f 173/239/173 10/10/10 12/12/12
vt 0.589853 0.803955
vt 0.521216 0.796871
f 123/363/123 183/364/183 39/35/39
vt 0.593875 0.800355
f 123/363/123 122/365/122 183/364/183
f 183/364/183 40/36/40 39/35/39
vt 0.074771 0.529556
vt 0.069175 0.531194
f 190/332/190 162/366/162 231/367/231
f 231/367/231 215/334/215 190/332/190
vt 0.071332 0.528927
f 162/366/162 232/368/232 231/367/231
vt 0.074112 0.528028
f 162/366/162 161/369/161 232/368/232
vt 0.861865 0.662694
vt 0.850439 0.665936
f 222/344/222 233/370/233 197/371/197
vt 0.842728 0.666787
f 197/371/197 166/372/166 222/344/222
vt 0.892359 0.650974
vt 0.892608 0.662358
f 233/370/233 234/373/234 235/374/235
f 233/370/233 221/342/221 234/373/234
f 233/370/233 222/344/222 221/342/221
vt 0.897998 0.807448
f 212/326/212 207/318/207 236/375/236
f 212/326/212 208/319/208 207/318/207
vt 0.893290 0.814565
f 236/375/236 237/376/237 212/326/212
vt 0.020856 0.166603
vt 0.007397 0.175049
vt 0.029274 0.175049
f 238/377/238 236/378/236 207/379/207
vt 0.028340 0.169067
f 207/379/207 239/380/239 238/377/238
vt 0.037770 0.167793
f 207/379/207 214/381/214 239/380/239
vt 0.030171 0.165584
f 214/381/214 240/382/240 239/380/239
vt 0.008194 0.165816
f 18/18/18 241/383/241 236/378/236
vt 0.000732 0.171364
f 241/383/241 242/384/242 236/378/236
vt 0.894146 0.828705
f 39/385/39 216/339/216 205/311/205
vt 0.962897 0.832851
f 205/311/205 123/386/123 39/385/39
vt 0.885944 0.837321
f 39/385/39 243/387/243 216/339/216
vt 0.886169 0.833650
f 39/385/39 244/388/244 243/387/243
vt 0.889933 0.825913
f 39/385/39 38/389/38 244/388/244
vt 0.035482 0.163617
vt 0.031450 0.162703
f 240/382/240 245/390/245 246/391/246
f 240/382/240 214/381/214 245/390/245
vt 0.649271 0.638691
vt 0.647216 0.643842
vt 0.649622 0.642086
f 247/392/247 232/393/232 248/394/248
vt 0.646939 0.640274
f 247/392/247 231/395/231 232/393/232
vt 0.649888 0.635965
f 247/392/247 245/396/245 231/395/231
vt 0.906230 0.603759
f 220/341/220 249/397/249 234/373/234
f 234/373/234 221/342/221 220/341/220
vt 0.902967 0.623279
f 249/397/249 250/398/250 234/373/234
vt 0.907352 0.639038
f 250/398/250 251/399/251 234/373/234
f 249/397/249 218/337/218 217/336/217
f 249/397/249 220/341/220 218/337/218
vt 0.029216 0.162655
vt 0.023467 0.160770
f 252/400/252 253/401/253 238/377/238
f 238/377/238 239/380/239 252/400/252
f 197/371/197 233/370/233 235/374/235
vt 0.908256 0.665328
f 235/374/235 198/402/198 197/371/197
vt 0.817401 0.642826
vt 0.819426 0.623787
f 235/403/235 254/404/254 198/299/198
vt 0.881752 0.817508
f 213/330/213 237/376/237 255/405/255
f 213/330/213 212/326/212 237/376/237
vt 0.852830 0.820037
vt 0.863396 0.816296
f 210/406/210 255/405/255 256/407/256
vt 0.486121 0.999268
f 210/323/210 209/322/209 255/408/255
f 209/327/209 213/330/213 255/405/255
vt 0.852295 0.815497
f 256/407/256 257/409/257 210/406/210
vt 0.890687 0.806989
vt 0.879139 0.809923
f 242/410/242 258/411/258 255/405/255
f 255/405/255 237/376/237 242/410/242
f 237/376/237 236/375/236 242/410/242
f 258/411/258 256/407/256 255/405/255
vt 0.492920 0.702393
vt 0.503039 0.669091
f 178/412/178 202/307/202 259/413/259
vt 0.005639 0.554770
f 259/414/259 179/255/179 178/254/178
vt 0.002360 0.566217
f 259/414/259 260/415/260 179/255/179
vt 0.933491 0.996285
vt 0.944966 0.996101
vt 0.942176 0.992663
f 24/416/24 21/417/21 23/418/23
vt 0.929633 0.992610
f 183/264/183 24/416/24 25/419/25
vt 0.910442 0.988757
vt 0.906675 0.992881
f 37/420/37 36/421/36 183/264/183
vt 0.906756 0.999268
f 36/421/36 40/422/40 183/264/183
vt 0.921192 0.602390
vt 0.921868 0.629220
f 250/398/250 261/423/261 262/424/262
f 250/398/250 249/397/249 261/423/261
f 249/397/249 219/340/219 261/423/261
f 249/397/249 217/336/217 219/340/219
vt 0.911602 0.661496
vt 0.919062 0.653641
f 254/425/254 251/399/251 263/426/263
f 254/425/254 234/373/234 251/399/251
f 254/425/254 235/374/235 234/373/234
vt 0.919297 0.660593
f 263/426/263 49/427/49 254/425/254
vt 0.915555 0.665333
f 49/427/49 264/428/264 254/425/254
vt 0.924326 0.656716
f 263/426/263 265/429/265 49/427/49
vt 0.922808 0.659091
f 265/429/265 50/430/50 49/427/49
vt 0.814133 0.619622
vt 0.783825 0.611864
f 199/300/199 266/431/266 267/432/267
f 267/432/267 196/297/196 199/300/199
vt 0.772217 0.616854
f 267/432/267 268/433/268 196/297/196
vt 0.761045 0.616131
f 268/433/268 269/434/269 196/297/196
f 269/434/269 201/302/201 196/297/196
vt 0.514002 0.952944
f 28/24/28 88/74/88 270/435/270
f 28/24/28 27/23/27 88/74/88
vt 0.063232 0.030518
vt 0.070306 0.030518
vt 0.069779 0.026093
f 270/436/270 271/437/271 28/438/28
f 259/413/259 202/307/202 33/29/33
vt 0.501676 0.657182
f 33/29/33 260/439/260 259/413/259
f 33/29/33 32/28/32 260/439/260
vt 0.000732 0.569929
vt 0.002821 0.569966
f 32/440/32 272/441/272 260/415/260
f 262/424/262 263/426/263 251/399/251
f 251/399/251 250/398/250 262/424/262
vt 0.041355 0.567100
f 229/361/229 29/25/29 273/442/273
vt 0.057702 0.568990
f 273/442/273 274/443/274 229/361/229
f 229/361/229 30/26/30 29/25/29
vt 0.055638 0.557000
f 274/443/274 275/444/275 229/361/229
f 201/302/201 269/434/269 203/308/203
f 203/308/203 200/301/200 201/302/201
vt 0.387451 0.581299
vt 0.398050 0.581299
vt 0.392870 0.579703
f 72/445/72 43/446/43 42/447/42
vt 0.068391 0.358643
vt 0.063475 0.347835
vt 0.063232 0.358643
f 42/448/42 70/449/70 72/450/72
vt 0.086670 0.487549
vt 0.092898 0.487549
vt 0.090922 0.482399
f 199/451/199 254/452/254 264/453/264
vt 0.818278 0.619889
f 264/454/264 266/431/266 199/300/199
f 199/300/199 198/299/198 254/404/254
vt 0.818082 0.616048
f 264/454/264 276/455/276 266/431/266
vt 0.919197 0.664695
vt 0.919416 0.667236
f 264/428/264 277/456/277 276/457/276
vt 0.998173 0.764754
vt 0.988674 0.752792
vt 0.994678 0.768160
f 269/458/269 278/459/278 279/460/279
vt 0.995653 0.753407
f 269/458/269 268/461/268 278/459/278
vt 0.757243 0.612036
f 279/462/279 203/308/203 269/434/269
vt 0.061554 0.577393
vt 0.061423 0.571843
f 176/250/176 280/463/280 281/464/281
vt 0.014930 0.577392
f 176/250/176 282/465/282 280/463/280
vt 0.010201 0.573856
f 176/250/176 283/466/283 282/465/282
f 176/250/176 174/248/174 283/466/283
f 174/248/174 179/255/179 283/466/283
f 179/255/179 260/415/260 283/466/283
f 260/415/260 272/441/272 283/466/283
vt 0.885072 0.850830
vt 0.885908 0.837899
vt 0.879639 0.842251
f 219/467/219 47/468/47 284/469/284
f 219/467/219 216/339/216 47/468/47
f 216/339/216 243/387/243 47/468/47
vt 0.649437 0.752017
vt 0.653371 0.744404
vt 0.649154 0.742193
f 284/470/284 285/471/285 219/472/219
vt 0.882088 0.837902
f 47/468/47 46/473/46 284/469/284
vt 0.653308 0.742837
f 285/471/285 261/474/261 219/472/219
vt 0.075172 0.440311
vt 0.071091 0.442547
vt 0.075400 0.444580
f 286/475/286 287/476/287 274/477/274
vt 0.071392 0.440108
f 286/475/286 288/478/288 287/476/287
vt 0.079041 0.444177
f 274/477/274 289/479/289 286/475/286
vt 0.019585 0.179913
vt 0.023930 0.195040
vt 0.023802 0.180839
f 274/480/274 290/481/290 291/482/291
vt 0.008410 0.195716
f 274/480/274 273/483/273 290/481/290
vt 0.022433 0.179757
f 291/482/291 289/484/289 274/480/274
vt 0.070584 0.353416
vt 0.069510 0.349233
f 292/485/292 281/486/281 70/449/70
f 70/449/70 42/448/42 292/485/292
vt 0.067719 0.342344
f 281/486/281 71/487/71 70/449/70
vt 0.072579 0.345243
f 281/486/281 280/488/280 71/487/71
vt 0.074694 0.356252
f 42/448/42 41/489/41 292/485/292
vt 0.000732 0.198486
vt 0.031847 0.198486
f 31/490/31 281/491/281 290/481/290
f 31/27/31 176/250/176 281/464/281
f 290/481/290 273/483/273 31/490/31
f 31/27/31 175/249/175 176/250/176
vt 0.031104 0.194920
f 281/491/281 292/492/292 290/481/290
f 273/442/273 29/25/29 31/27/31
vt 0.084951 0.218018
vt 0.084718 0.212613
vt 0.081323 0.215153
f 44/493/44 36/494/36 35/495/35
vt 0.902801 0.989048
vt 0.891950 0.993291
f 44/496/44 293/497/293 40/422/40
f 40/422/40 36/421/36 44/496/44
vt 0.083514 0.182861
vt 0.079561 0.175890
vt 0.077270 0.179178
f 38/498/38 294/499/294 295/500/295
vt 0.074951 0.182861
f 295/500/295 244/501/244 38/498/38
vt 0.063232 0.421143
vt 0.079258 0.421143
vt 0.072157 0.417152
f 40/502/40 293/503/293 296/504/296
vt 0.508545 0.800073
f 296/505/296 38/34/38 40/36/40
vt 0.509373 0.803955
f 296/505/296 294/506/294 38/34/38
vt 0.710542 0.732516
vt 0.710703 0.737053
vt 0.714506 0.737037
f 49/507/49 48/508/48 297/509/297
vt 0.714376 0.730968
f 297/509/297 277/510/277 49/507/49
f 277/456/277 264/428/264 49/427/49
vt 0.715129 0.724178
vt 0.716460 0.728777
vt 0.722313 0.729634
f 266/511/266 276/512/276 298/513/298
vt 0.817806 0.612400
f 298/514/298 267/432/267 266/431/266
vt 0.988994 0.749163
f 268/461/268 55/515/55 278/459/278
vt 0.992610 0.741374
f 268/461/268 267/516/267 55/515/55
vt 0.719155 0.695665
vt 0.727002 0.692260
vt 0.723117 0.688033
f 267/517/267 53/518/53 55/519/55
vt 0.084408 0.264892
f 53/520/53 52/51/52 55/50/55
vt 0.014647 0.111788
vt 0.013011 0.107382
vt 0.011964 0.112831
f 299/521/299 286/522/286 289/523/289
vt 0.521812 0.899630
vt 0.525545 0.895257
vt 0.521711 0.895342
f 77/524/77 300/525/300 301/526/301
vt 0.074951 0.124268
vt 0.084022 0.124268
vt 0.081044 0.121663
f 77/527/77 302/528/302 300/529/300
vt 0.529365 0.895148
vt 0.529264 0.891332
f 302/530/302 303/531/303 300/525/300
f 301/526/301 76/60/76 77/524/77
vt 0.033661 0.179224
vt 0.027737 0.191194
vt 0.035510 0.187520
f 301/532/301 41/533/41 43/534/43
f 301/532/301 291/482/291 41/533/41
f 291/482/291 290/481/290 41/533/41
f 43/61/43 76/60/76 301/526/301
f 290/481/290 292/492/292 41/533/41
vt 0.981590 0.783630
vt 0.989869 0.784424
vt 0.994670 0.776254
f 283/535/283 272/536/272 34/537/34
f 34/537/34 279/460/279 283/535/283
vt 0.992259 0.783876
f 272/536/272 32/538/32 34/537/34
vt 0.997438 0.772398
f 34/537/34 203/539/203 279/460/279
vt 0.652811 0.775471
vt 0.664565 0.771777
vt 0.649102 0.758992
f 305/540/305 306/541/306 45/542/45
vt 0.645035 0.762185
f 45/542/45 295/543/295 305/540/305
vt 0.643403 0.758090
f 45/542/45 244/544/244 295/543/295
vt 0.645114 0.766029
vt 0.641357 0.766624
f 305/540/305 294/545/294 296/546/296
f 305/540/305 295/543/295 294/545/294
vt 0.680105 0.739436
f 285/471/285 262/547/262 261/474/261
vt 0.687841 0.741023
f 285/471/285 307/548/307 262/547/262
vt 0.702931 0.730704
f 307/548/307 263/549/263 262/547/262
vt 0.703120 0.734930
f 307/548/307 308/550/308 263/549/263
vt 0.707087 0.733645
f 308/550/308 265/551/265 263/549/263
vt 0.718295 0.740981
vt 0.699285 0.757160
vt 0.733505 0.760996
f 309/552/309 310/553/310 311/554/311
f 309/552/309 308/550/308 310/553/310
vt 0.733629 0.745353
f 311/554/311 312/555/312 309/552/309
f 308/550/308 307/548/307 310/553/310
f 309/552/309 48/508/48 308/550/308
f 309/552/309 297/509/297 48/508/48
f 298/513/298 276/512/276 297/509/297
f 297/509/297 309/552/309 298/513/298
f 276/512/276 277/510/277 297/509/297
vt 0.977102 0.771878
vt 0.984909 0.752861
f 313/556/313 279/460/279 54/557/54
vt 0.973350 0.756727
f 54/557/54 314/558/314 313/556/313
vt 0.981098 0.749096
f 54/557/54 51/559/51 314/558/314
vt 0.977202 0.741477
f 51/559/51 315/560/315 314/558/314
vt 0.730893 0.688525
vt 0.734588 0.696205
f 51/561/51 53/518/53 315/562/315
f 53/518/53 267/517/267 315/562/315
vt 0.728802 0.711079
f 267/517/267 316/563/316 315/562/315
f 267/517/267 298/513/298 316/563/316
vt 0.730264 0.718648
f 298/513/298 317/564/317 316/563/316
f 298/513/298 312/555/312 317/564/317
f 298/513/298 309/552/309 312/555/312
f 279/460/279 278/459/278 54/557/54
f 313/556/313 283/535/283 279/460/279
vt 0.969274 0.771849
f 314/558/314 318/565/318 313/556/313
f 278/459/278 55/515/55 54/557/54
vt 0.961752 0.749150
f 315/560/315 319/566/319 314/558/314
vt 0.964949 0.741142
f 315/560/315 320/567/320 319/566/319
vt 0.961873 0.756835
f 319/566/319 321/568/321 314/558/314
vt 0.961604 0.745259
f 320/567/320 322/569/322 319/566/319
vt 0.066189 0.280699
vt 0.073761 0.284424
vt 0.074322 0.276838
f 323/570/323 321/571/321 319/572/319
vt 0.070012 0.275612
f 319/572/319 324/573/324 323/570/323
vt 0.068502 0.284424
f 323/570/323 325/574/325 321/571/321
vt 0.063232 0.276372
f 324/573/324 326/575/326 323/570/323
vt 0.014171 0.117287
vt 0.001671 0.120362
vt 0.029225 0.120362
f 327/576/327 303/577/303 328/578/328
vt 0.018456 0.112060
f 328/578/328 329/579/329 327/576/327
vt 0.029665 0.115378
f 328/578/328 330/580/330 329/579/329
vt 0.002038 0.115027
f 327/576/327 300/581/300 303/577/303
f 329/579/329 299/521/299 327/576/327
vt 0.033855 0.113332
vt 0.037599 0.116529
f 325/582/325 328/578/328 321/583/321
f 325/582/325 330/580/330 328/578/328
vt 0.010520 0.113391
f 291/584/291 300/581/300 327/576/327
vt 0.000732 0.111845
f 291/584/291 301/585/301 300/581/300
vt 0.972338 0.775184
vt 0.977070 0.780381
f 313/556/313 331/586/331 282/587/282
f 282/587/282 283/535/283 313/556/313
vt 0.950040 0.775773
f 282/587/282 331/586/331 332/588/332
vt 0.928389 0.780536
f 332/588/332 280/589/280 282/587/282
vt 0.927767 0.776370
f 332/588/332 333/590/333 280/589/280
vt 0.664846 0.760631
f 45/542/45 334/591/334 284/470/284
f 45/542/45 306/541/306 334/591/334
vt 0.646507 0.755243
f 284/470/284 46/592/46 45/542/45
f 307/548/307 285/471/285 334/591/334
f 334/591/334 310/553/310 307/548/307
f 285/471/285 284/470/284 334/591/334
vt 0.709370 0.733303
f 48/508/48 50/593/50 265/551/265
f 265/551/265 308/550/308 48/508/48
vt 0.926810 0.764908
vt 0.927492 0.768602
f 303/594/303 304/595/304 332/588/332
vt 0.954387 0.764611
f 332/588/332 328/596/328 303/594/303
f 304/595/304 333/590/333 332/588/332
f 332/588/332 318/565/318 328/596/328
f 318/565/318 321/568/321 328/596/328
f 318/565/318 314/558/314 321/568/321
vt 0.924064 0.784424
f 71/597/71 280/589/280 333/590/333
vt 0.071060 0.132080
vt 0.067991 0.126515
vt 0.063232 0.132080
f 318/598/318 331/599/331 313/600/313
f 318/565/318 332/588/332 331/586/331
vt 0.733290 0.784424
vt 0.737119 0.772439
vt 0.733234 0.772188
f 337/601/337 338/602/338 335/603/335
vt 0.702636 0.779801
f 336/604/336 310/553/310 306/541/306
f 310/553/310 334/591/334 306/541/306
f 336/604/336 311/554/311 310/553/310
f 336/604/336 335/603/335 311/554/311
vt 0.645469 0.754378
vt 0.645187 0.754883
f 45/542/45 47/605/47 243/606/243
f 45/542/45 243/606/243 244/544/244
vt 0.938073 0.707763
f 94/86/94 108/112/108 117/607/117
f 94/86/94 117/607/117 95/87/95
f 238/377/238 16/16/16 236/378/236
f 16/16/16 18/18/18 236/378/236
vt 0.989721 0.861876
vt 0.991848 0.855913
f 115/608/115 64/223/64 141/609/141
f 114/224/114 64/223/64 115/608/115
f 132/150/132 155/195/155 137/162/137
f 155/195/155 157/199/157 137/162/137
vt 0.818470 0.608643
vt 0.817805 0.604918
f 120/136/120 117/610/117 108/611/108
f 120/136/120 108/611/108 109/138/109
f 299/521/299 289/523/289 327/576/327
f 289/523/289 291/584/291 327/576/327
vt 0.933513 0.997002
f 182/612/182 24/416/24 183/264/183
f 137/162/137 138/163/138 111/151/111
vt 0.949167 0.681555
f 105/111/105 94/86/94 107/613/107
vt 0.039795 0.135986
vt 0.060885 0.135986
vt 0.050938 0.128238
f 138/614/138 140/615/140 139/616/139
f 161/211/161 248/394/248 232/393/232
vt 0.882263 0.678847
vt 0.880698 0.675326
vt 0.877114 0.677141
f 339/617/339 223/618/223 340/619/340
vt 0.660589 0.626528
vt 0.656099 0.623700
vt 0.656805 0.630489
f 341/620/341 238/621/238 253/622/253
vt 0.860093 0.685616
vt 0.868542 0.677102
vt 0.861899 0.680457
f 342/623/342 228/624/228 230/625/230
vt 0.680583 0.652356
vt 0.676546 0.652995
vt 0.676763 0.662602
f 343/626/343 344/627/344 345/628/345
vt 0.072086 0.022705
vt 0.067637 0.019129
vt 0.063232 0.022705
f 342/629/342 230/630/230 225/631/225
vt 0.859994 0.677136
vt 0.855056 0.683857
f 225/632/225 227/633/227 342/623/342
vt 0.039795 0.227793
vt 0.046044 0.238220
vt 0.039795 0.251278
f 73/634/73 346/635/346 74/636/74
vt 0.087907 0.444231
vt 0.086670 0.448486
vt 0.091600 0.448486
f 347/637/347 348/638/348 349/639/349
vt 0.697923 0.811519
vt 0.692789 0.808391
vt 0.690876 0.816703
f 350/640/350 351/641/351 352/642/352
vt 0.828857 0.651611
vt 0.828857 0.645681
vt 0.830831 0.649759
f 288/643/288 353/644/353 287/645/287
vt 0.089573 0.519212
vt 0.086670 0.526611
vt 0.091737 0.526611
f 354/646/354 84/647/84 89/648/89
vt 0.086670 0.553955
vt 0.092753 0.553955
vt 0.087031 0.550842
f 87/649/87 355/650/355 85/651/85
vt 0.002382 0.100580
vt 0.007362 0.094154
vt 0.000732 0.094591
f 324/652/324 356/653/356 326/654/326
f 127/161/127 136/155/136 135/154/135
vt 0.058235 0.198486
f 135/154/135 130/655/130 127/161/127
vt 0.053501 0.195404
f 135/154/135 194/656/194 130/655/130
vt 0.660496 0.641281
f 163/210/163 344/627/344 357/657/357
f 357/657/357 161/211/161 163/210/163
vt 0.682721 0.640959
f 344/627/344 358/658/358 357/657/357
f 357/657/357 248/394/248 161/211/161
f 357/657/357 247/392/247 248/394/248
vt 0.677608 0.675797
f 163/210/163 359/659/359 345/628/345
vt 0.643988 0.674509
vt 0.652498 0.678629
vt 0.660590 0.667554
f 360/660/360 361/661/361 362/662/362
f 163/210/163 129/209/129 360/660/360
f 345/628/345 344/627/344 163/210/163
vt 0.902574 0.694407
vt 0.895739 0.689265
vt 0.879745 0.710167
f 128/663/128 363/664/363 364/665/364
vt 0.891108 0.706597
f 364/665/364 365/666/365 128/663/128
vt 0.673772 0.682861
vt 0.677233 0.681831
f 364/667/364 366/668/366 359/659/359
vt 0.890699 0.678937
vt 0.888579 0.684267
f 363/664/363 130/669/130 367/670/367
f 363/664/363 128/663/128 130/669/130
vt 0.885627 0.685727
f 130/669/130 368/671/368 367/670/367
vt 0.878833 0.680558
f 130/669/130 369/672/369 368/671/368
vt 0.892493 0.673749
vt 0.887537 0.671915
f 130/669/130 194/673/194 195/674/195
f 195/674/195 339/617/339 130/669/130
f 195/674/195 223/618/223 339/617/339
f 339/617/339 369/672/369 130/669/130
vt 0.992920 0.996075
vt 0.998131 0.994197
vt 0.996859 0.999268
f 223/675/223 226/676/226 340/677/340
vt 0.992920 0.984148
f 223/675/223 171/678/171 226/676/226
vt 0.751905 0.822350
vt 0.757055 0.808181
vt 0.749862 0.818368
f 364/679/364 370/680/370 371/681/371
vt 0.766472 0.803828
f 364/679/364 363/682/363 370/680/370
vt 0.762327 0.800879
f 363/682/363 372/683/372 370/680/370
vt 0.083560 0.293526
vt 0.078857 0.287180
vt 0.084165 0.288909
f 372/684/372 367/685/367 373/686/373
vt 0.078857 0.296143
f 372/684/372 363/687/363 367/685/367
vt 0.647582 0.637789
f 245/396/245 215/688/215 231/395/231
vt 0.646323 0.634357
f 245/396/245 214/689/214 215/688/215
vt 0.758855 0.799152
vt 0.751620 0.801378
f 370/680/370 373/690/373 374/691/374
f 370/680/370 372/683/372 373/690/373
vt 0.889159 0.688227
vt 0.880761 0.692390
vt 0.882465 0.696208
f 373/692/373 375/693/375 374/694/374
vt 0.748608 0.802251
f 374/691/374 376/695/376 370/680/370
vt 0.872880 0.685565
f 375/693/375 368/671/368 377/696/377
f 375/693/375 373/692/373 368/671/368
f 373/692/373 367/670/367 368/671/368
vt 0.652794 0.632917
f 357/657/357 253/622/253 252/697/252
f 252/697/252 247/392/247 357/657/357
vt 0.652154 0.634112
f 252/697/252 246/698/246 247/392/247
f 246/698/246 245/396/245 247/392/247
vt 0.837881 0.692413
vt 0.839647 0.695800
vt 0.855107 0.700906
f 378/699/378 349/700/349 379/701/379
f 379/701/379 342/623/342 378/699/378
f 379/701/379 377/696/377 342/623/342
vt 0.837975 0.700904
f 349/700/349 348/702/348 379/701/379
f 377/696/377 228/624/228 342/623/342
f 377/696/377 340/619/340 228/624/228
f 377/696/377 369/672/369 340/619/340
vt 0.878803 0.672005
f 340/619/340 226/703/226 228/624/228
f 377/696/377 368/671/368 369/672/369
f 369/672/369 339/617/339 340/619/340
vt 0.651841 0.630745
f 240/704/240 246/698/246 252/697/252
vt 0.650550 0.627015
f 252/697/252 239/705/239 240/704/240
vt 0.745312 0.803070
vt 0.728204 0.819329
f 380/706/380 381/707/381 371/681/371
f 371/681/371 370/680/370 380/706/380
f 370/680/370 376/695/376 380/706/380
vt 0.086670 0.495361
vt 0.090922 0.489278
vt 0.087267 0.489501
f 374/708/374 382/709/382 383/710/383
vt 0.092015 0.495361
f 374/708/374 375/711/375 382/709/382
vt 0.685086 0.636020
vt 0.666171 0.629170
f 358/658/358 384/712/384 385/713/385
f 385/713/385 357/657/357 358/658/358
f 385/713/385 253/622/253 357/657/357
f 385/713/385 341/620/341 253/622/253
vt 0.748329 0.798573
f 383/714/383 380/706/380 376/695/376
f 376/695/376 374/691/374 383/714/383
vt 0.873991 0.695754
f 377/696/377 379/701/379 386/715/386
f 386/715/386 375/693/375 377/696/377
vt 0.879184 0.697431
f 386/715/386 382/716/382 375/693/375
vt 0.083467 0.327517
vt 0.083241 0.334081
vt 0.078857 0.330968
f 16/717/16 341/718/341 387/719/387
vt 0.658212 0.620206
f 16/720/16 238/621/238 341/620/341
vt 0.078857 0.327754
f 387/719/387 17/721/17 16/717/16
vt 0.080433 0.339112
f 341/718/341 385/722/385 387/719/387
vt 0.875634 0.699223
f 382/716/382 386/715/386 388/723/388
vt 0.743913 0.799534
vt 0.746932 0.795937
f 388/724/388 383/714/383 382/725/382
f 388/724/388 380/706/380 383/714/383
vt 0.719541 0.808325
f 380/706/380 389/726/389 381/707/381
f 380/706/380 388/724/388 389/726/389
vt 0.718576 0.817033
f 389/726/389 390/727/390 381/707/381
vt 0.692020 0.617691
vt 0.676596 0.602806
vt 0.667137 0.623131
f 391/728/391 392/729/392 393/730/393
f 393/730/393 384/712/384 391/728/391
vt 0.686893 0.601741
f 391/728/391 394/731/394 392/729/392
f 393/730/393 385/713/385 384/712/384
vt 0.688109 0.634682
f 384/712/384 395/732/395 391/728/391
vt 0.661926 0.623065
f 393/730/393 387/733/387 385/713/385
vt 0.737399 0.822620
f 371/681/371 381/707/381 396/734/396
vt 0.748465 0.823486
f 396/734/396 366/735/366 371/681/371
vt 0.717552 0.820879
f 381/707/381 397/736/397 396/734/396
vt 0.689906 0.676646
vt 0.695409 0.676190
vt 0.699329 0.672884
f 381/737/381 390/738/390 397/739/397
f 366/735/366 364/679/364 371/681/371
f 388/723/388 386/715/386 379/701/379
vt 0.851012 0.710205
f 379/701/379 389/740/389 388/723/388
f 379/701/379 348/702/348 389/740/389
vt 0.832764 0.707791
f 348/702/348 398/741/398 389/740/389
vt 0.832854 0.699182
f 348/702/348 399/742/399 398/741/398
vt 0.836413 0.697379
f 348/702/348 347/743/347 399/742/399
vt 0.660711 0.620050
f 393/730/393 17/744/17 387/733/387
vt 0.663642 0.615504
f 393/730/393 241/745/241 17/744/17
vt 0.660358 0.616655
f 241/745/241 18/746/18 17/744/17
vt 0.686631 0.643390
f 358/658/358 343/626/343 400/747/400
f 358/658/358 344/627/344 343/626/343
vt 0.688835 0.638341
f 400/747/400 401/748/401 358/658/358
f 401/748/401 384/712/384 358/658/358
f 401/748/401 395/732/395 384/712/384
vt 0.685398 0.677211
vt 0.690399 0.654912
f 359/659/359 396/749/396 402/750/402
f 402/750/402 345/628/345 359/659/359
vt 0.690216 0.651656
f 402/750/402 403/751/403 345/628/345
f 403/751/403 343/626/343 345/628/345
f 403/751/403 400/747/400 343/626/343
f 359/659/359 366/668/366 396/749/396
vt 0.663417 0.606764
f 242/752/242 393/730/393 392/729/392
f 242/752/242 241/745/241 393/730/393
vt 0.078551 0.397705
vt 0.074679 0.393764
vt 0.063232 0.397705
f 392/753/392 258/754/258 242/755/242
vt 0.047276 0.226182
vt 0.057966 0.239546
f 75/756/75 83/757/83 346/635/346
f 346/635/346 73/634/73 75/756/75
vt 0.834527 0.694055
f 227/633/227 224/758/224 378/699/378
f 378/699/378 342/623/342 227/633/227
vt 0.703184 0.636928
vt 0.706859 0.622882
f 403/751/403 404/759/404 405/760/405
f 405/760/405 401/748/401 403/751/403
f 401/748/401 400/747/400 403/751/403
vt 0.709740 0.653786
f 402/750/402 397/739/397 406/761/406
f 402/750/402 396/749/396 397/739/397
vt 0.705322 0.673345
f 397/739/397 407/762/407 406/761/406
vt 0.707445 0.601333
vt 0.697026 0.599112
f 408/763/408 409/764/409 391/728/391
f 391/728/391 395/732/395 408/763/408
vt 0.700280 0.597765
f 408/763/408 410/765/410 409/764/409
f 395/732/395 401/748/401 405/760/405
f 405/760/405 408/763/408 395/732/395
vt 0.711805 0.600857
f 405/760/405 411/766/411 408/763/408
vt 0.714375 0.624694
f 405/760/405 412/767/412 411/766/411
vt 0.019884 0.253174
vt 0.031619 0.237854
vt 0.014652 0.237751
f 256/768/256 394/769/394 413/770/413
vt 0.036914 0.253174
f 256/768/256 258/771/258 394/769/394
vt 0.031882 0.233672
f 394/769/394 414/772/414 413/770/413
vt 0.009601 0.248081
f 413/770/413 257/773/257 256/768/256
vt 0.671274 0.601642
f 258/774/258 392/729/392 394/731/394
f 404/759/404 402/750/402 406/761/406
f 404/759/404 403/751/403 402/750/402
vt 0.714801 0.631314
f 406/761/406 415/775/415 404/759/404
vt 0.720544 0.646794
f 406/761/406 416/776/416 415/775/415
vt 0.718024 0.632485
f 416/776/416 417/777/417 415/775/415
vt 0.722600 0.642458
f 416/776/416 418/778/418 417/777/417
vt 0.715883 0.626194
f 417/777/417 419/779/419 415/775/415
vt 0.049173 0.253174
f 346/635/346 83/757/83 80/780/80
f 80/780/80 74/636/74 346/635/346
vt 0.690165 0.602121
f 391/728/391 409/764/409 414/781/414
f 414/781/414 394/731/394 391/728/391
vt 0.708850 0.820449
f 389/726/389 407/782/407 390/727/390
vt 0.701648 0.810149
f 389/726/389 398/783/398 407/782/407
vt 0.692457 0.820194
f 398/783/398 420/784/420 407/782/407
f 407/762/407 397/739/397 390/738/390
vt 0.981201 0.678955
vt 0.990269 0.678811
vt 0.985949 0.676635
f 224/785/224 275/786/275 399/787/399
vt 0.063232 0.460205
vt 0.078658 0.460205
vt 0.071301 0.455435
f 224/788/224 229/789/229 275/790/275
f 399/742/399 347/743/347 224/758/224
vt 0.092717 0.443738
f 347/637/347 349/639/349 224/791/224
f 349/700/349 378/699/378 224/758/224
vt 0.028311 0.227263
vt 0.019840 0.227184
f 414/772/414 409/792/409 421/793/421
f 421/793/421 413/770/413 414/772/414
vt 0.024888 0.225559
f 409/792/409 410/794/410 421/793/421
vt 0.074933 0.323486
vt 0.075260 0.314648
vt 0.070162 0.316458
f 26/795/26 28/796/28 422/797/422
vt 0.066662 0.323486
f 422/797/422 86/798/86 26/795/26
vt 0.072598 0.312542
f 28/796/28 271/799/271 422/797/422
vt 0.991047 0.669692
vt 0.996579 0.674970
f 398/800/398 275/786/275 353/801/353
f 398/800/398 399/787/399 275/786/275
vt 0.998384 0.678955
f 275/786/275 287/802/287 353/801/353
vt 0.063232 0.444580
f 275/803/275 274/477/274 287/476/287
vt 0.694073 0.808072
f 353/804/353 350/640/350 398/783/398
f 353/804/353 351/641/351 350/640/350
vt 0.716867 0.667632
vt 0.721607 0.651466
f 406/761/406 423/805/423 424/806/424
f 406/761/406 407/762/407 423/805/423
f 424/806/424 416/776/416 406/761/406
vt 0.718506 0.671916
f 407/762/407 356/807/356 423/805/423
vt 0.715728 0.682861
f 407/762/407 420/808/420 356/807/356
vt 0.717959 0.677837
f 420/808/420 326/809/326 356/807/356
vt 0.086670 0.362549
vt 0.091273 0.362549
vt 0.089076 0.357517
f 420/810/420 323/811/323 326/812/326
f 420/784/420 350/640/350 352/642/352
f 420/784/420 398/783/398 350/640/350
vt 0.689390 0.823486
f 352/642/352 323/813/323 420/784/420
vt 0.686273 0.817293
f 352/642/352 425/814/425 323/813/323
vt 0.005914 0.229459
vt 0.000732 0.248705
f 413/770/413 426/815/426 211/816/211
f 211/816/211 257/773/257 413/770/413
f 413/770/413 421/793/421 426/815/426
vt 0.007667 0.251961
f 211/816/211 210/817/210 257/773/257
vt 0.707885 0.592238
f 408/763/408 411/766/411 426/818/426
vt 0.701546 0.594579
f 426/818/426 421/819/421 408/763/408
vt 0.712412 0.597261
f 411/766/411 427/820/427 426/818/426
f 421/819/421 410/765/410 408/763/408
f 404/759/404 415/775/415 412/767/412
f 412/767/412 405/760/405 404/759/404
vt 0.883595 0.956409
vt 0.873368 0.951238
vt 0.876816 0.958710
f 88/821/88 355/822/355 428/823/428
vt 0.092571 0.542488
f 88/824/88 85/651/85 355/650/355
vt 0.865780 0.955913
vt 0.859522 0.961879
vt 0.868114 0.975785
f 429/825/429 430/826/430 431/827/431
vt 0.876617 0.962299
f 431/827/431 432/828/432 429/825/429
f 432/828/432 428/823/428 429/825/429
vt 0.857402 0.840943
vt 0.864050 0.845030
vt 0.866216 0.845041
f 429/829/429 433/830/433 430/831/430
vt 0.882288 0.959886
f 432/828/432 270/832/270 428/823/428
f 270/832/270 88/821/88 428/823/428
vt 0.884297 0.967943
f 270/832/270 432/828/432 422/833/422
vt 0.063661 0.056783
vt 0.063232 0.061768
vt 0.070306 0.061768
f 422/834/422 271/835/271 270/836/270
vt 0.879455 0.985457
vt 0.883848 0.974704
f 431/827/431 81/837/81 86/838/86
f 86/838/86 432/828/432 431/827/431
vt 0.875449 0.988985
f 431/827/431 78/839/78 81/837/81
vt 0.063232 0.310677
f 86/798/86 422/797/422 432/840/432
vt 0.684973 0.809814
f 329/841/329 352/642/352 351/641/351
f 329/841/329 425/814/425 352/642/352
vt 0.688245 0.803553
f 351/641/351 286/842/286 329/841/329
vt 0.684326 0.806076
f 286/842/286 299/843/299 329/841/329
vt 0.691748 0.802770
f 351/641/351 288/844/288 286/842/286
f 351/641/351 353/804/353 288/844/288
vt 0.813233 0.854510
vt 0.820971 0.854736
vt 0.820474 0.851070
f 426/845/426 427/846/427 434/847/434
vt 0.814505 0.834680
f 434/847/434 211/848/211 426/845/426
vt 0.586500 0.792236
vt 0.574230 0.787612
vt 0.567139 0.792236
f 84/849/84 435/850/435 87/851/87
vt 0.824416 0.831329
vt 0.825912 0.837631
vt 0.836698 0.832139
f 84/852/84 354/853/354 435/854/435
vt 0.840394 0.831398
vt 0.843505 0.828337
f 435/854/435 436/855/436 87/856/87
vt 0.869361 0.949742
f 428/823/428 437/857/437 429/825/429
vt 0.854827 0.829994
vt 0.847896 0.832507
vt 0.849018 0.837993
f 428/858/428 355/859/355 437/860/437
vt 0.849779 0.841949
f 437/860/437 438/861/438 429/829/429
f 434/847/434 435/854/435 354/853/354
f 354/853/354 211/848/211 434/847/434
vt 0.820948 0.831810
f 354/853/354 89/862/89 211/848/211
vt 0.817185 0.832374
f 89/862/89 82/863/82 211/848/211
vt 0.714301 0.621230
f 411/766/411 440/864/440 427/820/427
f 411/766/411 412/767/412 440/864/440
f 412/767/412 419/779/419 440/864/440
f 412/767/412 415/775/415 419/779/419
vt 0.847165 0.850204
f 434/847/434 427/846/427 440/865/440
f 440/865/440 435/854/435 434/847/434
f 440/865/440 437/860/437 435/854/435
f 437/860/437 436/855/436 435/854/435
f 440/865/440 438/861/438 437/860/437
f 436/855/436 355/859/355 87/856/87
f 436/855/436 437/860/437 355/859/355
vt 0.889830 0.972974
vt 0.899785 0.956174
vt 0.891302 0.960587
f 315/866/315 441/867/441 320/868/320
vt 0.904587 0.979736
f 315/866/315 316/869/316 441/867/441
vt 0.028227 0.093480
vt 0.011198 0.091745
vt 0.019235 0.104736
f 424/870/424 423/871/423 442/872/442
vt 0.005561 0.104403
f 423/871/423 356/653/356 322/873/322
f 322/873/322 442/872/442 423/871/423
f 356/653/356 324/652/324 322/873/322
vt 0.001773 0.104736
f 324/652/324 319/874/319 322/873/322
vt 0.074951 0.046142
vt 0.083251 0.046143
vt 0.081809 0.041769
f 323/875/323 425/876/425 330/877/330
vt 0.076398 0.041883
f 330/877/330 325/878/325 323/875/323
vt 0.684632 0.821266
f 425/814/425 329/841/329 330/879/330
vt 0.921467 0.964423
vt 0.912301 0.979045
vt 0.939347 0.977841
f 444/880/444 317/881/317 312/882/312
vt 0.943994 0.967552
f 312/882/312 445/883/445 444/880/444
vt 0.954943 0.978328
f 312/882/312 311/884/311 445/883/445
vt 0.966655 0.975888
f 311/884/311 338/885/338 445/883/445
vt 0.966264 0.979736
f 311/884/311 335/886/335 338/885/338
vt 0.851263 0.852880
vt 0.859021 0.852178
f 419/887/419 417/888/417 429/829/429
f 429/829/429 438/861/438 419/887/419
f 417/888/417 433/830/433 429/829/429
f 438/861/438 440/865/440 419/887/419
vt 0.862787 0.848969
f 417/888/417 446/889/446 433/830/433
f 444/880/444 441/867/441 316/869/316
f 316/869/316 317/881/317 444/880/444
vt 0.900083 0.952577
f 320/868/320 441/867/441 442/890/442
vt 0.887451 0.957552
f 442/890/442 322/891/322 320/868/320
vt 0.904079 0.952542
f 441/867/441 448/892/448 442/890/442
vt 0.979068 0.970381
vt 0.949406 0.957712
f 338/885/338 449/893/449 447/894/447
f 447/894/447 445/883/445 338/885/338
vt 0.978311 0.979155
f 338/885/338 337/895/337 449/893/449
vt 0.978980 0.978994
f 337/895/337 450/896/450 449/893/449
f 430/831/430 433/830/433 446/889/446
vt 0.723969 0.646825
f 443/897/443 418/778/418 416/776/416
f 416/776/416 424/806/424 443/897/443
vt 0.023218 0.104709
f 424/870/424 442/872/442 448/898/448
vt 0.661007 0.682751
f 362/662/362 365/899/365 359/659/359
vt 0.900301 0.708401
f 361/900/361 128/663/128 365/666/365
f 364/667/364 359/659/359 365/899/365
f 163/210/163 360/660/360 362/662/362
vt 0.909493 0.710205
vt 0.910258 0.709819
f 360/901/360 451/902/451 128/663/128
vt 0.642882 0.674473
f 360/660/360 129/209/129 451/903/451
f 360/901/360 128/663/128 361/900/361
f 362/662/362 361/661/361 365/899/365
l 430 439
l 19 20
# 822 faces, 903 coords texture

# End of File
