####
#
# OBJ File Generated by Meshlab
#
####
# Object hallway_chair_11.obj
#
# Vertices: 302
# Faces: 578
#
####
mtllib ./hallway_chair_11.obj.mtl

vn 0.209327 -0.748542 0.629179
v 6.605774 -10.045745 0.707500
vn -0.074143 -0.996298 0.043502
v 6.700427 -10.045130 0.707595
vn 0.239151 -0.576694 0.781173
v 6.629839 -10.045613 0.683994
vn -0.067216 -0.663618 0.745046
v 6.700382 -10.045408 0.684013
vn -0.121250 -0.968117 -0.219196
v 6.394707 -10.042116 0.331357
vn 0.011519 -0.999718 -0.020743
v 6.430040 -10.038051 0.154993
vn 0.012312 -0.741152 -0.671224
v 6.582809 -10.040444 0.307839
vn 0.166044 -0.860287 -0.482011
v 6.676859 -10.039576 0.307851
vn 0.395235 -0.860846 -0.320521
v 6.724109 -10.043685 0.354812
vn -0.466814 -0.735484 -0.491069
v 6.418236 -10.061017 0.363966
vn -0.576083 -0.690401 -0.437579
v 6.405096 -10.060988 0.378373
vn -0.234356 -0.616205 -0.751910
v 6.441751 -10.068278 0.354721
vn 0.122620 -0.671884 -0.730435
v 6.653358 -10.060981 0.340909
vn -0.037071 -0.550383 -0.834089
v 6.559311 -10.084493 0.352232
vn 0.459148 -0.525307 -0.716405
v 6.683236 -10.061050 0.354752
vn 0.697032 -0.470992 -0.540660
v 6.700246 -10.059793 0.370416
vn 0.910411 -0.177793 -0.373553
v 6.785298 -10.059093 0.519527
vn 0.140982 -0.987867 0.065130
v 6.841445 -10.053846 0.684449
vn 0.383593 -0.846283 0.369677
v 6.821503 -10.059733 0.684084
vn 0.976563 -0.099077 -0.191071
v 6.824400 -10.059227 0.637081
vn 0.042985 -0.966376 0.253514
v 6.817949 -10.052337 0.707545
vn -0.082952 -0.996367 -0.019260
v 6.888476 -10.058663 0.731082
vn 0.120930 -0.648450 0.751591
v 6.794435 -10.061003 0.688870
vn 0.000000 0.000000 0.000000
v 6.488607 -10.049543 0.699777
vn -0.297814 -0.084438 0.950882
v 6.371439 -10.053344 0.692054
vn 0.011522 -0.999718 -0.020742
v 6.412374 -10.040084 0.243175
vn 0.011520 -0.999719 -0.020743
v 6.388847 -10.040843 0.266696
vn -0.048007 -0.041016 -0.998005
v 6.324188 -10.625299 0.217473
vn -0.740447 -0.313381 -0.594584
v 6.267181 -10.625299 0.237297
vn -0.343246 -0.159789 -0.925554
v 6.277163 -10.601787 0.204320
vn -0.591455 -0.167482 0.788753
v 6.277136 -10.601698 0.332109
vn -0.514580 -0.383532 0.766884
v 6.300671 -10.672329 0.325757
vn -0.077138 -0.257363 0.963231
v 6.371204 -10.672271 0.336692
vn -0.896310 0.116375 -0.427884
v 6.289673 -10.460712 0.213783
vn -0.798874 -0.187085 -0.571664
v 6.290648 -10.484224 0.237300
vn -0.443428 0.610784 -0.655983
v 6.300674 -10.438725 0.237296
vn -0.451079 -0.020534 0.892248
v 6.300671 -10.437200 0.322831
vn -0.454848 0.124632 0.881805
v 6.300642 -10.484221 0.310267
vn 0.004961 -0.063523 0.997968
v 6.324196 -10.437202 0.319894
vn -0.009744 0.479872 -0.877285
v 6.347696 -10.578274 0.202229
vn -0.367412 -0.347757 -0.862597
v 6.347698 -10.621244 0.213782
vn -0.565316 0.627216 -0.535741
v 6.336271 -10.578274 0.213909
vn 0.016565 0.283598 -0.958800
v 6.347698 -10.507737 0.204355
vn 0.039207 -0.672833 -0.738754
v 6.347698 -10.517164 0.213783
vn -0.454764 0.211752 -0.865073
v 6.338270 -10.507737 0.213783
vn -0.859500 0.464220 -0.213917
v 6.324184 -10.108026 0.519444
vn -0.382885 0.911398 0.150840
v 6.347696 -10.100988 0.495930
vn -0.508372 0.839208 0.193099
v 6.324186 -10.090122 0.495933
vn -0.022431 -0.466792 -0.884083
v 6.347706 -10.695769 0.228832
vn 0.136732 -0.134453 -0.981441
v 6.347700 -10.648811 0.219600
vn 0.186486 -0.031252 -0.981960
v 6.371210 -10.648819 0.227700
vn -0.844235 -0.120327 0.522292
v 6.324171 -10.047755 0.660523
vn -0.294189 -0.949029 -0.113125
v 6.277176 -10.046933 0.519427
vn -0.267405 -0.955482 -0.124696
v 6.347652 -10.043635 0.378400
vn -0.428231 -0.878764 -0.210695
v 6.347692 -10.044164 0.448887
vn -0.667178 -0.647336 -0.368550
v 6.333784 -10.060983 0.519449
vn -0.770141 -0.597042 -0.224552
v 6.388788 -10.060873 0.425412
vn -0.749195 -0.348579 -0.563204
v 6.324179 -10.061046 0.555387
vn -0.133961 0.373350 -0.917968
v 6.277163 -10.578276 0.203069
vn -0.996572 0.046784 -0.068230
v 6.248457 -10.601788 0.260811
vn -0.910417 -0.413688 0.001857
v 6.274790 -10.672327 0.260809
vn -0.766296 -0.243782 -0.594442
v 6.271061 -10.648811 0.237297
vn -0.849994 -0.507897 0.139821
v 6.250803 -10.601783 0.284317
vn -0.591750 -0.612784 0.523763
v 6.300667 -10.695870 0.307919
vn -0.735754 -0.645904 -0.203654
v 6.288166 -10.695842 0.260814
vn -0.586476 0.130808 0.799334
v 6.277147 -10.578239 0.333298
vn -0.837940 0.381346 -0.390425
v 6.280041 -10.554762 0.260820
vn -0.331896 0.386811 -0.860362
v 6.300669 -10.559025 0.237284
vn -0.888449 0.412997 -0.200228
v 6.277176 -10.532781 0.284317
vn -0.769508 0.062085 0.635612
v 6.294540 -10.484221 0.307848
vn -0.248037 -0.509487 -0.823954
v 6.324196 -10.695760 0.230209
vn -0.406585 -0.878629 -0.250400
v 6.317760 -10.719330 0.260829
vn -0.280870 -0.303343 -0.910547
v 6.347702 -10.625299 0.218352
vn -0.306448 0.164397 -0.937584
v 6.324186 -10.578274 0.226264
vn -0.515663 0.033854 -0.856122
v 6.324186 -10.507736 0.227490
vn -0.404691 -0.109300 -0.907898
v 6.305254 -10.507737 0.237281
vn -0.041838 0.031667 -0.998622
v 6.324194 -10.484178 0.233948
vn -0.953661 0.116586 -0.277377
v 6.274462 -10.413688 0.260809
vn -0.127834 0.596733 -0.792192
v 6.300673 -10.437200 0.239008
vn -0.534868 0.195205 0.822077
v 6.300655 -10.319635 0.302668
vn -0.972545 0.212323 0.095270
v 6.279737 -10.296125 0.260811
vn -0.340221 -0.003865 -0.940338
v 6.283255 -10.390178 0.260792
vn -0.567799 -0.037506 -0.822312
v 6.347698 -10.390176 0.217032
vn -0.365609 0.172609 -0.914624
v 6.324184 -10.437200 0.231979
vn -0.243539 -0.330499 -0.911844
v 6.347702 -10.437200 0.203010
vn -0.200555 -0.282082 -0.938194
v 6.347712 -10.460639 0.226255
vn 0.233031 -0.132833 -0.963354
v 6.324183 -10.460707 0.232482
vn -0.615421 0.012051 -0.788107
v 6.300667 -10.319638 0.227288
vn -0.767891 0.545424 -0.335941
v 6.291893 -10.249100 0.237300
vn -0.202229 -0.966698 0.156837
v 6.347694 -10.728190 0.284328
vn -0.122619 -0.805781 0.579380
v 6.371201 -10.722624 0.307887
vn -0.097672 -0.891610 -0.442143
v 6.347698 -10.722715 0.260829
vn -0.221725 0.150144 0.963481
v 6.371208 -10.390140 0.329755
vn -0.152816 0.417675 0.895653
v 6.371206 -10.272609 0.294953
vn -0.220188 0.585671 0.780068
v 6.394732 -10.272634 0.311782
vn 0.318693 0.745432 0.585462
v 6.371191 -10.261925 0.284373
vn -0.142366 -0.529412 -0.836334
v 6.300674 -10.484224 0.227269
vn -0.023647 0.008081 -0.999688
v 6.300674 -10.460712 0.202782
vn -0.244749 0.289947 -0.925218
v 6.347691 -10.296130 0.203237
vn 0.187823 -0.177367 -0.966056
v 6.371216 -10.413685 0.202034
vn -0.104285 -0.011761 0.994478
v 6.324183 -10.294352 0.307823
vn -0.014825 0.652706 0.757466
v 6.347698 -10.249102 0.295018
vn -0.306033 0.914744 0.263796
v 6.324186 -10.237293 0.260807
vn 0.502947 0.807473 -0.308271
v 6.324184 -10.237291 0.237299
vn -0.212242 0.459918 -0.862224
v 6.324188 -10.249097 0.225541
vn -0.390142 0.333023 -0.858420
v 6.324186 -10.296124 0.232371
vn -0.200815 -0.073623 -0.976859
v 6.347683 -10.155145 0.391821
vn -0.846604 0.143466 -0.512522
v 6.295433 -10.155053 0.401882
vn -0.190874 0.810921 -0.553149
v 6.324188 -10.119734 0.401884
vn -0.674178 -0.517904 -0.526554
v 6.300629 -10.179819 0.401932
vn -0.139002 0.670843 -0.728456
v 6.347698 -10.131537 0.401882
vn -0.997719 0.058667 0.033401
v 6.315630 -10.131538 0.519446
vn -0.785802 -0.612256 0.087510
v 6.324139 -10.175997 0.542966
vn -0.591300 0.774971 -0.223124
v 6.324186 -10.115667 0.448906
vn -0.838080 -0.544134 -0.039257
v 6.313101 -10.061000 0.566469
vn -0.082095 -0.942646 -0.323541
v 6.394718 -10.728147 0.260850
vn -0.266988 -0.904781 -0.331796
v 6.371077 -10.221646 0.426001
vn -0.072810 -0.493527 -0.866677
v 6.394726 -10.178560 0.391624
vn 0.419875 -0.095699 -0.902522
v 6.394726 -10.155032 0.368511
vn -0.321420 -0.887143 0.331158
v 6.371136 -10.185819 0.613745
vn -0.678435 -0.732427 0.057248
v 6.324171 -10.178553 0.566471
vn -0.810320 -0.361367 0.461298
v 6.324186 -10.131536 0.649033
vn -0.206414 -0.875818 0.436275
v 6.394670 -10.182957 0.637202
vn -0.394934 -0.368019 0.841777
v 6.366440 -10.131557 0.684152
vn -0.799900 0.199697 -0.565934
v 6.335247 -10.084513 0.519446
vn 0.295532 0.941155 0.163974
v 6.371210 -10.237870 0.260808
vn -0.783369 0.265999 -0.561763
v 6.371210 -10.084520 0.477844
vn -0.523699 0.779493 -0.343701
v 6.371210 -10.103336 0.448908
vn -0.003986 -0.039818 -0.999199
v 6.453508 -10.684047 0.227942
vn -0.175584 0.150818 -0.972843
v 6.394724 -10.131531 0.382282
vn -0.849320 0.265450 -0.456280
v 6.394728 -10.084515 0.401885
vn -0.787637 0.142330 -0.599475
v 6.394724 -10.108027 0.383691
vn -0.278602 0.793819 0.540584
v 6.465260 -10.260828 0.284347
vn -0.032053 0.467017 0.883667
v 6.535801 -10.272628 0.315939
vn -0.051259 -0.448834 -0.892144
v 6.441755 -10.707525 0.229342
vn -0.404497 0.061699 -0.912456
v 6.347704 -10.272611 0.221596
vn -0.920186 0.168037 -0.353582
v 6.387283 -10.084515 0.448906
vn 0.028850 -0.157742 -0.987059
v 6.347696 -10.531249 0.225731
vn 0.246711 0.367382 -0.896752
v 6.371210 -10.249101 0.202737
vn 0.271339 0.033530 -0.961900
v 6.371210 -10.272613 0.216662
vn 0.543393 0.677403 -0.495832
v 6.394726 -10.258532 0.237295
vn 0.136299 0.051256 -0.989341
v 6.407030 -10.343154 0.213775
vn 0.224145 0.360612 -0.905383
v 6.418234 -10.296126 0.224903
vn -0.305454 0.533748 -0.788550
v 6.441742 -10.319645 0.218053
vn -0.271143 0.231889 -0.934189
v 6.488754 -10.296134 0.210279
vn 0.125120 0.676307 -0.725915
v 6.416977 -10.272628 0.237322
vn 0.125897 0.983003 -0.133620
v 6.418232 -10.262996 0.260796
vn -0.445228 0.849964 0.281662
v 6.441734 -10.260114 0.260779
vn -0.242787 0.865966 -0.437215
v 6.559328 -10.230472 0.213695
vn -0.303741 0.132855 -0.943446
v 6.559298 -10.296122 0.180979
vn -0.476480 0.877404 -0.055930
v 6.465256 -10.233781 0.260789
vn -0.648999 0.390712 -0.652797
v 6.559319 -10.249095 0.194638
vn -0.238500 0.788896 0.566358
v 6.488775 -10.234575 0.284297
vn -0.005498 -0.233616 -0.972313
v 6.559311 -10.672323 0.227053
vn 0.125149 -0.460665 -0.878707
v 6.559311 -10.648811 0.204724
vn 0.307730 -0.072669 -0.948695
v 6.582823 -10.648808 0.225593
vn 0.805557 0.158962 -0.570797
v 6.717938 -10.108080 0.378263
vn 0.499201 0.862508 -0.082930
v 6.841395 -10.086202 0.613533
vn 0.840894 0.402812 -0.361441
v 6.797204 -10.084502 0.566464
vn 0.755315 0.645784 0.111635
v 6.832492 -10.084513 0.637008
vn 0.562140 -0.321723 -0.761901
v 6.835587 -10.366663 0.237296
vn 0.734520 -0.090471 -0.672529
v 6.857640 -10.343150 0.237289
vn 0.888549 -0.161237 -0.429515
v 6.860191 -10.366665 0.260806
vn 0.342932 0.796046 -0.498707
v 6.817849 -10.155174 0.416832
vn 0.255273 0.608159 -0.751651
v 6.841457 -10.155051 0.409149
vn 0.552142 0.017895 -0.833558
v 6.841369 -10.178689 0.408325
vn 0.275971 0.894620 -0.351419
v 6.841403 -10.131609 0.519477
vn 0.737693 0.649608 -0.183900
v 6.851835 -10.131584 0.542979
vn 0.608960 0.785409 -0.110906
v 6.864970 -10.119817 0.519444
vn 0.937496 0.046763 0.344840
v 6.861780 -10.601781 0.307919
vn 0.391818 -0.290466 0.872988
v 6.841447 -10.648825 0.332626
vn 0.468108 0.286445 0.835957
v 6.864963 -10.625303 0.338067
vn 0.891559 0.323565 0.316904
v 6.872117 -10.319639 0.260797
vn 0.974373 -0.030067 0.222919
v 6.863245 -10.343149 0.260808
vn 0.955527 0.290989 -0.047890
v 6.862065 -10.155153 0.495980
vn 0.227864 -0.262362 0.937680
v 6.606432 -10.057804 0.697864
vn 0.039469 -0.169808 0.984686
v 6.723886 -10.695854 0.340220
vn 0.093719 0.164083 0.981985
v 6.770941 -10.343113 0.331000
vn -0.010589 0.146548 0.989147
v 6.559301 -10.319602 0.328473
vn 0.228323 0.007135 0.973559
v 6.817927 -10.625270 0.338414
vn 0.060637 -0.444464 -0.893742
v 6.723907 -10.742795 0.230874
vn 0.021327 -0.928351 -0.371094
v 6.723899 -10.749472 0.237386
vn -0.051260 -0.448818 -0.892152
v 6.535807 -10.719281 0.229853
vn -0.077991 -0.855535 0.511837
v 6.418230 -10.729044 0.307913
vn 0.019783 -0.581680 0.813177
v 6.723892 -10.723434 0.331404
vn 0.008714 -0.525637 -0.850664
v 6.653364 -10.225535 0.393243
vn -0.024060 -0.977914 -0.207620
v 6.676890 -10.248656 0.425224
vn -0.180272 -0.522910 0.833107
v 6.394709 -10.148503 0.684163
vn 0.639082 -0.675180 0.368382
v 6.794419 -10.743017 0.304482
vn 0.403435 -0.883942 -0.236405
v 6.794434 -10.751155 0.260840
vn -0.360449 -0.316378 -0.877486
v 6.535799 -10.648813 0.226023
vn -0.049589 0.061413 -0.996880
v 6.723900 -10.672329 0.226087
vn -0.126523 -0.142775 -0.981635
v 6.747405 -10.672321 0.225659
vn 0.572486 -0.168189 -0.802478
v 6.841461 -10.672328 0.230543
vn 0.019043 -0.026185 0.999476
v 6.653360 -10.108027 0.693271
vn 0.173095 -0.419525 0.891087
v 6.817941 -10.175487 0.684213
vn 0.170402 0.019617 0.985179
v 6.770920 -10.108033 0.693668
vn -0.036709 0.851066 0.523775
v 6.606333 -10.237322 0.284316
vn 0.066440 0.505953 0.859999
v 6.653357 -10.272620 0.315761
vn 0.135090 0.693021 0.708148
v 6.653358 -10.264657 0.307833
vn 0.144098 0.758822 0.635157
v 6.653360 -10.237341 0.284324
vn 0.323854 -0.847823 0.419898
v 6.841348 -10.204040 0.640638
vn 0.357599 -0.931870 0.061160
v 6.841427 -10.239381 0.496047
vn 0.094559 -0.925570 -0.366576
v 6.700372 -10.247744 0.425440
vn 0.488983 -0.447177 0.748952
v 6.841448 -10.178779 0.673622
vn 0.637087 -0.687334 0.348842
v 6.845036 -10.202771 0.636403
vn 0.003867 -0.277020 -0.960856
v 6.606333 -10.155020 0.383734
vn 0.153404 0.094360 -0.983648
v 6.770920 -10.155039 0.390455
vn 0.168681 -0.409811 -0.896438
v 6.817951 -10.202092 0.407000
vn 0.279938 -0.027904 -0.959612
v 6.817924 -10.178587 0.390868
vn -0.104022 -0.315714 -0.943135
v 6.441750 -10.125536 0.378279
vn -0.529762 -0.176557 -0.829566
v 6.418236 -10.086769 0.378365
vn 0.450240 -0.481442 0.751996
v 6.794436 -10.719375 0.321346
vn 0.351641 -0.000381 -0.936135
v 6.723897 -10.131549 0.381839
vn -0.435349 0.165088 -0.884996
v 6.535799 -10.625298 0.202345
vn 0.338489 0.338685 -0.877906
v 6.559311 -10.625299 0.202027
vn -0.788367 0.066929 -0.611554
v 6.524359 -10.625299 0.213783
vn 0.245600 0.509320 0.824787
v 6.770920 -10.296135 0.317514
vn 0.484409 0.537217 0.690468
v 6.814733 -10.319612 0.307900
vn 0.355355 0.303339 0.884143
v 6.817886 -10.343164 0.331194
vn 0.510467 -0.166649 0.843594
v 6.794435 -10.084511 0.676528
vn 0.215796 0.790454 0.573249
v 6.723897 -10.260857 0.284320
vn 0.015835 0.814948 0.579318
v 6.700383 -10.237345 0.260810
vn 0.200524 0.924811 0.323286
v 6.770919 -10.263487 0.284317
vn 0.302992 0.673841 0.673894
v 6.723897 -10.225587 0.249053
vn -0.347986 0.935863 -0.055365
v 6.700383 -10.213829 0.237299
vn 0.332468 0.943109 -0.003203
v 6.723897 -10.213831 0.237297
vn 0.341899 -0.594047 -0.728157
v 6.841458 -10.225585 0.419524
vn 0.539507 -0.659375 -0.523600
v 6.851231 -10.225590 0.425394
vn 0.788183 0.396449 -0.470739
v 6.723910 -10.105357 0.401875
vn 0.861150 0.336877 -0.380703
v 6.780703 -10.084578 0.519474
vn 0.946863 0.271643 -0.172224
v 6.723889 -10.108026 0.396356
vn 0.850779 -0.516013 -0.099526
v 6.848229 -10.695848 0.260803
vn 0.847114 -0.161205 -0.506370
v 6.847818 -10.672330 0.237289
vn 0.773344 0.630415 -0.067206
v 6.735652 -10.225588 0.237296
vn 0.263361 0.379241 -0.887027
v 6.723874 -10.225648 0.225645
vn 0.441762 0.893055 -0.085436
v 6.841359 -10.156688 0.448972
vn 0.927336 0.335944 -0.164893
v 6.864972 -10.136171 0.566470
vn 0.864157 0.491616 -0.107458
v 6.861891 -10.108057 0.613509
vn 0.882467 0.465289 -0.068982
v 6.864940 -10.175733 0.472439
vn 0.205083 -0.693200 -0.690953
v 6.794435 -10.672324 0.218130
vn 0.368633 -0.156962 -0.916227
v 6.817949 -10.648811 0.217883
vn -0.084364 -0.443627 -0.892232
v 6.770928 -10.672324 0.202436
vn 0.840022 0.046833 0.540528
v 6.862834 -10.437204 0.307801
vn 0.611263 0.791364 -0.010019
v 6.841461 -10.286928 0.260806
vn 0.798308 0.512493 -0.316315
v 6.855827 -10.296124 0.260806
vn 0.585594 0.518490 0.623095
v 6.864968 -10.119044 0.660512
vn 0.708497 0.070974 0.702136
v 6.817948 -10.084513 0.665992
vn 0.846918 0.147733 0.510789
v 6.875307 -10.131540 0.660510
vn -0.331268 -0.316807 -0.888760
v 6.794436 -10.625299 0.202033
vn 0.667944 -0.130721 -0.732641
v 6.817936 -10.625298 0.202385
vn -0.035749 -0.074017 -0.996616
v 6.794434 -10.648811 0.226319
vn 0.898892 -0.035559 -0.436726
v 6.854128 -10.601787 0.260806
vn 0.788839 0.137493 -0.599023
v 6.817949 -10.601787 0.226931
vn 0.087248 0.202539 -0.975380
v 6.794441 -10.578275 0.202041
vn 0.496379 -0.133851 -0.857725
v 6.817949 -10.554763 0.226281
vn 0.815304 -0.089590 -0.572060
v 6.854611 -10.531250 0.237304
vn 0.450048 -0.144370 -0.881257
v 6.841447 -10.531250 0.228220
vn 0.515257 -0.037859 -0.856199
v 6.829542 -10.390175 0.237273
vn 0.959353 -0.155584 -0.235448
v 6.877239 -10.202072 0.448907
vn 0.619524 0.743849 -0.250755
v 6.852820 -10.155052 0.425395
vn 0.975940 -0.216016 0.029636
v 6.875047 -10.202071 0.519443
vn 0.814683 -0.553268 0.173743
v 6.864986 -10.211086 0.566469
vn 0.877386 -0.440713 0.189649
v 6.864980 -10.195909 0.613494
vn -0.290017 0.280911 -0.914865
v 6.512285 -10.625297 0.235806
vn -0.189629 0.928763 -0.318496
v 6.676871 -10.240465 0.237297
vn 0.272789 -0.132326 -0.952930
v 6.747412 -10.390174 0.203839
vn 0.075159 -0.392756 -0.916566
v 6.700383 -10.437205 0.208138
vn 0.266949 -0.244778 -0.932106
v 6.700383 -10.390182 0.182731
vn -0.379422 -0.027717 -0.924808
v 6.770915 -10.625298 0.222296
vn 0.219259 0.970855 0.096781
v 6.665116 -10.225588 0.260810
vn -0.098275 0.990849 0.092517
v 6.606337 -10.222904 0.237298
vn 0.123677 0.275127 -0.953420
v 6.700392 -10.625269 0.245953
vn -0.224255 -0.070802 -0.971955
v 6.747432 -10.554688 0.226495
vn 0.080586 0.258752 -0.962577
v 6.794430 -10.554761 0.216895
vn 0.211512 0.127095 -0.969077
v 6.794425 -10.319656 0.197126
vn 0.146066 0.753632 -0.640862
v 6.794434 -10.272614 0.220969
vn -0.375532 0.471844 -0.797709
v 6.788640 -10.296125 0.213783
vn 0.171479 -0.014734 -0.985078
v 6.371241 -10.507607 0.230112
vn 0.219560 0.055769 -0.974004
v 6.394724 -10.601792 0.237321
vn 0.414025 0.123187 -0.901891
v 6.371210 -10.578273 0.225112
vn -0.027916 0.039385 -0.998834
v 6.512285 -10.578265 0.247004
vn 0.247174 -0.371318 -0.895002
v 6.371231 -10.437106 0.219485
vn -0.047845 -0.326219 -0.944083
v 6.606348 -10.449407 0.214145
vn -0.004189 0.025906 -0.999656
v 6.676867 -10.601789 0.245595
vn -0.005854 -0.287854 -0.957657
v 6.700384 -10.450484 0.213785
vn 0.005693 -0.125264 -0.992107
v 6.747396 -10.460767 0.218136
vn 0.227941 -0.128920 -0.965102
v 6.394730 -10.413685 0.219626
vn -0.250840 0.516673 -0.818613
v 6.535799 -10.601791 0.234900
vn 0.112381 0.658453 -0.744184
v 6.559311 -10.601797 0.231755
vn -0.134077 -0.285710 -0.948891
v 6.582802 -10.437208 0.211823
vn 0.095791 0.835101 -0.541692
v 6.606333 -10.225608 0.213795
vn -0.249175 -0.252714 -0.934905
v 6.606342 -10.366665 0.172714
vn 0.373264 0.244449 -0.894941
v 6.582823 -10.625301 0.226584
vn 0.068941 0.207727 -0.975754
v 6.629852 -10.319638 0.166745
vn 0.137061 -0.138310 -0.980859
v 6.653360 -10.366664 0.166748
vn 0.122699 0.593426 -0.795482
v 6.676876 -10.249087 0.220514
vn 0.162828 0.258258 -0.952255
v 6.747433 -10.319598 0.202894
vn 0.241829 0.552272 -0.797819
v 6.761567 -10.272551 0.237185
vn 0.184417 -0.075533 -0.979941
v 6.770927 -10.437198 0.215092
vn 0.328000 -0.198944 -0.923492
v 6.796011 -10.366665 0.213781
vn 0.130453 0.980166 -0.149186
v 6.770921 -10.272611 0.244060
# 302 vertices, 0 vertices normals


usemtl material_0
vt 0.814031 0.764558
vt 0.817853 0.760638
vt 0.814001 0.749156
f 1/1/1 3/2/3 2/3/2
vt 0.817840 0.749158
f 3/2/3 4/4/4 2/3/2
vt 0.875284 0.798860
vt 0.869971 0.794990
vt 0.867628 0.797130
f 5/5/5 10/6/10 11/7/11
vt 0.871471 0.791143
vt 0.879084 0.768248
f 12/8/12 5/5/5 7/9/7
f 12/8/12 10/6/10 5/5/5
vt 0.879068 0.752945
vt 0.873689 0.756722
f 7/9/7 8/10/8 13/11/13
vt 0.871857 0.771971
f 13/11/13 14/12/14 7/9/7
vt 0.871431 0.751861
vt 0.871417 0.745252
f 15/13/15 8/10/8 9/14/9
f 15/13/15 13/11/13 8/10/8
vt 0.868879 0.749098
f 9/14/9 16/15/16 15/13/15
vt 0.844597 0.735281
f 17/16/17 16/15/16 9/14/9
vt 0.817747 0.726181
vt 0.817808 0.729412
vt 0.825458 0.728935
f 18/17/18 19/18/19 20/19/20
vt 0.813991 0.730012
vt 0.810149 0.718523
f 21/20/21 18/17/18 22/21/22
vt 0.817033 0.733815
f 23/22/23 21/20/21 2/3/2
f 2/3/2 4/4/4 23/22/23
f 19/18/19 21/20/21 23/22/23
f 19/18/19 18/17/18 21/20/21
vt 0.903984 0.793093
vt 0.889634 0.795976
vt 0.885809 0.799807
f 6/23/6 26/24/26 27/25/27
vt 0.523521 0.475395
vt 0.517617 0.467678
vt 0.515136 0.473195
f 28/26/28 29/27/29 30/28/30
vt 0.992525 0.815643
vt 0.988911 0.827105
vt 0.977295 0.827140
f 31/29/31 32/30/32 33/31/33
vt 0.452324 0.444341
vt 0.456393 0.444580
vt 0.453206 0.438883
f 34/32/34 35/33/35 36/34/36
vt 0.988848 0.788836
vt 0.989158 0.796431
vt 0.985120 0.788822
f 37/35/37 38/36/38 39/37/39
vt 0.520451 0.483642
vt 0.525630 0.478694
vt 0.519495 0.481611
f 40/38/40 41/39/41 42/40/42
vt 0.632731 0.647705
vt 0.632688 0.645632
vt 0.630850 0.646624
f 43/41/43 44/42/44 45/43/45
vt 0.520846 0.448651
vt 0.525329 0.451135
vt 0.524359 0.451244
f 46/44/46 47/45/47 48/46/48
vt 0.534467 0.470426
vt 0.528906 0.475620
vt 0.531820 0.477778
f 49/47/49 50/48/50 51/49/51
vt 0.471578 0.687798
vt 0.460131 0.676299
vt 0.471607 0.678538
f 53/50/53 55/51/55 56/52/56
vt 0.456328 0.669543
f 55/51/55 57/53/57 56/52/56
vt 0.477452 0.680118
f 56/52/56 58/54/58 53/50/53
vt 0.612054 0.462853
vt 0.608697 0.463172
vt 0.606749 0.468156
f 59/55/59 30/56/30 29/57/29
vt 0.612002 0.471079
f 29/57/29 60/58/60 59/55/59
vt 0.599930 0.472401
f 29/57/29 61/59/61 60/58/60
vt 0.603082 0.468418
f 29/57/29 62/60/62 61/59/61
vt 0.599435 0.483643
vt 0.611453 0.483428
f 61/59/61 32/61/32 31/62/31
f 31/62/31 60/58/60 61/59/61
vt 0.622615 0.643799
vt 0.613799 0.642725
vt 0.610107 0.643799
f 31/63/31 63/64/63 60/65/60
vt 0.595665 0.480935
f 61/59/61 64/66/64 32/61/32
vt 0.595570 0.473011
f 61/59/61 65/67/65 64/66/64
vt 0.596135 0.443477
vt 0.593682 0.446019
vt 0.603158 0.447604
f 31/68/31 66/69/66 63/70/63
vt 0.609390 0.460205
vt 0.599974 0.456707
vt 0.602252 0.459625
f 59/71/59 67/72/67 68/73/68
vt 0.606105 0.450070
f 59/71/59 60/74/60 67/72/67
f 60/74/60 63/70/63 67/72/67
vt 0.595113 0.456534
f 63/70/63 69/75/69 67/72/67
vt 0.586670 0.460205
f 66/69/66 70/76/70 69/75/69
f 69/75/69 63/70/63 66/69/66
vt 0.528641 0.461650
vt 0.520707 0.465808
vt 0.531831 0.467672
f 65/77/65 62/78/62 71/79/71
f 65/67/65 61/59/61 62/60/62
vt 0.534653 0.462700
f 71/79/71 72/80/72 65/77/65
f 71/79/71 28/26/28 50/48/50
f 71/79/71 62/78/62 28/26/28
f 62/78/62 29/27/29 28/26/28
vt 0.526222 0.478009
f 28/26/28 73/81/73 50/48/50
vt 0.518483 0.479463
f 28/26/28 74/82/74 73/81/73
vt 0.989230 0.757080
vt 0.983851 0.746513
vt 0.988118 0.749526
f 28/83/28 68/84/68 74/85/74
vt 0.987584 0.738078
f 68/84/68 75/86/75 74/85/74
vt 0.984153 0.738179
f 68/84/68 76/87/76 75/86/75
f 50/48/50 49/47/49 71/79/71
vt 0.986834 0.734313
f 76/87/76 77/88/77 75/86/75
vt 0.977295 0.723138
vt 0.983136 0.726969
vt 0.982080 0.734364
f 78/89/78 36/90/36 35/91/35
vt 0.978869 0.746057
f 35/91/35 67/92/67 78/89/78
f 35/91/35 76/87/76 67/92/67
f 76/87/76 68/84/68 67/92/67
vt 0.982965 0.726738
f 78/89/78 79/93/79 36/90/36
vt 0.373750 0.451747
vt 0.359001 0.442997
vt 0.354808 0.450411
f 78/94/78 80/95/80 81/96/81
vt 0.378246 0.441058
f 78/94/78 37/97/37 80/95/80
vt 0.385599 0.444033
f 78/94/78 70/98/70 37/97/37
vt 0.396239 0.452393
f 78/94/78 67/99/67 70/98/70
f 67/72/67 69/75/69 70/76/70
vt 0.990195 0.796421
f 70/100/70 38/36/38 37/35/37
vt 0.978320 0.719316
vt 0.990986 0.718869
vt 0.986740 0.726662
f 82/101/82 83/102/83 84/103/84
f 84/103/84 79/93/79 82/101/82
vt 0.992593 0.726372
f 83/102/83 85/104/85 84/103/84
f 79/93/79 78/89/78 82/101/82
vt 0.990533 0.730407
f 85/104/85 86/105/86 84/103/84
vt 0.986832 0.730486
f 86/105/86 87/106/87 84/103/84
vt 0.977295 0.704037
vt 0.983376 0.707523
f 81/107/81 88/108/88 82/101/82
f 82/101/82 78/89/78 81/107/81
vt 0.980849 0.696164
f 81/107/81 89/109/89 88/108/88
vt 0.587078 0.479078
vt 0.586670 0.483643
f 64/66/64 90/110/90 91/111/91
vt 0.590032 0.474214
f 64/66/64 72/112/72 90/110/90
f 64/66/64 65/67/65 72/112/72
vt 0.667248 0.647705
vt 0.663390 0.644678
vt 0.660889 0.647705
f 72/113/72 92/114/92 90/115/90
vt 0.512451 0.475583
vt 0.513963 0.477991
f 30/28/30 59/116/59 68/117/68
f 68/117/68 28/26/28 30/28/30
vt 0.977295 0.781206
vt 0.992484 0.811831
f 93/118/93 66/119/66 33/31/33
f 66/119/66 31/29/31 33/31/33
vt 0.978006 0.761930
f 93/118/93 94/120/94 39/37/39
f 39/37/39 38/36/38 93/118/93
f 38/36/38 66/119/66 93/118/93
f 38/36/38 70/100/70 66/119/66
vt 0.561896 0.482016
vt 0.559016 0.477563
vt 0.558860 0.480003
f 95/121/95 96/122/96 94/123/94
vt 0.424226 0.643799
vt 0.419993 0.641620
vt 0.418701 0.643799
f 97/124/97 34/125/34 98/126/98
vt 0.984356 0.734263
vt 0.984038 0.730314
f 97/127/97 35/91/35 34/128/34
f 97/127/97 76/87/76 35/91/35
vt 0.449951 0.444580
vt 0.450357 0.437486
f 98/129/98 36/34/36 84/130/84
f 98/129/98 34/32/34 36/34/36
f 36/90/36 79/93/79 84/103/84
vt 0.991733 0.703455
vt 0.995656 0.722535
f 83/102/83 99/131/99 100/132/100
f 83/102/83 88/108/88 99/131/99
f 83/102/83 82/101/82 88/108/88
vt 0.354579 0.440182
vt 0.346551 0.452393
f 81/96/81 101/133/101 89/134/89
f 81/96/81 80/95/80 101/133/101
vt 0.346593 0.439752
vt 0.344482 0.446384
f 101/133/101 102/135/102 103/136/103
f 103/136/103 89/134/89 101/133/101
vt 0.982825 0.694466
vt 0.985050 0.694236
f 103/137/103 104/138/104 89/109/89
vt 0.986234 0.696039
vt 0.985866 0.703746
f 89/109/89 105/139/105 106/140/106
f 106/140/106 88/108/88 89/109/89
f 89/109/89 104/138/104 105/139/105
vt 0.678007 0.644347
vt 0.672922 0.647705
vt 0.682332 0.647705
f 106/141/106 99/142/99 88/143/88
vt 0.638403 0.475098
vt 0.642732 0.467599
vt 0.636072 0.469120
f 107/144/107 108/145/108 109/146/109
vt 0.645619 0.470197
f 107/144/107 110/147/110 108/145/108
vt 0.539598 0.446492
vt 0.540579 0.446243
vt 0.542449 0.442679
f 109/148/109 111/149/111 107/150/107
vt 0.414795 0.471493
vt 0.435315 0.467969
vt 0.415558 0.467639
f 110/151/110 112/152/112 108/153/108
vt 0.437545 0.475186
f 110/151/110 113/154/113 112/152/112
vt 0.538984 0.439362
vt 0.520816 0.444586
vt 0.532105 0.447263
f 108/155/108 112/156/112 114/157/114
f 114/157/114 109/148/109 108/155/108
vt 0.479250 0.681926
f 53/50/53 58/54/58 115/158/115
vt 0.494565 0.680214
f 115/158/115 52/159/52 53/50/53
vt 0.544402 0.470567
vt 0.538441 0.465766
f 116/160/116 92/161/92 49/47/49
f 92/161/92 71/79/71 49/47/49
f 92/161/92 72/80/72 71/79/71
vt 0.989321 0.830857
vt 0.977964 0.835205
f 33/31/33 64/162/64 91/163/91
f 33/31/33 32/30/32 64/162/64
vt 0.989235 0.769620
f 39/37/39 80/164/80 37/35/37
f 39/37/39 94/120/94 80/164/80
vt 0.623964 0.647705
vt 0.615478 0.645844
vt 0.610107 0.647705
f 94/165/94 101/166/101 80/167/80
vt 0.554634 0.476952
vt 0.551514 0.483643
f 94/123/94 102/168/102 101/169/101
vt 0.647727 0.483643
vt 0.638150 0.483643
f 117/170/117 107/144/107 118/171/118
f 117/170/117 110/147/110 107/144/107
vt 0.633545 0.481750
f 107/144/107 119/172/119 118/171/118
vt 0.419249 0.483643
vt 0.449674 0.481660
f 117/173/117 120/174/120 113/154/113
f 113/154/113 110/151/110 117/173/117
vt 0.441087 0.475910
f 120/174/120 121/175/121 113/154/113
vt 0.445194 0.458778
f 121/175/121 115/176/115 112/152/112
vt 0.455656 0.470733
f 121/175/121 122/177/122 115/176/115
vt 0.460621 0.459374
f 122/177/122 52/178/52 115/176/115
f 112/152/112 113/154/113 121/175/121
vt 0.454189 0.483643
vt 0.462482 0.474892
f 122/177/122 123/179/123 124/180/124
f 122/177/122 120/174/120 123/179/123
f 122/177/122 121/175/121 120/174/120
f 48/46/48 112/156/112 46/44/46
f 48/46/48 114/157/114 112/156/112
vt 0.512451 0.455128
vt 0.520966 0.452877
f 46/44/46 115/181/115 125/182/125
f 46/44/46 112/156/112 115/181/115
vt 0.514603 0.455796
f 115/181/115 58/183/58 125/182/125
vt 0.520637 0.456299
f 58/183/58 56/184/56 125/182/125
vt 0.723389 0.647705
vt 0.728482 0.647705
vt 0.724687 0.643680
f 125/185/125 47/186/47 46/187/46
vt 0.559365 0.472096
f 102/168/102 96/122/96 126/188/126
vt 0.551994 0.471632
f 126/188/126 103/189/103 102/168/102
f 102/168/102 94/123/94 96/122/96
vt 0.528841 0.455048
vt 0.533644 0.452135
f 114/157/114 127/190/127 128/191/128
f 114/157/114 48/46/48 127/190/127
f 128/191/128 111/149/111 114/157/114
f 111/149/111 109/148/109 114/157/114
f 48/46/48 47/45/47 127/190/127
f 47/45/47 125/182/125 127/190/127
vt 0.466845 0.464673
f 52/178/52 124/180/124 25/192/25
f 52/178/52 122/177/122 124/180/124
vt 0.513555 0.643447
vt 0.504639 0.647705
vt 0.522370 0.647705
f 127/193/127 56/194/56 57/195/57
f 127/190/127 125/182/125 56/184/56
vt 0.639162 0.642486
vt 0.637451 0.647705
vt 0.646006 0.647705
f 91/196/91 90/197/90 116/198/116
vt 0.545157 0.483642
f 49/47/49 51/49/51 129/199/129
vt 0.545367 0.449205
f 107/150/107 111/149/111 130/200/130
vt 0.547823 0.445645
f 130/200/130 119/201/119 107/150/107
vt 0.541710 0.456299
f 111/149/111 131/202/131 130/200/130
vt 0.544867 0.452722
f 131/202/131 132/203/132 130/200/130
f 131/202/131 111/149/111 128/191/128
vt 0.448658 0.676274
f 54/204/54 57/53/57 55/51/55
vt 0.448680 0.666867
f 54/204/54 11/205/11 57/53/57
vt 0.441024 0.668600
f 54/204/54 5/206/5 11/205/11
vt 0.573710 0.478213
vt 0.583809 0.483643
f 133/207/133 95/121/95 134/208/134
f 133/207/133 96/122/96 95/121/95
vt 0.426680 0.665690
f 26/209/26 5/206/5 54/204/54
vt 0.546506 0.479913
f 129/199/129 135/210/135 49/47/49
f 116/160/116 49/47/49 135/210/135
vt 0.430497 0.669527
f 27/211/27 26/209/26 54/204/54
vt 0.672607 0.643009
f 99/142/99 106/141/106 136/212/136
vt 0.696045 0.643778
vt 0.703746 0.643981
vt 0.696045 0.647705
f 92/213/92 116/214/116 90/215/90
vt 0.533999 0.455983
f 137/216/137 128/191/128 127/190/127
f 42/40/42 73/81/73 74/82/74
f 42/40/42 41/39/41 73/81/73
vt 0.632798 0.642713
f 45/43/45 44/42/44 138/217/138
vt 0.628071 0.645041
f 138/217/138 75/218/75 45/43/45
vt 0.625732 0.647705
f 45/43/45 75/218/75 77/219/77
vt 0.477281 0.482548
vt 0.477135 0.478862
vt 0.473466 0.479359
f 139/220/139 140/221/140 136/222/136
vt 0.470206 0.483643
f 136/222/136 105/223/105 139/220/139
vt 0.469482 0.476106
f 136/222/136 106/224/106 105/223/105
vt 0.561853 0.467207
vt 0.564426 0.472275
f 139/225/139 126/188/126 141/226/141
vt 0.553621 0.469270
f 139/225/139 105/227/105 126/188/126
f 105/227/105 103/189/103 126/188/126
vt 0.552895 0.469100
f 105/227/105 104/228/104 103/189/103
f 51/49/51 73/81/73 41/39/41
f 51/49/51 50/48/50 73/81/73
vt 0.474245 0.455978
vt 0.472655 0.475419
vt 0.481527 0.466756
f 100/229/100 99/230/99 142/231/142
vt 0.484416 0.474215
f 99/230/99 143/232/143 142/231/142
f 99/230/99 140/221/140 143/232/143
f 99/230/99 136/222/136 140/221/140
vt 0.487614 0.469908
vt 0.495428 0.472726
f 142/231/142 144/233/144 145/234/145
vt 0.481589 0.480838
vt 0.484900 0.478129
f 141/235/141 146/236/146 143/232/143
f 143/232/143 140/221/140 141/235/141
f 140/221/140 139/220/139 141/235/141
vt 0.567305 0.475546
vt 0.568233 0.474179
f 141/226/141 147/237/147 146/238/146
f 96/122/96 133/207/133 147/237/147
f 147/237/147 126/188/126 96/122/96
vt 0.570916 0.475390
f 133/207/133 148/239/148 147/237/147
f 147/237/147 141/226/141 126/188/126
f 144/233/144 143/232/143 146/236/146
f 144/233/144 142/231/142 143/232/143
vt 0.508025 0.481976
vt 0.506143 0.471125
f 149/240/149 150/241/150 145/234/145
vt 0.493840 0.483642
f 145/234/145 151/242/151 149/240/149
f 145/234/145 146/236/146 151/242/151
f 145/234/145 144/233/144 146/236/146
vt 0.507290 0.478822
f 149/240/149 152/243/152 150/241/150
vt 0.573985 0.472383
f 146/238/146 148/239/148 151/244/151
f 146/238/146 147/237/147 148/239/148
f 133/207/133 151/244/151 148/239/148
vt 0.576782 0.475209
f 133/207/133 153/245/153 151/244/151
vt 0.797599 0.721924
vt 0.793110 0.718980
vt 0.789795 0.721924
f 118/246/118 119/247/119 130/248/130
vt 0.130115 0.030472
vt 0.130450 0.025745
vt 0.126471 0.026542
f 154/249/154 155/250/155 156/251/156
vt 0.236985 0.033776
vt 0.231201 0.042236
vt 0.234594 0.041677
f 157/252/157 15/253/15 16/254/16
vt 0.279939 0.035390
vt 0.270148 0.037346
vt 0.282940 0.037021
f 158/255/158 159/256/159 160/257/160
vt 0.987910 0.767074
vt 0.991879 0.764417
vt 0.988207 0.761581
f 161/258/161 162/259/162 163/260/163
vt 0.830538 0.721924
vt 0.827610 0.719140
vt 0.824951 0.721924
f 164/261/164 165/262/165 166/263/166
vt 0.707215 0.718123
vt 0.703857 0.718077
vt 0.705227 0.721924
f 167/264/167 168/265/168 169/266/169
vt 0.739014 0.721924
vt 0.748274 0.721924
vt 0.744125 0.718335
f 170/267/170 171/268/171 172/269/172
vt 0.222220 0.042236
vt 0.226137 0.038160
vt 0.222252 0.038324
f 162/270/162 173/271/173 174/272/174
vt 0.711681 0.721924
f 175/273/175 167/264/167 169/266/169
vt 0.852295 0.753559
vt 0.890435 0.751584
vt 0.890133 0.749539
f 25/274/25 176/275/176 1/276/1
vt 0.983206 0.348247
vt 0.984233 0.344413
vt 0.980393 0.344197
f 76/277/76 97/278/97 77/279/77
vt 0.980649 0.340379
f 97/278/97 87/280/87 77/279/77
vt 0.902679 0.269788
vt 0.960153 0.277107
vt 0.963794 0.242653
f 177/281/177 178/282/178 179/283/179
vt 0.906205 0.212386
f 179/283/179 33/284/33 177/281/177
vt 0.952137 0.212115
f 179/283/179 93/285/93 33/284/33
vt 0.914259 0.285023
f 177/281/177 180/286/180 178/282/178
vt 0.971369 0.215880
vt 0.971441 0.212109
f 93/285/93 95/287/95 94/288/94
vt 0.102859 0.040122
vt 0.102764 0.041473
vt 0.156202 0.042236
f 181/289/181 182/290/182 116/291/116
vt 0.133584 0.038104
f 116/291/116 183/292/183 181/289/181
vt 0.897167 0.220194
vt 0.898240 0.269847
f 184/293/184 185/294/185 177/281/177
f 177/281/177 33/284/33 184/293/184
vt 0.898168 0.212534
f 33/284/33 91/295/91 184/293/184
vt 0.984566 0.340429
vt 0.980901 0.336561
f 98/296/98 84/297/84 87/280/87
f 87/280/87 97/278/97 98/296/98
vt 0.032950 0.036936
vt 0.028731 0.042236
vt 0.078681 0.042236
f 186/298/186 187/299/187 117/300/117
vt 0.075504 0.033235
f 117/300/117 118/301/118 186/298/186
vt 0.843191 0.759298
vt 0.843555 0.768173
vt 0.848279 0.768799
f 123/302/123 188/303/188 124/304/124
vt 0.600112 0.717334
vt 0.590331 0.716929
vt 0.595164 0.719085
f 127/305/127 57/306/57 137/307/137
vt 0.588014 0.721924
f 57/306/57 131/308/131 137/307/137
vt 0.582764 0.719790
f 57/306/57 11/309/11 131/308/131
vt 0.094962 0.003006
vt 0.082764 0.013160
vt 0.143831 0.018110
f 182/310/182 189/311/189 184/312/184
vt 0.148208 0.010879
f 184/312/184 116/313/116 182/310/182
vt 0.083232 0.005950
f 182/310/182 190/314/190 189/311/189
vt 0.151498 0.018799
f 184/312/184 91/315/91 116/313/116
vt 0.147212 0.033279
f 154/249/154 183/292/183 129/316/129
vt 0.160827 0.028536
vt 0.134106 0.026984
f 51/317/51 191/318/191 154/249/154
vt 0.103388 0.028956
f 154/249/154 192/319/192 181/289/181
f 154/249/154 156/251/156 192/319/192
vt 0.099573 0.028724
f 192/319/192 193/320/193 181/289/181
vt 0.084258 0.028121
f 193/320/193 194/321/194 181/289/181
vt 0.857153 0.768799
vt 0.898624 0.759243
f 188/322/188 195/323/195 176/275/176
vt 0.926119 0.768421
f 188/322/188 196/324/196 195/323/195
f 176/275/176 25/274/25 188/322/188
vt 0.917697 0.757921
f 196/324/196 197/325/197 195/323/195
vt 0.852383 0.766370
f 25/274/25 124/326/124 188/322/188
vt 0.597018 0.721924
f 131/308/131 128/327/128 137/307/137
vt 0.971480 0.238822
f 179/283/179 134/328/134 95/287/95
f 95/287/95 93/285/93 179/283/179
vt 0.977457 0.250368
vt 0.977794 0.231236
f 134/328/134 198/329/198 153/330/153
vt 0.971591 0.257951
f 134/328/134 199/331/199 198/329/198
vt 0.973502 0.227437
f 153/330/153 133/332/133 134/328/134
vt 0.972929 0.257970
f 199/331/199 200/333/200 198/329/198
vt 0.977498 0.258021
f 200/333/200 201/334/201 198/329/198
vt 0.796326 0.724408
vt 0.770424 0.760814
f 187/335/187 202/336/202 123/302/123
vt 0.846248 0.724415
f 123/302/123 117/337/117 187/335/187
vt 0.769811 0.736612
f 187/335/187 203/338/203 202/336/202
vt 0.846942 0.755398
f 123/302/123 120/339/120 117/337/117
vt 0.792516 0.724582
f 187/335/187 204/340/204 203/338/203
vt 0.774546 0.768799
f 123/302/123 202/336/202 196/341/196
f 196/341/196 188/303/188 123/302/123
vt 0.770675 0.767095
f 202/336/202 205/342/205 196/341/196
vt 0.853314 0.723831
vt 0.853155 0.724752
vt 0.859763 0.721834
f 202/343/202 206/344/206 205/345/205
vt 0.076124 0.025683
vt 0.041493 0.026525
f 118/301/118 130/346/130 207/347/207
f 207/347/207 186/298/186 118/301/118
vt 0.014766 0.024886
f 207/347/207 208/348/208 186/298/186
vt 0.006490 0.032336
f 208/348/208 209/349/209 186/298/186
vt 0.006845 0.027771
f 208/348/208 210/350/210 209/349/209
vt 0.002978 0.028690
f 210/350/210 166/351/166 209/349/209
vt 0.069380 0.013891
vt 0.068583 0.023925
vt 0.072881 0.018538
f 12/352/12 211/353/211 212/354/212
vt 0.073253 0.013763
f 212/354/212 10/355/10 12/352/12
vt 0.075334 0.014920
f 212/354/212 11/356/11 10/355/10
vt 0.076639 0.020130
f 212/354/212 131/357/131 11/356/11
vt 0.047009 0.004764
vt 0.050114 0.014596
f 7/358/7 14/359/14 12/352/12
vt 0.895264 0.281434
vt 0.899020 0.281356
f 189/360/189 213/361/213 185/294/185
vt 0.094000 0.018799
f 185/362/185 184/312/184 189/311/189
f 211/353/211 12/352/12 14/359/14
f 14/359/14 207/347/207 211/353/211
vt 0.035188 0.009159
f 14/359/14 13/363/13 207/347/207
vt 0.022719 0.021443
f 13/363/13 214/364/214 207/347/207
f 214/364/214 208/348/208 207/347/207
vt 0.030291 0.009741
f 13/363/13 15/365/15 214/364/214
vt 0.237951 0.030120
f 15/253/15 157/252/157 214/366/214
vt 0.134451 0.022191
vt 0.130634 0.021966
f 215/367/215 216/368/216 155/250/155
f 155/250/155 191/318/191 215/367/215
vt 0.136221 0.022846
f 191/318/191 217/369/217 215/367/215
f 155/250/155 154/249/154 191/318/191
vt 0.967867 0.277100
f 178/282/178 218/370/218 199/331/199
f 199/331/199 179/283/179 178/282/178
f 199/331/199 134/328/134 179/283/179
vt 0.964140 0.284286
f 178/282/178 219/371/219 218/370/218
vt 0.960187 0.284746
f 178/282/178 220/372/220 219/371/219
vt 0.842805 0.826988
vt 0.840576 0.831299
vt 0.840576 0.825824
f 176/373/176 3/374/3 1/375/1
vt 0.894194 0.749488
f 176/275/176 195/323/195 3/376/3
vt 0.921036 0.750085
vt 0.905638 0.748663
f 197/325/197 23/377/23 4/378/4
f 4/378/4 195/323/195 197/325/197
f 4/378/4 3/376/3 195/323/195
vt 0.759326 0.721924
vt 0.753958 0.719048
vt 0.750732 0.721924
f 197/379/197 221/380/221 23/381/23
vt 0.164795 0.022705
vt 0.181453 0.017581
vt 0.172448 0.013403
f 199/382/199 218/383/218 222/384/222
vt 0.973739 0.269523
f 222/385/222 200/333/200 199/331/199
vt 0.967188 0.748468
vt 0.964313 0.754439
vt 0.975678 0.757080
f 222/386/222 223/387/223 200/388/200
vt 0.178384 0.010687
f 218/383/218 224/389/224 222/384/222
vt 0.960120 0.752429
f 222/386/222 225/390/225 223/387/223
vt 0.959600 0.757080
f 225/390/225 226/391/226 223/387/223
vt 0.957764 0.753750
f 225/390/225 227/392/227 226/391/226
vt 0.002339 0.036349
vt 0.024932 0.041817
f 209/349/209 228/393/228 204/394/204
f 204/394/204 186/298/186 209/349/209
f 204/394/204 187/299/187 186/298/186
vt 0.290563 0.042236
vt 0.282391 0.041206
vt 0.262266 0.040334
f 18/395/18 20/396/20 17/397/17
vt 0.769735 0.725237
vt 0.768160 0.726198
f 228/398/228 229/399/229 203/338/203
f 203/338/203 204/340/204 228/398/228
vt 0.240906 0.034479
vt 0.262051 0.037042
f 230/400/230 17/397/17 231/401/231
f 230/400/230 16/254/16 17/397/17
f 230/400/230 157/252/157 16/254/16
vt 0.240078 0.033926
f 230/400/230 232/402/232 157/252/157
vt 0.082764 0.033171
vt 0.091116 0.042236
f 194/321/194 233/403/233 190/404/190
f 190/404/190 181/289/181 194/321/194
f 190/404/190 182/290/182 181/289/181
vt 0.083174 0.028390
f 194/321/194 234/405/234 233/403/233
f 213/361/213 180/286/180 177/281/177
vt 0.910480 0.288894
f 213/361/213 171/406/171 180/286/180
f 177/281/177 185/294/185 213/361/213
vt 0.957878 0.751332
f 235/407/235 227/392/227 225/390/225
vt 0.996826 0.849324
vt 0.999161 0.850672
vt 0.996826 0.852030
f 235/408/235 236/409/236 227/410/227
vt 0.242166 0.023641
f 230/400/230 208/411/208 214/366/214
vt 0.245142 0.016894
f 230/400/230 210/412/210 208/411/208
f 214/366/214 232/402/232 230/400/230
vt 0.265859 0.025949
vt 0.248993 0.021052
f 231/401/231 167/413/167 164/414/164
f 164/414/164 230/400/230 231/401/231
vt 0.255276 0.020150
f 167/413/167 237/415/237 164/414/164
f 164/414/164 210/412/210 230/400/230
f 231/401/231 159/256/159 167/413/167
vt 0.270041 0.025941
f 159/256/159 168/416/168 167/413/167
f 159/256/159 158/255/158 168/416/168
vt 0.274397 0.025081
f 158/255/158 238/417/238 168/416/168
vt 0.263627 0.020357
f 167/413/167 175/418/175 237/415/237
vt 0.281237 0.030794
f 158/255/158 239/419/239 238/417/238
vt 0.260302 0.016475
f 175/418/175 240/420/240 237/415/237
vt 0.249199 0.015732
f 164/414/164 166/421/166 210/412/210
vt 0.879485 0.729736
vt 0.875830 0.723048
vt 0.874023 0.727942
f 194/422/194 241/423/241 242/424/242
vt 0.563232 0.721924
vt 0.578562 0.721924
vt 0.570981 0.720303
f 194/425/194 193/426/193 241/427/241
vt 0.574934 0.717951
f 193/426/193 243/428/243 241/427/241
vt 0.918283 0.292236
vt 0.945057 0.292236
f 180/286/180 170/429/170 244/430/244
f 244/430/244 178/282/178 180/286/180
f 244/430/244 220/372/220 178/282/178
f 180/286/180 171/406/171 170/429/170
vt 0.189412 0.015663
f 224/389/224 218/383/218 219/431/219
vt 0.189752 0.005377
f 219/431/219 245/432/245 224/389/224
vt 0.192479 0.005266
f 219/431/219 246/433/246 245/432/245
vt 0.933298 0.758989
vt 0.925258 0.753865
f 196/324/196 247/434/247 248/435/248
f 248/435/248 197/325/197 196/324/196
vt 0.930040 0.768799
f 196/324/196 205/436/205 247/434/247
vt 0.935111 0.760898
f 205/436/205 249/437/249 247/434/247
vt 0.921373 0.754021
f 248/435/248 221/438/221 197/325/197
f 20/396/20 160/257/160 159/256/159
f 159/256/159 17/397/17 20/396/20
f 159/256/159 231/401/231 17/397/17
vt 0.982148 0.733365
vt 0.974926 0.745361
vt 0.988803 0.745361
f 233/439/233 171/440/171 213/441/213
vt 0.969482 0.745069
f 233/439/233 172/442/172 171/440/171
vt 0.994456 0.735822
f 213/441/213 190/443/190 233/439/233
vt 0.489014 0.730331
vt 0.491144 0.734551
vt 0.489014 0.741455
f 213/444/213 189/445/189 190/446/190
vt 0.868399 0.726234
vt 0.869926 0.729736
f 242/424/242 250/447/250 251/448/251
vt 0.872942 0.724197
f 242/424/242 252/449/252 250/447/250
f 242/424/242 241/423/241 252/449/252
vt 0.949953 0.760316
vt 0.938313 0.762818
vt 0.941826 0.768799
f 253/450/253 234/451/234 242/452/242
vt 0.949520 0.768325
f 242/452/242 254/453/254 253/450/253
vt 0.641357 0.719934
vt 0.645164 0.721924
vt 0.648621 0.717605
f 242/454/242 251/455/251 254/456/254
vt 0.938232 0.764303
f 234/451/234 194/457/194 242/452/242
vt 0.653569 0.721924
f 251/455/251 255/458/255 254/456/254
vt 0.192015 0.020358
vt 0.207990 0.022705
vt 0.198488 0.008826
f 220/459/220 244/460/244 174/461/174
f 174/461/174 219/431/219 220/459/220
f 174/461/174 246/433/246 219/431/219
vt 0.996762 0.858643
vt 0.993207 0.856620
vt 0.989014 0.858643
f 174/462/174 173/463/173 246/464/246
vt 0.925446 0.749624
f 221/438/221 248/435/248 19/465/19
f 19/465/19 23/377/23 221/438/221
vt 0.957159 0.768799
vt 0.961287 0.763166
f 253/450/253 256/466/256 257/467/257
f 253/450/253 254/453/254 256/466/256
vt 0.961148 0.765764
f 256/466/256 258/468/258 257/467/257
vt 0.984048 0.767656
f 259/469/259 163/260/163 257/467/257
f 257/467/257 258/468/258 259/469/259
f 259/469/259 161/258/161 163/260/163
vt 0.257566 0.011091
vt 0.252504 0.008889
f 166/421/166 260/470/260 229/471/229
vt 0.252405 0.018803
f 166/421/166 261/472/261 260/470/260
vt 0.000732 0.036629
f 229/473/229 209/349/209 166/351/166
f 229/473/229 228/393/228 209/349/209
vt 0.249263 0.019113
f 166/421/166 165/474/165 261/472/261
vt 0.766357 0.721924
vt 0.770839 0.718148
vt 0.767614 0.718084
f 164/475/164 261/476/261 165/477/165
vt 0.772843 0.721924
f 164/475/164 237/478/237 261/476/261
vt 0.288553 0.030499
f 247/479/247 239/419/239 160/257/160
vt 0.286437 0.038996
f 160/257/160 248/480/248 247/479/247
f 239/419/239 158/255/158 160/257/160
vt 0.801514 0.717796
vt 0.801770 0.721924
vt 0.806641 0.717867
f 160/481/160 20/482/20 248/483/248
vt 0.809332 0.721924
f 20/482/20 19/484/19 248/483/248
vt 0.191611 0.042181
vt 0.206943 0.030687
vt 0.180173 0.030590
f 257/485/257 244/486/244 170/487/170
vt 0.218408 0.038373
f 257/485/257 163/488/163 244/486/244
vt 0.180131 0.038353
f 170/487/170 253/489/253 257/485/257
vt 0.176362 0.025642
f 170/487/170 172/490/172 253/489/253
vt 0.164795 0.038417
f 172/490/172 233/491/233 253/489/253
vt 0.168623 0.042236
f 233/491/233 234/492/234 253/489/253
f 163/488/163 174/272/174 244/486/244
f 163/488/163 162/270/162 174/272/174
vt 0.602130 0.725392
vt 0.594279 0.733643
vt 0.605762 0.733643
f 203/493/203 260/494/260 262/495/262
vt 0.590576 0.727869
f 203/493/203 229/496/229 260/494/260
vt 0.613462 0.731615
f 262/495/262 263/497/263 203/493/203
vt 0.766357 0.748989
f 202/336/202 203/338/203 263/498/263
vt 0.281666 0.018078
vt 0.289214 0.027972
f 264/499/264 239/419/239 249/500/249
f 264/499/264 238/417/238 239/419/239
vt 0.274606 0.014428
f 264/499/264 263/501/263 238/417/238
vt 0.268087 0.013488
f 263/501/263 262/502/262 238/417/238
f 239/419/239 247/479/247 249/500/249
vt 0.852295 0.729736
vt 0.865372 0.729736
f 264/503/264 249/504/249 205/345/205
f 205/345/205 206/344/206 264/503/264
f 168/416/168 238/417/238 262/502/262
f 262/502/262 240/420/240 168/416/168
f 262/502/262 260/470/260 240/420/240
f 260/470/260 261/472/261 240/420/240
f 261/472/261 237/415/237 240/420/240
vt 0.993786 0.783562
vt 0.996979 0.789700
vt 0.992920 0.792236
f 175/505/175 169/506/169 168/507/168
vt 0.992920 0.778525
f 168/507/168 240/508/240 175/505/175
vt 0.769824 0.760223
vt 0.766582 0.757024
f 206/509/206 263/498/263 264/510/264
f 202/336/202 263/498/263 206/509/206
vt 0.148947 0.037095
f 116/291/116 135/511/135 183/292/183
f 154/249/154 181/289/181 183/292/183
f 129/316/129 51/317/51 154/249/154
f 129/316/129 183/292/183 135/511/135
vt 0.977634 0.328575
vt 0.973615 0.332033
vt 0.977180 0.336108
f 83/512/83 100/513/100 85/514/85
vt 0.076412 0.022328
f 131/357/131 212/354/212 132/515/132
vt 0.948341 0.365079
vt 0.946455 0.364798
vt 0.944306 0.368574
f 265/516/265 217/517/217 191/518/191
vt 0.331964 0.038395
vt 0.331820 0.034374
vt 0.328162 0.034605
f 223/519/223 226/520/226 266/521/266
vt 0.912774 0.324173
vt 0.919895 0.332341
vt 0.920481 0.324536
f 267/522/267 268/523/268 269/524/269
vt 0.895264 0.729736
vt 0.899247 0.729736
vt 0.898590 0.726707
f 214/525/214 157/526/157 232/527/232
vt 0.867920 0.722165
f 250/447/250 252/449/252 270/528/270
vt 0.326155 0.038303
vt 0.316666 0.042236
vt 0.324314 0.042227
f 271/529/271 198/530/198 201/531/201
vt 0.316581 0.034472
f 271/529/271 272/532/272 198/530/198
vt 0.906392 0.362197
vt 0.917763 0.363116
vt 0.910943 0.351022
f 270/533/270 273/534/273 274/535/274
vt 0.913512 0.370361
f 270/533/270 192/536/192 273/534/273
vt 0.903140 0.354174
f 274/535/274 255/537/255 270/533/270
vt 0.909697 0.370104
f 270/533/270 193/538/193 192/536/192
vt 0.903343 0.350461
f 274/535/274 275/539/275 255/537/255
vt 0.902641 0.361804
f 255/537/255 250/540/250 270/533/270
vt 0.891455 0.729736
vt 0.884231 0.725635
vt 0.883545 0.729736
f 270/541/270 243/542/243 193/543/193
vt 0.898824 0.361553
f 255/537/255 251/544/251 250/540/250
vt 0.627434 0.743584
vt 0.624548 0.753174
vt 0.637323 0.753174
f 245/545/245 162/546/162 276/547/276
vt 0.637609 0.745051
f 276/547/276 277/548/277 245/545/245
vt 0.621826 0.748222
f 245/545/245 173/549/173 162/546/162
vt 0.905914 0.312178
vt 0.907048 0.308537
vt 0.906333 0.304709
f 276/550/276 278/551/278 277/552/277
vt 0.980685 0.882080
vt 0.977994 0.881398
vt 0.973389 0.882080
f 245/553/245 246/554/246 173/555/173
vt 0.972516 0.347465
vt 0.967676 0.362544
vt 0.971786 0.358897
f 279/556/279 280/557/280 281/558/281
vt 0.948805 0.357525
f 279/556/279 282/559/282 280/557/280
vt 0.976103 0.351525
f 281/558/281 138/560/138 279/556/279
vt 0.979418 0.359412
f 281/558/281 74/561/74 138/560/138
vt 0.980164 0.347975
f 74/561/74 75/562/75 138/560/138
vt 0.977924 0.347729
f 45/563/45 77/279/77 279/556/279
vt 0.976425 0.347563
f 279/556/279 43/564/43 45/563/45
vt 0.973305 0.335953
vt 0.935014 0.335376
f 283/565/283 284/566/284 282/559/282
f 282/559/282 279/556/279 283/565/283
vt 0.921835 0.359557
f 284/566/284 285/567/285 282/559/282
vt 0.919734 0.334535
f 284/566/284 286/568/286 285/567/285
f 286/568/286 274/535/274 285/567/285
vt 0.911977 0.335726
f 286/568/286 287/569/287 274/535/274
f 274/535/274 273/534/273 285/567/285
vt 0.976851 0.340071
f 279/556/279 86/570/86 283/565/283
f 279/556/279 77/279/77 86/570/86
f 77/279/77 87/280/87 86/570/86
vt 0.975184 0.366045
f 41/571/41 281/558/281 280/557/280
vt 0.971026 0.370361
f 280/557/280 51/572/51 41/571/41
vt 0.975681 0.358993
f 41/571/41 40/573/40 281/558/281
vt 0.976292 0.349157
f 44/574/44 279/556/279 138/560/138
f 44/574/44 43/564/43 279/556/279
vt 0.969738 0.331900
f 100/513/100 288/575/288 283/565/283
f 283/565/283 85/514/85 100/513/100
f 283/565/283 86/570/86 85/514/85
vt 0.968512 0.320283
f 100/513/100 142/576/142 288/575/288
f 51/572/51 280/557/280 265/516/265
f 265/516/265 191/518/191 51/572/51
f 280/557/280 282/559/282 265/516/265
vt 0.944777 0.361005
f 282/559/282 289/577/289 265/516/265
vt 0.940970 0.360731
f 282/559/282 290/578/290 289/577/289
f 282/559/282 285/567/285 290/578/290
vt 0.938975 0.333635
f 283/565/283 288/575/288 291/579/291
f 291/579/291 284/566/284 283/565/283
vt 0.955754 0.311749
f 288/575/288 145/580/145 291/579/291
f 288/575/288 142/576/142 145/580/145
f 130/346/130 212/354/212 211/353/211
f 130/346/130 132/515/132 212/354/212
f 211/353/211 207/347/207 130/346/130
vt 0.308985 0.030710
vt 0.297529 0.042236
f 149/581/149 153/582/153 198/530/198
vt 0.293701 0.038414
f 149/581/149 151/583/151 153/582/153
f 198/530/198 272/532/272 149/581/149
vt 0.316600 0.030675
f 272/532/272 292/584/292 149/581/149
vt 0.944398 0.310784
vt 0.936036 0.321666
f 145/580/145 150/585/150 293/586/293
f 293/586/293 291/579/291 145/580/145
f 217/517/217 265/516/265 289/577/289
vt 0.944636 0.364596
f 289/577/289 215/587/215 217/517/217
f 215/587/215 289/577/289 290/578/290
vt 0.940819 0.364340
f 290/578/290 216/588/216 215/587/215
vt 0.936919 0.364256
f 290/578/290 294/589/294 216/588/216
vt 0.932739 0.313741
f 150/585/150 295/590/295 293/586/293
vt 0.944850 0.303247
f 150/585/150 152/591/152 295/590/295
vt 0.928421 0.321117
f 295/590/295 296/592/296 293/586/293
vt 0.940560 0.368173
f 155/593/155 216/588/216 294/589/294
vt 0.936672 0.368063
f 294/589/294 156/594/156 155/593/155
f 285/567/285 192/536/192 156/594/156
f 156/594/156 294/589/294 285/567/285
f 294/589/294 290/578/290 285/567/285
f 285/567/285 273/534/273 192/536/192
vt 0.937401 0.299061
vt 0.925674 0.302156
f 295/590/295 292/595/292 297/596/297
f 295/590/295 152/591/152 292/595/292
vt 0.913525 0.312715
f 297/596/297 298/597/298 295/590/295
vt 0.911616 0.305165
f 297/596/297 299/598/299 298/597/298
vt 0.918275 0.297881
f 297/596/297 236/599/236 299/598/299
f 299/598/299 278/551/278 298/597/298
vt 0.309102 0.027771
f 152/600/152 149/581/149 292/584/292
f 278/551/278 276/550/276 298/597/298
f 284/566/284 296/592/296 268/523/268
f 284/566/284 293/586/293 296/592/296
f 268/523/268 286/568/286 284/566/284
f 296/592/296 269/524/269 268/523/268
f 284/566/284 291/579/291 293/586/293
f 295/590/295 298/597/298 269/524/269
f 269/524/269 296/592/296 295/590/295
f 298/597/298 267/522/267 269/524/269
f 292/584/292 272/532/272 271/529/271
vt 0.328219 0.031950
f 271/529/271 297/601/297 292/584/292
f 271/529/271 266/521/266 297/601/297
f 271/529/271 223/519/223 266/521/266
vt 0.684309 0.721924
vt 0.676799 0.717821
vt 0.672607 0.721924
f 223/602/223 201/603/201 200/604/200
f 223/519/223 271/529/271 201/531/201
vt 0.908417 0.331627
f 268/523/268 300/605/300 287/569/287
f 268/523/268 267/522/267 300/605/300
vt 0.905100 0.319903
f 267/522/267 301/606/301 300/605/300
f 267/522/267 298/597/298 301/606/301
f 298/597/298 276/550/276 301/606/301
f 287/569/287 286/568/286 268/523/268
vt 0.922176 0.296297
f 226/607/226 236/599/236 297/596/297
f 297/601/297 266/521/266 226/520/226
vt 0.998405 0.854736
f 226/608/226 227/410/227 236/409/236
f 287/569/287 300/605/300 275/539/275
f 275/539/275 274/535/274 287/569/287
vt 0.927671 0.827392
vt 0.936115 0.825175
vt 0.926514 0.825907
f 299/609/299 235/610/235 302/611/302
vt 0.937642 0.827393
f 299/609/299 236/612/236 235/610/235
vt 0.950657 0.747743
vt 0.950550 0.757080
vt 0.952500 0.755223
f 222/613/222 235/614/235 225/615/225
vt 0.942122 0.753429
f 222/613/222 302/616/302 235/614/235
vt 0.943798 0.747935
vt 0.938232 0.757080
f 224/617/224 277/618/277 302/616/302
vt 0.635907 0.736383
f 224/619/224 245/545/245 277/548/277
f 302/616/302 222/613/222 224/617/224
vt 0.895920 0.346217
f 300/605/300 258/620/258 275/539/275
vt 0.899326 0.323518
f 300/605/300 259/621/259 258/620/258
f 300/605/300 301/606/301 259/621/259
vt 0.899492 0.350272
f 258/620/258 256/622/256 275/539/275
vt 0.943284 0.754397
f 299/623/299 302/616/302 277/618/277
f 277/552/277 278/551/278 299/598/299
vt 0.890452 0.724821
f 243/542/243 270/541/270 252/624/252
vt 0.886930 0.722829
f 252/624/252 241/625/241 243/542/243
f 255/537/255 275/539/275 256/622/256
vt 0.733992 0.721924
vt 0.729681 0.715599
vt 0.727295 0.721924
f 256/626/256 254/627/254 255/628/255
vt 0.895264 0.315584
vt 0.898594 0.319638
f 301/606/301 162/629/162 161/630/161
f 301/606/301 276/550/276 162/629/162
f 161/630/161 259/621/259 301/606/301
vt 0.977497 0.359197
f 40/573/40 42/631/42 281/558/281
f 42/631/42 74/561/74 281/558/281
l 1 24
l 5 6
l 24 25
l 6 54
# 578 faces, 631 coords texture

# End of File
