####
#
# OBJ File Generated by Meshlab
#
####
# Object hallway_chair_7.obj
#
# Vertices: 514
# Faces: 994
#
####
mtllib ./hallway_chair_7.obj.mtl

vn -0.674134 -0.403282 0.618795
v -2.866953 -0.729282 -0.016588
vn -0.686822 0.093043 0.720846
v -2.864052 -0.682251 -0.001589
vn -0.484509 0.053601 0.873143
v -2.890476 -0.682283 -0.016250
vn -0.378214 0.925619 -0.013592
v -2.843431 -0.682276 0.115954
vn -0.784688 0.619891 -0.000245
v -2.877509 -0.682265 0.092444
vn -0.350271 0.870863 0.344830
v -2.866967 -0.672021 0.162981
vn -0.094053 0.956833 0.275000
v -2.843428 -0.690605 0.162978
vn -0.205849 0.693364 -0.690560
v -2.843442 -0.682266 0.186494
vn -0.451104 0.818800 -0.355066
v -2.819948 -0.695402 0.186497
vn -0.795736 0.030469 0.604876
v -2.751471 -0.635236 0.609722
vn -0.554485 0.051812 0.830579
v -2.819927 -0.682270 0.583406
vn -0.184282 -0.326361 0.927108
v -2.749393 -0.649944 0.609716
vn -0.176414 0.970095 0.166717
v -2.796414 -0.655523 0.210006
vn -0.028792 0.999339 -0.022218
v -2.819931 -0.626541 0.210006
vn -0.171504 0.918341 0.356703
v -2.819927 -0.657044 0.233517
vn -0.568305 0.503349 0.650900
v -2.866959 -0.658748 -0.016056
vn -0.020234 -0.006375 0.999775
v -2.772907 -0.776324 -0.016904
vn 0.001379 -0.493880 0.869529
v -2.819929 -0.752782 -0.016741
vn -0.276517 -0.611046 0.741729
v -2.843443 -0.752799 -0.016756
vn -0.803111 -0.595641 0.014960
v -2.866952 -0.736991 0.139468
vn -0.764564 -0.574638 -0.291947
v -2.866958 -0.729289 0.046962
vn -0.997957 0.020559 -0.060491
v -2.874476 -0.705780 0.186494
vn -0.811782 0.490120 -0.317478
v -2.877546 -0.682265 0.045419
vn -0.567515 0.819771 -0.076831
v -2.866957 -0.698251 0.186494
vn -0.382725 -0.923734 0.015397
v -2.843441 -0.752797 0.162981
vn -0.807510 -0.588656 -0.037575
v -2.866954 -0.732874 0.210006
vn -0.133006 -0.990171 0.043259
v -2.830071 -0.752815 0.186493
vn -0.824626 -0.456665 0.333838
v -2.864822 -0.729327 0.515666
vn -0.881361 0.214831 0.420775
v -2.868857 -0.705787 0.515666
vn -0.859781 0.510383 0.016892
v -2.876124 -0.682264 0.304054
vn -0.880798 0.472128 0.035920
v -2.876496 -0.682240 0.257032
vn -0.770202 0.597175 0.223989
v -2.843440 -0.674136 0.021897
vn -0.879856 -0.325037 -0.346705
v -2.843446 -0.729298 0.021904
vn -0.630718 -0.536993 0.560208
v -2.843442 -0.729290 0.539179
vn -0.961790 0.152181 0.227596
v -2.852736 -0.682276 0.515666
vn -0.308877 0.911879 0.270318
v -2.843444 -0.666679 0.233517
vn -0.601820 0.769129 -0.215066
v -2.852775 -0.658755 0.210007
vn -0.804576 0.580556 -0.124947
v -2.854295 -0.682273 0.492153
vn -0.537799 0.842531 0.030232
v -2.843433 -0.671882 0.445129
vn -0.511445 0.709930 0.484173
v -2.784672 -0.599972 -0.015314
vn -0.598185 0.752335 0.275984
v -2.796422 -0.633814 0.021896
vn -0.520412 0.849158 -0.090011
v -2.819888 -0.660321 0.468641
vn -0.444522 0.895725 0.008763
v -2.796438 -0.658736 0.351077
vn -0.582380 0.812835 -0.011513
v -2.796419 -0.656411 0.280542
vn -0.419387 0.788951 0.449078
v -2.702385 -0.541197 -0.014573
vn 0.318964 -0.782886 -0.534184
v -2.796692 -0.750861 0.304058
vn 0.157300 -0.907591 -0.389274
v -2.806326 -0.752808 0.304054
vn 0.113055 -0.992131 -0.053796
v -2.819851 -0.751352 0.115954
vn -0.202622 -0.895102 -0.397160
v -2.819949 -0.761050 0.327568
vn -0.379422 -0.819917 0.428690
v -2.843442 -0.734262 -0.001605
vn -0.150704 -0.941671 0.300905
v -2.819654 -0.743563 -0.001611
vn -0.414727 -0.909578 0.025872
v -2.825797 -0.776283 0.374596
vn -0.249396 -0.931514 0.264732
v -2.843467 -0.745283 0.515665
vn -0.975464 -0.168636 -0.141532
v -2.824420 -0.776305 0.351093
vn -0.077495 -0.754526 0.651678
v -2.819928 -0.726395 0.562695
vn -0.815104 -0.163674 0.555713
v -2.843447 -0.705776 0.560010
vn 0.155067 -0.931254 0.329728
v -2.819919 -0.738253 0.539182
vn -0.287386 -0.423169 0.859266
v -2.819944 -0.705771 0.574691
vn -0.792747 0.578642 -0.191636
v -2.853709 -0.658749 0.515671
vn -0.450549 0.881106 -0.143729
v -2.819928 -0.624251 0.539178
vn -0.476798 0.804323 0.354583
v -2.796417 -0.625301 0.562692
vn -0.123242 0.969510 -0.211804
v -2.796411 -0.625896 0.539179
vn -0.522290 0.844714 -0.116925
v -2.772927 -0.624502 0.515665
vn -0.557619 0.822619 -0.111174
v -2.798674 -0.658754 0.186493
vn -0.569030 -0.188598 -0.800397
v -2.796417 -0.846853 0.346799
vn -0.920666 -0.322344 -0.220156
v -2.800999 -0.846855 0.351081
vn -0.561553 -0.552525 0.615933
v -2.806548 -0.776365 0.420291
vn 0.055389 -0.227410 0.972223
v -2.772906 -0.752800 -0.017519
vn 0.396168 -0.827066 0.398764
v -2.819952 -0.746905 0.445130
vn 0.049252 -0.248507 0.967377
v -2.796455 -0.776363 0.421520
vn 0.228404 -0.910680 0.344230
v -2.796573 -0.743683 -0.001603
vn -0.640565 0.767880 -0.006133
v -2.796413 -0.635250 0.045426
vn -0.750928 0.656924 0.067509
v -2.819918 -0.648127 0.115944
vn -0.729271 0.678722 0.086598
v -2.796414 -0.656497 0.186492
vn 0.534434 -0.845050 0.016461
v -2.749273 -0.706716 0.115954
vn 0.533820 -0.844080 0.050643
v -2.737634 -0.702882 0.057176
vn 0.497353 -0.733888 0.462653
v -2.796474 -0.736100 0.445125
vn 0.542084 -0.832866 0.111715
v -2.764454 -0.710235 0.478930
vn 0.221307 -0.704362 0.674460
v -2.761149 -0.680812 0.591012
vn 0.431472 -0.806602 0.404011
v -2.761144 -0.686741 0.579256
vn -0.731032 0.646858 -0.217179
v -2.726018 -0.601115 0.445118
vn 0.491860 -0.831909 0.256908
v -2.737608 -0.682326 0.562696
vn 0.562399 -0.825687 -0.044139
v -2.772833 -0.723097 0.186492
vn 0.589334 -0.804812 -0.070457
v -2.808272 -0.751106 0.210006
vn -0.677198 0.735614 0.016614
v -2.784486 -0.611734 0.115958
vn -0.810048 0.581432 0.075881
v -2.772908 -0.629956 0.162983
vn 0.472992 -0.700889 0.533885
v -2.678667 -0.659055 -0.004615
vn 0.393899 -0.554442 0.733102
v -2.708989 -0.682216 0.418679
vn 0.277264 -0.276111 0.920265
v -2.734923 -0.705824 0.419093
vn -0.764887 0.580388 0.279460
v -2.772905 -0.599971 0.139468
vn -0.727533 0.390487 0.564107
v -2.772904 -0.611728 0.152871
vn -0.093985 0.989697 0.108016
v -2.772905 -0.599973 0.186492
vn -0.906708 0.411203 -0.093766
v -2.784662 -0.611728 0.186493
vn -0.206405 0.827718 0.521804
v -2.772905 -0.611728 0.198250
vn -0.851225 -0.467728 -0.238004
v -2.752255 -0.940914 0.351093
vn -0.693237 -0.652004 -0.307106
v -2.702282 -1.013445 0.351157
vn -0.629390 -0.473389 -0.616256
v -2.728826 -0.987944 0.351091
vn -0.032420 -0.587970 -0.808233
v -2.749392 -0.729293 0.298309
vn 0.279947 -0.713074 -0.642772
v -2.773168 -0.735915 0.304062
vn 0.110187 -0.811515 -0.573849
v -2.726113 -0.705406 0.276115
vn -0.521413 0.837001 0.166005
v -2.749382 -0.576477 0.139473
vn -0.637836 0.763840 0.098558
v -2.761144 -0.588223 0.139470
vn -0.097103 0.617569 0.780500
v -2.749393 -0.588215 0.151958
vn 0.107597 0.122166 -0.986660
v -2.725882 -0.846851 0.327564
vn 0.071130 -0.179148 -0.981247
v -2.749448 -0.870418 0.292877
vn 0.029269 0.195253 -0.980316
v -2.749393 -0.823338 0.327569
vn -0.322017 0.869971 -0.373437
v -2.608319 -0.512668 0.609714
vn 0.070329 0.993097 -0.093872
v -2.608318 -0.483180 0.633232
vn -0.090319 0.961083 0.261081
v -2.584806 -0.505859 0.633229
vn -0.393313 0.574584 -0.717746
v -2.584806 -0.494165 0.574448
vn -0.763183 0.591891 -0.259262
v -2.596609 -0.494165 0.586204
vn -0.332526 0.916227 -0.223507
v -2.584806 -0.482395 0.586205
vn -0.156578 -0.506513 -0.847896
v -2.584827 -1.081996 0.319393
vn 0.295971 -0.172049 -0.939575
v -2.584815 -1.058472 0.293184
vn 0.257165 0.025385 -0.966034
v -2.561294 -1.058463 0.324669
vn -0.423154 -0.588593 -0.688839
v -2.561294 -0.976169 0.304055
vn -0.754108 -0.199201 -0.625811
v -2.549534 -0.940899 0.304060
vn 0.288792 -0.046459 -0.956264
v -2.537773 -0.940895 0.292315
vn -0.124821 0.493217 0.860904
v -2.467266 -0.494153 0.690290
vn -0.131287 0.990743 0.034525
v -2.467235 -0.454620 0.656751
vn -0.251539 0.760481 0.598663
v -2.490758 -0.459509 0.680261
vn -0.714932 0.654613 0.245669
v -2.420184 -1.082014 0.572131
vn -0.513131 0.644302 0.567073
v -2.373190 -1.058467 0.597729
vn -0.772129 0.629307 0.088261
v -2.373157 -1.039030 0.562683
vn -0.153320 -0.795732 -0.585921
v -2.327163 -1.095909 0.586225
vn 0.508721 -0.750770 -0.421364
v -2.291683 -1.058150 0.539184
vn 0.384273 -0.859352 -0.337415
v -2.292214 -1.081974 0.562696
vn 0.976928 0.147164 -0.154772
v -2.199201 -0.776315 0.515669
vn 0.887628 0.419332 -0.190463
v -2.208606 -0.744368 0.539179
vn 0.845611 0.470464 -0.252203
v -2.200175 -0.752802 0.539179
vn 0.726223 0.643505 0.241872
v -2.220363 -0.682266 0.257030
vn 0.975206 0.012306 -0.220956
v -2.220364 -0.682266 0.233518
vn 0.317087 0.946936 0.052605
v -2.232120 -0.670509 0.233518
vn 0.906758 -0.158637 -0.390671
v -2.202512 -0.846824 0.374579
vn 0.908403 -0.069522 -0.412274
v -2.173416 -0.846873 0.398109
vn 0.778937 -0.414012 -0.471011
v -2.201315 -0.870302 0.398080
vn 0.989178 0.137397 0.051469
v -2.205024 -0.752799 0.210008
vn 0.947490 -0.318275 -0.031048
v -2.184262 -0.776261 0.209985
vn 0.984820 0.144469 -0.096222
v -2.202249 -0.776397 0.186524
vn 0.990887 0.067627 0.116488
v -2.199508 -0.776363 0.233536
vn -0.238153 -0.768603 0.593745
v -2.490755 -1.223037 -0.020145
vn -0.868430 0.092110 0.487181
v -2.537786 -1.152481 -0.019632
vn 0.433230 -0.708476 0.557112
v -2.420215 -1.199512 -0.019932
vn 0.681958 -0.339941 0.647590
v -2.185092 -0.964411 -0.018046
vn -0.603332 0.677073 0.421381
v -2.373154 -0.987973 -0.018315
vn 0.224501 -0.594441 0.772165
v -2.608315 -0.635217 -0.015751
vn -0.587687 -0.370374 0.719338
v -2.326172 -0.776316 -0.016690
vn -0.246470 -0.425633 0.870683
v -2.467238 -0.658767 -0.015872
vn 0.706324 0.122226 0.697257
v -2.161574 -0.776301 -0.016611
vn -0.797838 0.187044 0.573122
v -2.302657 -0.893836 -0.017561
vn 0.417908 0.206527 0.884703
v -2.232114 -0.588213 -0.015223
vn -0.739684 0.658067 0.140770
v -2.772910 -0.611724 0.573463
vn -0.724123 -0.480431 0.494804
v -2.725919 -0.980001 0.398097
vn -0.893536 -0.270266 0.358540
v -2.796488 -0.870441 0.350985
vn -0.427761 0.071063 -0.901094
v -2.772903 -0.823338 0.329380
vn -0.350250 -0.311031 0.883507
v -2.655312 -1.034911 0.420144
vn -0.638867 -0.694866 0.330168
v -2.631842 -1.081977 0.398129
vn -0.120507 -0.556517 0.822050
v -2.490735 -0.611622 0.410525
vn -0.721767 0.292490 0.627297
v -2.300989 -0.940957 0.418321
vn -0.478294 -0.363284 0.799537
v -2.349708 -0.705813 0.413521
vn -0.439514 0.476904 0.761176
v -2.467256 -1.105544 0.422459
vn -0.779100 -0.103862 0.618236
v -2.292696 -0.823421 0.417127
vn 0.270040 -0.745087 0.609855
v -2.608351 -0.609420 0.417274
vn -0.532348 0.159016 0.831456
v -2.514305 -1.152511 0.423116
vn -0.897386 -0.280628 0.340508
v -2.513129 -1.165652 0.422271
vn -0.480711 -0.532014 0.697049
v -2.396741 -0.658791 0.412180
vn 0.459694 -0.887162 -0.040298
v -2.678695 -0.662081 0.115955
vn 0.389873 -0.875379 -0.285850
v -2.725814 -0.694842 0.257029
vn 0.395614 -0.864005 0.311425
v -2.631714 -0.632172 -0.001608
vn 0.072591 -0.332967 -0.940140
v -2.772902 -0.776313 0.324870
vn 0.372242 -0.926146 0.060743
v -2.631884 -0.624853 0.515659
vn 0.384085 -0.900922 0.202035
v -2.655298 -0.626400 0.586209
vn 0.260412 -0.646379 0.717202
v -2.702369 -0.635228 0.619330
vn 0.336787 -0.798259 0.499357
v -2.678849 -0.628332 0.609717
vn -0.707061 0.677483 -0.202686
v -2.749411 -0.602553 0.492154
vn -0.400435 0.910484 -0.103299
v -2.772938 -0.624825 0.539176
vn -0.494911 0.860271 -0.122460
v -2.725899 -0.581229 0.539178
vn -0.197463 0.893817 -0.402617
v -2.725891 -0.577165 0.562691
vn -0.650529 -0.681538 -0.335139
v -2.655255 -1.061837 0.351147
vn -0.165427 0.174831 -0.970602
v -2.725846 -0.917356 0.293251
vn -0.260916 -0.326850 -0.908346
v -2.561327 -1.105517 0.320854
vn -0.411651 -0.263676 -0.872364
v -2.749460 -0.893940 0.318541
vn -0.782948 0.613086 0.105446
v -2.759287 -0.588215 0.586202
vn -0.195636 0.968038 -0.156938
v -2.725881 -0.553677 0.586204
vn -0.172791 -0.272579 -0.946490
v -2.725888 -0.776322 0.323592
vn -0.244858 -0.120318 -0.962065
v -2.678843 -0.846840 0.315833
vn -0.004360 0.469672 -0.882830
v -2.725879 -0.893878 0.316696
vn 0.121329 -0.037876 -0.991889
v -2.678854 -0.893877 0.318485
vn -0.264277 -0.100862 -0.959158
v -2.725886 -0.870367 0.339571
vn 0.352028 0.235325 -0.905924
v -2.702363 -0.917386 0.323979
vn -0.300461 -0.134143 0.944314
v -2.561285 -0.541207 0.677219
vn -0.287140 0.845030 0.451083
v -2.537812 -0.482675 0.656829
vn -0.245918 0.485774 0.838778
v -2.584817 -0.517670 0.655502
vn -0.305198 -0.232511 0.923468
v -2.490762 -0.541192 0.698795
vn -0.320862 0.253483 0.912575
v -2.467235 -0.517687 0.707680
vn -0.021542 0.623781 0.781302
v -2.608295 -0.494180 0.652553
vn -0.547483 0.831572 0.093540
v -2.702366 -0.555312 0.609717
vn -0.692203 0.194556 0.694984
v -2.753145 -0.611711 0.609786
vn -0.735177 -0.669338 -0.107248
v -2.517981 -1.176045 0.351084
vn -0.388112 -0.913662 0.120794
v -2.517460 -1.176055 0.398106
vn 0.288453 -0.955290 -0.064936
v -2.608332 -0.635200 0.115953
vn 0.180344 -0.854965 -0.486323
v -2.608359 -0.642083 0.233524
vn 0.142693 -0.938402 -0.314706
v -2.561348 -0.620329 0.210008
vn 0.025636 -0.545662 -0.837613
v -2.655343 -0.682269 0.273608
vn 0.014379 -0.448451 -0.893692
v -2.678856 -0.708007 0.280549
vn -0.106484 0.928070 -0.356858
v -2.702374 -0.577433 0.586202
vn -0.513998 0.819368 -0.253854
v -2.655327 -0.541226 0.586206
vn 0.055251 -0.016878 -0.998330
v -2.584805 -0.987926 0.315924
vn -0.100557 0.017218 -0.994782
v -2.537782 -1.058465 0.325992
vn -0.312581 -0.066074 -0.947590
v -2.537779 -1.105486 0.318305
vn -0.250846 -0.330566 -0.909836
v -2.692775 -0.752817 0.304027
vn -0.319750 -0.216862 -0.922351
v -2.655342 -0.752801 0.291869
vn -0.138374 -0.142676 -0.980049
v -2.631836 -0.823337 0.292337
vn -0.024174 -0.155196 -0.987588
v -2.608307 -0.870355 0.292314
vn -0.129742 -0.249034 0.959765
v -2.702380 -0.611721 0.633268
vn 0.086733 -0.915908 0.391906
v -2.561295 -0.593220 0.609713
vn -0.226563 -0.779591 0.583873
v -2.537785 -0.564727 0.663303
vn -0.480238 0.877057 0.011927
v -2.631851 -0.524180 0.586198
vn 0.027776 -0.887632 0.459715
v -2.561291 -0.607203 -0.001606
vn -0.046264 -0.998908 0.006573
v -2.514272 -0.613993 0.068933
vn 0.224520 -0.921807 -0.316012
v -2.584799 -0.611755 -0.001614
vn 0.229063 -0.959296 0.165173
v -2.584805 -0.603162 0.586183
vn -0.351519 0.278997 -0.893642
v -2.525381 -1.105488 0.304058
vn -0.937811 -0.327901 0.113976
v -2.512199 -1.176037 0.421603
vn -0.204945 -0.956998 0.205312
v -2.490787 -0.606207 0.421621
vn -0.068649 -0.994057 0.084485
v -2.514263 -0.602557 0.539199
vn -0.149245 -0.962785 -0.225323
v -2.490739 -0.614030 0.162987
vn -0.141745 -0.989705 0.019811
v -2.490748 -0.613128 0.115954
vn -0.160429 -0.866815 -0.472116
v -2.537786 -0.620480 0.209998
vn -0.241734 -0.608793 -0.755603
v -2.537785 -0.635252 0.226011
vn -0.367389 -0.636471 0.678182
v -2.443729 -0.640507 -0.001611
vn -0.284250 -0.901084 0.327490
v -2.443765 -0.607064 0.586209
vn -0.299067 -0.807694 0.508124
v -2.420199 -0.577715 0.680222
vn -0.400697 -0.883227 0.243621
v -2.420203 -0.639826 0.021869
vn -0.178681 -0.425821 0.886989
v -2.420213 -0.556866 0.703867
vn -0.846650 -0.491391 0.204251
v -2.516777 -1.176052 -0.001606
vn -0.429982 -0.818398 0.381235
v -2.490782 -1.204475 -0.001605
vn -0.876878 0.184820 0.443763
v -2.525096 -1.152486 -0.001595
vn -0.457488 -0.845936 0.274039
v -2.490773 -1.199544 0.515667
vn -0.954136 -0.104955 0.280371
v -2.504174 -1.176081 0.515668
vn -0.953292 0.261315 -0.151491
v -2.518512 -1.152512 0.280543
vn -0.937006 0.339464 0.082361
v -2.520094 -1.152364 0.021909
vn -0.900991 0.165071 -0.401207
v -2.523469 -1.129004 0.304056
vn -0.459090 -0.837444 -0.296519
v -2.420223 -0.635243 0.162980
vn -0.333744 -0.599325 -0.727616
v -2.467245 -0.658750 0.210007
vn -0.485071 -0.818355 0.308223
v -2.420244 -0.637800 0.421619
vn -0.483511 -0.849673 0.210411
v -2.420230 -0.625751 0.562692
vn -0.545001 -0.711808 0.443061
v -2.396709 -0.635227 0.578312
vn -0.227356 0.873077 -0.431331
v -2.514267 -0.481051 0.656740
vn 0.212001 -0.929295 0.302434
v -2.467254 -1.205629 -0.001606
vn 0.421350 -0.906476 -0.027667
v -2.443337 -1.195076 0.515658
vn 0.224788 -0.936111 0.270492
v -2.443428 -1.196363 0.539173
vn -0.800903 0.438448 0.407821
v -2.490777 -1.152491 0.532862
vn -0.711713 -0.286903 0.641211
v -2.490757 -1.176025 0.539180
vn -0.450107 -0.419729 0.788182
v -2.467244 -1.176029 0.563878
vn 0.410353 -0.739328 0.533858
v -2.420116 -1.176150 0.562717
vn -0.754974 0.651924 -0.070775
v -2.373199 -1.050489 0.539177
vn -0.523626 0.066752 0.849329
v -2.420264 -1.105450 0.588290
vn -0.544025 0.365012 0.755515
v -2.396736 -1.081958 0.597884
vn -0.222731 0.224342 -0.948716
v -2.467246 -1.011439 0.292299
vn -0.348015 0.379742 -0.857136
v -2.420219 -1.034951 0.290970
vn -0.658784 0.497316 -0.564517
v -2.420046 -1.052552 0.280565
vn -0.642689 -0.764709 -0.046603
v -2.378824 -0.658678 0.115956
vn -0.607189 -0.670809 0.425837
v -2.396614 -0.655141 0.021870
vn 0.314242 0.135912 0.939564
v -2.255630 -0.588213 0.713507
vn 0.737522 0.366197 0.567416
v -2.248405 -0.541193 0.703790
vn 0.022163 0.352817 0.935430
v -2.349681 -0.494173 0.713482
vn -0.046918 0.060289 0.997078
v -2.337921 -0.572540 0.708687
vn 0.558468 -0.766515 0.317126
v -2.420268 -1.184027 -0.001603
vn 0.727165 -0.686377 -0.010893
v -2.443078 -1.187817 0.327508
vn 0.563731 -0.673315 0.478387
v -2.255634 -1.034965 0.625338
vn -0.467194 -0.153104 0.870798
v -2.279142 -0.987925 0.654801
vn -0.419374 0.114369 0.900580
v -2.349682 -1.058463 0.618156
vn 0.263829 -0.688646 0.675397
v -2.348822 -1.106404 0.606461
vn -0.345091 -0.008434 0.938531
v -2.373201 -1.081974 0.609722
vn -0.856215 0.516589 -0.005578
v -2.329006 -0.987965 0.492142
vn -0.828124 -0.358392 0.431006
v -2.308604 -0.776264 -0.001630
vn -0.247940 0.536801 0.806456
v -2.396708 -0.474265 0.680257
vn -0.017985 0.673141 0.739295
v -2.443731 -0.470651 0.671212
vn -0.075061 0.708221 0.701989
v -2.373192 -0.456000 0.680254
vn 0.057569 0.863172 0.501616
v -2.443729 -0.455037 0.656748
vn 0.711861 -0.637886 0.293863
v -2.220872 -0.988031 -0.001597
vn 0.773978 -0.630610 0.057343
v -2.231794 -0.991652 0.092455
vn 0.822129 -0.562102 -0.090248
v -2.250425 -1.012481 0.515626
vn -0.600415 0.119727 -0.790675
v -2.420218 -0.964415 0.268787
vn -0.569422 0.496409 -0.655238
v -2.372751 -0.964801 0.268982
vn -0.574262 -0.119440 -0.809912
v -2.398081 -0.987930 0.280550
vn -0.676681 -0.444748 -0.586772
v -2.420219 -0.976169 0.280543
vn -0.790127 -0.586132 0.179298
v -2.345897 -0.705816 0.421621
vn -0.797800 -0.558678 0.226703
v -2.337369 -0.705775 0.562697
vn -0.235396 -0.274141 0.932435
v -2.302676 -0.611743 0.717080
vn 0.787873 -0.438549 0.432355
v -2.203857 -0.964255 -0.001616
vn -0.784458 -0.459580 0.416427
v -2.326282 -0.705824 0.586239
vn -0.423550 -0.286258 0.859455
v -2.278974 -0.658682 0.705566
vn -0.292385 -0.333114 0.896408
v -2.208588 -0.825261 0.703793
vn 0.740288 0.081435 0.667340
v -2.179532 -0.729287 0.703810
vn 0.858878 0.343663 0.379769
v -2.173730 -0.658754 0.703811
vn 0.453504 -0.035118 0.890562
v -2.185095 -0.799824 0.707167
vn -0.844150 0.376686 0.381468
v -2.304144 -0.964421 0.609719
vn -0.858756 0.510834 0.039844
v -2.320909 -0.964422 0.539172
vn -0.937354 0.326374 0.121850
v -2.308950 -0.940904 0.539177
vn -0.646506 0.597218 0.474721
v -2.326115 -0.964421 -0.002875
vn -0.846148 -0.344571 0.406577
v -2.305946 -0.776337 0.421620
vn -0.952984 -0.276083 0.124897
v -2.300897 -0.799790 0.539176
vn -0.908284 -0.340823 0.242611
v -2.294211 -0.776375 0.586296
vn 0.516822 0.555607 0.651304
v -2.255634 -0.533925 0.703765
vn 0.726792 0.669839 0.151950
v -2.290914 -0.494173 0.680267
vn 0.727134 0.683349 0.065658
v -2.303051 -0.459151 0.680413
vn -0.457717 0.072646 0.886125
v -2.255615 -0.917393 0.671424
vn -0.778522 0.284991 0.559182
v -2.268423 -0.917381 0.656736
vn -0.984234 0.176837 -0.003533
v -2.298036 -0.893873 0.492162
vn -0.860028 -0.148370 0.488198
v -2.266550 -0.823306 0.633161
vn -0.535696 -0.228103 0.813018
v -2.220595 -0.846835 0.680233
vn -0.947906 -0.005868 0.318496
v -2.291485 -0.870381 -0.001603
vn -0.978594 0.199641 -0.049971
v -2.294043 -0.893876 -0.001608
vn -0.829606 0.551520 0.087060
v -2.320203 -0.964507 0.021912
vn -0.875178 0.221844 0.429940
v -2.271748 -0.893867 0.633231
vn -0.979178 -0.017597 0.202239
v -2.288508 -0.846863 0.562689
vn -0.999030 -0.043988 -0.002097
v -2.295136 -0.846844 0.468646
vn 0.810020 -0.510431 0.288667
v -2.223276 -0.987963 0.633214
vn 0.163558 -0.621357 0.766266
v -2.255623 -1.025591 0.633251
vn 0.765548 -0.275689 0.581319
v -2.173744 -0.870369 0.680267
vn 0.916017 -0.385332 0.111503
v -2.208677 -0.964325 0.045422
vn 0.934420 -0.343256 -0.095047
v -2.215403 -0.917495 0.398114
vn 0.925068 -0.379750 0.006249
v -2.207491 -0.917276 0.492168
vn 0.917315 -0.150381 0.368672
v -2.185471 -0.917236 -0.001618
vn 0.978615 -0.125650 -0.162867
v -2.181077 -0.870362 0.633237
vn 0.998486 -0.011656 -0.053753
v -2.199944 -0.846889 0.515649
vn 0.880761 -0.449785 0.148166
v -2.185176 -0.913035 0.656749
vn 0.874203 -0.143260 0.463945
v -2.200902 -0.870360 0.492158
vn 0.875545 0.027453 0.482356
v -2.195927 -0.846854 0.492153
vn 0.136991 -0.426008 0.894288
v -2.255627 -0.987923 0.659803
vn 0.889704 0.368310 -0.269770
v -2.220769 -0.658744 0.586199
vn 0.780858 0.562998 0.270727
v -2.221523 -0.611719 0.703759
vn 0.913119 0.264396 -0.310337
v -2.197809 -0.682269 0.656741
vn 0.918964 0.394337 -0.001991
v -2.239591 -0.564790 0.680309
vn 0.904545 0.326658 -0.274030
v -2.220403 -0.682281 0.562701
vn 0.964380 0.222807 -0.142580
v -2.197227 -0.752803 0.586204
vn 0.597581 0.463747 -0.654092
v -2.255989 -0.530330 0.680404
vn 0.974575 -0.004762 0.224010
v -2.193995 -0.823369 0.045426
vn 0.973888 0.226852 0.008989
v -2.220059 -0.776229 0.350975
vn 0.900359 0.364770 0.237267
v -2.208630 -0.743329 0.280539
vn 0.927503 0.362255 0.092251
v -2.227232 -0.752804 0.327585
vn 0.908369 0.354121 0.222405
v -2.220357 -0.729290 0.280544
vn 0.833240 0.353037 0.425530
v -2.232106 -0.705771 0.315814
vn 0.932608 0.265405 0.244545
v -2.220373 -0.705779 0.280542
vn 0.517526 0.807163 0.283997
v -2.232100 -0.694019 0.280547
vn 0.975193 0.215973 0.048520
v -2.208554 -0.742518 0.092449
vn 0.963968 0.252768 -0.082916
v -2.197226 -0.729295 0.162980
vn 0.955390 0.147144 0.256082
v -2.196877 -0.799827 0.045419
vn 0.954956 0.271436 0.119923
v -2.208365 -0.729183 0.045452
vn 0.891630 0.341771 0.296966
v -2.208535 -0.705773 0.021911
vn 0.849634 0.516307 -0.107466
v -2.208563 -0.719317 0.068931
vn 0.789799 0.238089 0.565271
v -2.185078 -0.752801 -0.001597
vn 0.705961 0.373304 0.601884
v -2.232117 -0.635239 0.001369
vn 0.840159 -0.049746 0.540054
v -2.175659 -0.682204 0.703810
vn 0.963596 0.127811 -0.234833
v -2.195677 -0.705778 0.656739
vn 0.495530 0.266678 0.826640
v -2.232120 -0.611729 -0.009861
vn 0.855332 0.028233 0.517310
v -2.173732 -0.799826 -0.001603
vn 0.983646 0.078033 -0.162331
v -2.185156 -0.799829 0.609722
vn 0.978094 0.174990 -0.112741
v -2.206867 -0.799808 0.492150
vn 0.733538 0.058036 -0.677166
v -2.201308 -0.776322 0.492158
vn 0.991335 0.130253 -0.017017
v -2.173666 -0.752803 0.680250
vn 0.000000 0.000000 0.000000
v -2.609861 -0.487554 2.478856
vn 0.729813 0.666881 0.150475
v -2.326055 -0.532803 0.398108
vn 0.873612 0.434187 -0.219738
v -2.244128 -0.658891 0.351129
vn 0.832088 0.553026 -0.042324
v -2.302560 -0.545724 0.351039
vn -0.321233 0.944210 -0.072645
v -2.725858 -0.627431 0.327537
vn -0.439178 0.895633 -0.070457
v -2.749485 -0.630435 0.351071
vn -0.662049 0.736560 -0.138455
v -2.725957 -0.601238 0.398093
vn -0.361993 0.850035 -0.382623
v -2.678821 -0.569757 0.398127
vn -0.573457 0.807647 -0.137307
v -2.702370 -0.577299 0.421615
vn -0.391272 0.911422 -0.127342
v -2.608313 -0.522785 0.445125
vn 0.036632 -0.071139 -0.996794
v -2.655331 -0.893865 0.327588
vn 0.072862 -0.212278 -0.974489
v -2.584805 -0.729270 0.268838
vn 0.163496 -0.235803 -0.957949
v -2.561293 -0.797794 0.304052
vn 0.122132 -0.557099 -0.821416
v -2.584804 -0.776313 0.268791
vn -0.115008 0.970858 -0.210256
v -2.514284 -0.488478 0.633213
vn -0.175513 -0.844909 -0.505296
v -2.396708 -0.735858 0.257030
vn -0.358281 -0.572939 -0.737140
v -2.490757 -0.679310 0.233517
vn -0.080395 -0.985304 -0.150709
v -2.420218 -0.743254 0.233519
vn 0.310312 0.873797 -0.374414
v -2.396710 -0.501315 0.257032
vn -0.060048 0.977051 -0.204368
v -2.443882 -0.495711 0.257004
vn 0.218523 0.907507 -0.358718
v -2.396695 -0.476417 0.304052
vn 0.964747 0.256486 -0.058977
v -2.243877 -0.635240 0.445130
vn 0.837791 0.545855 0.012224
v -2.279123 -0.618382 0.421617
vn 0.846995 0.524756 0.085033
v -2.268237 -0.635258 0.468641
vn 0.793356 0.606165 -0.056135
v -2.217958 -0.729210 0.115977
vn -0.582769 0.787432 0.200824
v -2.772904 -0.635239 0.233519
vn -0.624967 0.773428 -0.105946
v -2.772905 -0.635237 0.258387
vn -0.323956 0.946058 -0.005134
v -2.749367 -0.625007 0.233509
vn -0.392686 0.919503 -0.017650
v -2.702326 -0.575087 0.068841
vn -0.254218 0.918036 -0.304274
v -2.725567 -0.580080 0.115850
vn -0.310804 0.950275 0.019448
v -2.702272 -0.574247 0.092406
vn -0.096288 0.786883 0.609544
v -2.490752 -0.494230 0.015684
vn 0.019839 0.787165 0.616424
v -2.443725 -0.494229 0.020150
vn 0.072729 0.144288 0.986859
v -2.428245 -0.447156 -0.001595
vn -0.302299 0.832279 0.464680
v -2.655338 -0.517711 -0.020767
vn 0.241512 0.320990 0.915771
v -2.420225 -0.470631 -0.001563
vn -0.426566 0.669962 0.607612
v -2.396708 -0.447140 0.671634
vn -0.317943 0.945331 -0.072538
v -2.396706 -0.450766 0.633230
vn -0.103991 0.863325 0.493818
v -2.420218 -0.470653 0.669659
vn 0.131572 0.865859 -0.482677
v -2.372715 -0.446867 0.596747
vn 0.755318 0.651155 0.074110
v -2.326003 -0.541085 0.431208
vn 0.785161 0.586428 -0.199059
v -2.303013 -0.564923 0.515788
vn 0.950010 0.312122 0.007762
v -2.255671 -0.658772 0.445129
vn 0.919280 0.269954 -0.286443
v -2.220727 -0.705955 0.351160
vn 0.937508 0.325853 -0.122059
v -2.220495 -0.729308 0.492155
vn 0.861308 0.459795 -0.216189
v -2.255744 -0.650047 0.515652
vn 0.904050 0.263410 0.336613
v -2.173404 -0.846872 0.468643
vn 0.954096 -0.288420 -0.080712
v -2.168929 -0.870374 0.445133
vn 0.876294 -0.222903 0.427110
v -2.173357 -0.870368 0.468643
vn 0.737379 0.543329 0.401331
v -2.279360 -0.564832 0.000323
vn 0.599326 0.773993 0.204311
v -2.325952 -0.543032 0.068967
vn 0.857097 0.503251 -0.110103
v -2.276887 -0.635248 0.186484
vn 0.560309 0.696534 0.448213
v -2.325995 -0.526196 0.021934
vn 0.576296 0.564467 0.590983
v -2.326263 -0.494220 -0.008346
vn -0.532251 0.785026 0.316927
v -2.725874 -0.576459 0.021899
vn -0.240133 0.957417 0.160279
v -2.702380 -0.575922 0.045420
vn -0.850623 0.478283 0.218370
v -2.784657 -0.635244 0.210004
vn -0.300369 0.848922 0.434868
v -2.749271 -0.609014 0.162942
vn -0.016377 0.531006 0.847210
v -2.725657 -0.588652 0.140974
vn -0.274671 0.948707 -0.156562
v -2.772820 -0.623580 0.280551
vn -0.023649 0.992460 0.120265
v -2.749361 -0.632506 0.280533
vn -0.324641 0.944824 0.043772
v -2.561166 -0.521459 0.209973
vn -0.231530 0.936489 0.263406
v -2.702248 -0.581172 0.139430
vn -0.318356 0.945304 -0.071060
v -2.490668 -0.501004 0.304043
vn -0.332697 0.933404 0.134427
v -2.725946 -0.620992 0.257051
vn 0.030484 0.969050 0.244974
v -2.725859 -0.552982 0.139478
vn -0.545812 -0.181789 -0.817950
v -2.561303 -0.940910 0.322728
vn -0.264851 0.937743 0.224706
v -2.584670 -0.530009 0.045433
vn -0.223264 0.938038 0.265026
v -2.537648 -0.518131 0.045448
vn 0.194333 0.145228 -0.970125
v -2.561294 -0.987925 0.327554
vn -0.038795 -0.036807 -0.998569
v -2.490752 -0.917383 0.319664
vn 0.189356 0.005824 -0.981891
v -2.514267 -0.940900 0.318338
vn 0.000400 -0.262518 -0.964927
v -2.537777 -0.789134 0.304076
vn -0.248727 -0.211405 -0.945221
v -2.628405 -0.752797 0.280614
vn -0.172349 -0.240552 -0.955212
v -2.655347 -0.715528 0.280579
vn -0.161104 0.945514 -0.282929
v -2.561253 -0.502547 0.562699
vn -0.210412 0.976125 -0.053919
v -2.467283 -0.487534 0.445123
vn 0.188213 0.959728 -0.208562
v -2.396719 -0.465283 0.539170
vn 0.182678 0.980463 -0.072943
v -2.396576 -0.468601 0.327590
vn -0.038309 0.998818 0.029920
v -2.467475 -0.512477 0.115902
vn -0.427865 0.840074 -0.333477
v -2.584875 -0.513607 0.562677
vn 0.562087 0.823173 -0.080277
v -2.396668 -0.463703 0.492164
vn -0.525838 0.815384 -0.242164
v -2.608365 -0.517498 0.586195
vn 0.092774 -0.570957 -0.815721
v -2.514264 -0.705767 0.266978
vn -0.294222 -0.328342 -0.897566
v -2.373184 -0.772089 0.280628
vn -0.297634 -0.611614 -0.733036
v -2.373189 -0.752783 0.270433
vn 0.010066 -0.537077 -0.843473
v -2.537780 -0.729296 0.280527
vn -0.124150 -0.402150 -0.907118
v -2.584806 -0.680147 0.257048
vn -0.176033 -0.461998 -0.869235
v -2.608318 -0.673138 0.257039
vn -0.072211 0.401885 -0.912839
v -2.467230 -0.987928 0.310947
vn -0.207387 0.053051 -0.976819
v -2.514269 -0.964414 0.315704
vn -0.270039 0.015989 -0.962717
v -2.443726 -0.917384 0.313504
vn -0.317859 0.005041 -0.948125
v -2.514267 -1.011437 0.324702
vn -0.080522 0.996215 -0.032736
v -2.561293 -0.478305 0.609716
vn -0.031294 -0.051397 0.998188
v -2.420223 -0.447152 -0.000354
vn 0.283484 0.893923 -0.347187
v -2.372783 -0.452832 0.586028
vn -0.423470 -0.233468 -0.875309
v -2.501449 -1.058461 0.304091
vn -0.567276 0.023538 -0.823191
v -2.480708 -1.011438 0.301576
vn -0.245948 -0.130505 -0.960457
v -2.373178 -0.799825 0.287448
vn -0.503046 -0.793810 -0.341776
v -2.373188 -0.705769 0.210013
vn -0.619975 -0.519048 -0.588405
v -2.349683 -0.752803 0.257028
vn -0.038784 -0.609118 -0.792131
v -2.396707 -0.705778 0.223168
vn -0.460372 -0.684613 -0.565122
v -2.396695 -0.691114 0.210016
vn -0.200733 -0.518390 -0.831251
v -2.420220 -0.679184 0.210004
vn 0.317839 0.927088 0.198714
v -2.373194 -0.517612 0.068941
vn 0.241663 0.969279 0.045793
v -2.389848 -0.517663 0.115962
vn 0.145776 0.816629 0.558450
v -2.396706 -0.498529 0.021902
vn -0.338262 -0.332995 -0.880166
v -2.420219 -0.987928 0.299521
vn -0.312497 0.266505 -0.911768
v -2.443725 -0.987928 0.304070
vn 0.367176 0.928197 -0.060267
v -2.396662 -0.482626 0.445130
vn 0.430669 0.899744 -0.070607
v -2.373187 -0.521460 0.210002
vn -0.657119 -0.107003 -0.746153
v -2.349671 -0.799830 0.276008
vn -0.685544 0.336290 -0.645708
v -2.349674 -0.940904 0.263959
vn -0.471870 0.264504 -0.841057
v -2.420213 -0.940902 0.298245
vn 0.075619 -0.552362 -0.830167
v -2.420218 -0.729289 0.221479
vn 0.252306 0.544553 0.799877
v -2.349680 -0.470654 -0.010219
vn 0.797605 0.590126 0.124811
v -2.307000 -0.564850 0.186446
vn 0.556618 0.830767 0.001597
v -2.346893 -0.541175 0.233520
vn 0.645878 0.724956 -0.239333
v -2.349598 -0.502915 0.304012
vn 0.776092 0.607698 -0.168475
v -2.345874 -0.541247 0.257103
vn 0.014468 0.932339 0.361297
v -2.356998 -0.447140 0.656742
vn 0.400714 0.916203 -0.000320
v -2.349162 -0.446792 0.656524
vn -0.851770 0.018493 -0.523590
v -2.317792 -0.870364 0.233520
vn -0.811469 0.129574 -0.569850
v -2.326154 -0.917387 0.233526
vn -0.785805 0.520892 -0.333438
v -2.346574 -0.940901 0.257029
vn -0.874235 -0.290825 -0.388760
v -2.315603 -0.776314 0.210007
vn -0.732557 -0.602911 -0.316003
v -2.333892 -0.729283 0.186497
vn 0.784812 0.618987 0.030424
v -2.304236 -0.658780 0.257085
vn 0.810084 0.473623 -0.345608
v -2.253029 -0.682285 0.327596
vn 0.879491 0.456674 0.133959
v -2.278464 -0.631561 0.186482
vn 0.541218 0.773381 0.330098
v -2.255632 -0.663944 0.210006
vn 0.169966 0.903310 0.393882
v -2.255637 -0.677471 0.233517
vn 0.809504 0.578214 0.101846
v -2.220378 -0.682276 0.186496
vn 0.880442 0.461387 0.109290
v -2.232119 -0.692091 0.210008
vn -0.588803 -0.155630 0.793152
v -2.749426 -0.635220 0.614215
vn -0.771462 0.625803 -0.114966
v -2.784585 -0.635327 0.280550
vn -0.456752 -0.005122 -0.889579
v -2.490757 -1.081978 0.321179
vn -0.522604 0.230186 -0.820914
v -2.469995 -1.081973 0.304084
vn -0.156793 -0.380784 -0.911274
v -2.530732 -0.658761 0.233508
vn 0.014182 -0.768226 -0.640021
v -2.537779 -0.721347 0.257037
vn -0.234580 -0.414318 -0.879382
v -2.514267 -0.658753 0.231795
vn -0.218481 -0.425397 -0.878239
v -2.515870 -0.666401 0.233511
vn -0.712797 0.695199 0.092841
v -2.396623 -1.052921 0.068936
vn -0.654476 0.669716 -0.350917
v -2.470362 -1.105982 0.280581
vn -0.905033 0.312969 -0.288037
v -2.308583 -0.917577 0.210035
vn -0.776449 -0.628912 0.039965
v -2.334675 -0.705770 0.139473
vn -0.900906 -0.432378 -0.037657
v -2.305654 -0.752768 0.139460
vn -0.927210 -0.324075 -0.187769
v -2.300251 -0.776311 0.162986
vn -0.987022 -0.044316 -0.154348
v -2.288506 -0.823368 0.162988
vn 0.687068 -0.091436 -0.720817
v -2.203971 -0.823326 0.374586
vn -0.095255 0.994457 0.044517
v -2.749392 -0.599927 0.257030
# 514 vertices, 0 vertices normals


usemtl material_0
vt 0.485029 0.314073
vt 0.477375 0.313547
vt 0.477354 0.317850
f 1/1/1 2/2/2 3/3/3
vt 0.372733 0.018709
vt 0.367920 0.022705
vt 0.367920 0.011500
f 4/4/4 5/5/5 6/6/6
vt 0.932188 0.358643
vt 0.932783 0.354730
vt 0.935104 0.354962
f 7/7/7 8/8/8 9/9/9
vt 0.377525 0.004309
vt 0.377537 0.018048
vt 0.375732 0.005616
f 10/10/10 11/11/11 12/12/12
vt 0.412211 0.026611
vt 0.406982 0.025911
vt 0.411970 0.022115
f 13/13/13 14/14/14 15/15/15
vt 0.492788 0.298817
vt 0.488905 0.306445
vt 0.488882 0.310272
f 17/16/17 18/17/18 19/18/19
vt 0.910949 0.293920
vt 0.900882 0.296671
vt 0.903036 0.285331
f 20/19/20 6/20/6 5/21/5
vt 0.911536 0.278840
f 5/21/5 21/22/21 20/19/20
vt 0.904958 0.300945
f 20/19/20 22/23/22 6/20/6
vt 0.903913 0.277728
f 5/21/5 23/24/23 21/22/21
vt 0.926514 0.354890
vt 0.928176 0.354830
vt 0.930288 0.358348
f 22/25/22 24/26/24 6/27/6
vt 0.914373 0.298204
vt 0.909020 0.305257
f 22/23/22 25/28/25 26/29/26
f 22/23/22 20/19/20 25/28/25
vt 0.980757 0.460869
vt 0.982956 0.464675
vt 0.977528 0.468481
f 25/30/25 27/31/27 26/32/26
vt 0.902919 0.354635
vt 0.899170 0.354215
vt 0.899170 0.319554
f 28/33/28 29/34/29 30/35/30
f 30/35/30 26/29/26 28/33/28
vt 0.900021 0.311948
f 30/35/30 31/36/31 26/29/26
f 31/36/31 22/23/22 26/29/26
vt 0.406982 0.043755
vt 0.412917 0.047218
vt 0.406982 0.053955
f 23/37/23 32/38/32 33/39/33
vt 0.913528 0.275017
f 33/40/33 21/22/21 23/24/23
vt 0.903858 0.358643
f 29/34/29 28/33/28 34/41/34
vt 0.377706 0.028603
vt 0.386054 0.026468
vt 0.383947 0.030518
f 34/42/34 35/43/35 29/44/29
vt 0.927900 0.343165
vt 0.933890 0.346920
vt 0.933238 0.350613
f 31/45/31 36/46/36 37/47/37
f 37/47/37 22/25/22 31/45/31
f 37/47/37 24/26/24 22/25/22
f 37/47/37 8/8/8 24/26/24
f 8/8/8 7/7/7 24/26/24
vt 0.926514 0.301477
vt 0.930491 0.305077
vt 0.932969 0.312629
f 29/48/29 38/49/38 39/50/39
vt 0.927836 0.335533
f 39/50/39 30/51/30 29/48/29
vt 0.930656 0.301266
f 29/48/29 35/52/35 38/49/38
vt 0.375732 0.033405
vt 0.391861 0.036564
vt 0.379153 0.040930
f 40/53/40 16/54/16 41/55/41
vt 0.388982 0.043149
f 16/54/16 32/56/32 41/55/41
vt 0.393190 0.040004
f 16/54/16 2/57/2 32/56/32
vt 0.473549 0.313997
f 16/58/16 3/3/3 2/2/2
vt 0.393353 0.047296
vt 0.386578 0.058083
f 23/59/23 4/60/4 32/56/32
vt 0.391768 0.054552
f 23/59/23 5/61/5 4/60/4
vt 0.937176 0.308764
vt 0.940931 0.327911
f 39/50/39 42/62/42 43/63/43
f 43/63/43 30/51/30 39/50/39
vt 0.941287 0.339334
f 43/63/43 44/64/44 30/51/30
f 44/64/44 31/45/31 30/51/30
vt 0.938000 0.346892
f 44/64/44 15/65/15 31/45/31
f 15/65/15 36/46/36 31/45/31
vt 0.941529 0.350773
f 44/64/44 13/66/13 15/65/15
vt 0.988605 0.483750
vt 0.987008 0.483770
f 27/31/27 46/67/46 47/68/47
vt 0.984499 0.453178
f 27/31/27 48/69/48 46/67/46
vt 0.984667 0.487646
f 47/68/47 49/70/49 27/31/27
f 27/31/27 25/30/25 48/69/48
vt 0.942171 0.276611
vt 0.949844 0.271548
vt 0.942139 0.269292
f 33/71/33 2/72/2 1/73/1
vt 0.951132 0.276611
f 33/71/33 32/74/32 2/72/2
vt 0.918701 0.265521
vt 0.920786 0.269620
vt 0.918701 0.272705
f 1/75/1 50/76/50 33/77/33
vt 0.923613 0.267219
f 1/75/1 19/78/19 50/76/50
vt 0.977295 0.457019
vt 0.977295 0.441939
f 48/69/48 20/79/20 21/80/21
vt 0.984485 0.434020
f 21/80/21 51/81/51 48/69/48
vt 0.996826 0.757522
vt 0.997981 0.762994
vt 0.996826 0.768799
f 21/82/21 33/83/33 51/84/51
f 48/69/48 25/30/25 20/79/20
vt 0.924344 0.271748
f 33/77/33 50/76/50 51/85/51
vt 0.915039 0.332966
f 26/29/26 52/86/52 28/33/28
vt 0.983459 0.495361
f 26/32/26 49/70/49 52/87/52
vt 0.906665 0.355099
f 52/86/52 53/88/53 28/33/28
f 26/32/26 27/31/27 49/70/49
vt 0.934324 0.276611
vt 0.929835 0.275639
vt 0.926514 0.276611
f 49/89/49 54/90/54 52/91/52
vt 0.397207 0.065184
vt 0.402097 0.065779
vt 0.399094 0.069865
f 55/92/55 56/93/56 34/94/34
vt 0.395264 0.068412
f 34/94/34 57/95/57 55/92/55
vt 0.399636 0.062165
f 55/92/55 58/96/58 56/93/56
vt 0.396748 0.073486
f 34/94/34 53/97/53 57/95/57
f 34/41/34 28/33/28 53/88/53
vt 0.378219 0.024608
vt 0.388831 0.024140
f 56/98/56 59/99/59 35/43/35
f 35/43/35 34/42/34 56/98/56
vt 0.388627 0.028399
f 59/99/59 38/100/38 35/43/35
vt 0.372578 0.010947
vt 0.369160 0.007133
f 7/101/7 6/6/6 24/102/24
f 7/101/7 4/4/4 6/6/6
vt 0.389016 0.015404
f 59/99/59 11/11/11 60/103/60
f 59/99/59 56/98/56 11/11/11
vt 0.385463 0.011367
f 11/11/11 61/104/61 60/103/60
f 11/11/11 10/10/10 61/104/61
vt 0.375732 0.021130
f 56/98/56 58/105/58 11/11/11
f 37/47/37 36/46/36 15/65/15
vt 0.406982 0.019056
f 15/15/15 14/14/14 37/106/37
vt 0.943052 0.297003
vt 0.946567 0.300886
f 62/107/62 63/108/63 42/62/42
f 42/62/42 38/49/38 62/107/62
f 42/62/42 39/50/39 38/49/38
vt 0.932362 0.300993
vt 0.939827 0.296903
f 62/107/62 59/109/59 60/110/60
f 62/107/62 38/49/38 59/109/59
vt 0.977295 0.510986
vt 0.984783 0.510986
vt 0.983582 0.503729
f 37/111/37 14/112/14 64/113/64
vt 0.941011 0.354619
f 64/114/64 8/8/8 37/47/37
f 64/114/64 9/9/9 8/8/8
vt 0.938880 0.275941
vt 0.927463 0.263495
f 54/90/54 47/115/47 65/116/65
vt 0.926611 0.263978
f 65/116/65 66/117/66 54/90/54
f 54/90/54 49/89/49 47/115/47
vt 0.915274 0.272705
vt 0.907566 0.263993
vt 0.899170 0.272705
f 67/118/67 54/119/54 66/120/66
vt 0.410502 0.066338
vt 0.407056 0.059721
vt 0.406982 0.056596
f 67/121/67 52/122/52 54/123/54
vt 0.488959 0.298792
f 68/124/68 18/17/18 17/16/17
vt 0.406982 0.071940
f 52/122/52 67/121/67 69/125/69
vt 0.365136 0.037939
vt 0.356201 0.046106
vt 0.368803 0.026110
f 69/126/69 53/127/53 52/128/52
vt 0.357556 0.051216
f 69/126/69 57/129/57 53/127/53
vt 0.412034 0.066758
f 67/121/67 70/130/70 69/125/69
vt 0.980408 0.431623
vt 0.984196 0.431592
f 19/131/19 18/132/18 51/81/51
f 51/85/51 50/76/50 19/78/19
vt 0.988200 0.433988
f 18/132/18 71/133/71 51/81/51
vt 0.991767 0.431398
f 18/132/18 68/134/68 71/133/71
vt 0.378494 0.044635
f 72/135/72 32/56/32 4/60/4
vt 0.380359 0.056249
f 4/60/4 73/136/73 72/135/72
vt 0.385773 0.065770
f 4/60/4 7/137/7 73/136/73
vt 0.375732 0.067501
f 7/137/7 74/138/74 73/136/73
f 72/135/72 41/55/41 32/56/32
vt 0.376235 0.067624
f 7/137/7 64/139/64 74/138/74
vt 0.382397 0.069580
f 7/137/7 9/140/9 64/139/64
vt 0.996911 0.452915
vt 0.998761 0.443320
f 75/141/75 48/69/48 76/142/76
f 48/69/48 51/81/51 71/133/71
vt 0.409851 0.073486
f 77/143/77 69/125/69 70/130/70
vt 0.368711 0.040117
vt 0.371308 0.048388
f 57/129/57 77/144/77 78/145/78
f 57/129/57 69/126/69 77/144/77
vt 0.363758 0.065674
vt 0.356201 0.055173
vt 0.364435 0.063695
f 79/146/79 55/147/55 80/148/80
vt 0.397447 0.046865
f 12/149/12 58/96/58 55/92/55
vt 0.402235 0.059165
f 12/149/12 11/150/11 58/96/58
vt 0.955262 0.312235
f 43/63/43 42/62/42 81/151/81
f 42/62/42 63/108/63 81/151/81
vt 0.406982 0.014893
vt 0.406982 0.007537
vt 0.410184 0.012700
f 64/152/64 14/153/14 13/154/13
vt 0.943040 0.293180
f 62/107/62 60/110/60 61/155/61
vt 0.369080 0.063219
f 57/129/57 82/156/82 80/148/80
f 76/142/76 48/69/48 71/133/71
vt 0.992870 0.464485
vt 0.986552 0.468464
f 83/157/83 84/158/84 48/69/48
f 80/148/80 55/147/55 57/129/57
f 78/145/78 82/156/82 57/129/57
f 75/141/75 83/157/83 48/69/48
vt 0.395264 0.052602
f 55/92/55 79/159/79 12/149/12
vt 0.926514 0.282433
vt 0.936859 0.288330
vt 0.938072 0.280162
f 72/160/72 73/161/73 85/162/85
vt 0.948929 0.288330
vt 0.946000 0.282057
f 73/161/73 74/163/74 86/164/86
f 86/164/86 85/162/85 73/161/73
vt 0.472854 0.239739
vt 0.453654 0.253500
vt 0.457502 0.254986
f 87/165/87 71/166/71 68/167/68
vt 0.919590 0.722584
vt 0.921641 0.737549
vt 0.918701 0.727120
f 88/168/88 77/169/77 89/170/89
vt 0.086979 0.001152
vt 0.082764 0.003174
vt 0.089060 0.003174
f 90/171/90 85/172/85 91/173/91
vt 0.965576 0.757080
vt 0.968282 0.757080
vt 0.966929 0.754736
f 92/174/92 93/175/93 94/176/94
vt 0.621826 0.643799
vt 0.636162 0.643799
vt 0.630293 0.642596
f 95/177/95 96/178/96 97/179/97
vt 0.920307 0.204174
vt 0.916248 0.203440
vt 0.925119 0.207744
f 98/180/98 99/181/99 100/182/100
vt 0.154389 0.000808
vt 0.153076 0.003174
vt 0.155867 0.003174
f 101/183/101 102/184/102 103/185/103
vt 0.298177 0.034706
vt 0.299087 0.030224
vt 0.292898 0.033516
f 104/186/104 105/187/105 106/188/106
vt 0.411103 0.109287
vt 0.411592 0.114157
vt 0.410889 0.114585
f 107/189/107 108/190/108 109/191/109
vt 0.146624 0.000828
vt 0.145264 0.003174
vt 0.147977 0.003174
f 110/192/110 111/193/111 112/194/112
vt 0.342682 0.033938
vt 0.339263 0.036535
vt 0.341554 0.039056
f 113/195/113 114/196/114 115/197/115
vt 0.897892 0.234600
vt 0.893599 0.238305
vt 0.891357 0.237382
f 116/198/116 117/199/117 118/200/118
vt 0.898099 0.019561
vt 0.895361 0.012219
vt 0.892788 0.015059
f 119/201/119 120/202/120 121/203/121
vt 0.956658 0.115308
vt 0.948715 0.110566
vt 0.946333 0.116568
f 122/204/122 123/205/123 124/206/124
vt 0.974385 0.959347
vt 0.985678 0.960205
vt 0.981161 0.957158
f 125/207/125 126/208/126 127/209/127
vt 0.925590 0.292489
vt 0.930506 0.288293
vt 0.928600 0.288387
f 128/210/128 129/211/129 130/212/130
vt 0.942551 0.333337
vt 0.942773 0.337153
vt 0.945431 0.337023
f 131/213/131 132/214/132 133/215/133
vt 0.856394 0.124756
vt 0.852584 0.122532
vt 0.852743 0.128104
f 134/216/134 135/217/135 136/218/136
vt 0.882470 0.110740
vt 0.882655 0.112349
vt 0.886461 0.113694
f 137/219/137 138/220/138 139/221/139
vt 0.878818 0.113748
f 140/222/140 138/220/138 137/219/137
vt 0.433765 0.088691
vt 0.430246 0.084124
vt 0.432329 0.079895
f 10/223/10 152/224/152 61/225/61
vt 0.982528 0.666347
vt 0.974401 0.691045
vt 0.973389 0.656774
f 66/226/66 153/227/153 67/228/67
vt 0.981816 0.683327
f 66/226/66 95/229/95 153/227/153
vt 0.658600 0.643799
vt 0.654854 0.642684
vt 0.641357 0.643799
f 66/230/66 154/231/154 95/232/95
vt 0.981427 0.691724
f 95/229/95 97/233/97 153/227/153
vt 0.457499 0.258815
f 17/234/17 87/165/87 68/167/68
vt 0.484305 0.235867
f 17/234/17 146/235/146 87/165/87
vt 0.987583 0.666057
vt 0.992897 0.674415
vt 0.982080 0.669843
f 155/236/155 105/237/105 154/238/154
vt 0.290856 0.030267
f 155/239/155 106/188/106 105/187/105
vt 0.983366 0.666794
f 154/238/154 65/240/65 155/236/155
f 154/238/154 66/226/66 65/240/65
vt 0.438232 0.139712
vt 0.441685 0.125141
vt 0.443003 0.147672
f 156/241/156 153/242/153 157/243/157
vt 0.802913 0.061581
vt 0.816616 0.014795
vt 0.801514 0.047074
f 156/244/156 67/245/67 153/246/153
vt 0.871395 0.033759
vt 0.817745 0.015990
f 156/244/156 158/247/158 70/248/70
vt 0.853620 0.093018
f 156/244/156 159/249/159 158/247/158
vt 0.876005 0.060976
f 159/249/159 160/250/160 158/247/158
vt 0.815566 0.091731
f 156/244/156 161/251/161 159/249/159
vt 0.838659 0.015821
f 158/247/158 88/252/88 70/248/70
f 70/248/70 67/245/67 156/244/156
vt 0.868457 0.080866
f 159/249/159 162/253/162 160/250/160
vt 0.858518 0.019598
f 158/247/158 163/254/163 88/252/88
vt 0.804751 0.091411
f 156/244/156 164/255/164 161/251/161
vt 0.803326 0.093018
f 156/244/156 165/256/165 164/255/164
vt 0.876315 0.050155
f 160/250/160 166/257/166 158/247/158
vt 0.832967 0.015390
f 88/252/88 89/258/89 70/248/70
vt 0.914786 0.253174
vt 0.936787 0.253174
vt 0.935660 0.233600
f 71/259/71 87/260/87 167/261/167
vt 0.917793 0.222617
vt 0.922748 0.233949
f 167/261/167 83/262/83 75/263/75
vt 0.925750 0.210936
vt 0.910889 0.218928
f 168/264/168 84/265/84 83/262/83
vt 0.945239 0.252427
f 87/260/87 169/266/169 167/261/167
vt 0.911941 0.203556
f 168/264/168 99/181/99 46/267/46
f 168/264/168 100/182/100 99/181/99
vt 0.989542 0.659971
f 170/268/170 155/236/155 65/240/65
vt 0.449951 0.007080
vt 0.466842 0.007080
vt 0.461460 0.001908
f 65/269/65 47/270/47 170/271/170
vt 0.278076 0.032319
vt 0.278652 0.033801
vt 0.284377 0.034406
f 47/272/47 46/273/46 170/274/170
vt 0.278661 0.038296
f 46/273/46 99/275/99 170/274/170
vt 0.822519 0.011506
f 70/248/70 89/258/89 77/276/77
vt 0.942249 0.727361
vt 0.927976 0.732026
f 88/168/88 82/277/82 78/278/78
vt 0.937074 0.709369
vt 0.948136 0.713254
f 88/168/88 171/279/171 172/280/172
vt 0.922252 0.705245
f 88/168/88 163/281/163 171/279/171
vt 0.953080 0.721041
f 82/277/82 172/280/172 173/282/173
vt 0.951806 0.717122
f 172/280/172 174/283/174 173/282/173
vt 0.946823 0.731184
vt 0.951066 0.728863
f 79/284/79 173/282/173 12/285/12
vt 0.424836 0.076272
vt 0.418418 0.076945
vt 0.410889 0.073356
f 63/286/63 175/287/175 81/288/81
vt 0.427428 0.079083
f 63/286/63 176/289/176 175/287/175
vt 0.419748 0.086080
f 176/289/176 177/290/177 175/287/175
vt 0.422028 0.089197
f 176/289/176 178/291/178 177/290/177
vt 0.208405 0.003174
vt 0.207764 0.003174
vt 0.207894 0.003083
f 64/292/64 13/293/13 74/294/74
vt 0.429803 0.077019
f 61/225/61 176/289/176 62/295/62
f 176/289/176 63/286/63 62/295/62
vt 0.993910 0.715005
vt 0.982163 0.708551
vt 0.981716 0.697645
f 114/296/114 179/297/179 96/298/96
vt 0.992458 0.682818
f 96/298/96 180/299/180 114/296/114
f 96/298/96 95/229/95 180/299/180
vt 0.989187 0.718079
f 114/296/114 113/300/113 179/297/179
vt 0.989199 0.723445
f 113/300/113 181/301/181 179/297/179
vt 0.988259 0.677488
f 95/229/95 182/302/182 180/299/180
f 95/229/95 154/238/154 182/302/182
f 154/238/154 105/237/105 182/302/182
f 152/224/152 178/291/178 176/289/176
vt 0.428646 0.088437
f 152/224/152 183/303/183 178/291/178
vt 0.422939 0.093654
f 183/303/183 184/304/184 178/291/178
f 176/289/176 61/225/61 152/224/152
vt 0.288480 0.040850
vt 0.302202 0.041384
f 185/305/185 186/306/186 104/186/104
f 104/186/104 106/188/106 185/305/185
vt 0.304542 0.030904
f 186/306/186 187/307/187 104/186/104
vt 0.308668 0.037284
f 186/306/186 188/308/188 187/307/187
f 106/188/106 170/274/170 185/305/185
f 106/188/106 155/239/155 170/274/170
vt 0.301490 0.032422
f 187/307/187 189/309/189 104/186/104
vt 0.309875 0.031935
f 188/308/188 190/310/190 187/307/187
vt 0.279790 0.042236
f 185/305/185 170/274/170 98/311/98
f 170/274/170 99/275/99 98/311/98
vt 0.884957 0.030518
vt 0.885579 0.019772
vt 0.879639 0.027189
f 191/312/191 192/313/192 193/314/193
vt 0.896598 0.028084
f 191/312/191 194/315/194 192/313/192
f 194/315/194 119/201/119 192/313/192
f 119/201/119 121/203/121 192/313/192
vt 0.899643 0.023821
f 194/315/194 195/316/195 119/201/119
vt 0.414476 0.115730
vt 0.423320 0.098370
f 196/317/196 108/190/108 197/318/197
vt 0.432277 0.090181
f 197/318/197 198/319/198 196/317/196
f 197/318/197 184/304/184 198/319/198
f 184/304/184 183/303/183 198/319/198
vt 0.984194 0.736888
vt 0.976866 0.737001
vt 0.975149 0.713530
f 199/320/199 200/321/200 157/322/157
f 157/322/157 179/297/179 199/320/199
f 157/322/157 96/298/96 179/297/179
f 157/322/157 153/227/153 96/298/96
f 153/227/153 97/233/97 96/298/96
vt 0.302502 0.027640
f 182/323/182 189/309/189 187/307/187
vt 0.307588 0.029406
f 187/307/187 180/324/180 182/323/182
f 105/187/105 104/186/104 189/309/189
f 189/309/189 182/323/182 105/187/105
vt 0.947824 0.233084
vt 0.946566 0.213959
f 167/261/167 201/325/201 202/326/202
f 202/326/202 168/264/168 167/261/167
vt 0.955041 0.217462
f 201/325/201 203/327/203 202/326/202
vt 0.937216 0.207594
f 168/264/168 202/326/202 204/328/204
vt 0.932419 0.206482
f 205/329/205 100/182/100 168/264/168
f 205/329/205 98/180/98 100/182/100
vt 0.422312 0.094007
vt 0.415153 0.100495
f 177/290/177 206/330/206 207/331/207
f 207/331/207 175/287/175 177/290/177
f 114/196/114 190/310/190 115/197/115
f 114/196/114 180/324/180 190/310/190
f 180/324/180 187/307/187 190/310/190
f 178/291/178 184/304/184 206/330/206
f 206/330/206 177/290/177 178/291/178
f 184/304/184 197/318/197 206/330/206
vt 0.329765 0.042098
f 190/310/190 188/308/188 208/332/208
f 208/332/208 115/197/115 190/310/190
vt 0.343621 0.042236
f 208/332/208 209/333/209 115/197/115
vt 0.350008 0.038366
f 209/333/209 210/334/210 115/197/115
vt 0.347972 0.035093
f 210/334/210 181/335/181 115/197/115
f 181/335/181 113/195/113 115/197/115
vt 0.896890 0.276611
vt 0.891357 0.273383
vt 0.893994 0.261733
f 211/336/211 212/337/212 213/338/213
vt 0.894731 0.253263
f 213/338/213 214/339/214 211/336/211
vt 0.956289 0.720727
vt 0.952999 0.697569
vt 0.965848 0.696903
f 215/340/215 216/341/216 191/342/191
f 215/340/215 174/283/174 216/341/216
vt 0.962575 0.693408
f 216/341/216 217/343/217 191/342/191
f 108/190/108 107/189/107 207/331/207
f 207/331/207 197/318/197 108/190/108
vt 0.411651 0.103661
f 107/189/107 218/344/218 207/331/207
f 207/331/207 206/330/206 197/318/197
vt 0.957335 0.251891
vt 0.963881 0.239875
f 219/345/219 220/346/220 201/325/201
f 201/325/201 169/266/169 219/345/219
f 201/325/201 167/261/167 169/266/169
vt 0.747268 0.643799
vt 0.738961 0.643219
vt 0.735107 0.643799
f 169/347/169 221/348/221 219/349/219
vt 0.948943 0.701498
f 222/350/222 216/341/216 174/283/174
f 174/283/174 172/280/172 222/350/222
f 172/280/172 171/279/171 222/350/222
vt 0.990467 0.725766
f 199/320/199 181/301/181 210/351/210
f 199/320/199 179/297/179 181/301/181
vt 0.993151 0.726973
f 210/351/210 223/352/223 199/320/199
vt 0.973527 0.736115
f 157/322/157 200/321/200 165/353/165
vt 0.438232 0.171143
f 165/354/165 156/241/156 157/243/157
vt 0.973389 0.737549
f 200/321/200 224/355/224 165/353/165
vt 0.922738 0.686141
vt 0.941401 0.690007
f 163/281/163 225/356/225 226/357/226
f 226/357/226 171/279/171 163/281/163
f 226/357/226 222/350/222 171/279/171
vt 0.920763 0.686198
f 163/281/163 158/358/158 225/356/225
vt 0.966804 0.224369
f 201/325/201 227/359/227 203/327/203
f 201/325/201 220/346/220 227/359/227
vt 0.967230 0.232002
f 220/346/220 228/360/228 227/359/227
vt 0.958745 0.217203
f 227/359/227 229/361/229 203/327/203
vt 0.958018 0.214467
f 230/362/230 203/327/203 229/361/229
f 230/362/230 202/326/202 203/327/203
vt 0.507264 0.239716
vt 0.511095 0.236747
vt 0.491964 0.231313
f 148/363/148 231/364/231 219/365/219
f 219/365/219 146/235/146 148/363/148
vt 0.488138 0.232051
f 219/365/219 221/366/221 146/235/146
vt 0.414155 0.116455
f 109/191/109 196/317/196 193/367/193
f 109/191/109 108/190/108 196/317/196
vt 0.948376 0.678682
vt 0.964328 0.674538
f 232/368/232 233/369/233 217/343/217
f 217/343/217 216/341/216 232/368/232
f 216/341/216 226/357/226 232/368/232
f 216/341/216 222/350/222 226/357/226
vt 0.978045 0.246225
f 234/370/234 228/360/228 220/346/220
vt 0.974508 0.250284
f 220/346/220 231/371/231 234/370/234
f 220/346/220 219/345/219 231/371/231
vt 0.968943 0.674271
vt 0.969031 0.685487
f 233/369/233 235/372/235 194/373/194
f 194/373/194 217/343/217 233/369/233
f 194/373/194 191/342/191 217/343/217
vt 0.894322 0.748748
vt 0.897400 0.753174
vt 0.897237 0.741713
f 236/374/236 142/375/142 141/376/141
vt 0.894123 0.743076
f 141/376/141 237/377/237 236/374/236
vt 0.917483 0.756853
vt 0.917533 0.760803
vt 0.920526 0.760986
f 236/378/236 238/379/238 142/380/142
vt 0.837192 0.752744
vt 0.810279 0.748978
f 199/381/199 237/377/237 239/382/239
f 199/381/199 236/374/236 237/377/237
vt 0.825683 0.752640
f 239/382/239 224/383/224 199/381/199
vt 0.810328 0.752452
f 239/382/239 240/384/240 224/383/224
vt 0.829565 0.753174
f 224/383/224 200/385/200 199/381/199
vt 0.871601 0.760986
vt 0.913686 0.760767
f 236/378/236 241/386/241 242/387/242
vt 0.860107 0.757239
f 236/378/236 199/388/199 241/386/241
vt 0.992595 0.730203
vt 0.995825 0.733702
f 199/320/199 243/389/243 241/390/241
f 199/320/199 223/352/223 243/389/243
f 242/387/242 238/379/238 236/378/236
vt 0.977055 0.223394
vt 0.968313 0.216063
f 227/359/227 244/391/244 245/392/245
vt 0.921162 0.675144
vt 0.943807 0.675105
f 226/357/226 246/393/246 247/394/247
f 226/357/226 225/356/225 246/393/246
f 247/394/247 232/368/232 226/357/226
vt 0.945777 0.671438
f 247/394/247 248/395/248 232/368/232
vt 0.799479 0.708512
vt 0.803048 0.712638
vt 0.803607 0.704051
f 121/396/121 120/397/120 249/398/249
vt 0.803830 0.700329
f 249/398/249 192/399/192 121/396/121
vt 0.893796 0.739477
vt 0.809581 0.742145
f 239/382/239 250/400/250 251/401/251
f 239/382/239 237/377/237 250/400/250
vt 0.805780 0.742333
f 251/401/251 252/402/252 239/382/239
vt 0.977146 0.124382
vt 0.972843 0.121812
vt 0.975331 0.139893
f 240/403/240 253/404/253 164/405/164
vt 0.975697 0.120302
f 240/403/240 254/406/254 253/404/253
vt 0.806328 0.750698
vt 0.801993 0.747440
f 254/407/254 252/402/252 255/408/255
f 254/407/254 239/382/239 252/402/252
vt 0.801514 0.740354
f 252/402/252 256/409/256 255/408/255
f 254/407/254 240/384/240 239/382/239
vt 0.947711 0.120072
vt 0.964527 0.139835
f 253/404/253 257/410/257 161/411/161
f 253/404/253 122/204/122 257/410/257
f 161/411/161 164/405/164 253/404/253
vt 0.959517 0.112233
f 253/404/253 258/412/258 122/204/122
f 122/204/122 124/206/124 257/410/257
vt 0.954120 0.110622
f 258/412/258 259/413/259 122/204/122
vt 0.923112 0.046828
vt 0.931486 0.045486
vt 0.932744 0.043071
f 260/414/260 261/415/261 262/416/262
f 250/400/250 237/377/237 141/376/141
vt 0.973158 0.115782
f 253/404/253 255/417/255 258/412/258
f 253/404/253 254/406/254 255/417/255
vt 0.983021 0.230339
f 228/360/228 263/418/263 244/391/244
f 228/360/228 234/370/234 263/418/263
vt 0.981143 0.245820
f 234/370/234 264/419/264 263/418/263
f 244/391/244 227/359/227 228/360/228
vt 0.918701 0.671618
f 246/393/246 158/358/158 166/420/166
f 246/393/246 225/356/225 158/358/158
vt 0.286429 0.011395
vt 0.279935 0.007302
vt 0.266357 0.019448
f 265/421/265 266/422/266 267/423/267
vt 0.278860 0.022705
f 267/423/267 268/424/268 265/421/265
vt 0.917043 0.014971
vt 0.908242 0.027304
f 267/425/267 195/316/195 235/426/235
f 195/316/195 194/315/194 235/426/235
vt 0.920019 0.194580
vt 0.919887 0.187709
vt 0.866389 0.192078
f 250/427/250 269/428/269 270/429/270
vt 0.835849 0.194250
f 270/429/270 251/430/251 250/427/250
vt 0.438232 0.179691
vt 0.447204 0.176322
vt 0.445734 0.193545
f 271/431/271 272/432/272 273/433/273
vt 0.439766 0.198838
f 273/433/273 274/434/274 271/431/271
vt 0.445372 0.199105
f 273/433/273 275/435/275 274/434/274
vt 0.447189 0.208072
f 275/435/275 258/436/258 274/434/274
vt 0.438232 0.216409
f 258/436/258 256/437/256 274/434/274
vt 0.443511 0.221924
f 258/436/258 255/438/255 256/437/256
vt 0.447587 0.202457
f 275/435/275 259/439/259 258/436/258
vt 0.935302 0.127812
vt 0.926514 0.139893
f 257/410/257 276/440/276 159/441/159
f 159/441/159 161/411/161 257/410/257
vt 0.343956 0.049567
vt 0.344607 0.045858
vt 0.321045 0.050049
f 147/442/147 277/443/277 264/444/264
vt 0.518767 0.239134
vt 0.530210 0.258864
f 264/445/264 148/363/148 147/446/147
f 264/445/264 231/364/231 148/363/148
vt 0.446045 0.119281
vt 0.448309 0.123259
vt 0.446045 0.128174
f 264/447/264 234/448/234 231/449/231
vt 0.907827 0.012814
vt 0.900122 0.014119
f 195/316/195 278/450/278 279/451/279
f 195/316/195 267/425/267 278/450/278
f 279/451/279 119/201/119 195/316/195
vt 0.910746 0.008962
f 267/425/267 280/452/280 278/450/278
f 279/451/279 120/202/120 119/201/119
vt 0.898994 0.011168
f 279/451/279 281/453/281 120/202/120
vt 0.918572 0.143868
vt 0.903300 0.145833
f 269/428/269 282/454/282 283/455/283
f 283/455/283 270/429/270 269/428/269
vt 0.834634 0.152824
f 270/429/270 283/455/283 284/456/284
f 284/456/284 251/430/251 270/429/270
vt 0.831113 0.162756
f 284/456/284 126/457/126 251/430/251
vt 0.820493 0.174610
f 126/457/126 274/458/274 251/430/251
vt 0.828073 0.189976
f 274/458/274 256/459/256 251/430/251
vt 0.969482 0.960205
f 126/208/126 125/207/125 274/460/274
vt 0.832035 0.194580
f 256/459/256 252/461/252 251/430/251
vt 0.928492 0.056898
vt 0.935683 0.059084
vt 0.932704 0.054026
f 285/462/285 286/463/286 287/464/287
vt 0.928746 0.054781
f 287/464/287 288/465/288 285/462/285
vt 0.995512 0.142886
vt 0.981832 0.145571
vt 0.981648 0.167952
f 246/466/246 289/467/289 290/468/290
vt 0.997561 0.165002
f 290/468/290 247/469/247 246/466/246
vt 0.991258 0.142268
f 246/466/246 166/470/166 289/467/289
vt 0.981975 0.144134
f 166/470/166 160/471/160 289/467/289
vt 0.968291 0.655992
f 233/369/233 291/472/291 235/372/235
f 233/369/233 248/395/248 291/472/291
f 233/369/233 232/368/232 248/395/248
vt 0.922979 0.189774
vt 0.921095 0.137528
f 282/454/282 143/473/143 144/474/144
f 282/454/282 269/428/269 143/473/143
vt 0.918412 0.139134
f 144/474/144 292/475/292 282/454/282
vt 0.951572 0.108152
f 259/413/259 275/476/275 123/205/123
f 123/205/123 122/204/122 259/413/259
vt 0.981226 0.172127
vt 0.986921 0.193378
vt 0.995281 0.194580
f 293/477/293 294/478/294 291/479/291
vt 0.995150 0.168412
f 291/479/291 248/480/248 293/477/293
f 248/480/248 290/468/290 293/477/293
f 248/480/248 247/469/247 290/468/290
vt 0.295530 0.019398
vt 0.324946 0.019530
vt 0.312457 0.009037
f 294/481/294 295/482/295 296/483/296
vt 0.302284 0.003654
f 297/484/297 265/421/265 294/481/294
vt 0.322620 0.014386
f 295/482/295 298/485/298 296/483/296
vt 0.286912 0.019941
f 265/421/265 291/486/291 294/481/294
vt 0.921683 0.025958
vt 0.928918 0.030518
f 268/487/268 235/426/235 291/488/291
vt 0.929824 0.108952
vt 0.931600 0.120615
f 299/489/299 300/490/300 124/206/124
vt 0.930453 0.162846
vt 0.926514 0.172363
vt 0.939549 0.174105
f 124/491/124 273/492/273 299/493/299
vt 0.946173 0.106727
f 124/206/124 123/205/123 273/494/273
f 123/205/123 275/476/275 273/494/273
f 276/440/276 124/206/124 300/490/300
f 276/440/276 257/410/257 124/206/124
vt 0.927451 0.120820
f 300/490/300 301/495/301 276/440/276
vt 0.534024 0.277994
vt 0.522539 0.293308
vt 0.530201 0.289480
f 150/496/150 145/497/145 302/498/302
vt 0.969118 0.146660
vt 0.965338 0.164971
f 289/467/289 303/499/303 304/500/304
f 304/500/304 290/468/290 289/467/289
vt 0.968819 0.172865
f 304/500/304 305/501/305 290/468/290
f 305/501/305 293/477/293 290/468/290
vt 0.932685 0.016063
vt 0.924872 0.010785
f 267/425/267 306/502/306 307/503/307
vt 0.278386 0.007919
f 267/423/267 266/422/266 306/504/306
vt 0.921666 0.006117
f 307/503/307 308/505/308 267/425/267
f 308/505/308 280/452/280 267/425/267
vt 0.827462 0.166294
vt 0.816956 0.157072
f 274/458/274 127/506/127 271/507/271
f 274/460/274 125/207/125 127/209/127
vt 0.934896 0.182029
vt 0.945117 0.186429
vt 0.945611 0.183554
f 272/508/272 309/509/309 310/510/310
f 310/510/310 299/493/299 272/508/272
f 299/493/299 273/492/273 272/508/272
vt 0.936694 0.154397
vt 0.943379 0.163134
vt 0.950323 0.156793
f 276/511/276 301/512/301 311/513/311
vt 0.942929 0.144658
f 311/513/311 159/514/159 276/511/276
vt 0.872551 0.074041
f 303/515/303 160/250/160 162/253/162
f 303/499/303 289/467/289 160/471/160
vt 0.960364 0.180945
vt 0.957835 0.194580
f 294/478/294 312/516/312 295/517/295
f 294/478/294 293/477/293 312/516/312
f 293/477/293 305/501/305 312/516/312
vt 0.954880 0.190135
f 312/516/312 313/518/313 295/517/295
vt 0.696888 0.643799
vt 0.693213 0.642664
vt 0.680420 0.643799
f 314/519/314 315/520/315 316/521/316
vt 0.949430 0.179984
vt 0.957441 0.168712
f 317/522/317 318/523/318 301/512/301
f 301/512/301 299/493/299 317/522/317
f 318/523/318 311/513/311 301/512/301
vt 0.957608 0.153750
f 318/523/318 319/524/319 311/513/311
f 299/493/299 310/510/310 317/522/317
vt 0.940139 0.162343
f 301/512/301 300/525/300 299/493/299
vt 0.961155 0.146074
f 311/513/311 319/524/319 162/526/162
f 162/526/162 159/514/159 311/513/311
vt 0.359915 0.046357
vt 0.363199 0.050049
f 314/527/314 147/442/147 150/528/150
f 314/527/314 277/443/277 147/442/147
f 303/499/303 319/524/319 304/500/304
f 303/499/303 162/526/162 319/524/319
f 319/524/319 318/523/318 304/500/304
vt 0.815352 0.147866
f 284/456/284 320/529/320 271/507/271
f 271/507/271 127/506/127 284/456/284
vt 0.996087 0.959239
f 127/209/127 126/208/126 284/530/284
vt 0.815601 0.155799
f 320/529/320 321/531/321 271/507/271
f 318/523/318 312/516/312 305/501/305
f 318/523/318 317/522/317 312/516/312
f 305/501/305 304/500/304 318/523/318
vt 0.334091 0.017201
vt 0.327577 0.022705
f 322/532/322 295/482/295 313/533/313
f 322/532/322 298/485/298 295/482/295
f 313/518/313 312/516/312 317/522/317
f 317/522/317 309/509/309 313/518/313
vt 0.020210 0.003174
vt 0.015073 0.001389
vt 0.012451 0.003174
f 317/534/317 310/535/310 309/536/309
vt 0.910762 0.139820
vt 0.853072 0.135895
f 283/455/283 323/537/323 324/538/324
f 324/538/324 284/456/284 283/455/283
vt 0.837782 0.135783
f 324/538/324 325/539/325 284/456/284
f 283/455/283 282/454/282 323/537/323
f 282/454/282 292/475/292 323/537/323
vt 0.918082 0.131018
f 292/475/292 326/540/326 323/537/323
vt 0.814518 0.127874
f 320/529/320 325/539/325 327/541/327
f 320/529/320 284/456/284 325/539/325
vt 0.833458 0.125403
f 325/539/325 328/542/328 327/541/327
vt 0.811002 0.134355
f 327/541/327 329/543/329 320/529/320
vt 0.837447 0.128643
f 325/539/325 330/544/330 328/542/328
vt 0.837280 0.124929
f 330/544/330 331/545/331 328/542/328
vt 0.806875 0.127560
vt 0.811011 0.150657
f 329/543/329 322/546/322 332/547/332
f 332/547/332 320/529/320 329/543/329
f 332/547/332 321/531/321 320/529/320
vt 0.942628 0.279627
vt 0.947872 0.259973
vt 0.936696 0.268440
f 333/548/333 334/549/334 335/550/335
vt 0.956034 0.263225
f 333/548/333 336/551/336 334/549/334
vt 0.939671 0.283729
f 335/550/335 337/552/337 333/548/333
vt 0.927884 0.280751
f 335/550/335 338/553/338 337/552/337
vt 0.954075 0.258142
vt 0.959780 0.259135
f 265/554/265 336/551/336 266/555/266
f 265/554/265 334/549/334 336/551/336
vt 0.937168 0.260486
f 265/554/265 297/556/297 334/549/334
vt 0.962154 0.262806
f 336/551/336 339/557/339 266/555/266
vt 0.961420 0.259058
f 339/557/339 306/558/306 266/555/266
vt 0.909748 0.118784
f 323/537/323 340/559/340 140/222/140
f 140/222/140 324/538/324 323/537/323
f 140/222/140 134/216/134 324/538/324
f 340/559/340 139/221/139 140/222/140
f 134/216/134 136/218/136 324/538/324
vt 0.859711 0.116109
vt 0.870931 0.110124
f 341/560/341 140/222/140 342/561/342
vt 0.933086 0.330256
vt 0.933096 0.322758
vt 0.929083 0.319241
f 342/562/342 343/563/343 341/564/341
f 140/222/140 137/219/137 342/561/342
vt 0.936046 0.330097
f 342/562/342 344/565/344 343/563/343
vt 0.939942 0.324098
f 344/565/344 345/566/345 343/563/343
vt 0.939189 0.329809
f 344/565/344 346/567/346 345/566/345
vt 0.941844 0.329678
f 346/567/346 347/568/347 345/566/345
vt 0.901508 0.108875
vt 0.889950 0.106514
f 139/221/139 348/569/348 349/570/349
f 139/221/139 340/559/340 348/569/348
vt 0.909577 0.115706
f 340/559/340 350/571/350 348/569/348
vt 0.909053 0.106700
f 350/571/350 351/572/351 348/569/348
vt 0.912711 0.103278
f 350/571/350 352/573/352 351/572/351
f 349/570/349 137/219/137 139/221/139
f 349/570/349 342/561/342 137/219/137
vt 0.905164 0.105469
f 351/572/351 353/574/353 348/569/348
vt 0.786462 0.025780
vt 0.792489 0.018672
vt 0.785889 0.038178
f 352/575/352 354/576/354 355/577/355
vt 0.785889 0.009902
f 352/575/352 350/578/350 354/576/354
vt 0.809325 0.102907
vt 0.801514 0.097917
vt 0.801683 0.101375
f 335/579/335 297/580/297 356/581/356
f 335/550/335 334/549/334 297/556/297
vt 0.809497 0.106042
f 356/581/356 357/582/357 335/579/335
vt 0.787361 0.046143
vt 0.787013 0.042267
f 354/576/354 151/583/151 358/584/358
vt 0.797036 0.014934
f 354/576/354 149/585/149 151/583/151
f 358/584/358 355/577/355 354/576/354
vt 0.794275 0.011019
f 354/576/354 359/586/359 149/585/149
vt 0.919511 0.109144
vt 0.917235 0.113537
f 149/587/149 359/588/359 326/540/326
f 326/540/326 144/474/144 149/587/149
f 326/540/326 359/588/359 340/559/340
f 340/559/340 323/537/323 326/540/326
f 359/588/359 350/571/350 340/559/340
f 359/586/359 354/576/354 350/578/350
vt 0.832943 0.115410
vt 0.817828 0.118139
f 328/542/328 128/589/128 360/590/360
f 360/590/360 327/541/327 328/542/328
vt 0.821305 0.112363
f 128/589/128 338/591/338 360/590/360
f 338/591/338 357/582/357 360/590/360
f 338/591/338 335/579/335 357/582/357
vt 0.828950 0.112321
f 128/589/128 130/592/130 338/591/338
vt 0.836934 0.119200
f 328/542/328 361/593/361 128/589/128
vt 0.836765 0.115441
f 361/593/361 362/594/362 128/589/128
vt 0.802022 0.108317
vt 0.806026 0.111007
f 357/582/357 296/595/296 363/596/363
f 363/596/363 360/590/360 357/582/357
f 357/582/357 356/581/356 296/595/296
vt 0.801984 0.118718
f 298/597/298 322/546/322 363/596/363
f 363/596/363 296/595/296 298/597/298
f 360/590/360 363/596/363 322/546/322
f 322/546/322 327/541/327 360/590/360
f 322/546/322 329/543/329 327/541/327
vt 0.305666 0.005444
f 294/481/294 296/483/296 356/598/356
f 294/481/294 356/598/356 297/484/297
vt 0.801728 0.003234
vt 0.801608 0.005382
vt 0.816879 0.007080
f 164/599/164 165/600/165 240/601/240
vt 0.801514 0.007080
f 165/600/165 224/602/224 240/601/240
f 88/168/88 172/280/172 82/277/82
f 168/264/168 46/267/46 84/265/84
f 167/261/167 168/264/168 83/262/83
vt 0.944721 0.731255
f 80/603/80 82/277/82 173/282/173
f 78/278/78 77/169/77 88/168/88
f 267/425/267 235/426/235 268/487/268
f 265/421/265 268/424/268 291/486/291
vt 0.925223 0.243387
f 167/261/167 75/263/75 76/604/76
f 173/282/173 79/284/79 80/603/80
vt 0.970964 0.308732
vt 0.946984 0.317807
vt 0.967509 0.316502
f 365/605/365 366/606/366 367/607/367
vt 0.859683 0.667492
vt 0.856103 0.663444
vt 0.848130 0.668043
f 368/608/368 369/609/369 370/610/370
vt 0.847548 0.676898
vt 0.843991 0.672636
vt 0.839053 0.689645
f 371/611/371 372/612/372 373/613/373
vt 0.903327 0.262519
vt 0.904814 0.253913
vt 0.907228 0.256135
f 186/614/186 374/615/374 188/616/188
vt 0.891376 0.085168
vt 0.897424 0.074831
vt 0.893824 0.077952
f 375/617/375 376/618/376 377/619/377
vt 0.807455 0.703924
f 120/397/120 378/620/378 249/398/249
vt 0.992920 0.483643
vt 0.992920 0.465376
vt 0.997297 0.480241
f 379/621/379 380/622/380 381/623/381
vt 0.867446 0.725396
vt 0.867895 0.718382
vt 0.859720 0.726146
f 382/624/382 383/625/383 384/626/384
vt 0.970215 0.262426
f 307/627/307 306/558/306 339/557/339
vt 0.949235 0.302261
vt 0.954968 0.305911
vt 0.951263 0.298473
f 385/628/385 386/629/386 387/630/387
vt 0.934960 0.360772
vt 0.938283 0.364305
vt 0.937386 0.356802
f 348/631/348 353/632/353 388/633/388
vt 0.875444 0.660813
vt 0.879567 0.656414
vt 0.868113 0.655632
f 389/634/389 13/635/13 44/636/44
vt 0.871405 0.660553
f 44/636/44 390/637/390 389/634/389
vt 0.875177 0.664961
f 390/637/390 391/638/391 389/634/389
vt 0.901282 0.676441
vt 0.906226 0.659144
vt 0.894568 0.661422
f 392/639/392 72/640/72 85/641/85
vt 0.893893 0.672108
f 85/641/85 393/642/393 392/639/392
vt 0.890435 0.665955
f 85/641/85 102/643/102 393/642/393
vt 0.897451 0.676245
f 393/642/393 394/644/394 392/639/392
vt 0.890593 0.663552
f 85/641/85 90/645/90 102/643/102
vt 0.833087 0.663368
f 175/646/175 373/613/373 372/612/372
vt 0.816666 0.679984
f 175/646/175 207/647/207 373/613/373
vt 0.816375 0.684462
f 207/647/207 218/648/218 373/613/373
vt 0.659663 0.007080
vt 0.653459 0.004632
vt 0.645264 0.007080
f 372/649/372 81/650/81 175/651/175
vt 0.364203 0.019960
vt 0.371824 0.019660
vt 0.373707 0.011059
f 395/652/395 396/653/396 397/654/397
vt 0.374874 0.014281
f 396/653/396 399/655/399 397/654/397
vt 0.799911 0.723758
vt 0.806162 0.723980
vt 0.800547 0.718974
f 400/656/400 401/657/401 402/658/402
vt 0.969540 0.303461
vt 0.963432 0.290000
f 386/629/386 404/659/404 405/660/405
f 405/660/405 387/630/387 386/629/386
f 386/629/386 365/605/365 404/659/404
f 386/629/386 366/606/366 365/605/365
vt 0.947182 0.302563
f 386/629/386 406/661/406 366/606/366
vt 0.938532 0.318351
f 406/661/406 407/662/407 366/606/366
vt 0.934061 0.295754
f 406/661/406 408/663/408 407/662/407
vt 0.947689 0.291010
f 406/661/406 409/664/409 408/663/408
f 405/660/405 409/664/409 387/630/387
f 406/661/406 387/630/387 409/664/409
vt 0.923382 0.296602
f 341/564/341 408/663/408 361/665/361
f 341/564/341 407/662/407 408/663/408
vt 0.914887 0.312403
f 361/665/361 135/666/135 341/564/341
vt 0.914221 0.300955
f 361/665/361 410/667/410 135/666/135
vt 0.926006 0.296307
f 408/663/408 362/668/362 361/665/361
vt 0.910889 0.305054
f 410/667/410 411/669/411 135/666/135
vt 0.911077 0.301243
f 410/667/410 412/670/412 411/669/411
vt 0.966117 0.373629
vt 0.972691 0.362275
vt 0.954725 0.344276
f 413/671/413 414/672/414 415/673/415
vt 0.937168 0.368236
f 415/673/415 351/674/351 413/671/413
f 415/673/415 353/632/353 351/674/351
f 415/673/415 388/633/388 353/632/353
vt 0.975387 0.369702
f 413/671/413 416/675/416 414/672/414
vt 0.979970 0.374225
f 413/671/413 417/676/417 416/675/416
vt 0.969482 0.643189
vt 0.971731 0.645730
vt 0.969482 0.651611
f 86/677/86 91/678/91 85/679/85
vt 0.909143 0.673223
vt 0.910042 0.659460
f 72/640/72 418/680/418 41/681/41
f 72/640/72 392/639/392 418/680/418
vt 0.905089 0.676636
f 392/639/392 419/682/419 418/680/418
vt 0.879379 0.659241
vt 0.881088 0.662352
vt 0.883113 0.660657
f 420/683/420 94/684/94 93/685/93
f 420/683/420 389/634/389 94/684/94
vt 0.888291 0.667642
vt 0.888459 0.662827
f 103/686/103 90/645/90 91/687/91
vt 0.823057 0.004420
vt 0.826083 0.006852
vt 0.828346 0.003828
f 91/688/91 421/689/421 103/690/103
f 103/686/103 102/643/102 90/645/90
vt 0.821045 0.007080
f 91/688/91 86/691/86 421/689/421
vt 0.831692 0.005751
f 421/689/421 422/692/422 103/690/103
vt 0.886581 0.666510
f 94/684/94 391/638/391 421/693/421
f 94/684/94 389/634/389 391/638/391
vt 0.042818 0.003174
vt 0.037598 0.001076
vt 0.035889 0.003174
f 421/694/421 92/695/92 94/696/94
vt 0.867762 0.660914
vt 0.867566 0.664097
f 423/697/423 368/608/368 424/698/424
f 423/697/423 369/609/369 368/608/368
vt 0.876779 0.699459
vt 0.889838 0.675412
f 368/608/368 425/699/425 426/700/426
vt 0.860733 0.710394
f 368/608/368 427/701/427 425/699/425
vt 0.871109 0.668536
f 426/700/426 428/702/428 368/608/368
f 425/699/425 394/644/394 426/700/426
f 426/700/426 421/693/421 428/702/428
f 421/693/421 391/638/391 428/702/428
f 428/702/428 424/698/424 368/608/368
vt 0.889844 0.671404
f 426/700/426 422/703/422 421/693/421
f 394/644/394 393/642/393 426/700/426
vt 0.835077 0.001310
vt 0.835472 0.007080
f 429/704/429 422/692/422 426/705/426
vt 0.829814 0.001859
f 429/704/429 101/706/101 422/692/422
f 101/706/101 103/690/103 422/692/422
f 186/614/186 211/336/211 214/339/214
vt 0.904207 0.276192
f 186/614/186 185/707/185 211/336/211
f 214/339/214 374/615/374 186/614/186
vt 0.896281 0.239147
f 214/339/214 430/708/430 374/615/374
f 214/339/214 117/199/117 430/708/430
f 214/339/214 118/200/118 117/199/117
f 368/608/368 371/611/371 373/613/373
f 373/613/373 427/701/427 368/608/368
f 368/608/368 370/610/370 371/611/371
vt 0.903766 0.697120
vt 0.907546 0.713733
vt 0.915169 0.687499
f 431/709/431 395/710/395 398/711/398
vt 0.903258 0.704981
f 431/709/431 432/712/432 395/710/395
f 398/711/398 419/682/419 431/709/431
vt 0.914709 0.678991
f 398/711/398 45/713/45 419/682/419
f 45/713/45 418/680/418 419/682/419
f 431/709/431 394/644/394 425/699/425
vt 0.902567 0.234991
f 374/615/374 430/708/430 208/714/208
vt 0.310792 0.040296
f 208/332/208 188/308/188 374/715/374
vt 0.900316 0.232740
f 430/708/430 433/716/433 208/714/208
vt 0.913834 0.059413
vt 0.911542 0.054726
f 376/618/376 434/717/434 435/718/435
vt 0.888442 0.067881
f 435/718/435 213/719/213 376/618/376
vt 0.900529 0.077274
f 376/618/376 436/720/436 434/717/434
vt 0.885649 0.079178
f 213/719/213 437/721/437 376/618/376
vt 0.881234 0.077600
f 213/719/213 212/722/212 437/721/437
vt 0.879639 0.083619
f 212/722/212 438/723/438 437/721/437
vt 0.908779 0.054307
vt 0.894446 0.061784
f 435/718/435 118/724/118 214/725/214
f 214/725/214 213/719/213 435/718/435
vt 0.819421 0.696699
vt 0.837540 0.713205
f 439/726/439 440/727/440 373/613/373
vt 0.821491 0.724239
f 439/726/439 441/728/441 440/727/440
f 440/727/440 427/701/427 373/613/373
vt 0.855867 0.726308
f 440/727/440 442/729/442 427/701/427
f 442/729/442 383/625/383 427/701/427
f 383/625/383 425/699/425 427/701/427
vt 0.891105 0.715376
f 383/625/383 443/730/443 425/699/425
f 443/730/443 431/709/431 425/699/425
f 443/730/443 432/712/432 431/709/431
vt 0.819696 0.692497
f 373/613/373 444/731/444 439/726/439
f 373/613/373 218/648/218 444/731/444
vt 0.829120 0.724817
f 441/728/441 445/732/445 440/727/440
f 442/729/442 384/626/384 383/625/383
vt 0.816121 0.688426
f 218/648/218 446/733/446 444/731/444
vt 0.812283 0.688427
f 446/733/446 218/648/218 107/734/107
vt 0.900876 0.092166
vt 0.925242 0.088316
f 447/735/447 448/736/448 436/720/436
vt 0.924547 0.091549
f 447/735/447 449/737/449 448/736/448
vt 0.898132 0.087081
f 436/720/436 450/738/450 447/735/447
f 436/720/436 376/618/376 450/738/450
f 376/618/376 375/617/375 450/738/450
vt 0.889180 0.093018
f 375/617/375 451/739/451 450/738/450
vt 0.885261 0.092978
f 375/617/375 452/740/452 451/739/451
vt 0.921325 0.049939
vt 0.912845 0.051189
f 434/717/434 453/741/453 454/742/454
vt 0.921132 0.061807
f 434/717/434 455/743/455 453/741/453
f 454/742/454 435/718/435 434/717/434
vt 0.906597 0.045038
f 454/742/454 433/744/433 435/718/435
vt 0.915017 0.043736
f 454/742/454 456/745/456 433/744/433
vt 0.903396 0.044233
f 456/745/456 208/746/208 433/744/433
vt 0.913868 0.035373
f 456/745/456 209/747/209 208/746/208
f 116/198/116 433/716/433 430/708/430
f 430/708/430 117/199/117 116/198/116
vt 0.811697 0.697408
f 457/748/457 378/620/378 439/726/439
f 457/748/457 192/399/192 378/620/378
vt 0.815762 0.693815
f 439/726/439 112/749/112 457/748/457
vt 0.817714 0.693352
f 439/726/439 110/750/110 112/749/112
f 192/399/192 249/398/249 378/620/378
f 439/726/439 444/731/444 110/750/110
vt 0.906700 0.047467
f 116/751/116 118/724/118 435/718/435
f 435/718/435 433/744/433 116/751/116
f 378/620/378 401/657/401 441/728/441
f 441/728/441 439/726/439 378/620/378
f 378/620/378 120/397/120 401/657/401
vt 0.813601 0.728069
f 401/657/401 459/752/459 441/728/441
vt 0.802819 0.716251
f 120/397/120 281/753/281 401/657/401
vt 0.811837 0.728265
f 401/657/401 403/754/403 459/752/459
vt 0.920027 0.037679
vt 0.920794 0.045943
f 460/755/460 456/745/456 461/756/461
f 460/755/460 209/747/209 456/745/456
vt 0.926478 0.083880
f 448/736/448 462/757/462 455/743/455
f 455/743/455 436/720/436 448/736/448
f 455/743/455 434/717/434 436/720/436
vt 0.979375 0.742109
vt 0.981899 0.751494
vt 0.987079 0.741282
f 379/758/379 463/759/463 464/760/464
vt 0.978225 0.749370
f 379/758/379 465/761/465 463/759/463
vt 0.977531 0.752454
f 465/761/465 466/762/466 463/759/463
vt 0.973389 0.753174
f 465/761/465 467/763/467 466/762/466
vt 0.897824 0.730188
vt 0.906358 0.720957
f 443/730/443 468/764/468 396/765/396
vt 0.890351 0.727118
f 443/730/443 469/766/469 468/764/468
f 396/765/396 432/712/432 443/730/443
f 396/765/396 395/710/395 432/712/432
vt 0.905627 0.727994
f 468/764/468 470/767/470 396/765/396
vt 0.928780 0.052472
f 260/414/260 471/768/471 261/415/261
vt 0.925088 0.051236
f 260/414/260 472/769/472 471/768/471
f 260/414/260 453/741/453 472/769/472
f 260/414/260 454/742/454 453/741/453
vt 0.836827 0.724367
f 440/727/440 445/732/445 473/770/473
f 473/770/473 442/729/442 440/727/440
vt 0.874926 0.728522
f 443/730/443 474/771/474 469/766/469
f 443/730/443 383/625/383 474/771/474
f 383/625/383 382/624/382 474/771/474
vt 0.930380 0.085298
vt 0.938083 0.063977
f 462/757/462 475/772/475 476/773/476
f 476/773/476 455/743/455 462/757/462
vt 0.926374 0.059720
f 476/773/476 477/774/477 455/743/455
f 477/774/477 453/741/453 455/743/455
f 477/774/477 472/769/472 453/741/453
vt 0.997891 0.545536
vt 0.999171 0.551521
vt 0.993940 0.552789
f 467/775/467 465/776/465 478/777/478
vt 0.992920 0.539694
f 478/777/478 245/778/245 467/775/467
f 288/465/288 472/769/472 477/774/477
f 477/774/477 285/462/285 288/465/288
f 471/768/471 288/465/288 287/464/287
f 471/768/471 472/769/472 288/465/288
vt 0.985302 0.374268
f 416/675/416 417/676/417 479/779/479
vt 0.385751 0.012627
vt 0.379326 0.019756
vt 0.390418 0.022705
f 479/780/479 470/781/470 416/782/416
f 479/780/479 399/655/399 470/781/470
f 399/655/399 396/653/396 470/781/470
vt 0.903683 0.012939
vt 0.905206 0.007307
f 402/783/402 401/784/401 281/453/281
f 281/453/281 279/451/279 402/783/402
f 279/451/279 278/450/278 402/783/402
vt 0.424037 0.017933
vt 0.424854 0.021569
vt 0.435885 0.019903
f 458/785/458 399/786/399 479/787/479
vt 0.422751 0.018233
f 458/785/458 397/788/397 399/786/399
f 261/415/261 471/768/471 287/464/287
f 287/464/287 262/416/262 261/415/261
f 286/463/286 477/774/477 476/773/476
f 286/463/286 285/462/285 477/774/477
vt 0.997048 0.557861
vt 0.992920 0.555461
f 379/789/379 381/790/381 478/777/478
f 478/777/478 465/776/465 379/789/379
vt 0.906472 0.008384
f 400/791/400 278/450/278 280/452/280
f 400/791/400 402/783/402 278/450/278
vt 0.981546 0.354411
vt 0.966915 0.343454
f 469/792/469 480/793/480 414/672/414
vt 0.978611 0.339176
f 469/792/469 474/794/474 480/793/480
vt 0.980456 0.362022
f 414/672/414 468/795/468 469/792/469
vt 0.973324 0.335570
f 474/794/474 481/796/481 480/793/480
vt 0.983034 0.331323
vt 0.978021 0.323664
vt 0.972998 0.331743
f 382/797/382 482/798/482 483/799/483
vt 0.985916 0.323387
f 382/797/382 384/800/384 482/798/482
f 483/799/483 474/794/474 382/797/382
f 483/799/483 481/796/481 474/794/474
f 416/675/416 468/795/468 414/672/414
vt 0.905026 0.737549
f 416/801/416 470/767/470 468/764/468
vt 0.986728 0.319471
f 365/605/365 482/798/482 442/802/442
vt 0.983754 0.300567
f 442/802/442 473/803/473 365/605/365
f 365/605/365 367/607/367 482/798/482
f 473/803/473 404/659/404 365/605/365
f 482/798/482 384/800/384 442/802/442
vt 0.985190 0.285092
f 473/803/473 441/804/441 405/660/405
f 405/660/405 404/659/404 473/803/473
vt 0.984198 0.277308
f 441/804/441 459/805/459 405/660/405
vt 0.985839 0.292702
f 473/803/473 445/806/445 441/804/441
vt 0.798311 0.726863
vt 0.801939 0.730054
f 400/656/400 280/807/280 484/808/484
vt 0.801897 0.731285
f 280/807/280 485/809/485 484/808/484
vt 0.797607 0.737549
f 280/807/280 308/810/308 485/809/485
vt 0.940161 0.077121
vt 0.941341 0.069511
f 476/773/476 486/811/486 487/812/487
f 476/773/476 475/772/475 486/811/486
vt 0.938762 0.064309
f 487/812/487 488/813/488 476/773/476
vt 0.936315 0.092280
f 475/772/475 489/814/489 486/811/486
vt 0.928510 0.093018
f 475/772/475 464/815/464 489/814/489
f 475/772/475 448/736/448 464/815/464
f 448/736/448 449/737/449 464/815/464
f 475/772/475 462/757/462 448/736/448
vt 0.990067 0.753174
vt 0.995496 0.746083
f 464/760/464 490/816/490 489/817/489
f 464/760/464 463/759/463 490/816/490
vt 0.953444 0.333137
f 367/607/367 366/606/366 491/818/491
f 491/818/491 483/799/483 367/607/367
vt 0.944904 0.321922
f 366/606/366 492/819/492 491/818/491
f 483/799/483 482/798/482 367/607/367
f 366/606/366 407/662/407 492/819/492
f 407/662/407 343/563/343 492/819/492
f 407/662/407 341/564/341 343/563/343
f 405/660/405 307/627/307 336/551/336
f 405/660/405 459/805/459 307/627/307
f 336/551/336 333/548/333 405/660/405
f 333/548/333 409/664/409 405/660/405
vt 0.982156 0.265766
f 459/805/459 485/820/485 307/627/307
f 307/627/307 339/557/339 336/551/336
vt 0.976015 0.261987
f 485/820/485 308/821/308 307/627/307
vt 0.984887 0.275495
f 459/805/459 403/822/403 485/820/485
vt 0.955363 0.344233
f 491/818/491 493/823/493 480/793/480
f 480/793/480 483/799/483 491/818/491
f 480/793/480 481/796/481 483/799/483
vt 0.989014 0.270605
vt 0.992098 0.260115
vt 0.994258 0.263392
f 413/824/413 358/825/358 151/826/151
vt 0.948704 0.340785
f 491/818/491 494/827/494 493/823/493
vt 0.946675 0.337135
f 491/818/491 495/828/495 494/827/494
f 494/827/494 415/673/415 493/823/493
vt 0.943216 0.344785
f 494/827/494 496/829/496 415/673/415
vt 0.942769 0.341103
f 494/827/494 497/830/497 496/829/496
f 491/818/491 347/568/347 495/828/495
f 491/818/491 492/819/492 347/568/347
f 492/819/492 345/566/345 347/568/347
vt 0.940533 0.371770
vt 0.952331 0.374268
f 351/674/351 352/831/352 355/832/355
f 355/832/355 413/671/413 351/674/351
vt 0.989562 0.256815
f 355/833/355 358/825/358 413/824/413
vt 0.935015 0.349151
f 388/633/388 496/829/496 349/834/349
f 388/633/388 415/673/415 496/829/496
f 349/834/349 348/631/348 388/633/388
f 497/830/497 342/562/342 349/834/349
f 497/830/497 344/565/344 342/562/342
f 349/834/349 496/829/496 497/830/497
f 497/830/497 133/215/133 132/214/132
f 497/830/497 494/827/494 133/215/133
f 344/565/344 131/213/131 346/567/346
f 344/565/344 497/830/497 131/213/131
vt 0.407219 0.026611
vt 0.402809 0.025426
vt 0.399170 0.026611
f 497/835/497 132/836/132 131/837/131
f 131/213/131 495/828/495 347/568/347
f 131/213/131 133/215/133 495/828/495
f 347/568/347 346/567/346 131/213/131
f 133/215/133 494/827/494 495/828/495
f 408/663/408 409/664/409 337/552/337
f 337/552/337 129/211/129 408/663/408
f 409/664/409 333/548/333 337/552/337
f 129/211/129 128/210/128 408/663/408
f 128/210/128 362/668/362 408/663/408
f 338/553/338 130/212/130 129/211/129
f 129/211/129 337/552/337 338/553/338
f 414/672/414 480/793/480 493/823/493
f 414/672/414 493/823/493 415/673/415
f 461/756/461 454/742/454 260/414/260
f 456/745/456 454/742/454 461/756/461
f 431/709/431 419/682/419 392/639/392
f 431/709/431 392/639/392 394/644/394
vt 0.699951 0.987549
vt 0.714744 0.987549
vt 0.721345 0.981300
f 41/838/41 418/839/418 45/840/45
vt 0.884669 0.996236
vt 0.887964 0.999268
vt 0.896724 0.998259
f 146/841/146 169/842/169 87/843/87
vt 0.879639 0.999268
f 146/841/146 221/844/221 169/842/169
vt 0.617920 0.921049
vt 0.621625 0.927548
vt 0.619788 0.928955
f 173/845/173 498/846/498 12/847/12
vt 0.620552 0.918537
f 173/845/173 215/848/215 498/846/498
vt 0.654243 0.909654
vt 0.633545 0.914534
vt 0.649673 0.917271
f 43/849/43 81/850/81 369/851/369
vt 0.640117 0.918448
f 81/850/81 370/852/370 369/851/369
vt 0.662192 0.918838
f 369/851/369 499/853/499 43/849/43
vt 0.660831 0.921143
f 369/851/369 423/854/423 499/853/499
vt 0.393573 0.885986
vt 0.405417 0.882625
vt 0.398659 0.877411
f 98/855/98 205/856/205 211/857/211
vt 0.391357 0.876872
f 211/857/211 185/858/185 98/855/98
vt 0.404207 0.874287
f 205/856/205 212/859/212 211/857/211
vt 0.407847 0.879434
f 205/856/205 438/860/438 212/859/212
vt 0.825790 0.919638
vt 0.829793 0.925049
vt 0.828771 0.917287
f 198/861/198 152/862/152 10/863/10
vt 0.824951 0.925049
f 198/861/198 183/864/183 152/862/152
vt 0.828296 0.916641
f 10/863/10 498/865/498 198/861/198
vt 0.621973 0.927997
f 10/866/10 12/847/12 498/846/498
vt 0.617920 0.892016
vt 0.623870 0.894029
f 215/848/215 191/867/191 193/868/193
vt 0.628980 0.895314
f 193/868/193 196/869/196 215/848/215
vt 0.625343 0.926242
f 196/869/196 198/870/198 215/848/215
f 198/870/198 498/846/498 215/848/215
vt 0.629879 0.889893
vt 0.625747 0.885843
vt 0.617920 0.889893
f 204/871/204 205/872/205 168/873/168
vt 0.634085 0.921143
f 370/852/370 81/850/81 372/874/372
vt 0.852256 0.964035
vt 0.848389 0.968018
vt 0.857614 0.968018
f 372/875/372 371/876/371 370/877/370
vt 0.690076 0.871318
vt 0.686194 0.878944
vt 0.693992 0.877539
f 209/878/209 500/879/500 210/880/210
vt 0.684431 0.874922
f 209/878/209 460/881/460 500/879/500
vt 0.682723 0.881027
f 460/881/460 501/882/501 500/879/500
vt 0.856201 0.858643
vt 0.860649 0.858643
vt 0.860483 0.854361
f 215/883/215 173/884/173 174/885/174
vt 0.416542 0.871397
vt 0.408346 0.872126
f 438/860/438 375/886/375 437/887/437
vt 0.418686 0.881197
f 438/860/438 452/888/452 375/886/375
vt 0.410914 0.883916
f 438/860/438 204/889/204 452/888/452
vt 0.412792 0.865406
f 375/886/375 377/890/377 437/887/437
f 438/860/438 205/856/205 204/889/204
vt 0.432639 0.880419
vt 0.431230 0.876490
vt 0.421158 0.878071
f 230/891/230 502/892/502 451/893/451
vt 0.422548 0.885986
f 451/893/451 202/894/202 230/891/230
vt 0.423937 0.868357
f 502/892/502 503/895/503 451/893/451
f 451/893/451 452/888/452 202/894/202
f 452/888/452 204/889/204 202/894/202
vt 0.636643 0.955282
vt 0.641845 0.957044
vt 0.640679 0.954784
f 230/896/230 504/897/504 502/898/502
vt 0.642810 0.956457
f 504/897/504 505/899/505 502/898/502
vt 0.734770 0.871967
vt 0.737885 0.874268
vt 0.740342 0.865288
f 109/900/109 193/901/193 192/902/192
vt 0.732525 0.865307
f 192/902/192 457/903/457 109/900/109
vt 0.730298 0.874268
f 457/903/457 107/904/107 109/900/109
vt 0.574951 0.999268
vt 0.590062 0.973020
vt 0.576430 0.961758
f 142/905/142 506/906/506 145/907/145
vt 0.577868 0.998129
f 142/905/142 238/908/238 506/906/506
vt 0.581683 0.997768
f 238/908/238 242/909/242 506/906/506
vt 0.583114 0.953750
f 506/906/506 316/910/316 145/907/145
vt 0.579093 0.954166
f 316/910/316 302/911/302 145/907/145
vt 0.623712 0.999268
vt 0.624074 0.988500
f 241/912/241 507/913/507 506/906/506
f 506/906/506 242/909/242 241/912/241
vt 0.627747 0.996869
vt 0.630908 0.987670
f 507/913/507 243/914/243 500/915/500
f 507/913/507 241/912/241 243/914/243
vt 0.628105 0.985510
f 500/915/500 501/916/501 507/913/507
vt 0.624486 0.976626
f 501/916/501 262/917/262 507/913/507
vt 0.691704 0.878807
f 500/879/500 223/918/223 210/880/210
vt 0.693633 0.882080
f 500/879/500 243/919/243 223/918/223
vt 0.633728 0.957263
vt 0.633545 0.968018
vt 0.644097 0.965148
f 229/920/229 227/921/227 245/922/245
f 245/922/245 504/897/504 229/920/229
vt 0.754400 0.936768
vt 0.746913 0.929441
vt 0.742920 0.936768
f 244/923/244 467/924/467 245/925/245
vt 0.748819 0.925596
f 244/923/244 466/926/466 467/924/467
f 504/897/504 230/896/230 229/920/229
vt 0.675261 0.872087
vt 0.672607 0.882080
f 501/882/501 260/927/260 262/928/262
f 501/882/501 460/881/460 260/927/260
vt 0.677414 0.870746
f 460/881/460 461/929/461 260/927/260
vt 0.646410 0.959284
vt 0.657509 0.968018
f 380/930/380 245/922/245 478/931/478
vt 0.660067 0.966448
f 478/931/478 381/932/381 380/930/380
f 380/930/380 504/897/504 245/922/245
f 380/930/380 505/899/505 504/897/504
vt 0.962045 0.999268
vt 0.962861 0.995478
vt 0.954470 0.995932
f 143/933/143 269/934/269 250/935/250
vt 0.949951 0.999268
f 250/935/250 141/936/141 143/933/143
vt 0.614088 0.947730
f 506/906/506 508/937/508 316/910/316
f 506/906/506 262/917/262 508/937/508
f 506/906/506 507/913/507 262/917/262
vt 0.391357 0.862549
vt 0.392957 0.861854
vt 0.397380 0.855651
f 271/938/271 321/939/321 272/940/272
vt 0.399208 0.859070
f 321/939/321 332/941/332 272/940/272
vt 0.611138 0.896996
vt 0.595780 0.892879
vt 0.598927 0.903188
f 466/942/466 263/943/263 509/944/509
vt 0.603969 0.886780
f 466/942/466 244/945/244 263/943/263
vt 0.606467 0.907029
f 509/944/509 490/946/490 466/942/466
vt 0.610817 0.900879
f 490/946/490 463/947/463 466/942/466
vt 0.625030 0.966107
f 508/937/508 262/917/262 287/948/287
vt 0.621563 0.954794
vt 0.617928 0.949590
f 488/949/488 487/950/487 508/937/508
vt 0.580724 0.890233
vt 0.575475 0.914112
vt 0.598427 0.912143
f 264/951/264 277/952/277 510/953/510
f 510/953/510 263/943/263 264/951/264
f 510/953/510 509/944/509 263/943/263
vt 0.577304 0.942637
vt 0.579886 0.941892
f 150/954/150 302/911/302 315/955/315
vt 0.602100 0.916139
vt 0.609908 0.915379
f 490/946/490 511/956/511 489/957/489
f 490/946/490 510/953/510 511/956/511
f 490/946/490 509/944/509 510/953/510
vt 0.607253 0.933277
vt 0.580092 0.938604
f 316/910/316 512/958/512 314/959/314
f 316/910/316 508/937/508 512/958/512
f 315/955/315 302/911/302 316/910/316
vt 0.613417 0.928955
vt 0.601800 0.923801
f 486/960/486 489/957/489 512/961/512
vt 0.618334 0.942689
f 512/958/512 508/937/508 486/962/486
f 489/957/489 511/956/511 512/961/512
f 508/937/508 487/950/487 486/962/486
f 150/954/150 315/955/315 314/959/314
f 277/952/277 512/961/512 510/953/510
vt 0.574951 0.928955
f 277/952/277 314/963/314 512/961/512
f 512/961/512 511/956/511 510/953/510
vt 0.422467 0.862549
vt 0.422513 0.854017
vt 0.409666 0.853983
f 322/964/322 313/965/313 309/966/309
f 309/966/309 332/941/332 322/964/322
f 309/966/309 272/940/272 332/941/332
vt 0.965428 0.991455
vt 0.961446 0.988755
vt 0.957764 0.991455
f 139/967/139 138/968/138 140/969/140
vt 0.681128 0.915975
vt 0.672607 0.925049
vt 0.698260 0.925049
f 341/970/341 134/971/134 140/972/140
vt 0.674284 0.921706
f 341/970/341 513/973/513 134/971/134
vt 0.834967 0.940570
vt 0.832764 0.948486
vt 0.836823 0.948486
f 326/974/326 292/975/292 144/976/144
vt 0.848399 0.905518
vt 0.852213 0.905518
vt 0.852243 0.900226
f 412/977/412 410/978/410 331/979/331
vt 0.848389 0.899630
f 331/979/331 330/980/330 412/977/412
vt 0.623325 0.960543
f 508/937/508 287/948/287 286/981/286
f 508/937/508 286/981/286 488/949/488
vt 0.704900 0.980765
f 45/840/45 40/982/40 41/838/41
vt 0.832942 0.997059
vt 0.830929 0.993681
vt 0.821045 0.999268
f 499/983/499 44/984/44 43/985/43
vt 0.874555 0.916257
vt 0.871826 0.921143
vt 0.876956 0.921143
f 391/986/391 514/987/514 428/988/428
vt 0.817272 0.963237
vt 0.820648 0.968018
vt 0.821544 0.963107
f 393/989/393 429/990/429 426/991/426
vt 0.664795 0.968018
vt 0.664795 0.954324
vt 0.668951 0.961496
f 376/992/376 437/993/437 377/994/377
vt 0.918701 0.999268
vt 0.930414 0.999268
vt 0.920832 0.995840
f 450/995/450 451/996/451 503/997/503
vt 0.989014 0.983643
vt 0.997524 0.983643
vt 0.991111 0.979907
f 406/998/406 386/999/386 385/1000/385
vt 0.848389 0.960205
vt 0.853899 0.960205
vt 0.849772 0.956150
f 385/1001/385 387/1002/387 406/1003/406
vt 0.789795 0.991455
vt 0.802016 0.991455
vt 0.794555 0.988767
f 492/1004/492 343/1005/343 345/1006/345
vt 0.813232 0.928955
vt 0.823421 0.928955
vt 0.819540 0.924519
f 325/1007/325 412/1008/412 330/1009/330
vt 0.501617 0.856577
vt 0.508675 0.858643
vt 0.504552 0.854213
f 513/1010/513 135/1011/135 134/1012/134
vt 0.836709 0.995961
f 44/984/44 499/983/499 390/1013/390
vt 0.845139 0.900331
vt 0.840576 0.905518
vt 0.845529 0.905518
f 390/1014/390 514/1015/514 391/1016/391
vt 0.834374 0.999268
f 499/983/499 423/1017/423 390/1013/390
vt 0.813232 0.968018
vt 0.815704 0.968017
f 102/1018/102 101/1019/101 393/989/393
f 101/1019/101 429/990/429 393/989/393
vt 0.723389 0.964111
vt 0.730242 0.953860
vt 0.726658 0.954484
f 325/1020/325 411/1021/411 412/1022/412
vt 0.738576 0.964111
f 325/1020/325 324/1023/324 411/1021/411
vt 0.492920 0.858643
f 135/1011/135 513/1010/513 341/1024/341
vt 0.761364 0.971765
vt 0.760935 0.977107
vt 0.768018 0.973659
f 74/1025/74 420/1026/420 86/1027/86
vt 0.758545 0.974141
f 74/1025/74 13/1028/13 420/1026/420
vt 0.758966 0.979736
f 420/1026/420 13/1028/13 389/1029/389
vt 0.767301 0.979736
vt 0.771392 0.977088
f 86/1027/86 92/1030/92 421/1031/421
vt 0.765528 0.977858
f 86/1027/86 93/1032/93 92/1030/92
f 86/1027/86 420/1026/420 93/1032/93
vt 0.864014 0.889893
vt 0.869727 0.889893
vt 0.868308 0.884963
f 424/1033/424 428/1034/428 514/1035/514
vt 0.840619 0.899521
f 514/1015/514 390/1014/390 424/1036/424
vt 0.844661 0.921143
vt 0.841241 0.917121
vt 0.840576 0.921143
f 424/1037/424 390/1038/390 423/1039/423
vt 0.728144 0.867286
vt 0.727480 0.869908
f 107/904/107 112/1040/112 111/1041/111
f 107/904/107 457/903/457 112/1040/112
vt 0.726428 0.873898
f 111/1041/111 446/1042/446 107/904/107
vt 0.725897 0.868209
vt 0.723389 0.870051
f 111/1041/111 110/1043/110 444/1044/444
f 444/1044/444 446/1042/446 111/1041/111
vt 0.427625 0.867758
vt 0.421914 0.866516
f 503/895/503 447/1045/447 450/1046/450
f 503/895/503 502/892/502 447/1045/447
vt 0.354197 0.854771
vt 0.373573 0.858903
vt 0.378303 0.856809
f 447/1047/447 379/1048/379 449/1049/449
vt 0.355674 0.862549
f 447/1047/447 380/1050/380 379/1048/379
vt 0.381679 0.859600
f 379/1048/379 464/1051/464 449/1049/449
vt 0.622693 0.955144
f 476/1052/476 488/949/488 286/981/286
vt 0.738785 0.956577
vt 0.738188 0.950821
f 411/1021/411 136/1053/136 135/1054/135
f 411/1021/411 324/1023/324 136/1053/136
vt 0.804293 0.928690
vt 0.801514 0.936768
vt 0.805165 0.936503
f 361/1055/361 328/1056/328 331/1057/331
vt 0.810300 0.936768
f 331/1057/331 410/1058/410 361/1055/361
vt 0.348389 0.862549
vt 0.351097 0.862549
f 447/1047/447 502/1059/502 505/1060/505
f 447/1047/447 505/1060/505 380/1050/380
l 16 45
# 994 faces, 1060 coords texture

# End of File
