####
#
# OBJ File Generated by Meshlab
#
####
# Object kitchen_chair_1.obj
#
# Vertices: 344
# Faces: 610
#
####
mtllib ./kitchen_chair_1.obj.mtl

vn -0.275733 0.890528 0.361844
v 9.299608 -4.861437 0.524468
vn 0.037460 0.454279 0.890072
v 9.558249 -4.844260 0.955729
vn 0.172981 0.775085 0.607718
v 9.581758 -4.862885 0.971236
vn 0.105206 0.806104 0.582347
v 9.628801 -4.862681 0.947676
vn 0.000000 0.000000 0.000000
v 9.627731 -4.864505 1.912155
vn -0.378910 0.301290 0.875015
v 9.323132 -4.863363 0.947729
vn -0.000838 0.586371 0.810042
v 9.652308 -4.862642 0.947672
vn 0.648892 0.608981 -0.456160
v 9.652428 -4.862458 0.830041
vn -0.785489 0.164317 0.596663
v 9.299633 -4.863330 0.924155
vn -0.976402 0.111389 -0.185018
v 9.299627 -4.863177 0.853625
vn -0.988322 0.130829 -0.078127
v 9.299623 -4.862936 0.736068
vn -0.287912 0.936421 -0.200554
v 9.299623 -4.863802 0.547996
vn -0.741685 0.614314 -0.269298
v 9.276121 -4.850234 0.665547
vn -0.027985 0.999137 -0.030706
v 9.276121 -4.822098 0.453961
vn -0.704796 0.532919 -0.468252
v 9.323118 -4.820793 0.603270
vn 0.259048 0.815756 -0.517142
v 9.487713 -4.855283 0.477435
vn 0.572817 0.795610 -0.197193
v 9.581816 -4.859392 0.571480
vn 0.080708 0.996219 0.032158
v 9.417175 -4.850390 0.430411
vn -0.073577 0.966342 -0.246516
v 9.440687 -4.849967 0.477437
vn -0.086006 0.996091 0.020123
v 9.417189 -4.853409 0.477450
vn -0.069857 0.803857 -0.590706
v 9.464197 -4.820770 0.515794
vn 0.336479 0.717347 -0.610079
v 9.493299 -4.820783 0.524460
vn 0.705557 0.481773 -0.519697
v 9.558254 -4.844289 0.569274
vn 0.820472 0.473736 -0.320000
v 9.559620 -4.844642 0.571487
vn 0.660063 0.634530 -0.402105
v 9.605408 -4.867962 0.759574
vn 0.885639 0.430789 0.173392
v 9.568771 -4.844732 0.642022
vn 0.780795 0.605681 -0.153330
v 9.558195 -4.844621 0.689048
vn 0.878322 0.213142 -0.427927
v 9.568308 -4.844722 0.736072
vn 0.863227 0.472132 0.178694
v 9.548861 -4.844533 0.665536
vn 0.730459 -0.432069 -0.528910
v 9.675768 -4.844223 0.886556
vn 0.135182 0.944780 -0.298524
v 9.588547 -4.256485 0.500951
vn 0.230624 0.646850 0.726910
v 9.675819 -4.281552 0.524458
vn 0.349933 0.856523 0.379362
v 9.675816 -4.279996 0.522168
vn 0.151565 0.878404 0.453248
v 9.581766 -4.256478 0.519901
vn 0.666815 0.743136 -0.055734
v 9.675816 -4.269705 0.500944
vn 0.475464 -0.522718 0.707602
v 9.675865 -4.679851 0.533522
vn 0.333497 -0.925813 -0.177905
v 9.652302 -4.713328 0.500949
vn 0.732286 -0.650044 -0.202977
v 9.675819 -4.687932 0.500950
vn 0.286047 -0.176424 -0.941834
v 9.699327 -4.632682 0.468655
vn 0.903163 -0.341128 -0.260631
v 9.722843 -4.619911 0.500943
vn -0.067965 -0.087577 -0.993837
v 9.675816 -4.656195 0.466716
vn 0.234120 -0.487539 -0.841126
v 9.652304 -4.703221 0.490842
vn 0.966891 -0.216939 0.134382
v 9.756573 -4.538634 0.524452
vn 0.631755 -0.443857 0.635513
v 9.699389 -4.656383 0.532899
vn 0.986428 0.057327 -0.153862
v 9.753077 -4.515122 0.524458
vn 0.547654 0.030118 0.836163
v 9.746315 -4.444499 0.553621
vn 0.298274 0.154614 -0.941874
v 9.699320 -4.538631 0.467274
vn 0.712545 -0.058158 -0.699212
v 9.746347 -4.515122 0.499781
vn 0.616018 -0.684018 -0.390694
v 9.581762 -4.793996 0.594998
vn 0.413370 -0.504686 -0.757903
v 9.581764 -4.750244 0.573166
vn 0.578197 -0.794739 -0.184602
v 9.605282 -4.756095 0.594997
vn 0.487052 -0.251717 -0.836313
v 9.615358 -4.726728 0.547970
vn 0.708498 0.118652 -0.695667
v 9.652309 -4.726734 0.571482
vn 0.248840 -0.593963 -0.765041
v 9.628796 -4.750249 0.560318
vn 0.531258 0.163239 -0.831335
v 9.614491 -4.679707 0.500950
vn -0.296198 -0.508810 -0.808319
v 9.628792 -4.703220 0.489888
vn 0.636431 -0.361452 -0.681401
v 9.605282 -4.679711 0.478742
vn 0.897066 -0.403303 -0.180606
v 9.699339 -4.797270 0.852171
vn -0.226178 0.126926 -0.965781
v 9.675817 -4.632685 0.490347
vn -0.818303 0.307550 0.485585
v 9.292341 -4.797265 0.900661
vn -0.153104 0.757685 0.634408
v 9.346634 -4.750399 0.897929
vn -0.757364 0.565137 0.327140
v 9.299616 -4.738125 0.853638
vn -0.433410 0.410932 0.802054
v 9.323128 -4.797272 0.924164
vn -0.176978 0.876050 0.448570
v 9.323118 -4.726848 0.853580
vn -0.157282 0.512477 0.844174
v 9.346645 -4.782003 0.924114
vn -0.398673 0.883503 0.245931
v 9.323141 -4.691229 0.759683
vn -0.609210 -0.197208 0.768096
v 9.288593 -4.609172 0.524495
vn -0.221878 -0.079887 0.971796
v 9.323172 -4.538797 0.547732
vn -0.697521 0.042802 0.715285
v 9.299627 -4.444583 0.547963
vn -0.118203 -0.079333 0.989815
v 9.323168 -4.491628 0.551512
vn -0.616432 -0.058973 0.785197
v 9.299616 -4.350531 0.554841
vn -0.050366 -0.271105 0.961231
v 9.346636 -4.350510 0.559578
vn -0.143622 0.492092 0.858614
v 9.370157 -4.303463 0.550924
vn -0.023163 0.966977 0.253807
v 9.370161 -4.679615 0.736122
vn -0.531155 0.844859 -0.063931
v 9.346651 -4.671169 0.665523
vn -0.646159 0.750479 -0.138779
v 9.335941 -4.679708 0.689044
vn 0.066746 0.996125 0.057264
v 9.417181 -4.669399 0.665528
vn -0.631516 0.772426 -0.067421
v 9.299616 -4.695562 0.712563
vn -0.741037 -0.164209 0.651076
v 9.299606 -4.374046 0.535179
vn -0.154486 -0.002107 0.987993
v 9.323162 -4.444688 0.555274
vn -0.049968 0.042869 0.997830
v 9.370192 -4.350635 0.559805
vn -0.243330 0.969819 0.015582
v 9.370150 -4.256453 0.503683
vn 0.092292 0.419551 -0.903028
v 9.440687 -4.303494 0.442799
vn -0.109823 0.184875 -0.976607
v 9.346638 -4.327002 0.442962
vn -0.065260 0.997532 0.025923
v 9.464195 -4.249250 0.500943
vn -0.693765 0.720163 0.007423
v 9.299606 -4.289005 0.500943
vn -0.700530 0.472666 -0.534644
v 9.299606 -4.310317 0.477415
vn -0.148155 0.719612 -0.678387
v 9.464197 -4.265602 0.477418
vn -0.356335 0.452643 -0.817398
v 9.323126 -4.327013 0.444685
vn -0.038102 0.935306 0.351783
v 9.534731 -4.701917 0.759648
vn -0.007466 0.807012 0.590488
v 9.534737 -4.767736 0.900711
vn -0.136387 0.270490 0.953013
v 9.544222 -4.656083 0.546056
vn 0.341531 0.089957 0.935555
v 9.722818 -4.397479 0.556412
vn 0.182507 0.562176 0.806628
v 9.605232 -4.657563 0.545638
vn -0.171202 -0.636495 0.752040
v 9.370131 -4.656103 0.548577
vn -0.250267 -0.134609 0.958773
v 9.393665 -4.656194 0.549787
vn 0.088738 0.377139 0.921896
v 9.487713 -4.656126 0.547456
vn 0.184887 0.457476 0.869789
v 9.511190 -4.665046 0.546091
vn -0.157262 0.930799 0.329974
v 9.534691 -4.694126 0.545370
vn -0.375352 -0.718337 0.585750
v 9.393663 -4.658007 0.547975
vn -0.264115 -0.489877 -0.830821
v 9.346640 -4.350537 0.465968
vn -0.241196 -0.227624 -0.943404
v 9.370159 -4.350529 0.444564
vn -0.183241 -0.637346 -0.748474
v 9.323128 -4.350534 0.443670
vn 0.043264 0.455643 0.889111
v 9.558252 -4.815485 0.947744
vn 0.199033 0.634347 0.746987
v 9.675823 -4.757001 0.900633
vn 0.308851 0.837008 0.451696
v 9.675810 -4.738453 0.877173
vn 0.524253 0.844546 0.109093
v 9.675810 -4.676399 0.712556
vn 0.573129 0.796996 -0.190582
v 9.675816 -4.681403 0.642012
vn 0.180636 0.935620 0.303290
v 9.581762 -4.675218 0.571491
vn 0.055637 0.997557 0.042235
v 9.464214 -4.675742 0.642008
vn 0.017582 0.944605 0.327739
v 9.558249 -4.672241 0.571496
vn 0.007728 0.956490 0.291663
v 9.487719 -4.677263 0.571485
vn -0.076011 0.938126 0.337850
v 9.417185 -4.677037 0.571487
vn -0.114016 0.868900 -0.481677
v 9.370161 -4.677289 0.594985
vn -0.389687 0.782834 -0.485094
v 9.346649 -4.676177 0.594987
vn -0.007120 -0.066137 -0.997785
v 9.440693 -4.350535 0.442184
vn 0.142045 0.184893 -0.972439
v 9.464203 -4.327025 0.443976
vn 0.079478 0.059434 -0.995063
v 9.464203 -4.350531 0.442572
vn 0.389256 0.254037 0.885407
v 9.722845 -4.352166 0.548098
vn 0.000917 0.489009 0.872278
v 9.534740 -4.285343 0.548011
vn 0.031553 0.981381 0.189460
v 9.511204 -4.696670 0.736127
vn 0.097901 0.602817 -0.791851
v 9.558254 -4.279998 0.468954
vn -0.402969 0.501859 -0.765345
v 9.410971 -4.679711 0.571493
vn 0.405024 0.861313 0.306751
v 9.675812 -4.693457 0.783133
vn -0.001828 0.979051 -0.203605
v 9.558252 -4.252822 0.500990
vn 0.012540 0.693852 -0.720008
v 9.581764 -4.279984 0.475970
vn 0.118141 0.421882 -0.898920
v 9.628792 -4.303506 0.442525
vn 0.107355 0.843859 -0.525716
v 9.666889 -4.279996 0.477437
vn -0.129562 0.555518 -0.821349
v 9.605280 -4.303504 0.442599
vn 0.375749 -0.008600 -0.926682
v 9.511227 -4.820781 0.532114
vn 0.181669 0.344176 -0.921162
v 9.511227 -4.797267 0.542898
vn 0.667689 -0.094087 -0.738471
v 9.558256 -4.797271 0.571487
vn 0.367136 0.051698 -0.928729
v 9.534739 -4.773758 0.553570
vn 0.384880 0.825995 0.411825
v 9.675817 -4.703133 0.800494
vn 0.662320 0.563780 0.493441
v 9.701782 -4.303496 0.524484
vn -0.253491 0.843763 0.473082
v 9.558256 -4.256479 0.524471
vn 0.405760 0.566496 0.717245
v 9.722839 -4.327016 0.539109
vn 0.624673 0.471470 0.622495
v 9.699331 -4.293333 0.524467
vn 0.885356 -0.452334 -0.107418
v 9.585876 -4.797266 0.618510
vn 0.822786 -0.547133 0.153847
v 9.581758 -4.797266 0.642022
vn 0.536165 -0.386380 -0.750492
v 9.581766 -4.679705 0.566919
vn 0.061429 0.990641 0.121888
v 9.605280 -4.716650 0.547973
vn -0.090232 -0.162233 -0.982618
v 9.581764 -4.726732 0.561109
vn 0.988373 0.002989 0.152019
v 9.543633 -4.703054 0.545139
vn 0.779782 -0.424792 -0.459883
v 9.569263 -4.726734 0.547974
vn -0.629477 -0.392005 -0.670888
v 9.595200 -4.726732 0.547976
vn 0.061686 0.923986 -0.377418
v 9.534653 -4.678243 0.565905
vn 0.641929 0.576495 -0.505550
v 9.588560 -4.679704 0.571484
vn 0.632352 -0.774450 -0.018922
v 9.583454 -4.703220 0.500950
vn 0.114894 -0.923966 -0.364809
v 9.605278 -4.688924 0.500949
vn 0.145741 -0.839161 -0.523993
v 9.605278 -4.712788 0.524462
vn 0.169179 -0.968098 -0.184837
v 9.581764 -4.712794 0.524459
vn 0.696709 -0.708012 0.115396
v 9.581764 -4.705409 0.500950
vn 0.414621 -0.897065 0.152853
v 9.558252 -4.722139 0.500946
vn 0.057959 -0.935216 -0.349301
v 9.628832 -4.738283 0.665508
vn 0.741608 -0.654873 -0.145462
v 9.605249 -4.770007 0.665555
vn -0.026622 -0.942145 0.334147
v 9.628794 -4.737495 0.595000
vn 0.672485 -0.663405 -0.328113
v 9.581795 -4.797314 0.712536
vn 0.579741 -0.777227 -0.244580
v 9.675797 -4.750216 0.723555
vn 0.895698 -0.313618 -0.315228
v 9.708872 -4.750195 0.759611
vn 0.821664 -0.015387 -0.569764
v 9.628735 -4.844215 0.821593
vn 0.335762 -0.879454 -0.337378
v 9.628794 -4.760033 0.689048
vn 0.047003 -0.690137 -0.722151
v 9.581764 -4.748590 0.571488
vn -0.029469 -0.957146 -0.288101
v 9.628792 -4.761411 0.571488
vn 0.807180 -0.462187 -0.367210
v 9.597832 -4.703220 0.477437
vn 0.558653 -0.805226 0.198793
v 9.581764 -4.719546 0.477435
vn 0.858391 0.240208 -0.453282
v 9.686460 -4.703229 0.618506
vn 0.322353 -0.933839 -0.155026
v 9.652290 -4.758552 0.595002
vn 0.313588 -0.474051 0.822762
v 9.628815 -4.703291 0.535480
vn 0.098948 -0.964904 0.243248
v 9.628792 -4.713019 0.524462
vn 0.300335 -0.642461 -0.705013
v 9.628792 -4.646933 0.500950
vn -0.485333 0.040661 -0.873384
v 9.652302 -4.679707 0.490446
vn 0.074708 -0.977658 -0.196478
v 9.652313 -4.760293 0.665531
vn 0.946553 -0.311168 -0.084927
v 9.699339 -4.732824 0.689049
vn 0.965810 0.131049 -0.223691
v 9.692507 -4.726725 0.736074
vn -0.479906 -0.075114 -0.874098
v 9.652306 -4.656198 0.489480
vn 0.887195 0.427243 -0.174207
v 9.706724 -4.726733 0.759587
vn 0.774868 0.370248 0.512344
v 9.699333 -4.772254 0.900675
vn 0.528301 0.313245 0.789161
v 9.699329 -4.797267 0.911613
vn 0.920752 0.161086 0.355341
v 9.754177 -4.374047 0.524459
vn 0.070479 0.974045 -0.215105
v 9.534641 -4.673922 0.571492
vn 0.977954 0.146543 -0.148764
v 9.756628 -4.421071 0.524460
vn 0.998573 0.052047 0.011993
v 9.755404 -4.397569 0.524459
vn -0.348565 -0.075196 -0.934263
v 9.299622 -4.703219 0.453930
vn -0.901957 0.411356 -0.131378
v 9.264345 -4.679707 0.477433
vn -0.868892 0.076306 -0.489085
v 9.295441 -4.656195 0.477437
vn -0.561884 -0.121832 -0.818195
v 9.299618 -4.350534 0.469164
vn 0.264473 -0.004882 -0.964381
v 9.605278 -4.327021 0.418656
vn 0.232585 -0.178151 -0.956120
v 9.605278 -4.350532 0.443233
vn -0.295173 0.276444 -0.914577
v 9.581764 -4.327024 0.445041
vn 0.158472 -0.127954 -0.979038
v 9.652306 -4.562154 0.467437
vn 0.096141 0.307249 -0.946760
v 9.675816 -4.515128 0.477467
vn 0.034033 0.158323 -0.986801
v 9.558254 -4.374042 0.434093
vn 0.072443 0.233090 -0.969753
v 9.511227 -4.327022 0.452036
vn -0.923992 -0.345288 -0.164362
v 9.264345 -4.726734 0.477433
vn 0.121461 -0.468423 -0.875116
v 9.346640 -4.729673 0.453943
vn -0.151004 -0.951207 -0.269080
v 9.323128 -4.766010 0.477439
vn -0.611799 -0.692128 -0.382963
v 9.276104 -4.743890 0.477436
vn 0.509436 -0.838955 -0.191387
v 9.346642 -4.758168 0.477436
vn -0.281157 0.195144 -0.939611
v 9.323135 -4.679707 0.448350
vn -0.969067 -0.245559 -0.024691
v 9.265377 -4.609169 0.500909
vn -0.467567 0.046812 -0.882717
v 9.346647 -4.538627 0.442377
vn -0.261477 -0.047309 -0.964050
v 9.347162 -4.679713 0.443429
vn -0.999843 -0.010230 0.014471
v 9.264328 -4.468096 0.500923
vn -0.224584 0.162427 -0.960822
v 9.346622 -4.515125 0.445773
vn -0.586966 -0.110131 -0.802086
v 9.276096 -4.468095 0.489180
vn -0.796805 0.125975 -0.590959
v 9.276110 -4.397560 0.490733
vn -0.236344 0.011234 -0.971605
v 9.346638 -4.421063 0.471116
vn -0.301719 -0.265500 -0.915683
v 9.299629 -4.391654 0.477469
vn -0.069752 -0.114578 -0.990963
v 9.417177 -4.421072 0.464467
vn -0.776632 0.007958 -0.629904
v 9.289055 -4.374046 0.477436
vn 0.162567 -0.803174 -0.573135
v 9.393667 -4.726769 0.477423
vn 0.468195 -0.879014 -0.090155
v 9.370155 -4.732476 0.477439
vn -0.244024 -0.466922 -0.849963
v 9.534758 -4.712780 0.453715
vn -0.107631 -0.958838 -0.262765
v 9.534740 -4.731549 0.477423
vn -0.044894 -0.309392 -0.949874
v 9.370157 -4.679718 0.438719
vn 0.084235 -0.121396 -0.989024
v 9.534742 -4.703219 0.451237
vn 0.305338 -0.184992 -0.934102
v 9.581768 -4.609173 0.453932
vn 0.312600 0.116683 -0.942691
v 9.543821 -4.703216 0.453761
vn 0.330914 -0.330908 -0.883740
v 9.558254 -4.750247 0.567409
vn 0.215843 -0.650623 -0.728081
v 9.534740 -4.737539 0.547968
vn 0.092731 -0.231743 -0.968347
v 9.511227 -4.750247 0.551393
vn 0.210417 -0.924601 -0.317551
v 9.558254 -4.742904 0.453914
vn 0.604956 -0.447036 -0.658929
v 9.573290 -4.726757 0.453934
vn 0.372636 -0.169307 -0.912402
v 9.602165 -4.679710 0.477426
vn 0.329442 -0.345197 -0.878810
v 9.650953 -4.632681 0.477439
vn 0.118095 -0.104102 -0.987530
v 9.652313 -4.444594 0.496722
vn 0.394366 -0.116134 -0.911586
v 9.722828 -4.421073 0.501020
vn 0.258339 -0.257024 -0.931235
v 9.605286 -4.374054 0.447723
vn 0.317632 0.065251 -0.945966
v 9.675817 -4.327024 0.449381
vn 0.769508 0.385173 -0.509411
v 9.738373 -4.327035 0.477397
vn 0.925418 -0.070907 -0.372256
v 9.757450 -4.374054 0.500928
vn 0.563500 0.726075 -0.394059
v 9.722841 -4.316191 0.477436
vn 0.579016 0.687457 -0.438341
v 9.707882 -4.303509 0.477436
vn 0.471067 0.570463 -0.672806
v 9.699329 -4.294957 0.477438
vn 0.798877 -0.260127 -0.542337
v 9.746372 -4.397586 0.515165
vn -0.925596 0.285918 -0.248040
v 9.291971 -4.703218 0.712560
vn -0.987005 0.102143 0.124052
v 9.341103 -4.703217 0.642024
vn -0.992774 0.024460 0.117483
v 9.313244 -4.703220 0.618514
vn -0.919746 -0.371642 -0.126293
v 9.341829 -4.726733 0.618511
vn 0.902514 -0.406703 -0.141642
v 9.558252 -4.820781 0.690224
vn -0.691022 -0.225168 0.686868
v 9.276104 -4.726732 0.489379
vn -0.682042 -0.299359 0.667235
v 9.276102 -4.609170 0.511649
vn -0.620560 -0.598089 0.507144
v 9.276102 -4.619869 0.500952
vn -0.981393 0.114135 -0.154405
v 9.302917 -4.797270 0.712564
vn -0.925361 0.107394 -0.363558
v 9.344290 -4.750250 0.618510
vn -0.995059 -0.009960 -0.098785
v 9.308172 -4.820780 0.736076
vn -0.999922 -0.011541 0.004680
v 9.299610 -4.750240 0.736074
vn -0.947875 0.026367 -0.317550
v 9.303490 -4.773758 0.712563
vn -0.878271 0.353899 0.321551
v 9.306866 -4.703215 0.736074
vn -0.981457 0.004923 -0.191621
v 9.286741 -4.844293 0.877150
vn -0.973222 -0.036546 -0.226943
v 9.302715 -4.844294 0.853634
vn -0.995606 -0.064253 -0.068113
v 9.287374 -4.797266 0.830123
vn -0.978879 -0.191422 -0.071787
v 9.299627 -4.820782 0.806610
vn -0.999256 -0.038574 -0.000089
v 9.286165 -4.820779 0.877150
vn -0.625306 -0.337134 0.703799
v 9.299622 -4.726731 0.512702
vn -0.815760 -0.419984 0.397680
v 9.287855 -4.632683 0.500952
vn -0.778675 0.139335 0.611761
v 9.287859 -4.679707 0.500948
vn -0.684712 -0.228900 0.691935
v 9.287674 -4.726732 0.500950
vn -0.913246 0.022036 0.406812
v 9.295769 -4.374046 0.524476
vn -0.066395 0.442687 0.894215
v 9.440689 -4.853811 0.951729
vn -0.060733 0.280094 0.958050
v 9.452448 -4.813132 0.939922
vn -0.074757 0.580572 0.810770
v 9.452444 -4.863124 0.959482
vn -0.422245 -0.212077 -0.881324
v 9.487717 -4.679705 0.569067
vn -0.224801 0.455473 -0.861399
v 9.487715 -4.703214 0.565036
vn -0.186573 0.866789 -0.462458
v 9.439310 -4.703224 0.547973
vn -0.331835 0.180540 -0.925900
v 9.393663 -4.726733 0.561354
vn -0.407492 0.328836 -0.851949
v 9.370152 -4.716261 0.571482
vn -0.196950 0.979610 0.039691
v 9.487717 -4.716630 0.547959
vn -0.587412 0.108537 -0.801977
v 9.370155 -4.726733 0.561010
vn -0.205972 0.222035 0.953035
v 9.487717 -4.703220 0.533834
vn -0.426437 -0.872527 0.238429
v 9.487717 -4.656195 0.547968
vn -0.275537 -0.155819 -0.948578
v 9.440695 -4.726729 0.537759
vn -0.961408 0.261371 0.085908
v 9.502411 -4.703220 0.547975
vn -0.065151 0.266853 0.961533
v 9.452450 -4.798744 0.935929
vn 0.274542 0.952079 0.134803
v 9.370155 -4.844301 0.452474
vn 0.260586 0.934105 0.244014
v 9.323122 -4.820783 0.453918
vn -0.437238 -0.064491 -0.897031
v 9.370157 -4.773758 0.586204
vn -0.573462 -0.301339 -0.761798
v 9.370155 -4.745245 0.571481
vn -0.141296 0.023909 -0.989679
v 9.464207 -4.773757 0.555677
vn -0.026742 0.999313 -0.025660
v 9.393654 -4.870780 0.500934
vn 0.225116 0.969373 0.098174
v 9.370153 -4.852537 0.500948
vn -0.246551 0.830196 -0.499987
v 9.393661 -4.848118 0.524455
vn 0.669378 0.697070 -0.256955
v 9.675816 -4.279984 0.490639
vn -0.892167 0.451511 0.013273
v 9.276102 -4.387327 0.500951
vn -0.148830 -0.308154 0.939622
v 9.346642 -4.656197 0.535520
vn -0.168245 -0.131960 0.976873
v 9.323133 -4.679703 0.540310
vn 0.438157 -0.623051 0.647940
v 9.370155 -4.723775 0.500955
vn 0.821917 0.095272 -0.561583
v 9.605272 -4.844298 0.783102
vn 0.165702 0.951227 0.260213
v 9.299601 -4.820720 0.477403
vn -0.093111 -0.698075 0.709945
v 9.323132 -4.750244 0.518420
vn -0.062869 0.929130 0.364369
v 9.323132 -4.854152 0.524464
vn -0.156841 0.561179 -0.812699
v 9.464207 -4.797273 0.545651
vn -0.439397 0.593790 -0.674051
v 9.346657 -4.820812 0.581364
vn -0.687745 0.152117 -0.709836
v 9.357044 -4.773757 0.594997
vn -0.011995 0.170782 -0.985236
v 9.511225 -4.773752 0.552684
vn 0.785590 0.034789 -0.617769
v 9.585491 -4.844525 0.757936
vn -0.815369 0.105200 -0.569303
v 9.291346 -4.350534 0.477437
vn -0.992947 0.100412 0.063033
v 9.268950 -4.350534 0.500951
vn -0.954526 0.293191 0.054035
v 9.292095 -4.327021 0.500950
vn -0.995668 0.087291 -0.032012
v 9.289400 -4.374045 0.500951
vn 0.098109 -0.148637 0.984013
v 9.581795 -4.703313 0.535639
vn 0.999304 -0.024781 -0.027870
v 9.759712 -4.468097 0.524477
vn -0.571147 0.073680 -0.817535
v 9.346642 -4.703219 0.582721
vn 0.597744 0.080827 0.797602
v 9.652308 -4.862642 0.947672
vn 0.844129 0.479358 0.240130
v 9.722837 -4.862402 0.900657
vn 0.306147 -0.513976 -0.801313
v 9.675768 -4.844223 0.886556
vn 0.894275 -0.173837 -0.412375
v 9.699339 -4.797270 0.852171
vn 0.992249 0.119011 -0.035756
v 9.712557 -4.844301 0.900661
vn -0.395753 -0.494624 0.773775
v 9.393663 -4.658007 0.547975
vn 0.093291 -0.399561 -0.911947
v 9.440693 -4.350535 0.442184
vn 0.153529 -0.403289 -0.902101
v 9.464203 -4.350531 0.442572
vn 0.004859 -0.992120 -0.125196
v 9.581764 -4.712794 0.524459
vn 0.004685 -0.930623 0.365949
v 9.558252 -4.722139 0.500946
vn 0.905051 0.163067 0.392801
v 9.699329 -4.797267 0.911613
vn 0.001778 -0.439174 -0.898400
v 9.558250 -4.444581 0.413086
vn 0.208085 -0.526731 -0.824169
v 9.558254 -4.468097 0.443754
vn -0.497656 -0.087679 -0.862932
v 9.534742 -4.444583 0.443613
vn 0.068440 0.176862 -0.981853
v 9.652306 -4.562154 0.467437
vn 0.079718 0.226365 -0.970775
v 9.675816 -4.515128 0.477467
vn -0.106199 -0.097990 -0.989505
v 9.558254 -4.374042 0.434093
vn -0.105149 -0.180667 -0.977907
v 9.511227 -4.327022 0.452036
vn 0.045579 0.066946 -0.996715
v 9.346647 -4.538627 0.442377
vn 0.020185 0.053973 -0.998338
v 9.417177 -4.421072 0.464467
vn -0.105263 0.011528 -0.994378
v 9.511234 -4.468087 0.450914
vn -0.104248 -0.072293 -0.991920
v 9.487713 -4.397554 0.467595
vn 0.036192 -0.966901 0.252573
v 9.393667 -4.726769 0.477423
vn -0.001461 -0.935517 0.353280
v 9.534740 -4.731549 0.477423
vn 0.076986 0.035071 -0.996415
v 9.370157 -4.679718 0.438719
vn 0.151481 0.033193 -0.987903
v 9.534758 -4.538643 0.456402
vn 0.059327 0.031308 -0.997748
v 9.534742 -4.703219 0.451237
vn 0.050255 0.094151 -0.994289
v 9.581768 -4.609173 0.453932
vn 0.109273 -0.207555 -0.972101
v 9.534746 -4.491611 0.451762
vn 0.035441 0.123411 -0.991723
v 9.558252 -4.397558 0.438200
vn 0.002840 -0.693452 -0.720497
v 9.534740 -4.737539 0.547968
vn 0.569040 0.001054 -0.822309
v 9.580326 -4.421066 0.430430
vn 0.329395 -0.123602 -0.936067
v 9.581778 -4.491621 0.475226
vn -0.164115 0.380970 -0.909906
v 9.558254 -4.421072 0.413378
vn 0.391651 -0.035068 -0.919445
v 9.652313 -4.444594 0.496722
vn 0.453483 0.011576 -0.891190
v 9.605286 -4.374054 0.447723
vn -0.548545 -0.440326 0.710782
v 9.439310 -4.703224 0.547973
vn -0.276609 -0.806092 0.523167
v 9.417179 -4.713601 0.524465
vn -0.304508 -0.889754 -0.340019
v 9.440695 -4.726729 0.537759
vn -0.074259 -0.852475 0.517467
v 9.370155 -4.723775 0.500955
# 344 vertices, 0 vertices normals


usemtl material_0
vt 0.499323 0.858609
vt 0.495995 0.856055
vt 0.488412 0.859869
f 2/1/2 3/2/3 4/3/4
vt 0.484627 0.859859
f 7/4/7 4/3/4 3/2/3
vt 0.522034 0.944163
vt 0.518253 0.936499
vt 0.510813 0.936473
f 18/5/18 19/6/19 16/7/16
vt 0.522118 0.936504
f 18/5/18 20/8/20 19/6/19
vt 0.513772 0.930278
vt 0.509090 0.928855
f 21/9/21 22/10/22 16/7/16
f 16/7/16 19/6/19 21/9/21
vt 0.495793 0.921121
vt 0.499218 0.921507
f 17/11/17 22/10/22 23/12/23
vt 0.499007 0.921146
f 23/12/23 24/13/24 17/11/17
vt 0.497556 0.909662
vt 0.492254 0.890488
f 17/11/17 26/14/26 25/15/25
vt 0.499268 0.902012
f 26/14/26 27/16/27 25/15/25
vt 0.497656 0.894354
f 27/16/27 28/17/28 25/15/25
f 17/11/17 24/13/24 26/14/26
vt 0.500762 0.905843
f 26/14/26 29/18/29 27/16/27
vt 0.206933 0.162439
vt 0.203857 0.147486
vt 0.204282 0.147564
f 31/19/31 32/20/32 33/21/33
vt 0.203857 0.163330
f 31/19/31 34/22/34 32/20/32
vt 0.208037 0.148131
f 33/21/33 35/23/35 31/19/31
vt 0.985748 0.846245
vt 0.991069 0.839652
vt 0.990389 0.844968
f 36/24/36 37/25/37 38/26/38
vt 0.995355 0.854672
vt 0.989507 0.858171
f 39/27/39 40/28/40 38/26/38
vt 0.996376 0.849633
f 38/26/38 41/29/41 39/27/39
vt 0.992857 0.841139
f 38/26/38 42/30/42 41/29/41
f 38/26/38 37/25/37 42/30/42
vt 0.986261 0.872539
vt 0.985107 0.851272
f 40/28/40 43/31/43 44/32/44
f 44/32/44 38/26/38 40/28/40
f 44/32/44 36/24/36 38/26/38
vt 0.987114 0.875822
vt 0.985107 0.885986
f 43/31/43 45/33/45 46/34/46
vt 0.998158 0.868707
f 40/28/40 47/35/47 43/31/43
f 40/28/40 39/27/39 47/35/47
vt 0.991193 0.875334
f 47/35/47 48/36/48 43/31/43
f 48/36/48 45/33/45 43/31/43
vt 0.656849 0.665407
vt 0.660601 0.659256
vt 0.655715 0.658393
f 49/37/49 50/38/50 51/39/51
vt 0.662322 0.652072
vt 0.656348 0.649199
vt 0.659303 0.654046
f 52/40/52 53/41/53 54/42/54
vt 0.288190 0.145356
vt 0.284420 0.143047
vt 0.288289 0.146904
f 55/43/55 56/44/56 57/45/57
vt 0.295907 0.135410
vt 0.296015 0.131632
vt 0.292191 0.135457
f 59/46/59 39/47/39 41/48/41
vt 0.442576 0.085305
vt 0.445612 0.094283
vt 0.453075 0.086626
f 60/49/60 61/50/61 62/51/62
vt 0.438980 0.090338
f 60/49/60 63/52/63 61/50/61
vt 0.453712 0.090485
f 61/50/61 64/53/64 62/51/62
vt 0.439840 0.094213
f 63/52/63 65/54/65 61/50/61
vt 0.470057 0.090505
f 62/51/62 64/53/64 66/55/66
vt 0.493566 0.229736
vt 0.481939 0.224665
vt 0.466769 0.229100
f 67/56/67 68/57/68 69/58/69
vt 0.474275 0.224985
f 68/57/68 70/59/70 69/58/69
vt 0.451485 0.229736
vt 0.451188 0.222112
vt 0.443372 0.218554
f 71/60/71 72/61/72 73/62/73
vt 0.474302 0.098169
vt 0.485566 0.094299
vt 0.481495 0.092553
f 74/63/74 75/64/75 76/65/76
vt 0.485656 0.105782
f 74/63/74 77/66/77 75/64/75
f 76/65/76 66/55/66 74/63/74
vt 0.477017 0.086617
f 76/65/76 78/67/78 66/55/66
vt 0.455276 0.229504
vt 0.466647 0.225304
vt 0.451059 0.218282
f 79/68/79 80/69/80 81/70/81
f 79/68/79 69/58/69 80/69/80
f 72/61/72 71/60/71 79/68/79
vt 0.960508 0.125508
vt 0.949042 0.137859
vt 0.964481 0.140614
f 82/71/82 83/72/83 84/73/84
vt 0.945160 0.125058
f 82/71/82 85/74/85 83/72/83
vt 0.972168 0.129737
f 84/73/84 86/75/86 82/71/82
vt 0.972189 0.134854
f 84/73/84 87/76/87 86/75/86
vt 0.945149 0.129555
f 85/74/85 88/77/88 83/72/83
vt 0.968312 0.140395
f 84/73/84 89/78/89 87/76/87
vt 0.469436 0.124904
f 61/50/61 90/79/90 74/63/74
vt 0.444192 0.124841
f 61/50/61 91/80/91 90/79/90
f 74/63/74 64/53/64 61/50/61
f 74/63/74 66/55/66 64/53/64
vt 0.499596 0.187965
vt 0.456416 0.160637
f 92/81/92 93/82/93 81/70/81
f 81/70/81 68/57/68 92/81/92
vt 0.498631 0.162681
f 92/81/92 44/83/44 93/82/93
vt 0.463907 0.156502
f 44/83/44 46/84/46 93/82/93
vt 0.504642 0.126376
vt 0.504616 0.136299
vt 0.506616 0.151611
f 92/85/92 94/86/94 44/87/44
vt 0.500717 0.216279
vt 0.500583 0.212457
f 68/57/68 95/88/95 96/89/96
vt 0.499967 0.197158
vt 0.501265 0.193277
f 97/90/97 98/91/98 92/81/92
vt 0.505843 0.189267
f 98/91/98 99/92/99 92/81/92
vt 0.500875 0.212438
f 95/88/95 100/93/100 96/89/96
vt 0.341825 0.189103
vt 0.345760 0.189160
vt 0.341932 0.185323
f 101/94/101 84/95/84 102/96/102
vt 0.341921 0.192979
f 101/94/101 103/97/103 84/95/84
vt 0.968456 0.143439
f 103/98/103 89/78/89 84/73/84
vt 0.434326 0.128566
f 91/80/91 65/54/65 104/99/104
f 91/80/91 61/50/61 65/54/65
vt 0.444787 0.147833
f 104/99/104 105/100/105 91/80/91
vt 0.449412 0.147865
f 105/100/105 106/101/106 91/80/91
vt 0.478044 0.147893
vt 0.488544 0.147807
vt 0.499679 0.132450
f 107/102/107 108/103/108 109/104/109
vt 0.488889 0.113392
f 109/104/109 110/105/110 107/102/107
vt 0.499848 0.128634
f 109/104/109 111/106/111 110/105/110
vt 0.499577 0.117141
vt 0.499598 0.105664
f 112/107/112 113/108/113 110/105/110
f 113/108/113 77/66/77 110/105/110
vt 0.496000 0.098035
f 113/108/113 114/109/114 77/66/77
f 114/109/114 75/64/75 77/66/77
vt 0.496065 0.094212
f 114/109/114 115/110/115 75/64/75
vt 0.960814 0.143427
vt 0.949337 0.143799
f 102/111/102 83/72/83 116/112/116
f 102/111/102 84/73/84 83/72/83
vt 0.945374 0.140716
f 83/72/83 117/113/117 116/112/116
vt 0.945516 0.143799
f 117/113/117 118/114/118 116/112/116
vt 0.449032 0.160889
vt 0.439368 0.191901
f 93/82/93 119/115/119 120/116/120
f 120/116/120 81/70/81 93/82/93
f 120/116/120 73/62/73 81/70/81
f 73/62/73 72/61/72 81/70/81
vt 0.473327 0.121067
f 121/117/121 74/63/74 90/79/90
f 121/117/121 77/66/77 74/63/74
f 121/117/121 110/105/110 77/66/77
vt 0.929908 0.132400
f 88/77/88 122/118/122 117/113/117
f 117/113/117 83/72/83 88/77/88
vt 0.504433 0.117182
f 97/119/97 113/108/113 112/107/112
vt 0.504085 0.101879
f 97/119/97 96/120/96 113/108/113
vt 0.504333 0.209583
vt 0.503859 0.208590
f 96/89/96 123/121/123 113/122/113
f 123/121/123 96/89/96 100/93/100
vt 0.466303 0.147911
f 107/102/107 121/117/121 124/123/124
f 107/102/107 110/105/110 121/117/121
vt 0.929893 0.125663
f 125/124/125 122/118/122 88/77/88
f 88/77/88 85/74/85 125/124/125
vt 0.926121 0.131707
f 125/124/125 126/125/126 122/118/122
vt 0.924991 0.126177
f 125/124/125 31/126/31 126/125/126
vt 0.918462 0.138217
f 31/126/31 127/127/127 126/125/126
vt 0.910889 0.127981
f 31/126/31 35/128/35 127/127/127
vt 0.912290 0.131704
f 35/128/35 128/129/128 127/127/127
vt 0.922285 0.138168
f 127/127/127 129/130/129 126/125/126
vt 0.670582 0.673518
vt 0.669278 0.671031
vt 0.661871 0.667325
f 130/131/130 131/132/131 132/133/132
vt 0.661625 0.673003
f 132/133/132 23/134/23 130/131/130
vt 0.672927 0.675049
f 23/134/23 22/135/22 130/131/130
vt 0.666395 0.666168
f 131/132/131 133/136/133 132/133/132
vt 0.463108 0.147900
f 91/80/91 106/101/106 134/137/134
f 134/137/134 90/79/90 91/80/91
f 134/137/134 124/123/124 90/79/90
f 124/123/124 121/117/121 90/79/90
vt 0.437810 0.168891
vt 0.434326 0.184323
f 120/116/120 32/138/32 34/139/34
f 120/116/120 119/115/119 32/138/32
vt 0.441212 0.164528
f 119/115/119 135/140/135 32/138/32
vt 0.434484 0.188165
f 34/139/34 136/141/136 120/116/120
vt 0.444927 0.161014
f 119/115/119 137/142/137 135/140/135
vt 0.439575 0.164992
f 135/140/135 138/143/138 32/138/32
vt 0.661202 0.672988
vt 0.653064 0.666246
f 24/144/24 132/133/132 139/145/139
vt 0.650180 0.674638
f 139/145/139 26/146/26 24/144/24
f 132/133/132 49/37/49 139/145/139
f 24/144/24 23/134/23 132/133/132
vt 0.649877 0.667516
f 26/146/26 139/145/139 140/147/140
vt 0.921793 0.226158
vt 0.922627 0.233848
vt 0.921178 0.232920
f 141/148/141 142/149/142 143/150/143
vt 0.925887 0.227635
f 143/150/143 144/151/144 141/148/141
vt 0.923695 0.232629
f 143/150/143 145/152/145 144/151/144
vt 0.663128 0.651855
vt 0.663689 0.654107
vt 0.662665 0.655939
f 142/153/142 146/154/146 143/155/143
vt 0.500369 0.124769
f 92/85/92 147/156/147 111/106/111
f 92/85/92 111/106/111 109/104/109
f 109/104/109 94/86/94 92/85/92
vt 0.499428 0.133543
f 109/104/109 148/157/148 94/86/94
vt 0.671706 0.650704
vt 0.670399 0.646752
vt 0.666642 0.650528
f 149/158/149 150/159/150 151/160/151
vt 0.668238 0.652901
f 151/160/151 152/161/152 149/158/149
vt 0.671794 0.651143
f 152/161/152 153/162/153 149/158/149
vt 0.673186 0.655563
f 152/161/152 154/163/154 153/162/153
f 151/160/151 146/154/146 152/161/152
vt 0.643938 0.656397
vt 0.645145 0.662663
f 51/39/51 155/164/155 156/165/156
vt 0.654345 0.653744
f 51/39/51 157/166/157 155/164/155
f 156/165/156 139/145/139 51/39/51
f 156/165/156 140/147/140 139/145/139
f 139/145/139 49/37/49 51/39/51
vt 0.639478 0.670079
vt 0.632047 0.655230
vt 0.624487 0.653200
f 158/167/158 159/168/159 160/169/160
vt 0.619642 0.675049
f 160/169/160 161/170/161 158/167/158
vt 0.610914 0.663288
f 160/169/160 58/171/58 161/170/161
vt 0.640205 0.659920
f 158/167/158 162/172/162 159/168/159
vt 0.606872 0.672665
f 58/171/58 30/173/30 161/170/161
f 158/167/158 156/165/156 162/172/162
f 156/165/156 155/164/155 162/172/162
vt 0.660868 0.658993
f 54/42/54 163/174/163 146/154/146
f 54/42/54 51/39/51 163/174/163
f 146/154/146 52/40/52 54/42/54
vt 0.657521 0.655819
f 54/42/54 164/175/164 51/39/51
f 163/174/163 143/155/143 146/154/146
f 51/39/51 50/38/50 163/174/163
f 146/154/146 151/160/151 52/40/52
vt 0.674197 0.648400
f 153/162/153 165/176/165 149/158/149
vt 0.675089 0.652020
f 153/162/153 166/177/166 165/176/165
vt 0.920824 0.226437
vt 0.906479 0.229695
vt 0.916845 0.237549
f 148/178/148 108/179/108 53/180/53
vt 0.921230 0.225325
f 148/178/148 109/181/109 108/179/108
vt 0.909003 0.234580
f 108/179/108 167/182/167 53/180/53
f 53/180/53 142/149/142 148/178/148
vt 0.921913 0.235970
f 53/180/53 52/183/52 142/149/142
f 142/149/142 141/148/141 148/178/148
vt 0.652494 0.653952
f 157/166/157 164/175/164 168/184/168
f 157/166/157 51/39/51 164/175/164
vt 0.663536 0.647391
f 169/185/169 52/40/52 151/160/151
vt 0.670260 0.645729
vt 0.665043 0.648185
f 150/159/150 56/186/56 170/187/170
f 170/187/170 151/160/151 150/159/150
vt 0.666910 0.644997
f 56/186/56 37/188/37 170/187/170
vt 0.286687 0.146853
f 150/189/150 57/45/57 56/44/56
vt 0.668523 0.643392
f 56/186/56 42/190/42 37/188/37
vt 0.293526 0.143036
vt 0.288249 0.139226
f 55/43/55 171/191/171 172/192/172
f 172/192/172 56/44/56 55/43/55
vt 0.647383 0.644584
vt 0.642073 0.656725
f 167/193/167 173/194/173 168/184/168
vt 0.635749 0.649472
f 167/193/167 174/195/174 173/194/173
f 168/184/168 53/41/53 167/193/167
f 168/184/168 54/42/54 53/41/53
f 168/184/168 164/175/164 54/42/54
f 168/184/168 173/194/173 155/164/155
f 155/164/155 157/166/157 168/184/168
f 173/194/173 162/172/162 155/164/155
f 173/194/173 174/195/174 159/168/159
f 159/168/159 162/172/162 173/194/173
vt 0.629353 0.651122
f 174/195/174 175/196/175 159/168/159
vt 0.284422 0.139219
f 172/192/172 41/48/41 42/197/42
vt 0.292079 0.139233
f 172/192/172 176/198/176 41/48/41
f 42/197/42 56/44/56 172/192/172
vt 0.896633 0.236294
vt 0.895721 0.225701
f 174/199/174 108/179/108 107/200/107
f 174/199/174 167/182/167 108/179/108
vt 0.889815 0.232755
f 107/200/107 175/201/175 174/199/174
vt 0.884248 0.224751
f 107/200/107 124/202/124 175/201/175
vt 0.885625 0.232686
f 124/202/124 177/203/177 175/201/175
vt 0.881248 0.225273
f 124/202/124 134/204/134 177/203/177
vt 0.437553 0.168891
f 33/205/33 32/138/32 138/143/138
vt 0.868242 0.226556
f 177/203/177 134/204/134 106/206/106
vt 0.862606 0.231825
f 106/206/106 178/207/178 177/203/177
vt 0.443923 0.151611
f 106/101/106 105/100/105 178/208/178
vt 0.884782 0.236078
f 175/201/175 177/203/177 160/209/160
f 160/169/160 159/168/159 175/196/175
vt 0.869308 0.237549
f 58/210/58 177/203/177 178/207/178
f 58/210/58 160/209/160 177/203/177
vt 0.860107 0.234764
f 178/207/178 179/211/179 58/210/58
vt 0.479102 0.154106
f 46/84/46 44/83/44 43/212/43
vt 0.452351 0.155556
f 180/213/180 119/115/119 93/82/93
f 81/70/81 80/69/80 70/59/70
f 81/70/81 70/59/70 68/57/68
f 68/57/68 96/89/96 97/90/97
f 68/57/68 97/90/97 92/81/92
vt 0.499757 0.124786
f 111/106/111 181/214/181 110/105/110
f 181/214/181 112/107/112 110/105/110
vt 0.459982 0.154854
vt 0.456168 0.155204
f 93/82/93 182/215/182 183/216/183
f 93/82/93 183/216/183 180/213/180
vt 0.284487 0.196699
vt 0.288193 0.202393
vt 0.292028 0.197338
f 184/217/184 185/218/185 186/219/186
vt 0.341797 0.196748
f 187/220/187 103/97/103 101/94/101
vt 0.345947 0.147122
vt 0.342008 0.147062
vt 0.345817 0.150890
f 188/221/188 189/222/189 190/223/190
vt 0.349662 0.147074
f 189/222/189 188/221/188 129/224/129
f 41/48/41 176/198/176 59/46/59
vt 0.311323 0.131659
vt 0.307481 0.139304
vt 0.315092 0.135467
f 47/225/47 191/226/191 192/227/192
f 47/225/47 39/47/39 59/46/59
vt 0.338211 0.154730
vt 0.345764 0.162354
f 190/223/190 193/228/193 194/229/194
vt 0.353351 0.154673
f 194/229/194 122/230/122 190/223/190
vt 0.345787 0.170025
f 194/229/194 117/231/117 122/230/122
vt 0.353328 0.150832
f 122/230/122 126/232/126 190/223/190
f 190/223/190 189/222/189 193/228/193
vt 0.341969 0.170023
f 194/229/194 118/233/118 117/231/117
vt 0.280542 0.202382
vt 0.280197 0.189041
vt 0.274170 0.192806
f 195/234/195 196/235/196 197/236/197
vt 0.277754 0.200464
f 197/236/197 198/237/198 195/234/195
vt 0.275453 0.188981
f 196/235/196 199/238/199 197/236/197
vt 0.288345 0.192890
f 196/235/196 184/217/184 200/239/200
f 196/235/196 195/234/195 184/217/184
f 195/234/195 185/218/185 184/217/184
vt 0.299561 0.202189
f 201/240/201 200/239/200 186/219/186
f 200/239/200 184/217/184 186/219/186
vt 0.311333 0.189110
vt 0.288374 0.188991
f 201/240/201 202/241/202 203/242/203
f 203/242/203 200/239/200 201/240/201
vt 0.322513 0.202393
f 201/240/201 204/243/204 202/241/202
vt 0.315141 0.189112
f 204/243/204 205/244/205 202/241/202
vt 0.322571 0.200504
f 204/243/204 206/245/206 205/244/205
vt 0.334039 0.200515
vt 0.330327 0.189075
f 206/245/206 207/246/207 208/247/208
f 208/247/208 205/244/205 206/245/206
vt 0.335068 0.196718
f 207/246/207 209/248/209 208/247/208
vt 0.330377 0.177610
f 102/96/102 210/249/210 208/247/208
vt 0.341963 0.173850
f 102/96/102 116/250/116 210/249/210
f 208/247/208 101/94/101 102/96/102
f 208/247/208 209/248/209 101/94/101
f 209/248/209 187/220/187 101/94/101
vt 0.337930 0.198443
f 209/248/209 211/251/211 187/220/187
f 211/251/211 209/248/209 207/246/207
f 202/241/202 205/244/205 210/249/210
f 205/244/205 208/247/208 210/249/210
vt 0.280575 0.181335
vt 0.279640 0.185160
f 196/235/196 212/252/212 213/253/213
f 213/253/213 199/238/199 196/235/196
vt 0.283003 0.158430
vt 0.279840 0.158375
f 214/254/214 215/255/215 212/252/212
vt 0.288402 0.185259
f 212/252/212 216/256/216 214/254/214
f 212/252/212 196/235/196 216/256/216
vt 0.284570 0.158440
f 217/257/217 214/254/214 216/256/216
f 216/256/216 203/242/203 202/241/202
vt 0.299872 0.150803
vt 0.284561 0.156957
f 218/258/218 219/259/219 217/257/217
vt 0.663045 0.661419
f 143/155/143 163/174/163 220/260/220
vt 0.665450 0.656723
f 220/260/220 145/261/145 143/155/143
vt 0.667662 0.661529
f 220/260/220 221/262/221 145/261/145
vt 0.668598 0.665581
f 220/260/220 222/263/222 221/262/221
f 132/133/132 50/38/50 49/37/49
f 132/133/132 220/260/220 50/38/50
f 132/133/132 133/136/133 220/260/220
f 220/260/220 163/174/163 50/38/50
vt 0.278108 0.154598
f 223/264/223 215/255/215 214/254/214
f 214/254/214 217/257/217 223/264/223
vt 0.284468 0.148114
vt 0.280739 0.152155
f 219/259/219 165/265/165 224/266/224
vt 0.288294 0.147414
f 219/259/219 225/267/225 165/265/165
f 224/266/224 217/257/217 219/259/219
f 224/266/224 223/264/223 217/257/217
vt 0.679041 0.652904
f 165/176/165 166/177/166 224/268/224
vt 0.295960 0.139485
f 191/226/191 59/46/59 226/269/226
f 191/226/191 47/225/47 59/46/59
f 226/269/226 218/258/218 191/226/191
f 226/269/226 225/267/225 218/258/218
f 225/267/225 219/259/219 218/258/218
f 226/269/226 57/45/57 225/267/225
f 59/46/59 176/198/176 226/269/226
vt 0.326472 0.139265
vt 0.330300 0.127785
f 227/270/227 228/271/228 192/227/192
vt 0.338160 0.147045
vt 0.349669 0.143248
vt 0.345826 0.135574
f 229/272/229 127/273/127 230/274/230
f 229/272/229 189/222/189 127/273/127
f 189/222/189 129/224/129 127/273/127
f 229/272/229 193/228/193 189/222/189
f 150/159/150 149/158/149 165/176/165
vt 0.673785 0.644817
f 165/176/165 57/275/57 150/159/150
f 165/265/165 225/267/225 57/45/57
f 57/45/57 171/191/171 55/43/55
f 57/45/57 226/269/226 171/191/171
f 227/270/227 230/274/230 228/271/228
f 227/270/227 229/272/229 230/274/230
vt 0.345713 0.125330
f 230/274/230 231/276/231 228/271/228
vt 0.337960 0.122162
f 231/276/231 232/277/232 228/271/228
f 176/198/176 171/191/171 226/269/226
f 176/198/176 172/192/172 171/191/171
vt 0.347472 0.127861
f 230/274/230 233/278/233 231/276/231
vt 0.349531 0.130298
f 230/274/230 234/279/234 233/278/233
vt 0.353345 0.136975
f 230/274/230 128/280/128 234/279/234
f 230/274/230 127/273/127 128/280/128
vt 0.350920 0.131692
f 128/280/128 235/281/235 234/279/234
vt 0.330202 0.122232
vt 0.315012 0.123938
f 228/271/228 182/282/182 48/283/48
f 48/283/48 192/227/192 228/271/228
f 48/283/48 47/225/47 192/227/192
vt 0.334063 0.123927
f 228/271/228 236/284/236 182/282/182
f 196/235/196 200/239/200 203/242/203
f 196/235/196 203/242/203 216/256/216
vt 0.602295 0.669475
f 307/173/307 308/171/308 309/285/309
vt 0.326832 0.154761
vt 0.322864 0.154686
vt 0.326684 0.158518
f 316/286/316 317/287/317 318/288/318
vt 0.322819 0.162322
f 324/249/324 325/289/325 323/241/323
vt 0.334210 0.166129
f 324/249/324 326/290/326 325/289/325
vt 0.311322 0.158465
f 329/256/329 330/291/330 331/257/331
f 329/256/329 323/241/323 330/291/330
f 323/241/323 325/289/325 330/291/330
f 330/291/330 332/258/332 331/257/331
vt 0.318995 0.158488
f 325/289/325 333/292/333 330/291/330
f 326/290/326 311/250/311 312/233/312
f 326/290/326 324/249/324 311/250/311
f 312/233/312 322/229/322 326/290/326
f 326/290/326 321/228/321 318/288/318
f 326/290/326 322/229/322 321/228/321
vt 0.334367 0.154715
f 321/228/321 334/293/334 318/288/318
f 318/288/318 325/289/325 326/290/326
f 318/288/318 317/287/317 325/289/325
f 317/287/317 333/292/333 325/289/325
vt 0.330584 0.151135
f 317/287/317 316/286/316 336/294/336
vt 0.318899 0.150781
f 336/294/336 337/295/337 317/287/317
f 337/295/337 333/292/333 317/287/317
f 337/295/337 330/291/330 333/292/333
vt 0.330655 0.154765
f 316/286/316 338/296/338 336/294/336
f 332/258/332 337/295/337 319/226/319
f 332/258/332 330/291/330 337/295/337
f 337/295/337 320/227/320 319/226/319
f 337/295/337 339/270/339 320/227/320
f 338/296/338 318/288/318 334/293/334
f 338/296/338 316/286/316 318/288/318
f 336/294/336 340/272/340 339/270/339
f 339/270/339 337/295/337 336/294/336
f 336/294/336 334/293/334 340/272/340
f 336/294/336 338/296/338 334/293/334
f 340/272/340 334/293/334 321/228/321
vt 0.078950 0.198644
vt 0.083283 0.203722
vt 0.083201 0.202267
f 76/297/76 237/298/237 78/299/78
vt 0.071208 0.202268
vt 0.067752 0.203118
vt 0.067337 0.206017
f 238/300/238 239/301/239 240/302/240
vt 0.541762 0.412363
vt 0.540504 0.415394
vt 0.548945 0.415425
f 27/303/27 241/304/241 28/305/28
vt 0.160868 0.628631
vt 0.167069 0.632683
vt 0.162503 0.626884
f 242/306/242 185/307/185 195/308/195
vt 0.159305 0.625803
f 195/308/195 198/309/198 242/306/242
vt 0.699822 0.972179
vt 0.722916 0.971894
vt 0.700067 0.969721
f 243/310/243 204/311/204 201/312/201
vt 0.698168 0.970802
f 201/312/201 244/313/244 243/310/243
vt 0.064916 0.221631
vt 0.082954 0.218434
vt 0.067258 0.209704
f 15/314/15 245/315/245 246/316/246
vt 0.075564 0.227733
f 15/314/15 13/317/13 245/315/245
vt 0.086654 0.222026
vt 0.086906 0.211002
f 247/318/247 248/319/248 245/315/245
vt 0.082994 0.214656
f 248/319/248 249/320/249 245/315/245
f 248/319/248 237/298/237 249/320/249
vt 0.086907 0.203262
f 248/319/248 250/321/250 237/298/237
vt 0.109770 0.226376
vt 0.105750 0.225904
vt 0.105750 0.229017
f 251/322/251 252/323/252 10/324/10
vt 0.102227 0.218854
vt 0.098208 0.222255
f 252/323/252 253/325/253 254/326/254
vt 0.109825 0.222632
f 252/323/252 255/327/255 253/325/253
f 252/323/252 251/322/251 255/327/255
vt 0.703857 0.221177
vt 0.705376 0.232551
vt 0.709502 0.222231
f 60/328/60 9/329/9 63/330/63
vt 0.113607 0.218676
vt 0.117193 0.229012
f 60/331/60 251/322/251 9/332/9
vt 0.709859 0.233643
f 9/329/9 6/333/6 63/330/63
f 60/331/60 255/327/255 251/322/251
f 253/325/253 248/319/248 247/318/247
f 247/318/247 254/326/254 253/325/253
vt 0.106003 0.209017
f 62/334/62 250/321/250 248/319/248
f 248/319/248 253/325/253 62/334/62
f 253/325/253 60/331/60 62/334/62
f 253/325/253 255/327/255 60/331/60
vt 0.680420 0.973127
vt 0.695910 0.971964
vt 0.688299 0.971199
f 256/335/256 257/336/257 258/337/258
vt 0.680691 0.970413
f 258/337/258 259/338/259 256/335/256
vt 0.090552 0.200845
f 66/339/66 250/321/250 62/334/62
f 66/339/66 78/299/78 250/321/250
f 78/299/78 237/298/237 250/321/250
vt 0.430420 0.817320
vt 0.457444 0.819580
vt 0.468631 0.814927
f 67/340/67 69/341/69 260/342/260
vt 0.468764 0.816767
f 69/341/69 79/343/79 260/342/260
vt 0.472781 0.819580
f 260/342/260 79/343/79 71/344/71
vt 0.323918 0.728521
vt 0.334053 0.738330
vt 0.336300 0.727723
f 86/345/86 73/346/73 82/347/82
vt 0.321045 0.741455
f 86/345/86 71/348/71 73/346/73
f 249/320/249 76/297/76 246/316/246
f 246/316/246 245/315/245 249/320/249
f 76/297/76 238/300/238 246/316/246
f 238/300/238 240/302/240 246/316/246
vt 0.075014 0.196965
vt 0.063560 0.197795
f 238/300/238 75/349/75 115/350/115
f 115/350/115 239/301/239 238/300/238
f 238/300/238 76/297/76 75/349/75
vt 0.469482 0.968018
vt 0.482233 0.968018
vt 0.478773 0.966366
f 79/351/79 81/352/81 72/353/72
vt 0.728808 0.231862
vt 0.730551 0.224923
vt 0.713342 0.219765
f 261/354/261 262/355/262 65/356/65
vt 0.381015 0.848912
vt 0.400992 0.853617
vt 0.398240 0.849282
f 263/357/263 3/358/3 2/359/2
vt 0.399168 0.844521
vt 0.382820 0.840369
f 2/359/2 104/360/104 262/361/262
f 65/356/65 63/330/63 6/333/6
vt 0.637451 0.714111
vt 0.641517 0.714111
vt 0.641146 0.713023
f 111/362/111 147/363/147 181/364/181
vt 0.431540 0.789750
vt 0.431245 0.793341
vt 0.438290 0.795911
f 264/365/264 265/366/265 266/367/266
vt 0.443790 0.791422
f 266/367/266 123/368/123 264/365/264
vt 0.445865 0.799195
f 266/367/266 267/369/267 123/368/123
vt 0.450028 0.797490
f 267/369/267 268/370/268 123/368/123
vt 0.451133 0.790166
f 268/370/268 114/371/114 123/368/123
vt 0.430534 0.796594
f 265/366/265 269/372/269 266/367/266
vt 0.442822 0.790900
f 114/371/114 113/373/113 123/368/123
vt 0.449577 0.799796
f 267/369/267 270/374/270 268/370/268
vt 0.360748 0.741455
vt 0.351439 0.729712
f 73/346/73 120/375/120 85/376/85
f 85/376/85 82/347/82 73/346/73
vt 0.366133 0.733173
f 120/375/120 125/377/125 85/376/85
vt 0.846731 0.764893
vt 0.839890 0.762749
vt 0.836670 0.764893
f 120/378/120 136/379/136 125/380/125
vt 0.141370 0.649371
vt 0.135183 0.652782
vt 0.139627 0.659424
f 266/381/266 271/382/271 272/383/272
vt 0.151710 0.650935
f 272/383/272 100/384/100 266/381/266
vt 0.133759 0.651971
f 266/381/266 269/385/269 271/382/271
vt 0.430916 0.788205
f 272/386/272 264/365/264 123/368/123
vt 0.445808 0.790747
f 123/368/123 100/387/100 272/386/272
vt 0.414795 0.795685
vt 0.417550 0.796009
vt 0.422952 0.798350
f 152/388/152 145/389/145 221/390/221
vt 0.428291 0.794374
f 269/372/269 265/366/265 274/391/274
vt 0.133146 0.654917
f 274/392/274 271/382/271 269/385/269
vt 0.409208 0.853982
vt 0.423035 0.844585
vt 0.420624 0.837172
f 4/393/4 179/394/179 105/395/105
f 105/395/105 104/360/104 4/393/4
vt 0.412912 0.854736
f 4/393/4 7/396/7 179/394/179
f 104/360/104 2/359/2 4/393/4
vt 0.423978 0.840256
f 179/394/179 178/397/178 105/395/105
vt 0.730873 0.233643
f 6/333/6 263/398/263 261/354/261
vt 0.379639 0.846744
f 261/399/261 263/357/263 2/359/2
f 6/333/6 261/354/261 65/356/65
f 261/399/261 2/359/2 262/361/262
vt 0.730508 0.222496
f 262/355/262 275/400/275 65/356/65
vt 0.383284 0.837989
f 262/361/262 104/360/104 275/401/275
vt 0.450204 0.804270
vt 0.449845 0.801512
vt 0.434183 0.804467
f 278/402/278 279/403/279 280/404/280
vt 0.333986 0.267412
vt 0.337611 0.267664
vt 0.335150 0.262848
f 281/405/281 282/406/282 283/407/283
vt 0.437548 0.799971
f 273/408/273 267/369/267 266/367/266
f 271/382/271 274/392/274 272/383/272
vt 0.754639 0.600830
vt 0.759770 0.600830
vt 0.758094 0.599156
f 33/409/33 284/410/284 35/411/35
vt 0.699534 0.975079
vt 0.737477 0.979736
f 204/311/204 67/412/67 260/413/260
f 204/311/204 243/310/243 67/412/67
vt 0.735804 0.974583
f 260/413/260 285/414/285 204/311/204
vt 0.170350 0.646320
vt 0.158122 0.646282
vt 0.154957 0.649137
f 67/415/67 286/416/286 95/417/95
vt 0.172475 0.659424
f 95/417/95 68/418/68 67/415/67
vt 0.158864 0.641603
f 67/415/67 287/419/287 286/416/286
vt 0.126791 0.650054
vt 0.122434 0.652631
vt 0.124436 0.654685
f 215/420/215 224/421/224 154/422/154
vt 0.122826 0.649317
f 215/420/215 223/423/223 224/421/224
vt 0.148795 0.637952
vt 0.148154 0.635476
vt 0.145644 0.638245
f 288/424/288 213/425/213 212/426/212
vt 0.542634 0.421548
vt 0.562279 0.425049
vt 0.556296 0.421088
f 158/427/158 161/428/161 289/429/289
f 28/305/28 241/304/241 158/427/158
vt 0.349782 0.277669
vt 0.347324 0.273009
vt 0.342502 0.275364
f 14/430/14 290/431/290 277/432/277
vt 0.159260 0.630338
vt 0.163801 0.636153
f 242/306/242 259/433/259 258/434/258
f 258/434/258 185/307/185 242/306/242
vt 0.692156 0.969821
vt 0.688836 0.965815
f 258/337/258 186/435/186 185/436/185
f 186/435/186 244/313/244 201/312/201
f 186/435/186 257/336/257 244/313/244
f 186/435/186 258/337/258 257/336/257
vt 0.151028 0.627208
vt 0.152204 0.631599
vt 0.157601 0.632090
f 197/437/197 291/438/291 256/439/256
f 256/439/256 198/309/198 197/437/197
f 256/439/256 259/433/259 198/309/198
f 259/433/259 242/306/242 198/309/198
vt 0.168367 0.641951
f 257/440/257 256/439/256 287/419/287
vt 0.687465 0.979736
f 287/441/287 67/412/67 257/336/257
f 256/439/256 291/438/291 287/419/287
f 67/412/67 243/310/243 257/336/257
f 243/310/243 244/313/244 257/336/257
vt 0.346073 0.266508
f 292/442/292 283/407/283 282/406/282
vt 0.350902 0.264609
f 292/442/292 12/443/12 283/407/283
vt 0.349720 0.267981
f 292/442/292 1/444/1 12/443/12
vt 0.325255 0.253909
vt 0.323774 0.259452
f 283/407/283 293/445/293 21/446/21
vt 0.345265 0.255367
f 283/407/283 294/447/294 293/445/293
f 283/407/283 12/443/12 294/447/294
vt 0.325508 0.267649
f 21/446/21 19/448/19 283/407/283
vt 0.350010 0.253249
f 12/443/12 15/449/15 294/447/294
vt 0.329149 0.268935
f 19/448/19 20/450/20 283/407/283
f 292/442/292 282/406/282 277/432/277
vt 0.335168 0.274449
f 282/406/282 276/451/276 277/432/277
f 282/406/282 20/450/20 276/451/276
vt 0.326784 0.275757
f 20/450/20 18/452/18 276/451/276
vt 0.456173 0.795802
vt 0.452604 0.803873
f 240/453/240 279/403/279 295/454/295
vt 0.063232 0.213088
f 295/455/295 246/316/246 240/302/240
f 279/403/279 278/402/278 295/454/295
vt 0.457987 0.810554
vt 0.455635 0.799006
f 15/456/15 246/457/246 295/454/295
vt 0.453454 0.811768
f 295/454/295 294/458/294 15/456/15
vt 0.148724 0.630241
f 288/424/288 199/459/199 213/425/213
f 288/424/288 291/438/291 199/459/199
f 291/438/291 197/437/197 199/459/199
f 288/424/288 286/416/286 287/419/287
f 287/419/287 291/438/291 288/424/288
vt 0.433667 0.808547
f 293/460/293 278/402/278 280/404/280
f 293/460/293 294/458/294 278/402/278
f 294/458/294 295/454/295 278/402/278
vt 0.426622 0.803565
f 280/404/280 296/461/296 293/460/293
vt 0.426116 0.807626
f 296/461/296 131/462/131 293/460/293
vt 0.425572 0.811768
f 131/462/131 130/463/130 293/460/293
f 100/384/100 286/416/286 288/424/288
f 100/384/100 95/417/95 286/416/286
f 279/403/279 267/369/267 273/408/273
f 273/408/273 280/404/280 279/403/279
vt 0.426723 0.800408
f 273/408/273 222/464/222 280/404/280
f 273/408/273 221/390/221 222/464/222
f 222/464/222 296/461/296 280/404/280
f 279/403/279 270/374/270 267/369/267
vt 0.319704 0.256777
vt 0.317314 0.254786
f 22/465/22 293/445/293 130/466/130
f 22/465/22 21/446/21 293/445/293
f 274/391/274 265/366/265 264/365/264
f 264/365/264 272/386/272 274/391/274
vt 0.422929 0.802921
vt 0.419858 0.797958
f 133/467/133 222/464/222 220/468/220
f 133/467/133 296/461/296 222/464/222
f 133/467/133 131/462/131 296/461/296
vt 0.531982 0.418371
vt 0.534069 0.425049
f 140/469/140 156/470/156 158/427/158
f 158/427/158 241/304/241 140/469/140
vt 0.538136 0.410432
f 241/304/241 29/471/29 140/469/140
f 241/304/241 27/303/27 29/471/29
vt 0.121826 0.655668
vt 0.122996 0.658815
f 154/422/154 166/472/166 153/473/153
f 154/422/154 224/421/224 166/472/166
vt 0.485638 0.561768
vt 0.484572 0.559948
vt 0.481201 0.561768
f 236/474/236 183/475/183 182/476/182
vt 0.469371 0.915608
vt 0.461750 0.917236
vt 0.469393 0.917236
f 135/477/135 235/478/235 138/479/138
vt 0.461670 0.915332
f 135/477/135 234/480/234 235/478/235
vt 0.552362 0.418058
f 158/427/158 289/429/289 297/481/297
f 158/427/158 297/481/297 28/305/28
vt 0.440870 0.799805
f 342/482/342 335/390/335 343/408/343
f 342/482/342 313/388/313 335/390/335
vt 0.411604 0.917236
vt 0.405602 0.914977
vt 0.403076 0.917236
f 307/483/307 309/484/309 306/485/306
vt 0.425625 0.854736
vt 0.424419 0.851649
f 305/396/305 306/486/306 309/487/309
f 309/487/309 315/394/315 305/396/305
vt 0.143450 0.644743
f 314/422/314 342/488/342 328/420/328
vt 0.122076 0.659307
f 314/422/314 313/489/313 342/488/342
f 342/488/342 327/426/327 328/420/328
f 342/488/342 344/424/344 327/426/327
f 310/384/310 344/424/344 342/488/342
f 342/488/342 341/381/341 310/384/310
vt 0.138996 0.645985
f 342/488/342 343/490/343 341/381/341
vt 0.346271 0.768668
vt 0.337290 0.770513
vt 0.336670 0.772705
f 207/491/207 206/492/206 204/493/204
vt 0.347986 0.769972
f 204/493/204 285/494/285 207/491/207
vt 0.305962 0.781095
vt 0.310706 0.778765
vt 0.306638 0.776377
f 298/495/298 299/496/299 300/497/300
vt 0.450966 0.733642
vt 0.440999 0.727644
vt 0.434326 0.733643
f 249/498/249 237/499/237 76/500/76
vt 0.297607 0.780934
vt 0.299188 0.784424
vt 0.304252 0.781932
f 89/501/89 103/502/103 187/503/187
vt 0.302226 0.775598
f 187/503/187 87/504/87 89/501/89
f 187/503/187 298/495/298 87/504/87
vt 0.307883 0.784424
f 187/503/187 211/505/211 298/495/298
vt 0.310286 0.783119
f 211/505/211 301/506/301 298/495/298
f 301/506/301 299/496/299 298/495/298
vt 0.217040 0.182862
vt 0.216705 0.175915
vt 0.211670 0.182862
f 299/507/299 260/508/260 300/509/300
vt 0.312071 0.782086
f 299/496/299 301/506/301 260/510/260
vt 0.297607 0.706299
vt 0.306221 0.702094
vt 0.297996 0.700032
f 71/511/71 300/512/300 260/513/260
vt 0.310903 0.706299
f 71/511/71 86/514/86 300/512/300
vt 0.310853 0.701180
f 86/514/86 87/515/87 300/512/300
vt 0.305896 0.696727
f 87/515/87 298/516/298 300/512/300
vt 0.202290 0.972924
vt 0.213774 0.976816
vt 0.217721 0.973147
f 94/517/94 36/518/36 44/519/44
vt 0.206031 0.980470
f 94/517/94 169/520/169 36/518/36
vt 0.198523 0.980569
f 94/517/94 302/521/302 169/520/169
vt 0.192139 0.980155
f 94/517/94 144/522/144 302/521/302
vt 0.375732 0.885986
vt 0.397396 0.885986
vt 0.391519 0.878477
f 17/523/17 16/524/16 22/525/22
vt 0.217031 0.366350
vt 0.216182 0.368164
vt 0.217447 0.370361
f 35/526/35 284/527/284 128/528/128
vt 0.493194 0.577393
vt 0.489438 0.574867
vt 0.485107 0.577393
f 28/529/28 297/530/297 25/531/25
vt 0.239014 0.538330
vt 0.249138 0.538330
vt 0.246002 0.534417
f 140/532/140 29/533/29 26/534/26
vt 0.195965 0.983643
vt 0.198796 0.982582
f 302/521/302 145/535/145 152/536/152
f 302/521/302 144/522/144 145/535/145
vt 0.197718 0.975391
vt 0.198660 0.975156
f 141/537/141 94/517/94 148/538/148
f 141/537/141 144/522/144 94/517/94
vt 0.263632 0.296143
vt 0.258837 0.291927
vt 0.258545 0.296143
f 92/539/92 99/540/99 147/541/147
vt 0.820885 0.585205
vt 0.818712 0.580900
vt 0.817071 0.582299
f 302/542/302 146/543/146 142/544/142
vt 0.813232 0.585205
f 142/544/142 169/545/169 302/542/302
vt 0.820886 0.584833
f 302/542/302 152/546/152 146/543/146
vt 0.815431 0.580894
f 142/544/142 52/547/52 169/545/169
vt 0.502854 0.944580
vt 0.513260 0.940373
vt 0.505936 0.940575
f 8/548/8 289/549/289 161/550/161
vt 0.516669 0.944580
f 8/548/8 25/551/25 289/549/289
vt 0.492920 0.941555
f 161/550/161 30/552/30 8/548/8
vt 0.202548 0.982529
vt 0.206299 0.982513
f 151/553/151 170/554/170 169/520/169
vt 0.210781 0.983643
f 36/518/36 169/520/169 37/555/37
f 169/520/169 170/554/170 37/555/37
vt 0.216126 0.363056
vt 0.211724 0.362719
f 284/527/284 33/556/33 138/557/138
vt 0.211670 0.370361
f 138/557/138 235/558/235 284/527/284
f 235/558/235 128/528/128 284/527/284
vt 0.466436 0.833829
vt 0.459378 0.831247
vt 0.454324 0.835205
f 45/559/45 303/560/303 46/561/46
vt 0.229672 0.624268
vt 0.230032 0.621101
vt 0.222486 0.619470
f 233/562/233 234/563/234 135/564/135
vt 0.219482 0.624268
f 135/564/135 137/565/137 233/562/233
vt 0.446045 0.835205
vt 0.451955 0.829368
f 93/566/93 46/561/46 182/567/182
vt 0.321045 0.546143
vt 0.330547 0.546142
vt 0.327616 0.542932
f 180/568/180 137/569/137 119/570/119
f 46/561/46 303/560/303 182/567/182
vt 0.239378 0.435021
vt 0.235438 0.436768
vt 0.239095 0.436768
f 236/571/236 180/572/180 183/573/183
vt 0.235107 0.433090
f 236/571/236 232/574/232 180/572/180
vt 0.990416 0.716679
vt 0.985107 0.710800
vt 0.986374 0.718018
f 304/575/304 239/576/239 115/577/115
vt 0.918701 0.553955
vt 0.927283 0.553955
vt 0.920506 0.550373
f 69/578/69 70/579/70 80/580/80
vt 0.252918 0.401006
vt 0.250732 0.405518
vt 0.255942 0.405518
f 25/581/25 297/582/297 289/583/289
vt 0.352481 0.772705
vt 0.350913 0.769190
f 260/584/260 301/585/301 285/494/285
vt 0.926307 0.879126
vt 0.914829 0.885986
vt 0.933956 0.885986
f 254/586/254 11/587/11 10/588/10
vt 0.914795 0.879032
f 254/586/254 247/589/247 11/587/11
vt 0.933945 0.882882
f 10/588/10 252/590/252 254/586/254
vt 0.094482 0.370296
vt 0.095012 0.374268
vt 0.104551 0.370912
f 1/591/1 292/592/292 290/593/290
vt 0.349910 0.765500
f 207/491/207 301/585/301 211/594/211
f 207/491/207 285/494/285 301/585/301
vt 0.622612 0.553955
vt 0.617789 0.550212
vt 0.614014 0.553955
f 20/595/20 281/596/281 283/597/283
vt 0.107522 0.374268
f 277/598/277 290/593/290 292/592/292
vt 0.505385 0.530518
vt 0.501914 0.527142
vt 0.496826 0.530518
f 282/599/282 281/600/281 20/601/20
vt 0.990455 0.709890
vt 0.998268 0.714919
f 240/602/240 304/575/304 279/603/279
vt 0.994798 0.717873
f 304/575/304 268/604/268 279/603/279
f 240/602/240 239/576/239 304/575/304
vt 0.996739 0.718018
f 268/604/268 270/605/270 279/603/279
vt 0.278991 0.526668
vt 0.274341 0.530517
vt 0.281740 0.530517
f 304/606/304 114/607/114 268/608/268
vt 0.274170 0.526706
f 304/606/304 115/609/115 114/607/114
vt 0.489098 0.588578
vt 0.485107 0.593018
vt 0.492689 0.593018
f 98/610/98 112/611/112 181/612/181
vt 0.485202 0.587921
f 98/610/98 97/613/97 112/611/112
vt 0.242920 0.452393
vt 0.246782 0.452393
vt 0.246059 0.448568
f 125/614/125 136/615/136 34/616/34
vt 0.242994 0.447431
f 34/616/34 31/617/31 125/614/125
vt 0.884808 0.666281
vt 0.875732 0.667392
vt 0.882395 0.671143
f 190/618/190 126/619/126 129/620/129
vt 0.887824 0.671143
f 129/620/129 188/621/188 190/618/190
vt 0.787580 0.585205
vt 0.783423 0.582754
vt 0.778076 0.585205
f 232/622/232 236/623/236 228/624/228
vt 0.131981 0.100830
vt 0.127234 0.090544
vt 0.122035 0.097948
f 137/625/137 232/626/232 231/627/231
vt 0.130997 0.091394
f 137/625/137 180/628/180 232/626/232
vt 0.121826 0.100830
f 231/627/231 233/629/233 137/625/137
vt 0.961670 0.749267
vt 0.977568 0.749268
vt 0.970284 0.746973
f 48/630/48 182/631/182 303/632/303
vt 0.962768 0.745316
f 303/632/303 45/633/45 48/630/48
vt 0.263883 0.060719
vt 0.258545 0.061768
vt 0.264354 0.061768
f 147/634/147 98/635/98 181/636/181
vt 0.262151 0.056865
f 99/637/99 98/635/98 147/634/147
vt 0.114496 0.687713
vt 0.110107 0.694580
vt 0.121311 0.694580
f 315/638/315 309/639/309 308/640/308
l 3 6
# 610 faces, 640 coords texture

# End of File
