####
#
# OBJ File Generated by Meshlab
#
####
# Object office_chair_2.obj
#
# Vertices: 338
# Faces: 646
#
####
mtllib ./office_chair_2.obj.mtl

vn -0.499630 0.787252 0.361391
v -12.641666 -12.765241 0.356416
vn -0.024493 0.527015 0.849503
v -12.735744 -12.752341 0.309243
vn -0.293274 0.744058 0.600307
v -12.712227 -12.761122 0.332917
vn 0.592871 0.696638 0.403980
v -12.970860 -12.758666 0.309478
vn 0.595348 0.341631 0.727220
v -12.759258 -12.761778 0.332926
vn -0.482362 0.653497 0.583326
v -12.665215 -12.782660 0.356459
vn -0.448681 0.890564 0.074705
v -12.665195 -12.783014 0.426981
vn -0.129148 0.432489 0.892342
v -12.735744 -12.775695 0.320214
vn -0.612133 0.386510 0.689857
v -12.721416 -12.775717 0.332940
vn -0.138030 0.979847 0.144384
v -13.135460 -12.775725 0.751483
vn -0.531474 0.255816 0.807523
v -13.111973 -12.775535 0.732645
vn -0.895612 0.420152 0.146119
v -13.119923 -12.752229 0.756151
vn 0.028948 0.969902 -0.241769
v -12.876801 -12.771968 0.567948
vn 0.175826 -0.873391 -0.454174
v -12.806282 -12.716997 0.897227
vn 0.196372 -0.845530 0.496505
v -12.818047 -12.705198 0.873717
vn 0.194282 -0.953612 0.229953
v -12.782764 -12.708652 0.873710
vn 0.154375 -0.985649 -0.068302
v -12.735744 -12.692675 0.732638
vn 0.785418 -0.617341 -0.044816
v -12.759254 -12.699504 0.779662
vn 0.343196 -0.939239 -0.006864
v -12.759266 -12.691916 0.732640
vn 0.600149 0.496335 -0.627274
v -12.723000 -12.658192 0.687605
vn 0.263602 -0.394623 -0.880220
v -12.735744 -12.681691 0.673631
vn 0.320822 0.375771 -0.869407
v -12.735744 -12.658179 0.675421
vn 0.980845 0.181923 0.069621
v -12.687366 -12.658177 0.850203
vn 0.469532 -0.880258 0.068451
v -12.712231 -12.688124 0.850200
vn 0.890361 -0.436935 0.127845
v -12.681763 -12.681684 0.826687
vn 0.635073 -0.249569 -0.731025
v -12.688732 -12.658188 0.727833
vn 0.554844 -0.452592 -0.698075
v -12.688686 -12.681672 0.723241
vn 0.245411 -0.438351 -0.864651
v -12.712227 -12.681703 0.727383
vn 0.146043 -0.440477 0.885806
v -12.688713 -12.564130 0.767435
vn -0.685675 0.181746 0.704853
v -12.657200 -12.564131 0.803175
vn 0.168317 0.034211 0.985139
v -12.688725 -12.540615 0.777119
vn -0.549470 0.375521 0.746369
v -13.064934 -12.775867 1.155870
vn -0.056831 0.997672 0.037695
v -13.158962 -12.775786 0.685613
vn -0.079016 0.727728 0.681299
v -12.994370 -12.775405 1.179382
vn 0.374723 0.888901 0.263510
v -12.688705 -12.773193 1.155856
vn 0.414360 0.901236 0.126802
v -13.158936 -12.775680 0.614833
vn -0.625590 0.779717 -0.026053
v -13.088440 -12.775812 1.014788
vn -0.366150 0.929790 0.037741
v -13.135452 -12.775769 0.779661
vn 0.047340 0.425800 0.903578
v -12.759281 -12.773703 1.155891
vn 0.862321 0.498911 0.086547
v -12.665222 -12.772951 1.103899
vn 0.174510 0.984529 -0.015754
v -12.570351 -12.771877 0.850167
vn 0.271023 0.802241 -0.531937
v -12.712177 -12.773126 1.014775
vn -0.392938 0.890668 0.228715
v -13.111938 -12.775679 0.826685
vn -0.092348 0.995315 -0.028646
v -12.594765 -12.772097 0.873732
vn -0.779020 0.621433 0.083360
v -13.064919 -12.775457 0.897222
vn -0.005359 0.999576 -0.028635
v -12.712212 -12.772907 0.873707
vn 0.084591 0.996396 0.006251
v -12.759281 -12.773326 0.920741
vn 0.275063 0.765140 -0.582153
v -12.782761 -12.773638 1.014786
vn 0.505739 0.788459 -0.350086
v -12.806259 -12.773766 0.991270
vn -0.522295 0.852764 0.001506
v -13.135410 -12.775644 0.709118
vn 0.557519 0.764353 0.323942
v -12.694519 -12.773204 1.132353
vn -0.496601 0.863471 0.088343
v -13.135410 -12.775609 0.685596
vn 0.333438 0.927524 0.168876
v -13.135487 -12.782217 0.591693
vn 0.398596 0.915132 -0.060461
v -13.157074 -12.778627 0.638406
vn -0.655724 -0.313619 -0.686782
v -13.135456 -12.329004 0.722355
vn -0.801939 0.574381 -0.164259
v -13.139400 -12.258468 0.732643
vn -0.431149 0.254600 -0.865615
v -13.111942 -12.281980 0.703416
vn -0.995386 -0.074000 0.061078
v -13.165466 -12.329005 0.756152
vn -0.437071 0.452674 -0.777210
v -13.111942 -12.258470 0.709123
vn -0.636958 -0.692077 0.339579
v -13.138721 -12.634667 0.756150
vn -0.964490 -0.054478 0.258440
v -13.133369 -12.658178 0.756150
vn -0.075357 -0.047400 0.996029
v -13.088432 -12.611168 0.779622
vn 0.154316 -0.043313 0.987072
v -13.135441 -12.564133 0.784408
vn -0.240959 -0.336131 0.910469
v -13.158962 -12.587643 0.795807
vn -0.332325 -0.637922 0.694705
v -13.158966 -12.620957 0.779664
vn -0.377900 0.031019 0.925326
v -13.158958 -12.399505 0.794962
vn 0.044915 0.255448 0.965779
v -12.970821 -12.634649 0.764917
vn -0.025968 0.078783 0.996554
v -12.853405 -12.305507 0.775938
vn 0.414585 0.343481 0.842698
v -12.712234 -12.290157 0.779466
vn -0.048605 0.644836 0.762774
v -13.064911 -12.234869 0.756634
vn -0.282995 0.515446 0.808844
v -13.111942 -12.258446 0.768869
vn 0.240756 0.122965 0.962765
v -12.712204 -12.329041 0.788564
vn -0.168164 0.976640 0.133773
v -13.064915 -12.219717 0.732636
vn -0.872459 -0.048387 0.486287
v -13.116875 -12.681692 0.779661
vn -0.434728 0.420388 0.796421
v -13.088428 -12.634670 0.779656
vn -0.064409 0.863311 0.500546
v -12.853313 -12.656668 0.779660
vn -0.208977 0.622568 0.754147
v -12.759193 -12.641227 0.778188
vn 0.104659 0.856254 0.505842
v -12.994370 -12.656645 0.779655
vn -0.124178 0.845256 0.519733
v -12.782764 -12.648046 0.779644
vn -0.253505 0.466139 -0.847614
v -13.064911 -12.234961 0.699546
vn -0.228919 0.125325 -0.965344
v -13.064919 -12.282001 0.698907
vn 0.368588 -0.065414 -0.927289
v -13.088428 -12.305492 0.697545
vn -0.239872 0.639259 -0.730622
v -12.994381 -12.233504 0.701075
vn -0.266592 0.085653 -0.959996
v -13.017891 -12.281968 0.674510
vn -0.262352 0.372658 -0.890111
v -12.994381 -12.258471 0.675354
vn -0.028610 0.970735 0.238441
v -12.970867 -12.216257 0.732666
vn 0.195857 0.803204 0.562586
v -12.759258 -12.234980 0.751727
vn 0.486160 0.716301 0.500562
v -12.712238 -12.253781 0.756152
vn -0.649989 0.663319 -0.370841
v -13.064915 -12.225372 0.709131
vn -0.116554 0.907019 -0.404638
v -12.994381 -12.225694 0.709122
vn -0.060193 0.601940 -0.796270
v -12.947353 -12.234942 0.677495
vn 0.075556 0.762798 -0.642207
v -12.806278 -12.227840 0.685594
vn 0.117197 -0.119447 -0.985899
v -12.806278 -12.305492 0.673821
vn -0.203023 -0.281963 -0.937699
v -12.782764 -12.281977 0.675334
vn -0.292573 -0.062260 -0.954214
v -12.759258 -12.281986 0.662132
vn 0.381924 0.183889 0.905715
v -12.712227 -12.615516 0.778824
vn -0.180333 0.107788 0.977682
v -12.665230 -12.376054 0.785194
vn 0.414609 0.777041 -0.473611
v -12.829800 -12.762551 0.638588
vn 0.121141 0.929139 -0.349321
v -12.876820 -12.767116 0.591565
vn 0.147216 0.988831 0.023268
v -12.782764 -12.774541 0.850201
vn 0.896123 0.253528 -0.364263
v -12.839485 -12.752252 0.920738
vn 0.530803 0.816287 0.227867
v -12.853302 -12.771317 0.850199
vn 0.756775 0.637491 -0.144557
v -12.829788 -12.764799 0.967761
vn 0.059454 0.997286 -0.043423
v -12.665207 -12.782287 0.638583
vn -0.424578 0.901349 0.085457
v -12.641701 -12.780864 0.521027
vn 0.589762 0.693635 -0.413585
v -12.825142 -12.752803 0.662108
vn 0.268824 0.962252 -0.042485
v -12.782726 -12.775416 0.803178
vn 0.823457 0.562205 0.076449
v -12.829803 -12.765644 0.709132
vn 0.402608 -0.189072 -0.895633
v -12.782761 -12.752233 1.023805
vn 0.868948 -0.272516 -0.413115
v -12.829792 -12.752229 0.971505
vn 0.370962 -0.896770 -0.241230
v -12.782764 -12.717964 0.920738
vn 0.854142 -0.494516 -0.160921
v -12.688721 -12.691156 0.967757
vn 0.451338 -0.867367 -0.209688
v -12.712227 -12.720732 0.967764
vn 0.521183 -0.781815 -0.342248
v -12.829792 -12.746054 0.920739
vn 0.466137 -0.752121 -0.465865
v -12.829792 -12.716811 0.897223
vn 0.538477 -0.760556 0.362763
v -12.829796 -12.716738 0.873717
vn 0.476656 -0.879070 0.005873
v -12.806278 -12.717430 0.944250
vn 0.841111 -0.522137 -0.141085
v -12.829800 -12.746740 0.944256
vn 0.138554 -0.916805 -0.374528
v -12.759254 -12.712706 0.991273
vn 0.036693 -0.133027 -0.990433
v -12.759262 -12.752224 1.024836
vn -0.195580 0.978296 0.068458
v -12.641701 -12.775519 0.826682
vn -0.005438 0.990000 -0.140964
v -12.618187 -12.771933 0.756148
vn 0.037551 0.998141 -0.048005
v -12.570759 -12.777800 0.709096
vn -0.502052 0.860582 -0.085686
v -12.618168 -12.756569 0.803184
vn -0.149917 0.904776 0.398629
v -12.618168 -12.757172 0.826695
vn 0.570876 -0.820008 -0.041072
v -12.712219 -12.689947 0.897225
vn 0.181535 -0.980916 0.069634
v -12.759258 -12.717076 0.850198
vn 0.525499 -0.824987 -0.207960
v -12.712212 -12.713152 0.991271
vn 0.640233 -0.013786 -0.768057
v -12.794521 -12.305492 0.685614
vn 0.173864 -0.609414 -0.773554
v -12.782764 -12.292241 0.685613
vn 0.347806 0.851477 -0.392451
v -12.759258 -12.234933 0.698769
vn -0.242418 0.643730 -0.725841
v -12.745686 -12.258469 0.685614
vn 0.590062 -0.027382 -0.806893
v -12.712234 -12.752227 1.030233
vn 0.828690 -0.558828 0.031374
v -12.759270 -12.718411 0.826695
vn 0.646371 -0.761638 -0.045950
v -12.712227 -12.689293 0.873712
vn 0.036300 -0.775139 -0.630747
v -12.735741 -12.313494 0.685611
vn -0.035173 -0.594552 -0.803288
v -12.735748 -12.305490 0.657320
vn 0.466993 -0.873484 -0.137635
v -12.735744 -12.692852 0.709125
vn 0.075913 0.865607 -0.494936
v -12.735744 -12.248528 0.685613
vn 0.669609 -0.192282 -0.717393
v -12.712280 -12.658200 0.697854
vn 0.818458 -0.040153 -0.573161
v -12.688694 -12.634659 0.712901
vn 0.489644 -0.820307 -0.295541
v -12.735744 -12.692814 0.685614
vn 0.998942 0.020972 -0.040918
v -12.683937 -12.658196 0.732639
vn 0.309008 0.926178 -0.216123
v -12.618183 -12.786490 0.850201
vn 0.873154 -0.022604 -0.486921
v -12.705639 -12.752222 1.038302
vn 0.920823 0.299902 0.249288
v -12.674637 -12.752227 1.108838
vn 0.927541 0.347854 0.136618
v -12.682728 -12.658198 0.967759
vn 0.982689 0.022313 0.183916
v -12.686291 -12.681685 0.991278
vn 0.991890 0.125021 -0.022894
v -12.681637 -12.705194 1.038303
vn 0.856337 0.425373 0.292822
v -12.680706 -12.728729 1.108831
vn 0.974016 0.158142 0.162126
v -12.692341 -12.658180 0.756151
vn 0.741830 -0.546933 0.388011
v -12.679062 -12.587643 0.756158
vn 0.657502 -0.197341 -0.727151
v -12.688660 -12.587619 0.721003
vn 0.631735 -0.149033 0.760723
v -12.634823 -12.423057 0.756151
vn 0.382384 0.015360 0.923876
v -12.665203 -12.517104 0.766500
vn 0.289262 -0.582435 0.759669
v -12.641689 -12.399543 0.768005
vn 0.996562 0.050081 0.065996
v -12.625050 -12.399544 0.756152
vn -0.662580 -0.695333 -0.278389
v -12.665203 -12.601456 0.826688
vn -0.764445 -0.520465 -0.380447
v -12.645664 -12.587643 0.803176
vn 0.623746 -0.688049 -0.370849
v -12.618168 -12.611147 0.798650
vn -0.955465 0.211964 -0.205322
v -12.672390 -12.587639 0.826688
vn 0.351200 -0.832745 -0.428012
v -12.665203 -12.574675 0.732638
vn -0.454993 -0.839247 0.297736
v -12.665203 -12.575719 0.779663
vn 0.352875 -0.393937 -0.848701
v -12.665241 -12.564150 0.722247
vn -0.135546 0.958079 0.252414
v -12.645748 -12.564131 0.826688
vn 0.649220 0.750887 0.121166
v -12.635098 -12.587641 0.873713
vn 0.522029 0.744785 0.415669
v -12.641678 -12.560848 0.803178
vn 0.609705 0.176286 0.772776
v -12.635765 -12.517114 0.756144
vn 0.728915 -0.673842 -0.120912
v -12.615673 -12.587640 0.756153
vn 0.823981 -0.217337 -0.523277
v -12.614231 -12.564132 0.732640
vn 0.519401 0.296771 -0.801343
v -12.641685 -12.423053 0.725110
vn 0.889883 0.304859 -0.339365
v -12.613873 -12.423059 0.732641
vn 0.154489 0.987223 0.039048
v -12.594669 -12.740226 0.803176
vn 0.304323 0.780731 -0.545753
v -12.594669 -12.760436 0.779663
vn 0.402489 -0.912876 0.068259
v -12.618183 -12.618071 0.920736
vn 0.525164 -0.798270 -0.294904
v -12.634735 -12.611154 0.897226
vn 0.682948 0.557405 -0.472104
v -12.634094 -12.587641 0.897243
vn 0.955402 -0.260127 -0.139786
v -12.589661 -12.587642 0.920714
vn -0.391666 0.919761 0.025229
v -12.570709 -12.777841 0.802926
vn -0.414878 0.904282 -0.100746
v -12.570805 -12.779915 0.826671
vn -0.473654 0.861330 -0.183746
v -12.570885 -12.780780 0.779648
vn 0.090498 0.352659 0.931365
v -12.876823 -12.774553 1.167637
vn 0.090496 0.352665 0.931363
v -12.900326 -12.768477 1.167620
vn -0.290240 -0.258247 -0.921450
v -13.111912 -12.423070 0.703503
vn -0.002914 -0.044252 -0.999016
v -13.111942 -12.399543 0.673857
vn 0.077276 0.101632 -0.991816
v -13.088387 -12.399562 0.697073
vn 0.280764 -0.300817 -0.911417
v -12.782776 -12.352516 0.701072
vn 0.385356 -0.178931 -0.905254
v -12.782764 -12.329005 0.673857
vn 0.217313 -0.453902 -0.864146
v -12.759270 -12.329002 0.705283
vn -0.725308 0.086500 -0.682969
v -13.135452 -12.399544 0.697969
vn -0.310487 -0.521542 -0.794728
v -13.135399 -12.410773 0.709277
vn -0.698606 0.118215 -0.705674
v -13.158936 -12.423068 0.723027
vn 0.009697 -0.238080 -0.971197
v -12.876812 -12.329005 0.689180
vn -0.042702 -0.148588 -0.987977
v -12.970867 -12.328989 0.689635
vn -0.068672 -0.216474 -0.973870
v -13.088425 -12.329002 0.706149
vn -0.036583 -0.484976 -0.873762
v -12.829803 -12.329015 0.691127
vn 0.155999 0.155290 -0.975474
v -12.853271 -12.611147 0.671394
vn 0.167636 0.131690 -0.977014
v -12.759274 -12.470078 0.710757
vn 0.209335 0.043568 -0.976873
v -12.735832 -12.564162 0.699621
vn 0.091371 0.042918 -0.994892
v -12.876774 -12.423027 0.688207
vn 0.170082 0.108177 -0.979474
v -12.782841 -12.634701 0.679191
vn 0.501777 0.128978 -0.855328
v -12.829720 -12.728712 0.665902
vn 0.204675 -0.124666 -0.970859
v -12.782715 -12.681672 0.683598
vn 0.596660 -0.559000 -0.575774
v -12.806137 -12.705175 0.679889
vn -0.803842 -0.501250 -0.320291
v -13.170719 -12.611154 0.732639
vn -0.273376 -0.165210 -0.947613
v -13.158962 -12.564130 0.697616
vn -0.545451 -0.552806 -0.629991
v -13.135456 -12.611155 0.719443
vn -0.041592 0.195932 -0.979735
v -13.137215 -12.470086 0.709152
vn -0.107668 0.012140 -0.994113
v -13.135487 -12.564111 0.703403
vn -0.155364 0.360215 -0.919841
v -13.158962 -12.470080 0.697651
vn -0.195672 -0.291632 -0.936303
v -13.135448 -12.587642 0.707011
vn -0.110324 0.456608 -0.882801
v -13.017906 -12.728727 0.624151
vn -0.457469 0.333033 -0.824507
v -13.064896 -12.728722 0.638618
vn -0.127767 0.125595 -0.983820
v -13.041409 -12.470031 0.681250
vn -0.508815 0.301946 -0.806186
v -13.158962 -12.446567 0.723914
vn -0.431466 0.607829 -0.666619
v -13.064861 -12.752227 0.624956
vn -0.900839 -0.225629 -0.370919
v -13.116447 -12.634666 0.709110
vn -0.707263 -0.043811 -0.705592
v -13.123699 -12.399543 0.685613
vn -0.743717 -0.030029 -0.667820
v -13.122540 -12.352518 0.732637
vn -0.318303 -0.615316 -0.721159
v -13.111942 -12.329005 0.710601
vn -0.326748 -0.280308 -0.902587
v -13.111942 -12.314941 0.685614
vn -0.039704 0.105906 -0.993583
v -13.017921 -12.432906 0.685718
vn -0.342636 0.506644 -0.791146
v -13.111946 -12.376029 0.709109
vn -0.678708 0.054308 -0.732397
v -13.111946 -12.352516 0.713277
vn 0.270860 0.146088 -0.951469
v -13.102493 -12.305492 0.685611
vn 0.287241 0.477698 -0.830239
v -12.876961 -12.728806 0.639184
vn 0.506422 0.372707 -0.777577
v -12.855019 -12.728762 0.651594
vn 0.020462 0.879914 -0.474692
v -12.900326 -12.765781 0.591589
vn 0.102125 0.039596 -0.993983
v -12.735737 -12.423057 0.721320
vn 0.237751 -0.238401 -0.941615
v -12.735729 -12.352524 0.721289
vn 0.052830 0.100337 -0.993550
v -12.735741 -12.446567 0.721565
vn 0.523037 -0.174690 0.834216
v -12.853306 -12.752226 0.838616
vn 0.967176 -0.148711 0.206045
v -12.862408 -12.752230 0.850199
vn 0.794458 -0.019242 0.607015
v -12.811111 -12.752244 0.826681
vn 0.606244 -0.559065 -0.565610
v -12.806274 -12.717516 0.685612
vn 0.227309 -0.875188 -0.427055
v -12.782764 -12.718696 0.685613
vn 0.063200 -0.452455 -0.889545
v -12.759258 -12.683074 0.685612
vn 0.023223 -0.089763 -0.995692
v -12.688717 -12.517104 0.697361
vn 0.557261 -0.210720 -0.803154
v -12.665207 -12.517105 0.699436
vn 0.693540 0.716975 0.070346
v -12.759254 -12.229241 0.732677
vn 0.753069 0.638503 -0.158750
v -12.641705 -12.368819 0.756148
vn 0.683147 0.098254 -0.723641
v -12.654682 -12.352509 0.732644
vn 0.938725 0.240285 -0.247101
v -12.665199 -12.325387 0.732645
vn 0.742224 0.297216 -0.600638
v -12.641693 -12.376035 0.748961
vn -0.926475 -0.139735 0.349454
v -13.158962 -12.423056 0.779664
vn -0.982099 -0.035354 0.185018
v -13.179504 -12.399542 0.779660
vn -0.868489 0.397744 -0.295848
v -13.167477 -12.399543 0.756152
vn -0.917232 0.272535 0.290533
v -13.145107 -12.352514 0.779664
vn -0.899830 -0.154182 -0.408086
v -13.145603 -12.352519 0.756152
vn -0.005270 0.807013 -0.590510
v -13.111942 -12.387787 0.685613
vn -0.564867 0.795687 0.218649
v -13.088428 -12.634673 0.780969
vn -0.435981 0.895654 0.087890
v -13.088425 -12.648285 0.803168
vn 0.364494 0.435290 0.823205
v -12.712231 -12.752229 1.145514
vn 0.157001 0.183235 -0.970451
v -12.688717 -12.376028 0.722492
vn 0.818280 -0.119509 -0.562259
v -12.684998 -12.281975 0.685610
vn 0.725483 0.683047 -0.084388
v -12.682114 -12.258473 0.709125
vn -0.999067 0.042861 -0.005377
v -12.665203 -12.352519 0.856145
vn -0.715927 -0.638173 -0.283167
v -12.651890 -12.352519 0.897224
vn -0.591536 0.707217 -0.387208
v -12.655201 -12.329002 0.873714
vn -0.913588 -0.290071 -0.284983
v -13.182480 -12.517106 0.730930
vn -0.835069 -0.101908 -0.540624
v -13.170147 -12.517106 0.709126
vn -0.695930 -0.327358 0.639154
v -13.182476 -12.564132 0.796455
vn -0.764950 0.032660 0.643261
v -13.182476 -12.470079 0.752523
vn -0.902094 0.162471 -0.399788
v -13.189388 -12.470079 0.732638
vn -0.929722 0.348726 0.118354
v -13.187244 -12.423056 0.756150
vn -0.924674 -0.098717 -0.367740
v -13.170483 -12.564131 0.709127
vn -0.698972 0.004918 0.715132
v -13.158966 -12.470082 0.766191
vn -0.867321 -0.316482 -0.384179
v -13.123711 -12.634667 0.732637
vn -0.976465 -0.208930 -0.053513
v -13.123161 -12.705204 0.732634
vn -0.932087 0.113893 0.343863
v -13.088409 -12.728715 0.803172
vn -0.992465 0.043192 0.114666
v -13.114426 -12.728716 0.732636
vn -0.971640 -0.096258 0.215985
v -13.102180 -12.681683 0.803176
vn -0.930465 -0.336804 0.144219
v -13.088394 -12.705182 0.826687
vn -0.922604 0.338455 -0.185069
v -13.115173 -12.658185 0.826688
vn -0.983877 0.178734 -0.006322
v -13.115650 -12.658194 0.873709
vn -0.916365 -0.390262 -0.089279
v -13.076466 -12.705217 0.991275
vn -0.947125 0.049004 0.317100
v -13.093403 -12.705190 1.108837
vn -0.911581 -0.409444 0.037097
v -13.075790 -12.705218 0.920738
vn -0.945154 -0.203933 0.255137
v -13.078110 -12.728696 1.108836
vn -0.525183 0.363657 0.769374
v -13.088421 -12.705071 1.116322
vn -0.369281 0.906966 0.202594
v -13.088425 -12.631059 0.967835
vn -0.217090 0.973673 -0.069518
v -13.088455 -12.636777 0.897236
vn -0.227505 0.840116 0.492389
v -13.064930 -12.706706 1.132289
vn 0.046977 0.774705 0.630576
v -12.994350 -12.730018 1.132472
vn 0.149139 0.967200 0.205627
v -13.041351 -12.644132 0.967888
vn 0.020870 0.927331 0.373660
v -12.876823 -12.671647 1.014726
vn -0.039789 0.819452 0.571766
v -12.876820 -12.721621 1.108823
vn -0.176291 0.861604 0.475983
v -12.853333 -12.705436 1.087984
vn -0.091702 0.991711 0.089996
v -12.853302 -12.649033 0.920727
vn -0.090487 0.995735 -0.017991
v -12.853321 -12.647123 0.873727
vn -0.189695 0.945646 0.264141
v -12.853321 -12.662562 0.991287
vn 0.025593 0.491966 0.870238
v -12.806278 -12.761551 1.155859
vn 0.143093 0.671294 0.727247
v -12.735733 -12.702302 1.132365
vn 0.211286 0.883132 0.418851
v -12.735744 -12.639903 1.014785
vn -0.146342 0.564269 0.812517
v -12.782787 -12.721789 1.132396
vn 0.009367 0.978898 0.204135
v -12.735744 -12.634615 0.999106
vn 0.407897 0.889095 0.207680
v -12.712219 -12.634581 0.976502
vn 0.437016 0.883998 0.166024
v -12.712219 -12.634727 0.803181
vn 0.472628 0.394168 0.788197
v -12.712212 -12.728695 1.136809
vn -0.026772 0.683584 -0.729381
v -12.735744 -12.258467 0.669355
vn 0.687263 -0.093199 -0.720405
v -12.688713 -12.281974 0.679898
vn 0.289839 0.272868 -0.917353
v -12.665195 -12.423053 0.700157
vn 0.800439 0.593779 0.081997
v -12.661594 -12.328998 0.732642
vn -0.688757 0.719501 -0.089067
v -12.658474 -12.587643 0.897228
vn -0.560541 -0.800130 0.213508
v -12.659885 -12.611155 0.920738
vn -0.553877 -0.358017 0.751695
v -12.665203 -12.587642 0.947664
vn -0.862205 0.123693 -0.491225
v -12.665207 -12.446568 0.932701
vn -0.964802 -0.096774 -0.244524
v -12.670277 -12.587641 0.920732
vn -0.540138 0.240077 0.806606
v -12.665207 -12.352516 0.958348
vn -0.948432 0.302744 0.093930
v -12.672104 -12.352517 0.944249
vn -0.837004 0.062935 -0.543565
v -12.665207 -12.423331 0.939037
vn -0.906934 -0.400841 -0.129604
v -12.663944 -12.601971 0.920735
vn -0.031759 0.811370 -0.583670
v -12.641693 -12.585056 0.897239
vn -0.285549 0.138789 -0.948261
v -12.641682 -12.446567 0.916692
vn 0.885119 0.333835 -0.324219
v -12.630497 -12.352519 0.803176
vn 0.039783 0.964098 -0.262549
v -12.641689 -12.344695 0.803175
vn 0.876810 0.437688 -0.199081
v -12.618183 -12.349454 0.826687
vn -0.757178 -0.267566 -0.595894
v -12.665203 -12.376033 0.927261
vn 0.163093 -0.925979 0.340534
v -12.641689 -12.376026 0.807894
vn -0.847394 0.359092 -0.391123
v -12.665203 -12.352518 0.803176
vn -0.970578 0.222109 0.092986
v -12.672298 -12.352520 0.826688
vn 0.191119 -0.793673 -0.577544
v -12.618183 -12.365479 0.897225
vn 0.764136 0.461737 -0.450440
v -12.618179 -12.345467 0.873714
vn 0.005077 0.784874 0.619635
v -12.641689 -12.329004 0.955203
vn 0.051090 0.811751 -0.581765
v -12.641689 -12.324015 0.873714
vn 0.338911 -0.329571 0.881205
v -12.616577 -12.587642 0.944262
vn 0.545166 0.266205 0.794940
v -12.618202 -12.352517 0.953474
vn -0.396871 -0.213705 -0.892650
v -12.641689 -12.399544 0.936339
vn -0.053083 -0.232793 -0.971076
v -12.618183 -12.399541 0.916568
vn 0.845168 0.281300 -0.454490
v -12.594673 -12.371944 0.920746
vn 0.920661 0.115185 -0.372982
v -12.594673 -12.352522 0.897223
vn 0.909434 0.207023 -0.360654
v -12.590569 -12.376032 0.920768
vn 0.769302 0.516123 0.376553
v -12.612846 -12.352518 0.944245
vn 0.252861 0.893829 0.370313
v -12.594669 -12.764831 0.826688
vn -0.165449 0.844744 -0.508955
v -13.057735 -12.775742 0.591561
vn -0.432377 0.886789 -0.163265
v -13.135452 -12.770730 0.662103
vn -0.658540 0.384895 -0.646669
v -13.092587 -12.728720 0.662122
vn -0.790124 0.517140 -0.329046
v -13.109467 -12.728718 0.685620
# 338 vertices, 0 vertices normals


usemtl material_0
vt 0.364590 0.217940
vt 0.368472 0.221727
vt 0.380016 0.225353
f 2/1/2 3/2/3 1/3/1
vt 0.910889 0.175049
vt 0.918308 0.172626
vt 0.919403 0.167986
f 3/4/3 6/5/6 1/6/1
vt 0.928373 0.175049
f 1/6/1 6/5/6 7/7/7
vt 0.613038 0.250729
vt 0.616864 0.247667
vt 0.615598 0.251486
f 10/8/10 11/9/11 12/10/12
vt 0.958490 0.112954
vt 0.954063 0.114446
vt 0.956171 0.114099
f 14/11/14 15/12/15 16/13/16
vt 0.937330 0.114880
vt 0.943178 0.114329
vt 0.935949 0.114861
f 17/14/17 18/15/18 19/16/19
vt 0.930714 0.119874
vt 0.928236 0.115784
vt 0.928130 0.119619
f 20/17/20 21/18/21 22/19/22
vt 0.957365 0.122501
vt 0.956396 0.117501
vt 0.954512 0.118379
f 23/20/23 24/21/24 25/22/25
vt 0.938789 0.120677
vt 0.938474 0.116806
vt 0.937730 0.116720
f 26/23/26 27/24/27 28/25/28
vt 0.902044 0.068732
vt 0.907001 0.069605
vt 0.902356 0.065035
f 29/26/29 30/27/30 31/28/31
vt 0.624449 0.316559
vt 0.620647 0.293593
vt 0.609224 0.240004
f 32/29/32 37/30/37 33/31/33
vt 0.613034 0.255316
f 37/30/37 38/32/38 33/31/33
vt 0.616854 0.262973
f 37/30/37 43/33/43 38/32/38
vt 0.624496 0.274462
f 37/30/37 45/34/45 43/33/43
vt 0.681908 0.270693
vt 0.674238 0.278341
vt 0.681889 0.293653
f 46/35/46 47/36/47 42/37/42
vt 0.670400 0.293643
f 47/36/47 48/38/48 42/37/42
f 38/32/38 10/8/10 33/31/33
vt 0.666580 0.289812
f 47/36/47 49/39/49 48/38/48
vt 0.613053 0.243834
f 10/8/10 50/40/50 33/31/33
vt 0.689517 0.308167
vt 0.684743 0.312793
vt 0.685686 0.316620
f 40/41/40 51/42/51 35/43/35
vt 0.613057 0.240005
f 50/40/50 52/44/52 33/31/33
f 38/32/38 11/9/11 10/8/10
vt 0.187496 0.001303
vt 0.192633 0.003174
vt 0.245918 0.001836
f 36/45/36 53/46/53 4/47/4
vt 0.184326 0.003174
f 36/45/36 54/48/54 53/46/53
vt 0.992509 0.100830
vt 0.992579 0.089298
vt 0.987748 0.094370
f 55/49/55 56/50/56 57/51/57
vt 0.998127 0.099241
f 55/49/55 58/52/58 56/50/56
vt 0.987614 0.090436
f 56/50/56 59/53/59 57/51/57
vt 0.828121 0.073105
vt 0.828633 0.076989
vt 0.836526 0.070333
f 60/54/60 61/55/61 62/56/62
vt 0.829601 0.062060
f 62/56/62 63/57/63 60/54/60
vt 0.825388 0.065624
vt 0.824951 0.070834
f 63/57/63 64/58/64 65/59/65
f 65/59/65 60/54/60 63/57/63
vt 0.828234 0.035198
vt 0.855286 0.075775
vt 0.879234 0.024485
f 66/60/66 67/61/67 68/62/68
f 66/60/66 63/57/63 67/61/67
f 63/57/63 62/56/62 67/61/67
vt 0.902321 0.024209
vt 0.846115 0.009609
f 68/62/68 69/63/69 70/64/70
f 70/64/70 66/60/66 68/62/68
vt 0.838090 0.012831
f 70/64/70 71/65/71 66/60/66
vt 0.901701 0.030595
f 68/62/68 72/66/72 69/63/69
vt 0.980170 0.083581
f 59/53/59 56/50/56 73/67/73
vt 0.830853 0.081299
vt 0.836171 0.074134
f 61/55/61 74/68/74 75/69/75
f 75/69/75 62/56/62 61/55/61
vt 0.873929 0.081299
vt 0.889416 0.080231
f 76/70/76 77/71/77 67/61/67
vt 0.851077 0.079130
f 67/61/67 78/72/78 76/70/76
f 67/61/67 62/56/62 78/72/78
f 62/56/62 75/69/75 78/72/78
vt 0.885488 0.080988
f 76/70/76 79/73/79 77/71/77
vt 0.979564 0.087385
vt 0.980088 0.094798
f 59/53/59 80/74/80 81/75/81
f 81/75/81 57/51/57 59/53/59
vt 0.984101 0.098428
f 81/75/81 82/76/82 57/51/57
vt 0.968253 0.087439
f 80/74/80 83/77/83 81/75/81
vt 0.971958 0.096064
vt 0.967933 0.092455
f 84/78/84 83/77/83 85/79/85
f 84/78/84 81/75/81 83/77/83
vt 0.861731 0.007782
vt 0.895651 0.014265
f 86/80/86 69/63/69 87/81/87
f 86/80/86 70/64/70 69/63/69
vt 0.902967 0.018074
f 69/63/69 88/82/88 87/81/87
vt 0.979681 0.085471
vt 0.968353 0.085869
f 83/77/83 89/83/89 90/84/90
f 83/77/83 80/74/80 89/83/89
vt 0.960160 0.088901
vt 0.937607 0.088137
vt 0.938218 0.100830
f 91/85/91 92/86/92 93/87/93
f 93/87/93 84/78/84 91/85/91
f 84/78/84 85/79/85 91/85/91
vt 0.934207 0.097189
f 92/86/92 94/88/94 93/87/93
vt 0.930121 0.097869
f 92/86/92 95/89/95 94/88/94
vt 0.897411 0.076802
vt 0.908615 0.038880
f 68/62/68 96/90/96 97/91/97
f 68/62/68 67/61/67 96/90/96
f 67/61/67 77/71/77 96/90/96
f 97/91/97 72/66/72 68/62/68
vt 0.655171 0.220900
vt 0.655171 0.224743
vt 0.662822 0.232403
f 13/92/13 99/93/99 98/94/98
vt 0.670426 0.266856
vt 0.661213 0.278322
f 100/95/100 101/96/101 47/36/47
vt 0.658951 0.266843
f 100/95/100 102/97/102 101/96/101
f 101/96/101 49/39/49 47/36/47
vt 0.662766 0.285980
f 101/96/101 103/98/103 49/39/49
vt 0.663590 0.236230
vt 0.689584 0.232434
f 98/94/98 106/99/106 104/100/104
vt 0.670439 0.259203
f 106/99/106 107/101/107 104/100/104
vt 0.662806 0.243886
f 106/99/106 108/102/108 107/101/107
vt 0.670428 0.295107
f 109/103/109 48/38/48 49/39/49
vt 0.662782 0.286586
f 49/39/49 110/104/110 109/103/109
f 49/39/49 103/98/103 110/104/110
vt 0.963428 0.113288
vt 0.975581 0.118893
vt 0.974687 0.113961
f 111/105/111 112/106/112 113/107/113
f 111/105/111 14/11/14 112/106/112
vt 0.961140 0.108455
f 111/105/111 114/108/114 14/11/14
vt 0.957118 0.112843
f 114/108/114 115/109/115 14/11/14
f 115/109/115 15/12/15 14/11/14
vt 0.953563 0.112506
f 115/109/115 116/110/116 15/12/15
vt 0.965605 0.113581
f 117/111/117 114/108/114 111/105/111
vt 0.964705 0.108692
f 117/111/117 118/112/118 114/108/114
vt 0.968912 0.108207
vt 0.975374 0.115326
f 110/113/110 117/111/117 119/114/119
vt 0.979555 0.109265
f 119/114/119 109/115/109 110/113/110
vt 0.981079 0.109423
f 119/114/119 120/116/120 109/115/109
f 110/113/110 118/112/118 117/111/117
vt 0.693388 0.263052
vt 0.697232 0.251575
f 107/101/107 121/117/121 122/118/122
f 122/118/122 104/100/104 107/101/107
f 107/101/107 46/35/46 121/117/121
vt 0.704950 0.243926
f 122/118/122 123/119/123 104/100/104
f 107/101/107 100/95/100 46/35/46
f 100/95/100 47/36/47 46/35/46
vt 0.697248 0.259227
f 121/117/121 124/120/124 122/118/122
vt 0.697243 0.263054
f 121/117/121 125/121/125 124/120/124
vt 0.963533 0.117902
f 14/11/14 16/13/16 126/122/126
f 126/122/126 112/106/112 14/11/14
vt 0.954121 0.112528
f 16/13/16 127/123/127 126/122/126
f 111/105/111 113/107/113 119/114/119
f 119/114/119 117/111/117 111/105/111
vt 0.978120 0.115538
f 113/107/113 128/124/128 119/114/119
vt 0.791759 0.077593
vt 0.789789 0.077440
vt 0.793590 0.081299
f 129/125/129 93/126/93 94/127/94
vt 0.793654 0.079756
f 94/127/94 130/128/130 129/125/129
vt 0.930445 0.088920
vt 0.928225 0.093243
f 95/89/95 131/129/131 132/130/132
f 95/89/95 92/86/92 131/129/131
vt 0.674252 0.295278
vt 0.681905 0.296165
f 42/37/42 120/131/120 133/132/133
f 42/37/42 48/38/48 120/131/120
f 48/38/48 109/103/109 120/131/120
vt 0.950589 0.111963
f 18/15/18 127/123/127 134/133/134
vt 0.959968 0.117660
f 18/15/18 135/134/135 127/123/127
f 135/134/135 126/122/126 127/123/127
f 134/133/134 19/16/19 18/15/18
vt 0.797350 0.081162
vt 0.801333 0.076352
f 95/135/95 136/136/136 130/128/130
vt 0.801182 0.077312
f 95/135/95 137/137/137 136/136/136
f 130/128/130 94/127/94 95/135/95
f 120/116/120 119/114/119 128/124/128
vt 0.984632 0.109785
f 128/124/128 133/138/133 120/116/120
f 18/15/18 25/22/25 24/21/24
f 18/15/18 27/24/27 25/22/25
f 18/15/18 17/14/17 27/24/27
f 24/21/24 135/134/135 18/15/18
f 17/14/17 28/25/28 27/24/27
vt 0.933779 0.114503
f 17/14/17 138/139/138 28/25/28
vt 0.926513 0.091731
f 139/140/139 132/130/132 131/129/131
vt 0.932887 0.120089
f 140/141/140 28/25/28 138/139/138
f 138/139/138 21/18/21 140/141/140
f 21/18/21 20/17/20 140/141/140
f 140/141/140 26/23/26 28/25/28
vt 0.936159 0.124267
f 140/141/140 141/142/141 26/23/26
vt 0.930225 0.114160
f 138/139/138 142/143/142 21/18/21
vt 0.939795 0.120776
f 141/142/141 143/144/143 26/23/26
vt 0.701023 0.270717
vt 0.697197 0.266886
f 121/117/121 44/145/44 144/146/144
f 121/117/121 46/35/46 44/145/44
vt 0.986236 0.109946
vt 0.998702 0.111177
vt 0.998835 0.107804
f 145/147/145 146/148/146 40/149/40
vt 0.982634 0.106172
f 40/149/40 42/150/42 145/147/145
f 42/150/42 133/138/133 145/147/145
vt 0.975403 0.124268
f 126/122/126 23/20/23 147/151/147
f 147/151/147 112/106/112 126/122/126
f 126/122/126 135/134/135 23/20/23
vt 0.979127 0.120790
f 147/151/147 148/152/148 112/106/112
f 148/152/148 128/124/128 112/106/112
vt 0.986881 0.117708
f 148/152/148 149/153/149 128/124/128
f 149/153/149 133/138/133 128/124/128
f 149/153/149 145/147/145 133/138/133
f 135/134/135 24/21/24 23/20/23
f 128/124/128 113/107/113 112/106/112
vt 0.997972 0.114946
f 145/147/145 150/154/150 146/148/146
f 145/147/145 149/153/149 150/154/150
vt 0.489428 0.178955
vt 0.483677 0.163091
vt 0.481780 0.169420
f 25/155/25 27/156/27 151/157/151
vt 0.480880 0.165782
f 27/156/27 143/158/143 151/157/151
f 27/24/27 26/23/26 143/144/143
vt 0.471844 0.173175
vt 0.476149 0.164032
vt 0.469593 0.167808
f 152/159/152 141/160/141 153/161/153
f 152/159/152 151/157/151 141/160/141
f 151/157/151 143/158/143 141/160/141
f 31/28/31 97/91/97 96/90/96
vt 0.912952 0.046629
f 31/28/31 154/162/154 97/91/97
vt 0.906566 0.061480
f 31/28/31 155/163/155 154/162/154
vt 0.475836 0.175260
vt 0.468557 0.176202
vt 0.465576 0.178955
f 96/164/96 29/165/29 31/166/31
vt 0.912145 0.042851
f 154/162/154 156/167/156 97/91/97
f 96/164/96 152/159/152 29/165/29
f 96/164/96 151/157/151 152/159/152
vt 0.914890 0.042978
f 154/162/154 157/168/157 156/167/156
vt 0.813886 0.031374
vt 0.816932 0.033353
vt 0.821414 0.029511
f 158/169/158 159/170/159 160/171/160
vt 0.812698 0.033609
f 158/169/158 161/172/161 159/170/159
vt 0.469237 0.170217
vt 0.471878 0.177383
f 152/159/152 162/173/162 163/174/163
f 152/159/152 153/161/153 162/173/162
vt 0.809535 0.032329
vt 0.813319 0.036176
vt 0.813391 0.034593
f 153/175/153 164/176/164 162/177/162
vt 0.905627 0.071099
f 163/178/163 30/27/30 29/26/29
vt 0.903298 0.072559
f 29/26/29 152/179/152 163/178/163
vt 0.908514 0.073583
f 163/178/163 159/180/159 30/27/30
vt 0.908759 0.070036
f 159/180/159 165/181/165 30/27/30
vt 0.477362 0.185517
vt 0.489070 0.181665
vt 0.485198 0.181752
f 166/182/166 167/183/167 165/184/165
vt 0.911379 0.061821
f 31/28/31 168/185/168 155/163/155
vt 0.909565 0.069312
f 31/28/31 167/186/167 168/185/168
f 31/28/31 30/27/30 167/186/167
f 154/162/154 155/163/155 168/185/168
vt 0.693486 0.186509
vt 0.689620 0.197994
vt 0.693431 0.213305
f 1/187/1 7/188/7 105/189/105
vt 0.813622 0.034987
vt 0.821580 0.032819
f 163/190/163 162/177/162 169/191/169
f 169/191/169 159/170/159 163/190/163
f 169/191/169 160/171/160 159/170/159
vt 0.821668 0.036354
f 162/177/162 164/176/164 170/192/170
f 170/192/170 169/191/169 162/177/162
vt 0.816975 0.059136
vt 0.821536 0.059253
f 170/192/170 171/193/171 172/194/172
f 170/192/170 164/176/164 171/193/171
vt 0.701093 0.259226
vt 0.701070 0.255404
f 124/120/124 173/195/173 174/196/174
f 174/196/174 122/118/122 124/120/124
vt 0.469482 0.190674
vt 0.473291 0.188948
vt 0.473548 0.185364
f 175/197/175 176/198/176 177/199/177
vt 0.469962 0.187485
f 177/199/177 178/200/178 175/197/175
f 176/198/176 166/182/166 177/199/177
vt 0.489375 0.190674
f 160/201/160 167/183/167 166/182/166
f 166/182/166 176/198/176 160/201/160
vt 0.953768 0.139244
vt 0.949921 0.138744
vt 0.946045 0.139893
f 179/202/179 180/203/180 41/204/41
vt 0.969026 0.139892
vt 0.957573 0.138925
f 123/205/123 181/206/181 179/202/179
f 123/205/123 179/202/179 41/204/41
f 83/77/83 91/85/91 85/79/85
f 90/84/90 91/85/91 83/77/83
vt 0.740372 0.058410
vt 0.740190 0.061873
vt 0.744136 0.062172
f 184/207/184 185/208/185 186/209/186
vt 0.793810 0.070157
vt 0.793646 0.073647
vt 0.797622 0.074048
f 187/210/187 188/211/188 189/212/189
vt 0.736483 0.062139
vt 0.736563 0.060452
vt 0.732818 0.058598
f 190/213/190 191/214/191 192/215/192
vt 0.755335 0.081058
vt 0.778422 0.073738
vt 0.763123 0.073654
f 84/216/84 193/217/193 194/218/194
f 84/216/84 93/126/93 193/217/193
vt 0.744079 0.073733
f 194/218/194 195/219/195 84/216/84
vt 0.747804 0.081299
f 195/219/195 81/220/81 84/216/84
vt 0.786079 0.073807
f 93/126/93 196/221/196 193/217/193
vt 0.744005 0.077446
f 195/219/195 82/222/82 81/220/81
vt 0.782545 0.027753
vt 0.797839 0.051215
vt 0.801725 0.035833
f 197/223/197 198/224/198 199/225/199
vt 0.778550 0.058465
f 197/223/197 200/226/200 198/224/198
vt 0.794073 0.024092
f 199/225/199 201/227/201 197/223/197
vt 0.786508 0.008627
f 201/227/201 202/228/202 197/223/197
vt 0.794178 0.016521
f 201/227/201 203/229/203 202/228/202
vt 0.805675 0.020571
f 199/225/199 140/230/140 201/227/201
f 199/225/199 153/175/153 140/230/140
vt 0.809553 0.024597
f 153/175/153 141/231/141 140/230/140
vt 0.790381 0.012638
f 203/229/203 204/232/204 202/228/202
f 199/225/199 164/176/164 153/175/153
vt 0.731201 0.028173
vt 0.732880 0.035397
vt 0.736874 0.028049
f 205/233/205 206/234/206 207/235/207
vt 0.736554 0.024669
f 207/235/207 60/236/60 205/233/205
vt 0.736347 0.050821
vt 0.736727 0.035492
f 206/234/206 208/237/208 209/238/209
vt 0.732753 0.050663
f 206/234/206 210/239/210 208/237/208
vt 0.736782 0.031716
f 209/238/209 211/240/211 206/234/206
f 211/240/211 207/235/207 206/234/206
vt 0.755690 0.007939
vt 0.748116 0.008066
f 212/241/212 213/242/213 209/238/209
vt 0.751797 0.050590
f 209/238/209 214/243/214 212/241/212
f 209/238/209 208/237/208 214/243/214
f 208/237/208 186/209/186 214/243/214
f 208/237/208 184/207/184 186/209/186
vt 0.732849 0.054795
f 208/237/208 215/244/215 184/207/184
f 215/244/215 191/214/191 184/207/184
vt 0.748087 0.004088
f 212/241/212 216/245/216 213/242/213
f 215/244/215 192/215/192 191/214/191
vt 0.739947 0.024128
f 217/246/217 211/240/211 209/238/209
vt 0.738335 0.062002
f 184/207/184 218/247/218 185/208/185
f 184/207/184 191/214/191 218/247/218
f 191/214/191 190/213/190 218/247/218
vt 0.738690 0.070201
vt 0.736507 0.073881
vt 0.740275 0.073763
f 219/248/219 55/249/55 220/250/220
vt 0.740134 0.075746
f 55/249/55 221/251/221 220/250/220
vt 0.755589 0.056693
f 195/219/195 194/218/194 222/252/222
f 222/252/222 186/209/186 195/219/195
f 222/252/222 214/243/214 186/209/186
vt 0.740330 0.066113
f 186/209/186 223/253/223 195/219/195
vt 0.740319 0.069979
f 223/253/223 224/254/224 195/219/195
f 224/254/224 220/250/220 195/219/195
f 195/219/195 220/250/220 221/251/221
f 221/251/221 82/222/82 195/219/195
vt 0.741658 0.077289
f 221/251/221 225/255/225 82/222/82
vt 0.778693 0.008245
vt 0.782323 0.008422
vt 0.774709 0.001649
f 226/256/226 227/257/227 228/258/228
f 214/243/214 222/252/222 197/223/197
f 197/223/197 212/241/212 214/243/214
f 197/223/197 226/256/226 212/241/212
f 222/252/222 194/218/194 200/226/200
f 200/226/200 197/223/197 222/252/222
f 194/218/194 193/217/193 200/226/200
vt 0.801656 0.058997
f 187/210/187 229/259/229 198/224/198
f 198/224/198 200/226/200 187/210/187
f 200/226/200 193/217/193 187/210/187
f 193/217/193 196/221/196 187/210/187
vt 0.801562 0.070445
f 187/210/187 230/260/230 229/259/229
vt 0.801688 0.055184
f 229/259/229 231/261/231 198/224/198
f 187/210/187 189/212/189 230/260/230
vt 0.787267 0.004676
f 227/257/227 202/228/202 106/262/106
vt 0.658977 0.264953
vt 0.657493 0.266837
f 232/263/232 233/264/233 102/97/102
vt 0.960674 0.107392
vt 0.948678 0.106213
f 101/265/101 233/266/233 115/109/115
f 101/96/101 102/97/102 233/264/233
f 115/109/115 114/108/114 101/265/101
f 233/266/233 116/110/116 115/109/115
vt 0.947457 0.106096
f 233/266/233 232/267/232 116/110/116
vt 0.790354 0.006755
vt 0.798247 0.015470
vt 0.798742 0.012297
f 234/268/234 19/269/19 134/270/134
vt 0.786756 0.003151
f 234/268/234 108/271/108 19/269/19
vt 0.790404 0.010704
f 108/271/108 235/272/235 19/269/19
f 108/271/108 106/262/106 235/272/235
f 106/262/106 202/228/202 235/272/235
f 202/228/202 204/232/204 235/272/235
vt 0.968547 0.106115
f 103/273/103 118/112/118 110/113/110
f 103/273/103 101/265/101 118/112/118
f 101/265/101 114/108/114 118/112/118
vt 0.948110 0.106171
f 234/274/234 16/13/16 116/110/116
vt 0.795136 0.014422
f 234/268/234 134/270/134 16/275/16
f 116/110/116 232/267/232 234/274/234
f 134/133/134 127/123/127 16/13/16
f 16/13/16 15/12/15 116/110/116
f 196/221/196 188/211/188 187/210/187
f 196/221/196 93/126/93 188/211/188
vt 0.794230 0.010536
f 236/276/236 204/232/204 203/229/203
vt 0.798006 0.016341
f 203/229/203 237/277/237 236/276/236
f 236/276/236 235/272/235 204/232/204
vt 0.927901 0.109685
f 19/16/19 236/278/236 138/139/138
vt 0.926514 0.109734
f 19/16/19 235/279/235 236/278/236
f 138/139/138 17/14/17 19/16/19
f 188/211/188 93/126/93 129/125/129
f 129/125/129 189/212/189 188/211/188
f 130/128/130 136/136/136 189/212/189
f 189/212/189 129/125/129 130/128/130
f 136/136/136 230/260/230 189/212/189
vt 0.928700 0.115596
f 237/280/237 142/143/142 138/139/138
vt 0.801959 0.015059
f 138/281/138 236/276/236 237/277/237
vt 0.801748 0.020283
f 203/229/203 201/227/201 22/282/22
f 22/282/22 237/277/237 203/229/203
vt 0.801771 0.016445
f 22/282/22 21/283/21 237/277/237
f 21/18/21 142/143/142 237/280/237
vt 0.809315 0.043491
f 198/224/198 231/261/231 238/284/238
f 238/284/238 199/225/199 198/224/198
vt 0.813149 0.043539
f 164/176/164 238/284/238 239/285/239
f 164/176/164 199/225/199 238/284/238
vt 0.803880 0.020439
f 20/286/20 201/227/201 140/230/140
f 22/282/22 201/227/201 20/286/20
f 202/228/202 227/257/227 197/223/197
f 227/257/227 226/256/226 197/223/197
vt 0.299833 0.971349
vt 0.296388 0.972405
vt 0.298817 0.975830
f 5/287/5 8/288/8 2/289/2
vt 0.293701 0.975830
f 2/289/2 8/288/8 3/290/3
vt 0.293779 0.973148
f 8/288/8 9/291/9 3/290/3
vt 0.928537 0.003174
vt 0.924677 0.002409
vt 0.922607 0.003174
f 73/292/73 89/293/89 80/294/80
vt 0.899977 0.003174
vt 0.894459 0.002243
vt 0.891357 0.003174
f 131/295/131 240/296/240 87/297/87
vt 0.724477 0.003174
vt 0.719817 0.001069
vt 0.715576 0.003174
f 241/298/241 242/299/242 243/300/243
vt 0.724908 0.001575
f 241/298/241 244/301/244 242/299/242
vt 0.254570 0.002611
vt 0.250732 0.003174
vt 0.262253 0.003174
f 54/302/54 36/303/36 33/304/33
vt 0.626353 0.020097
vt 0.625732 0.018884
vt 0.626842 0.024267
f 205/305/205 60/306/60 65/307/65
vt 0.671413 0.626267
vt 0.668877 0.625345
vt 0.670495 0.629317
f 245/308/245 246/309/246 247/310/247
vt 0.661434 0.631182
vt 0.660889 0.633027
vt 0.663446 0.633880
f 248/311/248 58/312/58 249/313/249
vt 0.745820 0.676639
vt 0.739638 0.673253
vt 0.742416 0.678471
f 11/314/11 38/315/38 12/316/12
vt 0.257345 0.112549
vt 0.255992 0.110205
vt 0.254639 0.112549
f 185/317/185 218/318/218 250/319/250
vt 0.691234 0.303955
vt 0.690533 0.298963
vt 0.688232 0.303955
f 225/320/225 57/321/57 82/322/82
vt 0.277351 0.107559
vt 0.292508 0.108435
vt 0.292613 0.104395
f 78/323/78 251/324/251 252/325/252
vt 0.887485 0.557861
vt 0.886097 0.553105
vt 0.883545 0.557861
f 51/326/51 253/327/253 35/328/35
vt 0.990528 0.710205
vt 0.988748 0.704922
vt 0.986617 0.709850
f 159/329/159 161/330/161 165/331/165
vt 0.865011 0.839125
vt 0.868598 0.846463
vt 0.869127 0.839553
f 244/332/244 254/333/254 242/334/242
vt 0.922756 0.604736
vt 0.913055 0.599756
vt 0.910889 0.604736
f 243/335/243 255/336/255 256/337/256
vt 0.721307 0.664093
vt 0.728150 0.665699
vt 0.725332 0.661047
f 257/338/257 258/339/258 259/340/259
vt 0.676752 0.473080
vt 0.676514 0.478718
vt 0.680594 0.475198
f 121/341/121 144/342/144 125/343/125
vt 0.789578 0.795886
vt 0.788239 0.791026
vt 0.785889 0.796143
f 154/344/154 172/345/172 157/346/157
vt 0.639127 0.024039
vt 0.639490 0.020113
vt 0.632046 0.027259
f 260/347/260 261/348/261 64/349/64
vt 0.633820 0.030517
f 64/349/64 262/350/262 260/347/260
vt 0.646445 0.028119
vt 0.645501 0.026428
f 263/351/263 264/352/264 260/347/260
f 260/347/260 262/350/262 263/351/263
vt 0.646830 0.019021
f 264/352/264 210/353/210 261/348/261
f 261/348/261 260/347/260 264/352/264
vt 0.633190 0.016091
f 210/353/210 206/354/206 261/348/261
vt 0.632647 0.018685
f 206/354/206 266/355/266 261/348/261
vt 0.653013 0.030517
vt 0.654234 0.023556
vt 0.650846 0.022935
f 265/356/265 192/357/192 215/358/215
f 215/358/215 264/352/264 265/356/265
vt 0.657811 0.029191
f 265/356/265 247/359/247 192/357/192
f 215/358/215 210/353/210 264/352/264
vt 0.958337 0.818400
vt 0.949990 0.821856
vt 0.956849 0.823486
f 265/360/265 267/361/267 245/362/245
vt 0.951002 0.817780
f 265/360/265 263/363/263 267/361/267
vt 0.961613 0.822173
f 245/362/245 247/364/247 265/360/265
f 64/349/64 266/355/266 205/305/205
f 64/349/64 261/348/261 266/355/266
f 205/305/205 65/307/65 64/349/64
vt 0.934571 0.816348
f 262/365/262 267/361/267 263/363/263
vt 0.934055 0.823486
f 262/365/262 63/366/63 267/361/267
vt 0.930420 0.819413
f 262/365/262 64/367/64 63/366/63
vt 0.738856 0.919364
vt 0.729386 0.916124
vt 0.715576 0.921143
f 66/368/66 267/369/267 63/370/63
vt 0.735926 0.917607
f 66/368/66 245/371/245 267/369/267
vt 0.738513 0.915261
f 66/368/66 246/372/246 245/371/245
vt 0.763348 0.921143
vt 0.750742 0.913854
vt 0.747198 0.918971
f 71/373/71 58/374/58 248/375/248
f 248/375/248 66/368/66 71/373/71
vt 0.763530 0.913785
f 71/373/71 56/376/56 58/374/58
f 248/375/248 246/372/246 66/368/66
vt 0.662814 0.640032
vt 0.664717 0.638976
f 249/313/249 55/377/55 219/378/219
f 249/313/249 58/312/58 55/377/55
vt 0.992920 0.634737
vt 0.997881 0.638283
vt 0.992920 0.643799
f 57/379/57 221/380/221 55/381/55
vt 0.997659 0.636266
f 57/379/57 225/382/225 221/380/221
vt 0.161207 0.042059
vt 0.156982 0.038881
vt 0.158873 0.050205
f 61/383/61 268/384/268 269/385/269
vt 0.160492 0.038300
f 61/383/61 60/386/60 268/384/268
vt 0.754639 0.589111
vt 0.765269 0.589111
vt 0.761859 0.584261
f 59/387/59 73/388/73 80/389/80
vt 0.352295 0.104461
vt 0.353828 0.096609
vt 0.357667 0.096350
f 71/390/71 70/391/70 73/392/73
vt 0.358392 0.108643
f 73/392/73 56/393/56 71/390/71
vt 0.731201 0.673772
vt 0.733464 0.682861
f 38/315/38 43/394/43 270/395/270
f 270/395/270 12/316/12 38/315/38
vt 0.745675 0.682861
f 270/395/270 271/396/271 12/316/12
vt 0.750601 0.675411
f 271/396/271 50/397/50 12/316/12
vt 0.744018 0.674112
f 50/397/50 10/398/10 12/316/12
vt 0.159644 0.053955
vt 0.171336 0.052009
vt 0.165860 0.045164
f 271/399/271 270/400/270 74/401/74
f 74/401/74 269/385/269 271/399/271
vt 0.169856 0.044497
f 270/400/270 272/402/272 74/401/74
f 74/401/74 61/383/61 269/385/269
vt 0.174464 0.047607
f 270/400/270 273/403/273 272/402/272
vt 0.685425 0.272705
vt 0.678489 0.268835
vt 0.676514 0.272705
f 74/404/74 252/405/252 75/406/75
vt 0.684355 0.268798
f 74/404/74 272/407/272 252/405/252
vt 0.681843 0.265128
f 272/407/272 274/408/274 252/405/252
vt 0.292507 0.108643
f 252/325/252 251/324/251 75/409/75
vt 0.180274 0.038892
vt 0.200949 0.043210
vt 0.219448 0.040134
f 275/410/275 276/411/276 277/412/277
vt 0.189693 0.045081
f 275/410/275 278/413/278 276/411/276
vt 0.220325 0.043865
f 276/411/276 279/414/279 277/412/277
f 275/410/275 273/403/273 278/413/278
vt 0.172772 0.040137
f 275/410/275 274/415/274 273/403/273
f 274/415/274 272/402/272 273/403/273
vt 0.294039 0.053896
vt 0.293235 0.052707
vt 0.292638 0.079064
f 277/416/277 280/417/280 281/418/281
vt 0.195030 0.031960
f 281/419/281 275/410/275 277/412/277
vt 0.292621 0.089990
vt 0.297162 0.092929
f 281/418/281 282/420/282 275/421/275
f 252/325/252 275/421/275 282/420/282
vt 0.297046 0.100354
f 252/325/252 274/422/274 275/421/275
vt 0.856925 0.550049
vt 0.856003 0.545779
vt 0.852295 0.550049
f 280/423/280 279/424/279 283/425/283
vt 0.220722 0.039902
f 280/426/280 277/412/277 279/414/279
f 75/409/75 251/324/251 78/323/78
vt 0.206392 0.053955
f 37/427/37 279/414/279 276/411/276
vt 0.229312 0.050153
f 37/427/37 32/428/32 279/414/279
vt 0.223700 0.039674
f 32/428/32 283/429/283 279/414/279
vt 0.278109 0.048956
vt 0.285066 0.078432
f 284/430/284 285/431/285 280/417/280
vt 0.258523 0.069568
f 284/430/284 286/432/286 285/431/285
vt 0.258921 0.052744
f 284/430/284 287/433/287 286/432/286
f 285/431/285 281/418/281 280/417/280
vt 0.254981 0.056616
f 287/433/287 288/434/288 286/432/286
vt 0.289438 0.050066
f 280/417/280 283/435/283 284/430/284
vt 0.254476 0.085246
vt 0.254428 0.092744
f 78/323/78 289/436/289 290/437/290
f 78/323/78 285/431/285 289/436/289
f 78/323/78 282/420/282 285/431/285
vt 0.254411 0.107226
f 290/437/290 76/438/76 78/323/78
f 78/323/78 252/325/252 282/420/282
f 282/420/282 281/418/281 285/431/285
vt 0.289902 0.043626
vt 0.278442 0.039765
f 284/430/284 32/439/32 34/440/34
vt 0.664489 0.257249
vt 0.660889 0.268799
vt 0.672781 0.268799
f 284/441/284 283/442/283 32/443/32
vt 0.254624 0.073571
f 289/436/289 286/432/286 291/444/291
f 289/436/289 285/431/285 286/432/286
vt 0.352295 0.046902
vt 0.355368 0.046726
vt 0.356931 0.081052
f 87/445/87 240/446/240 86/447/86
vt 0.360975 0.084736
f 90/448/90 70/391/70 86/447/86
f 90/448/90 73/392/73 70/391/70
vt 0.361510 0.096196
f 90/448/90 89/449/89 73/392/73
vt 0.247744 0.043582
f 34/440/34 292/450/292 287/433/287
vt 0.930302 0.858643
vt 0.949414 0.858399
vt 0.941838 0.856323
f 182/451/182 39/452/39 292/453/292
f 287/433/287 284/430/284 34/440/34
vt 0.363373 0.053996
f 86/447/86 240/446/240 92/454/92
vt 0.365795 0.076893
f 92/454/92 91/455/91 86/447/86
vt 0.360902 0.046492
f 240/446/240 131/456/131 92/454/92
f 91/455/91 90/448/90 86/447/86
vt 0.235871 0.049453
vt 0.235376 0.070473
f 288/434/288 293/457/293 294/458/294
f 294/458/294 291/444/291 288/434/288
vt 0.243649 0.048794
f 288/434/288 295/459/295 293/457/293
f 291/444/291 286/432/286 288/434/288
f 287/433/287 295/459/295 288/434/288
f 287/433/287 292/450/292 295/459/295
vt 0.235329 0.073157
f 289/436/289 296/460/296 290/437/290
f 289/436/289 291/444/291 296/460/296
f 291/444/291 294/458/294 296/460/296
vt 0.231484 0.076673
vt 0.231343 0.104041
f 290/437/290 297/461/297 298/462/298
f 290/437/290 296/460/296 297/461/297
vt 0.242882 0.107401
f 298/462/298 79/463/79 290/437/290
f 79/463/79 76/438/76 290/437/290
vt 0.946062 0.849047
vt 0.957102 0.854754
vt 0.953433 0.846282
f 295/464/295 253/465/253 293/466/293
f 295/464/295 39/452/39 253/465/253
f 295/464/295 292/453/292 39/452/39
vt 0.957222 0.850672
f 253/465/253 299/467/299 293/466/293
vt 0.960666 0.858643
f 39/452/39 35/468/35 253/465/253
vt 0.239003 0.107844
vt 0.231201 0.108643
f 77/469/77 298/462/298 96/470/96
f 77/469/77 79/463/79 298/462/298
vt 0.678782 0.389892
vt 0.684468 0.384407
vt 0.676513 0.380887
f 137/471/137 300/472/300 301/473/301
vt 0.684201 0.389892
f 137/471/137 95/474/95 300/472/300
vt 0.935142 0.586219
vt 0.936261 0.589111
vt 0.937936 0.587558
f 300/475/300 132/476/132 139/477/139
vt 0.930420 0.589111
f 300/475/300 95/478/95 132/476/132
vt 0.674279 0.423044
vt 0.672746 0.414715
vt 0.670371 0.426013
f 131/479/131 87/480/87 139/481/139
vt 0.664510 0.415496
vt 0.661082 0.423556
f 88/482/88 256/483/256 139/481/139
f 139/481/139 87/480/87 88/482/88
vt 0.661612 0.428955
f 256/483/256 301/484/301 139/481/139
vt 0.670288 0.428955
f 301/484/301 300/485/300 139/481/139
vt 0.660889 0.428116
f 256/483/256 255/486/255 301/484/301
vt 0.302971 0.008973
vt 0.318307 0.017403
vt 0.323931 0.004235
f 293/487/293 149/488/149 294/489/294
vt 0.306285 0.018799
f 293/487/293 150/490/150 149/488/149
vt 0.326580 0.015128
f 149/488/149 148/491/148 294/489/294
vt 0.301514 0.014585
f 293/487/293 299/492/299 150/490/150
vt 0.331241 0.013365
vt 0.330443 0.007115
f 148/491/148 147/493/147 297/494/297
f 297/494/297 294/489/294 148/491/148
vt 0.326608 0.003943
f 297/494/297 296/495/296 294/489/294
vt 0.848709 0.858643
vt 0.859781 0.847743
vt 0.846754 0.855339
f 238/496/238 302/497/302 239/498/239
vt 0.862791 0.858643
f 238/496/238 231/499/231 302/497/302
vt 0.866041 0.856757
f 231/499/231 229/500/229 302/497/302
f 229/500/229 254/333/254 302/497/302
vt 0.872965 0.838611
f 254/333/254 303/501/303 242/334/242
vt 0.875803 0.851079
f 254/333/254 230/502/230 303/501/303
f 254/333/254 229/500/229 230/502/230
vt 0.880688 0.849107
vt 0.880767 0.839586
vt 0.873769 0.838816
f 136/503/136 255/504/255 243/505/243
f 243/505/243 230/502/230 136/503/136
f 243/505/243 303/501/303 230/502/230
vt 0.880998 0.840285
f 136/503/136 301/506/301 255/504/255
vt 0.881387 0.849390
f 136/503/136 137/507/137 301/506/301
vt 0.960488 0.857311
vt 0.963139 0.849267
f 51/508/51 150/509/150 299/467/299
vt 0.964267 0.852888
f 51/508/51 146/510/146 150/509/150
f 299/467/299 253/465/253 51/508/51
vt 0.966068 0.855825
f 51/508/51 40/511/40 146/510/146
vt 0.349719 0.015066
f 297/494/297 147/493/147 23/512/23
vt 0.357757 0.010441
f 23/512/23 298/513/298 297/494/297
vt 0.352576 0.018799
f 23/512/23 25/514/25 298/513/298
vt 0.364487 0.016282
f 25/514/25 151/515/151 298/513/298
vt 0.362344 0.008756
f 151/515/151 96/516/96 298/513/298
vt 0.710386 0.725830
vt 0.709851 0.716786
vt 0.703236 0.714426
f 256/517/256 88/518/88 69/519/69
vt 0.698526 0.725656
f 69/519/69 243/520/243 256/517/256
vt 0.697014 0.713866
f 69/519/69 72/521/72 243/520/243
vt 0.688232 0.719877
f 72/521/72 97/522/97 243/520/243
vt 0.689842 0.725830
f 97/522/97 241/523/241 243/520/243
f 242/334/242 303/501/303 243/505/243
vt 0.705842 0.858122
vt 0.701514 0.847199
vt 0.703611 0.858643
f 158/524/158 304/525/304 161/526/161
vt 0.704555 0.842771
f 158/524/158 305/527/305 304/525/304
vt 0.699962 0.839265
vt 0.677862 0.845874
vt 0.700763 0.843631
f 306/528/306 307/529/307 308/530/308
vt 0.662047 0.844606
vt 0.662453 0.846954
vt 0.673955 0.845561
f 309/531/309 310/532/310 311/533/311
vt 0.703074 0.843107
f 308/530/308 312/534/312 306/528/306
vt 0.979374 0.706995
f 161/330/161 166/535/166 165/331/165
vt 0.977379 0.702178
f 161/330/161 304/536/304 166/535/166
vt 0.976256 0.704648
f 304/536/304 313/537/313 166/535/166
vt 0.692152 0.296143
vt 0.691653 0.293609
vt 0.688232 0.296143
f 167/538/167 30/539/30 165/540/165
vt 0.975815 0.705573
f 313/537/313 177/541/177 166/535/166
vt 0.673952 0.561768
vt 0.669172 0.538850
vt 0.668960 0.561498
f 308/542/308 314/543/314 313/544/313
vt 0.673228 0.538748
f 308/542/308 307/545/307 314/543/314
vt 0.974644 0.698974
f 313/537/313 304/536/304 308/546/308
vt 0.804098 0.791570
vt 0.810010 0.784462
f 168/547/168 170/548/170 172/345/172
f 172/345/172 154/344/154 168/547/168
vt 0.858157 0.843690
f 171/549/171 254/333/254 244/332/244
f 171/549/171 302/497/302 254/333/254
vt 0.860457 0.838491
f 244/332/244 157/550/157 171/549/171
vt 0.990057 0.803139
vt 0.988707 0.802183
vt 0.989037 0.807861
f 244/551/244 241/552/241 157/553/157
vt 0.980462 0.801198
f 241/552/241 315/554/315 157/553/157
vt 0.922607 0.687386
vt 0.930728 0.688736
vt 0.930849 0.687114
f 241/555/241 316/556/316 315/557/315
vt 0.855918 0.839616
f 157/550/157 172/558/172 171/549/171
vt 0.935028 0.686014
f 316/556/316 317/559/317 315/557/315
vt 0.660889 0.858643
vt 0.663945 0.854144
f 310/532/310 259/560/259 258/561/258
vt 0.666750 0.848853
f 258/561/258 318/562/318 310/532/310
f 318/562/318 311/533/311 310/532/310
vt 0.714560 0.665311
vt 0.713427 0.661774
vt 0.709888 0.664661
f 319/563/319 320/564/320 97/565/97
vt 0.716536 0.662906
f 319/563/319 321/566/321 320/564/320
vt 0.707764 0.667236
f 97/565/97 156/567/156 319/563/319
vt 0.729527 0.667236
f 257/338/257 322/568/322 258/339/258
f 257/338/257 319/563/319 322/568/322
f 257/338/257 321/566/321 319/563/319
vt 0.937927 0.694580
vt 0.942485 0.687724
f 257/569/257 323/570/323 317/559/317
vt 0.933099 0.694580
f 317/559/317 321/571/321 257/569/257
f 317/559/317 316/556/316 321/571/321
vt 0.929676 0.692574
f 316/556/316 320/572/320 321/571/321
vt 0.803834 0.590617
vt 0.802319 0.596924
vt 0.815576 0.596924
f 310/573/310 324/574/324 325/575/325
vt 0.815567 0.594656
f 325/575/325 259/576/259 310/573/310
vt 0.801514 0.591618
f 310/573/310 309/577/309 324/574/324
vt 0.663270 0.869534
vt 0.660889 0.878174
vt 0.662484 0.869783
f 158/578/158 160/579/160 176/580/176
vt 0.663044 0.864585
f 176/580/176 305/581/305 158/578/158
vt 0.661572 0.870781
f 176/580/176 175/582/175 305/581/305
vt 0.666831 0.870023
f 326/583/326 305/581/305 175/582/175
vt 0.667293 0.862487
f 326/583/326 306/584/306 305/581/305
vt 0.666255 0.875490
f 175/582/175 178/585/178 326/583/326
f 306/528/306 312/534/312 305/527/305
vt 0.705040 0.872365
f 306/584/306 326/583/326 327/586/327
vt 0.705510 0.864986
f 327/586/327 309/587/309 306/584/306
vt 0.709070 0.869034
f 327/586/327 324/588/324 309/587/309
f 239/498/239 302/497/302 171/549/171
vt 0.840576 0.858384
f 171/549/171 164/589/164 239/498/239
vt 0.669444 0.531076
vt 0.665334 0.531203
f 314/543/314 328/590/328 329/591/329
f 314/543/314 307/545/307 328/590/328
vt 0.673311 0.534928
vt 0.673102 0.527311
f 311/592/311 318/593/318 328/590/328
f 328/590/328 307/545/307 311/592/311
vt 0.665019 0.525787
f 318/593/318 322/594/322 329/591/329
vt 0.666124 0.853255
f 318/562/318 258/561/258 322/595/322
f 329/591/329 328/590/328 318/593/318
vt 0.661572 0.526687
f 322/594/322 330/596/330 329/591/329
vt 0.966107 0.804849
vt 0.964527 0.804911
vt 0.961670 0.807861
f 322/597/322 331/598/331 330/599/330
vt 0.968940 0.801816
f 322/597/322 323/600/323 331/598/331
vt 0.926099 0.692314
f 97/601/97 320/572/320 316/556/316
f 316/556/316 241/555/241 97/601/97
vt 0.728625 0.569479
vt 0.726400 0.569335
vt 0.723389 0.573486
f 259/602/259 325/603/325 323/604/323
vt 0.731608 0.573487
f 323/604/323 257/605/257 259/602/259
vt 0.820682 0.791175
vt 0.814855 0.786541
vt 0.813300 0.796143
f 160/606/160 169/607/169 167/608/167
f 169/607/169 168/547/168 167/608/167
f 169/607/169 170/548/170 168/547/168
vt 0.660888 0.561768
vt 0.660910 0.527352
f 178/609/178 314/543/314 332/610/332
f 178/609/178 313/544/313 314/543/314
f 314/543/314 329/591/329 332/610/332
vt 0.969482 0.710205
f 178/611/178 177/541/177 313/537/313
f 329/591/329 330/596/330 332/610/332
vt 0.700516 0.878174
f 326/583/326 178/585/178 332/612/332
f 332/612/332 327/586/327 326/583/326
vt 0.704858 0.873725
f 332/612/332 333/613/333 327/586/327
vt 0.981131 0.803658
f 319/614/319 157/553/157 315/554/315
vt 0.988027 0.806627
f 319/614/319 156/615/156 157/553/157
vt 0.976209 0.801963
f 317/616/317 323/600/323 322/597/322
f 322/597/322 319/614/319 317/616/317
f 319/614/319 315/554/315 317/616/317
vt 0.989137 0.787419
vt 0.985107 0.796142
vt 0.998378 0.796142
f 331/617/331 325/618/325 324/619/324
vt 0.996841 0.790022
f 324/619/324 333/620/333 331/617/331
vt 0.985337 0.790977
f 331/617/331 323/621/323 325/618/325
vt 0.998362 0.790760
f 324/619/324 327/622/327 333/620/333
vt 0.993262 0.785595
vt 0.993312 0.784659
f 330/623/330 333/620/333 332/624/332
f 330/623/330 331/617/331 333/620/333
vt 0.730599 0.581299
vt 0.731109 0.577608
vt 0.726107 0.577130
f 179/625/179 181/626/181 174/627/174
vt 0.723389 0.581299
f 174/627/174 173/628/173 179/625/179
f 306/528/306 309/531/309 311/533/311
f 306/528/306 311/533/311 307/529/307
f 305/527/305 312/534/312 304/525/304
f 312/534/312 308/530/308 304/525/304
vt 0.926514 0.857605
f 183/629/183 182/451/182 292/453/292
vt 0.785889 0.772721
vt 0.789416 0.780518
vt 0.801425 0.780241
f 270/630/270 43/631/43 45/632/45
vt 0.688232 0.132080
vt 0.692236 0.132080
vt 0.690239 0.126701
f 208/633/208 210/634/210 215/635/215
vt 0.682837 0.478029
vt 0.686626 0.474637
vt 0.682910 0.472471
f 334/636/334 173/637/173 124/638/124
f 247/310/247 249/313/249 219/378/219
vt 0.674426 0.639378
f 219/378/219 190/639/190 247/310/247
vt 0.676220 0.632890
f 190/639/190 192/640/192 247/310/247
f 247/310/247 248/311/248 249/313/249
f 247/310/247 246/309/246 248/311/248
f 205/305/205 266/355/266 206/354/206
vt 0.873237 0.978487
vt 0.847714 0.976214
vt 0.843565 0.979736
f 335/641/335 228/642/228 13/643/13
vt 0.885862 0.979736
f 13/643/13 53/644/53 335/641/335
vt 0.886968 0.969296
f 53/644/53 336/645/336 335/641/335
vt 0.890127 0.973370
f 53/644/53 54/646/54 336/645/336
vt 0.843930 0.976141
f 228/642/228 99/647/99 13/643/13
vt 0.891226 0.966840
f 54/646/54 33/648/33 336/645/336
vt 0.693706 0.382080
vt 0.691021 0.379345
vt 0.688232 0.382080
f 33/649/33 52/650/52 336/651/336
vt 0.971227 0.872472
vt 0.975855 0.873090
vt 0.974000 0.869551
f 207/652/207 217/653/217 268/654/268
vt 0.968715 0.875915
f 207/652/207 211/655/211 217/653/217
vt 0.971938 0.865602
f 268/654/268 60/656/60 207/652/207
vt 0.879620 0.965006
vt 0.874732 0.971910
f 336/645/336 337/657/337 216/658/216
f 216/658/216 335/641/335 336/645/336
vt 0.882756 0.962023
f 336/645/336 338/659/338 337/657/337
vt 0.998285 0.868111
vt 0.997330 0.864595
vt 0.991261 0.869508
f 336/660/336 52/661/52 338/662/338
vt 0.874737 0.967898
f 337/657/337 213/663/213 216/658/216
vt 0.995674 0.861438
vt 0.987808 0.862942
f 338/662/338 50/664/50 271/665/271
f 338/662/338 52/661/52 50/664/50
vt 0.984185 0.864254
f 271/665/271 269/666/269 338/662/338
vt 0.993373 0.873554
f 269/666/269 217/653/217 337/667/337
f 337/667/337 338/662/338 269/666/269
f 269/666/269 268/654/268 217/653/217
vt 0.965576 0.878173
vt 0.995773 0.878174
f 217/653/217 209/668/209 213/669/213
f 213/669/213 337/667/337 217/653/217
vt 0.669561 0.641636
f 223/670/223 190/639/190 219/378/219
vt 0.673146 0.643799
f 223/670/223 250/671/250 190/639/190
vt 0.666027 0.642317
f 219/378/219 224/672/224 223/670/223
vt 0.675105 0.642018
f 250/671/250 218/673/218 190/639/190
vt 0.663073 0.643799
f 219/378/219 220/674/220 224/672/224
vt 0.821045 0.557861
vt 0.825100 0.555535
vt 0.822372 0.552270
f 186/675/186 250/676/250 223/677/223
vt 0.826410 0.557861
f 186/675/186 185/678/185 250/676/250
vt 0.789711 0.768908
f 45/632/45 273/679/273 270/630/270
vt 0.805127 0.768898
f 45/632/45 278/680/278 273/679/273
vt 0.816569 0.768948
f 45/632/45 276/681/276 278/680/278
vt 0.820230 0.780518
f 45/632/45 37/682/37 276/681/276
vt 0.866897 0.969423
vt 0.844396 0.966230
f 212/683/212 226/684/226 228/642/228
f 228/642/228 335/641/335 212/683/212
f 335/641/335 216/658/216 212/683/212
vt 0.841069 0.964388
vt 0.837110 0.969058
f 99/647/99 227/685/227 98/686/98
f 99/647/99 228/642/228 227/685/227
vt 0.836670 0.964979
f 227/685/227 106/687/106 98/686/98
vt 0.715576 0.699800
vt 0.716082 0.710205
vt 0.719932 0.704396
f 102/688/102 100/689/100 234/690/234
vt 0.717672 0.698336
f 234/690/234 232/691/232 102/688/102
vt 0.723698 0.710205
f 234/690/234 100/689/100 107/692/107
vt 0.738700 0.702541
f 107/692/107 108/693/108 234/690/234
vt 0.677820 0.483643
vt 0.682935 0.483643
f 44/694/44 41/695/41 334/636/334
f 334/636/334 144/342/144 44/694/44
f 334/636/334 125/343/125 144/342/144
vt 0.677213 0.300427
vt 0.676514 0.304029
vt 0.681011 0.303676
f 41/696/41 180/697/180 334/698/334
f 334/636/334 124/638/124 125/343/125
vt 0.078820 0.010662
vt 0.075638 0.014893
vt 0.071045 0.014602
f 122/699/122 174/700/174 181/701/181
vt 0.071045 0.003319
f 181/701/181 123/702/123 122/699/122
vt 0.676892 0.307861
vt 0.683940 0.307861
f 334/698/334 179/703/179 173/704/173
f 334/698/334 180/697/180 179/703/179
# 646 faces, 704 coords texture

# End of File
