####
#
# OBJ File Generated by Meshlab
#
####
# Object waiting_room_chair_21.obj
#
# Vertices: 409
# Faces: 794
#
####
mtllib ./waiting_room_chair_21.obj.mtl

vn -0.153803 0.334097 -0.929906
v 5.058814 -5.918729 0.368791
vn -0.696596 -0.140127 -0.703646
v 5.035307 -5.918727 0.395529
vn -0.050438 0.203903 -0.977691
v 5.058802 -5.895217 0.392365
vn -0.119550 -0.654832 -0.746259
v 5.035285 -5.824683 0.360315
vn 0.376437 0.220357 -0.899854
v 5.082304 -5.824709 0.394269
vn -0.422329 -0.357674 -0.832891
v 5.035241 -5.848207 0.393217
vn -0.484504 0.363618 -0.795637
v 5.129333 -5.683609 0.415156
vn -0.258526 0.962499 0.082220
v 5.105815 -5.666721 0.473934
vn -0.213054 0.977040 -0.001143
v 5.129334 -5.666337 0.450425
vn -0.799137 -0.268595 -0.537808
v 5.105848 -6.130325 0.418536
vn -0.710899 -0.651151 0.265754
v 5.129302 -6.168793 0.450399
vn -0.376971 -0.758173 -0.532039
v 5.105818 -6.159435 0.426915
vn -0.459469 0.005350 -0.888178
v 5.152846 -6.059809 0.396327
vn -0.238082 -0.189392 -0.952600
v 5.105784 -6.059819 0.370028
vn 0.111266 -0.129266 -0.985348
v 5.152848 -6.036296 0.391895
vn -0.838032 -0.153878 -0.523472
v 5.168698 -6.177355 0.379904
vn -0.903808 -0.357236 -0.235611
v 5.166866 -6.200889 0.356375
vn -0.661509 -0.724379 -0.194115
v 5.172390 -6.200878 0.403406
vn -0.585005 -0.331086 -0.740372
v 5.176358 -6.211263 0.144763
vn 0.390851 -0.810628 -0.436024
v 5.199872 -6.229416 0.144763
vn -0.461595 -0.883923 0.074905
v 5.176357 -6.224391 0.168275
vn -0.124037 0.634259 -0.763106
v 5.199879 -5.707126 0.392563
vn -0.164524 0.277577 -0.946511
v 5.176357 -5.707120 0.416634
vn 0.212365 0.394129 -0.894183
v 5.223382 -5.707121 0.415844
vn 0.320518 -0.237108 -0.917087
v 5.246895 -5.983696 0.356375
vn -0.552027 -0.183604 -0.813361
v 5.205887 -5.965756 0.356373
vn 0.218048 0.224647 -0.949731
v 5.246893 -5.942245 0.344621
vn 0.285742 0.173502 -0.942469
v 5.246901 -5.730611 0.420938
vn 0.415344 0.016278 -0.909519
v 5.223381 -5.730634 0.391637
vn -0.288652 0.030638 -0.956944
v 5.246895 -5.683609 0.393060
vn 0.014659 -0.202842 -0.979102
v 5.246895 -5.707122 0.415382
vn -0.001026 0.254870 -0.966975
v 5.246897 -5.660098 0.419362
vn -0.081442 0.066765 -0.994439
v 5.246895 -5.660098 0.609190
vn -0.345643 -0.075535 -0.935321
v 5.223383 -5.683609 0.630576
vn -0.049594 0.583260 -0.810770
v 5.246896 -5.636586 0.630114
vn 0.210337 0.769223 0.603369
v 5.293989 -6.177453 0.505214
vn -0.804040 -0.586745 0.096180
v 5.266076 -6.200872 0.497370
vn 0.305894 0.942016 0.137964
v 5.293906 -6.191790 0.520962
vn 0.562000 -0.281391 -0.777802
v 5.283949 -6.106831 0.403403
vn 0.134455 -0.322520 -0.936964
v 5.249560 -6.106832 0.403400
vn 0.074645 -0.407393 -0.910197
v 5.270407 -6.106833 0.393439
vn 0.512682 0.157781 -0.843956
v 5.270406 -5.683610 0.416192
vn 0.304118 -0.772593 -0.557326
v 5.270402 -6.074275 0.379874
vn 0.400942 0.038885 -0.915278
v 5.270406 -6.036298 0.365071
vn 0.857033 0.145314 -0.494347
v 5.282225 -6.036295 0.379887
vn 0.154419 -0.909972 -0.384846
v 5.317433 -6.213161 0.450425
vn -0.288973 -0.570718 -0.768619
v 5.317431 -6.200882 0.439812
vn 0.349034 -0.270536 -0.897210
v 5.340945 -6.177371 0.420381
vn 0.497637 0.128164 0.857864
v 5.317430 -5.660095 0.462278
vn 0.034199 0.996804 0.072198
v 5.340945 -5.649237 0.450424
vn 0.975441 0.155790 -0.155705
v 5.326134 -5.636584 0.473937
vn 0.602542 0.794691 -0.073544
v 5.318984 -5.613070 0.520962
vn 0.900220 0.317656 -0.297822
v 5.348658 -5.613070 0.544474
vn 0.753038 -0.653695 -0.074946
v 5.325178 -5.636582 0.544474
vn 0.865469 0.390022 0.314398
v 5.345508 -5.613070 0.567986
vn -0.012885 0.904601 0.426065
v 5.317433 -5.613071 0.577274
vn 0.086964 -0.231254 0.968999
v 5.317434 -5.636583 0.606073
vn 0.256915 0.869766 -0.421309
v 5.387967 -5.636590 0.403403
vn -0.211414 0.947183 -0.241139
v 5.364455 -5.654087 0.426910
vn 0.445401 0.894634 -0.035327
v 5.387974 -5.654920 0.426912
vn 0.809905 0.412044 -0.417460
v 5.421303 -5.683609 0.426913
vn 0.298035 -0.022692 -0.954285
v 5.387967 -5.707122 0.393468
vn 0.719629 0.026997 -0.693834
v 5.411484 -5.683607 0.393144
vn -0.170262 0.979444 0.108173
v 5.387978 -5.652983 0.567986
vn 0.749654 0.655911 0.088317
v 5.416107 -5.683600 0.567986
vn 0.470472 0.865253 0.173187
v 5.411462 -5.648135 0.544475
vn -0.857146 0.361876 0.366533
v 5.387973 -5.683611 0.735801
vn -0.580377 0.803638 0.131635
v 5.411480 -5.654966 0.756085
vn -0.031618 0.987138 -0.156713
v 5.434996 -5.653112 0.732572
vn 0.895961 0.381988 -0.226582
v 5.419748 -5.660103 0.450425
vn -0.190044 0.978352 -0.081913
v 5.387978 -5.650479 0.450424
vn 0.239428 0.852135 -0.465338
v 5.411492 -5.627445 0.450424
vn 0.709152 0.567397 -0.418527
v 5.465789 -5.683599 0.732566
vn -0.044519 0.989643 0.136472
v 5.411481 -5.655090 0.685548
vn 0.623026 0.558871 -0.547267
v 5.468489 -5.660098 0.756086
vn 0.700800 -0.625836 0.342358
v 5.434998 -6.130348 0.446872
vn 0.907019 -0.215621 -0.361695
v 5.446945 -6.130343 0.426912
vn 0.663459 -0.395796 -0.634955
v 5.437628 -6.106833 0.426911
vn 0.701926 0.711222 0.038258
v 5.445641 -5.707114 0.473937
vn 0.896748 0.426835 0.116853
v 5.472153 -5.754151 0.497448
vn 0.978945 0.202973 0.021653
v 5.482017 -5.730638 0.473937
vn -0.626303 0.774786 0.086323
v 5.434989 -5.656623 0.779601
vn -0.596270 0.724304 -0.346187
v 5.458509 -5.630173 0.779597
vn 0.270532 0.823030 -0.499433
v 5.458506 -5.649491 0.756087
vn -0.708521 -0.038764 0.704624
v 5.458385 -5.656265 0.850106
vn 0.774958 0.360188 -0.519331
v 5.466364 -5.730639 0.450426
vn 0.786807 0.313069 0.531905
v 5.483233 -6.130359 0.662045
vn 0.809649 -0.512948 -0.285224
v 5.491201 -6.153850 0.638521
vn 0.470042 0.756852 -0.454133
v 5.482021 -6.121026 0.638520
vn 0.629182 0.580678 -0.516665
v 5.506795 -5.707111 0.756076
vn 0.990547 0.089891 -0.103614
v 5.557884 -5.965752 0.615002
vn 0.995443 0.091517 0.026805
v 5.539587 -5.801166 0.732567
vn 0.767352 0.433009 -0.472943
v 5.576056 -5.895221 0.709062
vn -0.947175 -0.216468 -0.236645
v 5.011779 -5.924896 0.426929
vn -0.732887 -0.118201 0.670004
v 5.011763 -5.848199 0.464118
vn -0.994837 -0.009893 -0.101005
v 5.001729 -5.824697 0.426872
vn -0.830615 -0.146277 0.537291
v 5.011721 -5.907670 0.450555
vn -0.808725 0.354803 0.469125
v 5.011771 -5.801169 0.460908
vn -0.886013 0.463630 0.005282
v 5.009227 -5.801170 0.403400
vn -0.920512 -0.385746 -0.062109
v 5.049909 -6.036313 0.426878
vn -0.132427 -0.978972 -0.155170
v 5.011773 -5.806574 0.332862
vn -0.987379 0.004283 -0.158316
v 5.009855 -5.801167 0.379888
vn -0.863428 -0.415685 -0.285830
v 4.997140 -5.801167 0.238813
vn 0.008490 -0.521420 -0.853258
v 5.011771 -5.801172 0.225585
vn 0.105330 -0.717616 -0.688427
v 5.035285 -5.818900 0.356375
vn -0.400800 0.818348 -0.411905
v 5.011775 -5.770690 0.238813
vn 0.854675 0.232288 -0.464299
v 5.040806 -5.777658 0.238813
vn 0.253279 0.926691 0.277657
v 5.035272 -5.768516 0.356376
vn -0.780896 0.614806 -0.110519
v 5.011766 -5.797771 0.379887
vn -0.254768 0.846493 -0.467486
v 5.035279 -5.768675 0.403398
vn -0.073851 0.899191 -0.431279
v 5.058779 -5.744493 0.426916
vn -0.705301 -0.299531 0.642520
v 5.096063 -6.106850 0.450535
vn -0.940960 -0.259524 -0.217351
v 5.101651 -6.130332 0.426931
vn -0.224813 -0.034367 0.973796
v 5.152853 -6.083324 0.479542
vn -0.112945 -0.017651 0.993445
v 5.082222 -5.801089 0.495647
vn -0.346607 -0.026454 0.937637
v 5.058806 -5.801143 0.491289
vn -0.807127 -0.249133 0.535238
v 5.102488 -6.130355 0.450502
vn -0.407650 -0.226921 0.884493
v 5.152940 -6.153779 0.480317
vn -0.263522 0.511165 0.818087
v 5.082313 -5.754164 0.490459
vn 0.959816 0.173281 -0.220743
v 5.039657 -5.777659 0.332862
vn 0.683376 0.352885 -0.639117
v 5.058795 -5.817251 0.379887
vn 0.394794 0.912966 -0.103107
v 5.035283 -5.788420 0.379888
vn -0.400292 0.905829 -0.138710
v 5.082304 -5.745203 0.450426
vn -0.362557 -0.107039 0.925794
v 5.105824 -5.730644 0.481124
vn -0.870237 0.487013 -0.074200
v 5.095883 -5.730631 0.450425
vn -0.152633 -0.115314 -0.981532
v 5.129352 -6.106817 0.370668
vn 0.034255 0.291556 -0.955940
v 5.176329 -6.153876 0.370663
vn -0.509235 -0.825401 0.243707
v 5.158005 -6.200906 0.450385
vn -0.026220 0.098336 -0.994808
v 5.105828 -5.895186 0.392298
vn 0.302012 0.098249 -0.948228
v 5.082312 -5.918732 0.391735
vn 0.081191 0.539485 -0.838072
v 5.082312 -5.754149 0.440453
vn -0.697506 -0.710521 -0.092983
v 5.061087 -5.730636 0.615011
vn 0.055593 -0.965853 -0.253055
v 5.082309 -5.740086 0.615011
vn -0.131076 -0.518916 0.844716
v 5.082305 -5.725215 0.662035
vn -0.536398 -0.106640 0.837201
v 5.058794 -5.715364 0.662036
vn 0.510660 -0.858952 -0.037804
v 5.105824 -5.733974 0.638502
vn -0.938072 -0.330988 -0.102311
v 5.053603 -5.707124 0.567986
vn 0.223242 -0.974565 0.019633
v 5.082311 -5.738590 0.544474
vn 0.573851 -0.747581 -0.334391
v 5.082306 -5.721537 0.591500
vn -0.235365 -0.950164 -0.204430
v 5.082306 -5.730632 0.500972
vn -0.846387 0.328583 0.419121
v 5.052290 -5.683608 0.638528
vn -0.866186 0.479015 -0.142357
v 5.052896 -5.683609 0.591499
vn -0.657667 0.233799 -0.716109
v 5.073480 -5.683608 0.497450
vn -0.888615 -0.116897 -0.443506
v 5.077782 -5.706525 0.499167
vn -0.523718 -0.771026 -0.362268
v 5.082306 -5.729064 0.497449
vn 0.005913 0.031345 0.999491
v 5.152845 -5.683601 0.667065
vn -0.347037 0.693610 0.631245
v 5.082308 -5.660097 0.642746
vn 0.326233 0.798895 -0.505310
v 5.082304 -5.677421 0.591498
vn -0.261681 0.954093 -0.145707
v 5.082306 -5.672417 0.497448
vn -0.080680 0.950665 -0.299545
v 5.082311 -5.651404 0.615011
vn 0.210673 0.973706 0.086678
v 5.105818 -5.655614 0.638510
vn 0.010534 0.106665 -0.994239
v 5.129328 -5.965761 0.379893
vn 0.479938 0.623621 -0.617054
v 5.082310 -5.942246 0.392192
vn -0.062059 -0.250957 0.966007
v 5.270418 -5.683631 0.488298
vn -0.159872 0.912893 0.375589
v 5.176359 -5.647530 0.450430
vn 0.481053 0.351333 0.803214
v 5.129344 -5.683637 0.471330
vn -0.494733 0.443671 0.747258
v 5.246900 -5.660110 0.475508
vn -0.440915 0.887688 0.132682
v 5.152842 -5.660089 0.450445
vn -0.860435 -0.002318 -0.509555
v 5.091963 -5.707121 0.473937
vn -0.788860 0.242043 -0.564902
v 5.110853 -5.707119 0.450417
vn -0.523010 -0.125369 -0.843056
v 5.129334 -5.707121 0.415133
vn -0.538372 -0.023714 -0.842373
v 5.129334 -5.728899 0.426917
vn -0.207283 -0.760730 0.615080
v 5.199870 -6.200886 0.477953
vn -0.355239 0.056850 -0.933045
v 5.199870 -5.965756 0.361831
vn 0.189171 -0.155940 -0.969483
v 5.246896 -6.012784 0.362799
vn -0.181658 -0.432828 -0.882984
v 5.246892 -6.056972 0.379875
vn -0.070156 0.428159 -0.900976
v 5.152842 -5.947005 0.379866
vn -0.686587 -0.249267 0.682982
v 5.463385 -5.895188 0.474888
vn 0.233355 -0.170080 0.957402
v 5.293973 -5.683676 0.482988
vn -0.265973 0.362206 0.893345
v 5.364364 -5.683496 0.493448
vn -0.841299 0.356918 0.405987
v 5.366301 -5.683291 0.494555
vn 0.869252 -0.145578 0.472449
v 5.117754 -5.707120 0.497449
vn 0.992150 -0.027963 0.121891
v 5.089583 -5.707120 0.544475
vn 0.953504 0.235050 -0.188633
v 5.088194 -5.683610 0.591499
vn 0.711648 0.415341 -0.566612
v 5.091005 -5.660098 0.615010
vn 0.590996 0.392141 -0.704947
v 5.105822 -5.660098 0.634046
vn 0.225460 -0.943607 -0.242432
v 5.199870 -5.714715 0.638482
vn 0.199606 0.057753 0.978173
v 5.246893 -5.660088 0.663787
vn 0.655958 -0.754652 0.014844
v 5.270409 -5.679870 0.638529
vn 0.363688 0.929262 -0.064838
v 5.270407 -5.626583 0.638509
vn 0.901375 0.416270 -0.119341
v 5.281929 -5.636569 0.638538
vn 0.429785 0.219911 -0.875742
v 5.152848 -6.106831 0.392366
vn 0.378125 0.015014 -0.925633
v 5.195629 -6.130347 0.403406
vn 0.726404 0.497630 -0.474027
v 5.185564 -6.153858 0.379889
vn 0.792435 -0.077843 -0.604969
v 5.211006 -6.177371 0.403398
vn 0.546315 -0.166747 -0.820814
v 5.223383 -6.177371 0.416118
vn 0.889259 -0.264961 0.372846
v 5.206213 -6.200881 0.379885
vn -0.196776 0.785979 -0.586103
v 5.176358 -5.649508 0.426893
vn 0.202921 0.879656 -0.430149
v 5.270403 -5.623043 0.426915
vn -0.266931 -0.040319 -0.962872
v 5.152850 -5.730636 0.415287
vn 0.133522 0.117772 -0.984023
v 5.270416 -5.730597 0.423725
vn 0.166115 0.159834 -0.973067
v 5.293921 -5.683609 0.429342
vn 0.466617 0.324287 -0.822865
v 5.281186 -5.636583 0.426909
vn -0.835712 0.544083 -0.074562
v 5.169751 -6.200877 0.262325
vn -0.628876 0.511597 -0.585477
v 5.173241 -6.200878 0.144763
vn -0.348772 -0.935778 0.051735
v 5.176362 -6.216723 0.262324
vn -0.978665 0.135958 0.154044
v 5.168097 -6.200902 0.285838
vn 0.643707 0.512669 -0.568165
v 5.206550 -6.200878 0.144763
vn 0.545888 -0.798608 0.253440
v 5.223377 -6.210690 0.332863
vn 0.267596 -0.902378 0.337797
v 5.199871 -6.207443 0.379887
vn -0.174821 -0.969949 -0.169225
v 5.176358 -6.203220 0.403399
vn 0.324021 -0.863292 -0.386958
v 5.223381 -6.205962 0.426913
vn 0.186067 -0.780345 0.597027
v 5.223382 -6.200893 0.483570
vn 0.854686 0.002845 -0.519138
v 5.208403 -6.200880 0.285837
vn 0.870941 0.423841 0.248637
v 5.206709 -6.200878 0.168275
vn 0.264087 0.833632 -0.485094
v 5.199870 -6.192384 0.285837
vn 0.345267 0.936162 -0.066262
v 5.209192 -6.177368 0.332863
vn 0.380360 0.870641 -0.311945
v 5.199872 -6.168180 0.356376
vn -0.118535 -0.404279 0.906922
v 5.246911 -6.177391 0.494722
vn 0.036515 -0.165657 0.985507
v 5.364439 -6.130324 0.495563
vn 0.293816 -0.370245 0.881244
v 5.481951 -6.059725 0.491885
vn -0.321369 -0.779851 0.537173
v 5.505689 -6.036199 0.496065
vn 0.213116 -0.314084 0.925166
v 5.387945 -6.130314 0.496306
vn 0.368834 0.030804 0.928985
v 5.303156 -6.177372 0.497429
vn 0.071936 -0.283371 -0.956309
v 5.223383 -6.083321 0.390485
vn 0.210668 -0.292316 -0.932829
v 5.223382 -6.130342 0.407604
vn 0.917874 0.004063 0.396852
v 5.233182 -6.200877 0.332862
vn 0.258735 -0.288563 -0.921839
v 5.270410 -6.177372 0.439641
vn -0.379592 -0.740516 -0.554569
v 5.293918 -6.188066 0.450424
vn -0.197114 -0.422715 -0.884567
v 5.293919 -6.177371 0.439412
vn 0.286949 -0.171488 -0.942471
v 5.292124 -6.130343 0.426912
vn 0.068558 0.160272 -0.984689
v 5.293924 -6.130344 0.426920
vn -0.816575 0.549720 0.176109
v 5.259858 -5.636592 0.473933
vn -0.418658 0.907930 -0.019720
v 5.270409 -5.628132 0.450425
vn 0.991020 -0.128803 -0.035908
v 5.282533 -5.660098 0.638522
vn -0.650050 -0.625330 0.431738
v 5.250057 -6.224395 0.662042
vn 0.084708 -0.989217 -0.119477
v 5.270408 -6.231554 0.591498
vn 0.383550 -0.917479 0.105464
v 5.293923 -6.232671 0.638523
vn -0.662552 -0.692710 -0.284917
v 5.259363 -6.224393 0.567987
vn -0.072793 -0.613914 0.786010
v 5.270407 -6.224396 0.671019
vn 0.073602 -0.973919 -0.214628
v 5.270408 -6.229577 0.567987
vn -0.841043 0.317575 0.437941
v 5.243824 -6.200888 0.662043
vn -0.901407 0.263186 -0.343799
v 5.252257 -6.200885 0.544473
vn -0.073285 0.352509 0.932935
v 5.340945 -6.177369 0.672660
vn -0.195226 0.617489 0.761967
v 5.293920 -6.177368 0.673895
vn -0.073451 0.342383 0.936685
v 5.411411 -6.153889 0.667966
vn -0.271809 0.694022 0.666673
v 5.364457 -6.153856 0.667662
vn 0.399449 0.271056 0.875767
v 5.482026 -6.130359 0.663261
vn -0.263832 0.721219 0.640497
v 5.434994 -6.130344 0.664834
vn -0.224839 0.885389 -0.406859
v 5.293935 -6.165938 0.615011
vn 0.279803 0.912724 -0.297734
v 5.293910 -6.187387 0.591499
vn 0.151727 -0.987604 0.040211
v 5.293919 -6.210253 0.497442
vn 0.469228 -0.826135 0.311970
v 5.317433 -6.212185 0.473938
vn 0.711638 0.332610 -0.618823
v 5.293921 -5.636581 0.444221
vn 0.481637 0.559679 -0.674378
v 5.293919 -5.613072 0.442956
vn -0.488487 -0.356553 0.796398
v 5.270409 -5.665225 0.497448
vn -0.940668 0.028512 0.338130
v 5.270409 -5.636589 0.517570
vn -0.583628 0.661886 0.470409
v 5.293928 -5.613078 0.574315
vn -0.037989 0.978782 -0.201350
v 5.293924 -5.607603 0.473936
vn -0.708039 -0.258403 0.657198
v 5.304548 -5.636576 0.591500
vn 0.333378 0.900872 -0.278009
v 5.293922 -5.605603 0.450424
vn 0.999921 -0.012216 0.003112
v 5.302981 -6.200882 0.520962
vn 0.908763 -0.188227 -0.372451
v 5.302405 -6.200881 0.591499
vn 0.869766 -0.234133 0.434384
v 5.302142 -6.200880 0.497442
vn 0.390174 -0.838018 -0.381432
v 5.317440 -6.213055 0.638528
vn 0.334657 0.181998 -0.924598
v 5.340944 -6.177369 0.627896
vn 0.362072 -0.869058 -0.337108
v 5.364452 -6.211073 0.638509
vn 0.503200 -0.243039 -0.829290
v 5.293921 -6.106833 0.439301
vn -0.097137 -0.514667 -0.851870
v 5.364458 -6.106834 0.415729
vn 0.071464 -0.085482 -0.993773
v 5.340944 -6.153854 0.428410
vn -0.382304 0.165845 -0.909032
v 5.317432 -5.707120 0.423389
vn -0.467660 -0.051382 -0.882414
v 5.340945 -5.777657 0.415149
vn -0.247952 0.105394 -0.963022
v 5.340950 -5.801132 0.414918
vn 0.008988 0.511132 -0.859455
v 5.317434 -5.660097 0.433465
vn -0.310077 0.698609 -0.644823
v 5.340945 -5.660098 0.431142
vn 0.350655 -0.741104 0.572543
v 5.293924 -5.666223 0.497449
vn 0.487846 0.872377 -0.031055
v 5.317433 -5.607337 0.497449
vn 0.227467 -0.747981 0.623524
v 5.364458 -6.163357 0.473938
vn -0.349766 0.914760 -0.202185
v 5.340945 -6.166754 0.638523
vn 0.270648 -0.260251 -0.926833
v 5.293921 -6.083320 0.415096
vn 0.509375 -0.575080 -0.640171
v 5.293922 -6.095137 0.426911
vn -0.126336 -0.328430 -0.936041
v 5.364457 -6.083315 0.391920
vn 0.067423 -0.039401 -0.996946
v 5.317432 -6.036295 0.415157
vn -0.510248 0.132013 -0.849835
v 5.352702 -6.059808 0.403401
vn -0.107892 -0.199735 -0.973892
v 5.340943 -6.012784 0.415151
vn -0.315071 -0.352428 -0.881207
v 5.364457 -6.059808 0.391647
vn 0.032651 0.074448 -0.996690
v 5.387970 -6.059809 0.391644
vn 0.105075 -0.981692 -0.158872
v 5.364457 -6.173268 0.450424
vn -0.327449 0.833622 -0.444806
v 5.364457 -6.144048 0.638519
vn -0.058415 0.176749 -0.982521
v 5.411481 -6.153857 0.628270
vn -0.349545 0.904148 -0.245630
v 5.411481 -6.143981 0.638519
vn -0.501891 0.137234 -0.853974
v 5.340948 -5.707122 0.392823
vn -0.307454 -0.095379 -0.946771
v 5.364461 -5.777660 0.391672
vn 0.189147 0.575777 -0.795427
v 5.387975 -5.660094 0.395198
vn -0.076092 -0.557547 -0.826651
v 5.411480 -6.127821 0.426912
vn 0.455866 -0.854608 -0.248660
v 5.411480 -6.148242 0.450424
vn 0.358551 -0.811933 0.460659
v 5.387965 -6.165604 0.473931
vn 0.296145 -0.390745 -0.871560
v 5.434993 -6.083313 0.392458
vn 0.056532 -0.521790 -0.851199
v 5.411481 -6.106833 0.415729
vn 0.396508 0.144940 -0.906517
v 5.434992 -6.059807 0.391649
vn 0.429228 -0.410374 -0.804585
v 5.434996 -6.106837 0.424776
vn -0.305777 0.102156 -0.946607
v 5.387969 -6.012784 0.368105
vn 0.427186 -0.346697 -0.835053
v 5.434994 -6.012784 0.368132
vn 0.887685 -0.077413 -0.453897
v 5.447155 -6.012784 0.379886
vn -0.507355 -0.267308 -0.819230
v 5.364457 -6.048053 0.379888
vn 0.250580 -0.057504 -0.966387
v 5.387971 -5.754148 0.391954
vn -0.942023 -0.334863 -0.021426
v 5.465939 -5.918790 0.544453
vn -0.968449 -0.237324 0.076055
v 5.358438 -5.707009 0.662115
vn -0.876305 0.390803 0.281714
v 5.360717 -5.683703 0.685518
vn -0.696618 -0.717391 -0.008614
v 5.494210 -6.036239 0.591520
vn -0.861872 -0.363166 0.353959
v 5.364425 -5.707129 0.685541
vn -0.639708 -0.638929 0.427251
v 5.443519 -5.848145 0.662026
vn -0.711315 -0.490282 0.503642
v 5.431652 -5.801151 0.685508
vn -0.724523 -0.486605 -0.488141
v 5.505312 -5.743704 0.850262
vn -0.884615 -0.043216 0.464315
v 5.411374 -5.683694 0.779660
vn -0.658088 -0.752791 -0.015038
v 5.487244 -5.730758 0.850173
vn -0.726681 -0.313775 0.611131
v 5.458341 -5.683747 0.848550
vn -0.888860 -0.395649 0.231063
v 5.411547 -5.683558 0.806321
vn -0.131467 0.989075 -0.066690
v 5.387983 -5.654284 0.638523
vn 0.300729 0.925231 -0.231322
v 5.411479 -5.652202 0.662037
vn -0.206713 0.726413 -0.655434
v 5.434995 -6.130345 0.633378
vn 0.332610 -0.796449 -0.505014
v 5.434994 -6.140374 0.426912
vn 0.562405 -0.811215 0.160098
v 5.505535 -6.071209 0.450423
vn -0.768486 -0.444245 0.460517
v 5.458333 -5.848251 0.673689
vn -0.862743 -0.245616 -0.441981
v 5.552581 -5.869370 0.850113
vn 0.578184 0.086019 -0.811360
v 5.408702 -5.754147 0.403398
vn 0.334815 0.819018 -0.465949
v 5.434993 -5.771584 0.426913
vn 0.736642 0.576906 -0.352900
v 5.474491 -5.754148 0.450430
vn 0.882489 0.467498 0.051567
v 5.418714 -5.683601 0.473936
vn 0.759556 0.649129 -0.041309
v 5.443685 -5.707126 0.591498
vn 0.803360 0.526291 -0.278623
v 5.469618 -5.730620 0.638520
vn 0.805275 0.564534 -0.181200
v 5.465419 -5.683637 0.685560
vn -0.816431 0.314964 0.483982
v 5.434996 -5.655662 0.826621
vn -0.636007 -0.155130 -0.755930
v 5.575931 -5.989318 0.854421
vn -0.842862 -0.296482 -0.449090
v 5.531624 -5.871781 0.859981
vn 0.547464 -0.518975 -0.656467
v 5.482020 -6.083321 0.433658
vn 0.554031 -0.341111 -0.759403
v 5.552553 -6.036293 0.435991
vn 0.497431 -0.851513 -0.165793
v 5.552561 -6.046747 0.450425
vn 0.911662 -0.345508 -0.222478
v 5.563035 -6.036294 0.450425
vn 0.421331 -0.005398 -0.906891
v 5.458510 -6.036295 0.421516
vn -0.701025 -0.692201 0.171530
v 5.499462 -6.036294 0.685602
vn 0.531373 0.405337 -0.743871
v 5.458509 -5.801169 0.415480
vn 0.753331 0.379232 -0.537285
v 5.492812 -5.777666 0.426910
vn 0.776697 0.423628 -0.466135
v 5.493145 -5.801180 0.426911
vn 0.524927 0.347041 -0.777184
v 5.458508 -5.777658 0.415325
vn 0.112104 0.887859 -0.446249
v 5.458508 -5.766071 0.426912
vn 0.980792 0.194438 0.015513
v 5.492727 -5.801208 0.520976
vn 0.790104 0.475687 -0.386596
v 5.523504 -5.801193 0.662055
vn 0.807590 0.444151 -0.387981
v 5.492830 -5.777622 0.638503
vn 0.243632 -0.264344 -0.933148
v 5.505532 -5.989269 0.412207
vn 0.226851 -0.087500 -0.969991
v 5.458511 -6.012789 0.422593
vn -0.730260 -0.464511 0.500949
v 5.533311 -5.989264 0.779575
vn -0.576261 -0.640107 0.508121
v 5.505485 -6.019253 0.709086
vn -0.949983 -0.302712 -0.076793
v 5.580607 -5.989295 0.850230
vn -0.105638 -0.718016 0.687964
v 5.505436 -6.036314 0.699237
vn 0.615149 0.387124 -0.686824
v 5.493776 -5.824685 0.403398
vn 0.591987 0.401157 -0.699017
v 5.482021 -5.824691 0.391607
vn 0.027109 0.061315 -0.997750
v 5.458512 -5.824685 0.368160
vn 0.913310 0.395070 -0.098918
v 5.517037 -5.824713 0.426909
vn -0.130005 -0.060851 -0.989644
v 5.531588 -5.860037 0.852297
vn -0.129999 -0.060850 -0.989645
v 5.519913 -5.800064 0.850143
vn 0.546625 -0.836402 0.040409
v 5.552546 -6.045492 0.497447
vn 0.306626 -0.926229 0.219271
v 5.529038 -6.041919 0.662035
vn 0.868743 0.280608 -0.408100
v 5.563743 -5.965760 0.450418
vn 0.747306 0.254280 -0.613901
v 5.521631 -5.942245 0.403406
vn 0.239563 0.012666 -0.970798
v 5.505526 -5.942239 0.391681
vn 0.897971 0.438818 -0.032970
v 5.515873 -5.848186 0.450425
vn 0.687770 0.149195 -0.710432
v 5.505532 -5.871708 0.415722
vn 0.940526 0.328958 -0.084832
v 5.491982 -5.824676 0.567988
vn 0.892599 0.450697 0.011807
v 5.529072 -5.873147 0.520964
vn 0.971387 0.220956 -0.087092
v 5.550766 -5.895217 0.638496
vn 0.968170 0.235735 -0.084122
v 5.541504 -5.895194 0.473940
vn 0.911592 0.406166 -0.063475
v 5.539469 -5.871716 0.450423
vn 0.628587 -0.765227 0.138949
v 5.552552 -6.023052 0.662034
vn 0.425621 -0.899828 0.095684
v 5.584138 -6.012772 0.732584
vn 0.043952 -0.911441 0.409076
v 5.552557 -6.018661 0.756085
vn -0.212767 -0.832116 0.512166
v 5.552557 -5.998543 0.779598
vn 0.869368 0.462647 -0.173658
v 5.517356 -5.942245 0.426910
vn 0.900809 0.400087 -0.168742
v 5.552576 -5.942241 0.473941
vn 0.978000 0.204965 0.038809
v 5.563802 -5.965756 0.473938
vn 0.834024 -0.000922 -0.551728
v 5.517359 -5.918734 0.426909
vn 0.678456 -0.137632 -0.721634
v 5.529041 -5.895221 0.415405
vn 0.448702 -0.076669 -0.890386
v 5.505533 -5.895219 0.415473
vn 0.975581 0.217053 -0.033609
v 5.554201 -5.965758 0.567984
vn 0.980435 -0.191965 0.043560
v 5.564009 -6.012788 0.544481
vn 0.858782 -0.467136 0.210423
v 5.562961 -6.012774 0.662029
vn 0.521731 -0.655198 0.546363
v 5.576085 -5.999933 0.756076
vn 0.988196 -0.144544 -0.050750
v 5.562973 -5.989260 0.685545
vn 0.897837 0.230941 -0.374906
v 5.576048 -5.942252 0.665989
vn 0.093372 0.282473 -0.954720
v 5.105839 -5.824645 0.404702
vn 0.176326 -0.043117 -0.983387
v 5.223369 -5.754215 0.403843
vn -0.229761 0.066972 -0.970940
v 5.176348 -5.754186 0.406335
vn 0.002210 0.787829 -0.615890
v 5.246899 -5.926762 0.356369
vn -0.176691 0.448073 -0.876362
v 5.223370 -5.924592 0.380193
vn 0.539003 0.409067 -0.736302
v 5.270400 -5.924708 0.380262
vn 0.317762 -0.157967 -0.934919
v 5.270408 -6.083323 0.407042
vn 0.310098 0.397971 -0.863399
v 5.411479 -5.768510 0.403389
vn 0.762704 0.002067 -0.646745
v 5.436422 -6.036295 0.403398
vn 0.741603 0.084018 -0.665557
v 5.438393 -5.989269 0.403399
vn 0.065661 -0.147971 -0.986810
v 5.458504 -5.848199 0.385699
vn 0.120758 0.439847 -0.889917
v 5.152850 -5.942231 0.383872
vn -0.028096 0.075454 -0.996753
v 5.340943 -5.871723 0.396794
vn 0.211469 0.220878 -0.952100
v 5.270405 -5.918779 0.383218
vn 0.262224 -0.289969 -0.920411
v 5.317441 -5.895185 0.399502
vn -0.314487 0.106292 -0.943292
v 5.359905 -5.824709 0.403555
vn 0.845094 -0.256970 -0.468810
v 5.270408 -6.076199 0.403395
vn 0.581611 0.040034 -0.812482
v 5.276445 -6.012784 0.403392
vn 0.642562 0.043701 -0.764987
v 5.292642 -6.036296 0.403401
vn 0.449505 -0.066876 -0.890771
v 5.293918 -5.965756 0.390041
vn -0.081785 -0.236527 -0.968177
v 5.340945 -5.989269 0.403402
vn 0.215718 0.099033 -0.971421
v 5.317436 -5.965756 0.401325
vn -0.097592 0.046459 -0.994142
v 5.387969 -5.942243 0.391134
vn 0.153466 0.310539 -0.938091
v 5.434992 -5.801172 0.386788
vn -0.383448 0.238947 -0.892117
v 5.387969 -5.989268 0.383855
vn 0.117693 0.883714 -0.452989
v 5.434992 -5.763068 0.403384
vn 0.498258 -0.308391 -0.810329
v 5.434995 -6.036295 0.401972
vn 0.157375 -0.164920 -0.973671
v 5.434992 -5.942243 0.394596
vn 0.170511 0.396195 -0.902195
v 5.411480 -5.989269 0.379887
vn 0.300785 -0.021358 -0.953453
v 5.482018 -5.918731 0.391661
# 409 vertices, 0 vertices normals


usemtl material_0
vt 0.656847 0.243231
vt 0.654853 0.239866
vt 0.653187 0.244992
f 1/1/1 2/2/2 3/3/3
vt 0.949093 0.008509
vt 0.942139 0.014893
vt 0.950702 0.014893
f 4/4/4 5/5/5 6/6/6
vt 0.699951 0.077393
vt 0.699951 0.066728
vt 0.702471 0.071518
f 7/7/7 8/8/8 9/9/9
vt 0.754639 0.018799
vt 0.754639 0.009817
vt 0.757394 0.014711
f 10/10/10 11/11/11 12/12/12
vt 0.652556 0.029179
vt 0.645844 0.023859
vt 0.649971 0.032046
f 13/13/13 14/14/14 15/15/15
vt 0.992853 0.026685
vt 0.989014 0.030518
vt 0.996721 0.030518
f 16/16/16 17/17/17 18/18/18
vt 0.965953 0.013131
vt 0.965576 0.009092
vt 0.969724 0.010939
f 19/19/19 20/20/20 21/21/21
vt 0.704232 0.059218
vt 0.702240 0.061768
vt 0.699951 0.055952
f 22/22/22 23/23/23 24/24/24
vt 0.894918 0.152509
vt 0.902084 0.153680
vt 0.898669 0.146601
f 25/25/25 26/26/26 27/27/27
vt 0.699951 0.050508
vt 0.705032 0.053865
f 28/28/28 29/29/29 24/24/24
vt 0.636178 0.287793
vt 0.639358 0.286124
vt 0.632491 0.289562
f 30/30/30 31/31/31 32/32/32
vt 0.912147 0.120429
vt 0.906982 0.124268
vt 0.915540 0.124268
f 33/33/33 34/34/34 35/35/35
vt 0.970321 0.304478
vt 0.969482 0.310197
vt 0.973009 0.305201
f 36/36/36 37/37/37 38/38/38
vt 0.957716 0.036996
vt 0.953857 0.037606
vt 0.955421 0.038330
f 39/39/39 40/40/40 41/41/41
vt 0.637650 0.291261
f 31/31/31 30/30/30 42/42/42
vt 0.967749 0.113994
vt 0.974204 0.114624
vt 0.973590 0.111601
f 43/43/43 44/44/44 45/45/45
vt 0.020965 0.003174
vt 0.018606 0.001986
vt 0.012451 0.003174
f 46/46/46 47/47/47 48/48/48
vt 0.863415 0.067222
vt 0.863933 0.062758
vt 0.860030 0.064576
f 49/49/49 50/50/50 51/51/51
vt 0.851774 0.065847
vt 0.847537 0.063896
vt 0.849553 0.068915
f 52/52/52 53/53/53 54/54/54
vt 0.839592 0.127521
vt 0.837267 0.131554
vt 0.841057 0.135986
f 55/55/55 56/56/56 57/57/57
vt 0.848389 0.400029
vt 0.850125 0.405848
vt 0.852339 0.402724
f 58/58/58 59/59/59 60/60/60
vt 0.857235 0.399480
vt 0.851723 0.402255
vt 0.852342 0.398058
f 61/61/61 62/62/62 63/63/63
vt 0.868888 0.414093
vt 0.873429 0.411630
vt 0.867957 0.408821
f 64/64/64 65/65/65 66/66/66
vt 0.792966 0.302760
vt 0.789763 0.308722
vt 0.793340 0.311768
f 67/67/67 68/68/68 69/69/69
vt 0.858368 0.400587
vt 0.854834 0.404442
vt 0.855522 0.400292
f 70/70/70 71/71/71 72/72/72
vt 0.897443 0.418316
vt 0.885076 0.420569
vt 0.898969 0.418852
f 73/73/73 74/74/74 75/75/75
vt 0.785915 0.005545
vt 0.784400 0.002115
vt 0.783258 0.004004
f 76/76/76 77/77/77 78/78/78
vt 0.866530 0.401038
vt 0.874751 0.401407
vt 0.871375 0.397162
f 79/79/79 80/80/80 81/81/81
vt 0.896624 0.050888
vt 0.900819 0.054336
vt 0.902004 0.050764
f 82/82/82 83/83/83 84/84/84
vt 0.867159 0.397356
f 80/80/80 86/85/86 81/81/81
vt 0.991191 0.283944
vt 0.996570 0.284182
vt 0.991707 0.284424
f 87/86/87 88/87/88 89/88/89
vt 0.880025 0.316768
vt 0.892128 0.323415
vt 0.896153 0.317447
f 94/89/94 95/90/95 96/91/96
vt 0.882787 0.320610
f 94/89/94 97/92/97 95/90/95
vt 0.899477 0.323486
f 95/90/95 98/93/98 96/91/96
vt 0.754639 0.081299
vt 0.754701 0.071932
vt 0.758748 0.075722
f 98/94/98 99/95/99 96/96/96
vt 0.677992 0.084834
vt 0.653911 0.085012
vt 0.660477 0.096836
f 1/97/1 14/98/14 100/99/100
vt 0.679551 0.096924
f 100/99/100 94/100/94 1/97/1
vt 0.679253 0.090475
f 94/100/94 2/101/2 1/97/1
vt 0.689795 0.088114
f 94/100/94 6/102/6 2/101/2
vt 0.695141 0.094872
f 94/100/94 96/103/96 6/102/6
vt 0.142688 0.636204
vt 0.141357 0.643799
vt 0.141357 0.620744
f 101/104/101 102/105/102 103/106/103
vt 0.842398 0.092898
vt 0.840576 0.094729
vt 0.857817 0.094342
f 103/107/103 104/108/104 101/109/101
vt 0.942037 0.143799
vt 0.938622 0.139146
vt 0.934326 0.143799
f 101/110/101 105/111/105 102/112/102
vt 0.698575 0.087170
f 102/113/102 6/102/6 96/103/96
vt 0.693615 0.083008
f 102/113/102 4/114/4 6/102/6
vt 0.754639 0.068108
f 96/96/96 99/95/99 102/115/102
vt 0.694516 0.082311
f 102/113/102 105/116/105 4/114/4
vt 0.757430 0.064993
vt 0.754639 0.060361
vt 0.759052 0.058915
f 104/117/104 106/118/106 107/119/107
vt 0.754639 0.065674
f 104/117/104 103/120/103 106/118/106
vt 0.809348 0.186768
vt 0.828734 0.179518
vt 0.809326 0.181474
f 103/121/103 108/122/108 106/123/106
vt 0.832283 0.186400
f 103/121/103 102/124/102 108/122/108
vt 0.832287 0.185780
f 102/124/102 109/125/109 108/122/108
vt 0.836036 0.186634
f 102/124/102 99/126/99 109/125/109
vt 0.836274 0.179869
f 99/126/99 110/127/110 109/125/109
vt 0.845319 0.186768
f 99/126/99 98/128/98 110/127/110
vt 0.840325 0.174559
f 98/128/98 111/129/111 110/127/110
vt 0.860886 0.317379
vt 0.847849 0.322545
f 100/130/100 112/131/112 97/92/97
f 97/92/97 94/89/94 100/130/100
vt 0.843861 0.318915
f 100/130/100 113/132/113 112/131/112
vt 0.768158 0.385986
vt 0.803369 0.375186
vt 0.756536 0.368318
f 97/133/97 114/134/114 115/135/115
vt 0.803354 0.385512
f 97/133/97 112/136/112 114/134/114
vt 0.759234 0.382174
f 115/135/115 95/137/95 97/133/97
vt 0.755098 0.371894
f 115/135/115 116/138/116 95/137/95
vt 0.807292 0.385986
f 112/136/112 117/139/117 114/134/114
vt 0.813999 0.379480
f 117/139/117 118/140/118 114/134/114
vt 0.749451 0.365492
vt 0.752134 0.379330
f 116/138/116 119/141/119 98/142/98
f 98/142/98 95/137/95 116/138/116
vt 0.842627 0.100830
vt 0.857593 0.100830
f 101/109/101 107/143/107 120/144/120
f 101/109/101 104/108/104 107/143/107
vt 0.862352 0.096093
vt 0.866516 0.099273
f 105/145/105 120/144/120 121/146/121
f 105/145/105 101/109/101 120/144/120
vt 0.863135 0.095507
f 121/146/121 4/147/4 105/145/105
vt 0.976428 0.141019
vt 0.973389 0.143799
vt 0.980580 0.143799
f 122/148/122 109/149/109 110/150/110
vt 0.832758 0.182114
f 122/151/122 108/122/108 109/125/109
vt 0.851226 0.173663
vt 0.844693 0.172287
f 119/152/119 123/153/123 111/129/111
f 111/129/111 98/128/98 119/152/119
vt 0.699951 0.040530
vt 0.700225 0.046143
vt 0.706160 0.042979
f 119/154/119 124/155/124 123/156/123
vt 0.705474 0.046143
f 124/155/124 125/157/125 123/156/123
vt 0.977295 0.428955
vt 0.996792 0.428955
vt 0.993188 0.427052
f 106/158/106 108/159/108 120/160/120
vt 0.978162 0.424254
f 120/160/120 107/161/107 106/158/106
vt 0.643118 0.095067
vt 0.645376 0.084410
f 113/162/113 14/98/14 126/163/126
f 113/162/113 100/99/100 14/98/14
vt 0.642929 0.093573
f 126/163/126 10/164/10 113/162/113
vt 0.632230 0.084271
f 126/163/126 16/165/16 10/164/10
vt 0.635374 0.096924
f 16/165/16 11/166/11 10/164/10
vt 0.635328 0.081680
f 126/163/126 127/167/127 16/165/16
vt 0.628259 0.087789
f 16/165/16 18/168/18 11/166/11
vt 0.628733 0.095352
f 18/168/18 128/169/128 11/166/11
vt 0.644646 0.253558
vt 0.656611 0.251836
f 5/170/5 129/171/129 3/3/3
vt 0.644637 0.244995
f 3/3/3 6/172/6 5/170/5
f 3/3/3 2/2/2 6/172/6
vt 0.658320 0.246697
f 129/171/129 130/173/130 3/3/3
vt 0.954075 0.073486
vt 0.945774 0.064844
vt 0.940354 0.073234
f 5/174/5 110/175/110 131/176/131
vt 0.954431 0.068860
f 5/174/5 121/177/121 110/175/110
vt 0.940338 0.068555
f 110/175/110 111/178/111 131/176/131
vt 0.950595 0.064183
f 121/177/121 122/179/122 110/175/110
vt 0.938232 0.073486
f 111/178/111 123/180/123 131/176/131
vt 0.957261 0.064601
f 5/174/5 4/181/4 121/177/121
vt 0.754639 0.086482
vt 0.758385 0.088082
vt 0.759131 0.092961
f 120/182/120 108/183/108 122/184/122
vt 0.754639 0.096924
f 122/184/122 121/185/121 120/182/120
vt 0.879354 0.069705
vt 0.879388 0.073486
vt 0.887099 0.072415
f 132/186/132 133/187/133 134/188/134
vt 0.887059 0.068269
f 134/188/134 135/189/135 132/186/132
vt 0.883545 0.135986
vt 0.887436 0.133938
vt 0.884373 0.129414
f 133/190/133 136/191/136 134/192/134
vt 0.871776 0.067078
vt 0.867920 0.073486
vt 0.875641 0.072268
f 137/193/137 138/194/138 139/195/139
vt 0.832942 0.018195
vt 0.820710 0.020377
vt 0.826772 0.022705
f 137/196/137 140/197/140 138/198/138
f 139/195/139 132/186/132 137/193/137
f 139/195/139 133/187/133 132/186/132
vt 0.820890 0.237584
vt 0.817051 0.245361
vt 0.824700 0.245361
f 132/199/132 141/200/141 142/201/142
vt 0.813232 0.240080
f 132/199/132 135/202/135 141/200/141
vt 0.828548 0.241577
f 142/201/142 137/203/137 132/199/132
vt 0.939822 0.092311
vt 0.935419 0.094272
vt 0.950483 0.098567
f 137/204/137 142/205/142 143/206/143
vt 0.821300 0.016451
vt 0.820239 0.020039
f 144/207/144 145/208/145 140/197/140
vt 0.765543 0.030518
vt 0.778531 0.029166
vt 0.769169 0.020542
f 134/209/134 146/210/146 147/211/147
vt 0.763355 0.021666
f 147/211/147 141/212/141 134/209/134
vt 0.762451 0.028115
f 141/212/141 135/213/135 134/209/134
vt 0.935204 0.098517
vt 0.950169 0.100830
f 148/214/148 149/215/149 143/206/143
f 143/206/143 142/205/142 148/214/148
vt 0.930734 0.100830
f 142/205/142 150/216/150 148/214/148
vt 0.927871 0.093307
f 142/205/142 141/217/141 150/216/150
vt 0.926514 0.099382
f 141/217/141 147/218/147 150/216/150
vt 0.773059 0.020750
vt 0.769896 0.016955
f 147/211/147 151/219/151 150/220/150
vt 0.639449 0.038330
f 14/14/14 152/221/152 15/15/15
vt 0.625732 0.036975
f 14/14/14 1/222/1 152/221/152
vt 0.631907 0.036901
f 1/222/1 153/223/153 152/221/152
vt 0.661728 0.244983
f 1/1/1 130/173/130 153/224/153
f 1/1/1 3/3/3 130/173/130
vt 0.750326 0.332923
vt 0.739014 0.345304
vt 0.747317 0.360629
f 154/225/154 155/226/155 124/227/124
f 124/227/124 115/135/115 154/225/154
vt 0.741641 0.354332
f 155/226/155 156/228/156 124/227/124
vt 0.745303 0.335170
f 154/225/154 157/229/157 155/226/155
f 124/227/124 119/141/119 115/135/115
vt 0.992920 0.164826
vt 0.994490 0.168851
vt 0.992920 0.175049
f 155/230/155 158/231/158 156/232/156
f 119/141/119 116/138/116 115/135/115
vt 0.816620 0.015945
vt 0.816120 0.019910
f 145/208/145 159/233/159 124/234/124
f 145/208/145 144/207/144 159/233/159
vt 0.816449 0.009447
vt 0.805923 0.010759
vt 0.811847 0.015385
f 8/235/8 7/236/7 160/237/160
f 160/237/160 159/233/159 8/235/8
vt 0.805420 0.014543
f 7/236/7 161/238/161 160/237/160
vt 0.821443 0.010921
f 159/233/159 149/239/149 8/235/8
f 159/233/159 144/207/144 149/239/149
vt 0.806645 0.018333
f 161/238/161 162/240/162 160/237/160
vt 0.141357 0.036629
vt 0.142546 0.040244
vt 0.141358 0.042236
f 144/241/144 143/242/143 149/243/149
vt 0.839121 0.318777
vt 0.843884 0.322587
f 12/244/12 117/245/117 113/132/113
vt 0.638509 0.095549
f 113/162/113 10/164/10 12/246/12
f 117/245/117 112/131/112 113/132/113
vt 0.821328 0.381965
vt 0.823968 0.375340
f 128/247/128 163/248/163 118/140/118
vt 0.814728 0.384312
f 118/140/118 11/249/11 128/247/128
f 118/140/118 117/139/117 11/249/11
vt 0.836670 0.323486
f 117/245/117 12/244/12 11/250/11
vt 0.902905 0.154534
vt 0.892282 0.156536
vt 0.888292 0.163130
f 164/251/164 165/252/165 166/253/166
vt 0.912455 0.161553
f 166/253/166 152/254/152 164/251/164
vt 0.910987 0.157276
f 152/254/152 167/255/167 164/251/164
vt 0.886975 0.157654
f 165/252/165 44/256/44 166/253/166
vt 0.883545 0.163330
f 44/256/44 43/257/43 166/253/166
vt 0.920959 0.163330
f 152/254/152 153/258/153 167/255/167
vt 0.793999 0.317039
vt 0.751760 0.329449
f 115/135/115 168/259/168 169/260/169
f 115/135/115 114/134/114 168/259/168
vt 0.756073 0.318731
f 168/259/168 170/261/170 169/260/169
f 169/260/169 154/225/154 115/135/115
vt 0.756163 0.318414
f 168/259/168 171/262/171 170/261/170
vt 0.812461 0.019165
vt 0.811542 0.022705
f 125/263/125 160/237/160 131/264/131
vt 0.813161 0.021505
f 131/264/131 123/265/123 125/263/125
f 125/263/125 159/233/159 160/237/160
vt 0.982098 0.032305
vt 0.978643 0.038330
vt 0.987541 0.038330
f 140/266/140 172/267/172 173/268/173
vt 0.856910 0.109795
vt 0.857127 0.105031
vt 0.850289 0.106772
f 173/269/173 138/270/138 140/271/140
vt 0.981636 0.032246
f 140/266/140 145/272/145 172/267/172
vt 0.864436 0.113066
vt 0.864582 0.107229
f 173/269/173 174/273/174 139/274/139
f 139/274/139 138/270/138 173/269/173
vt 0.868086 0.116455
f 174/273/174 175/275/175 139/274/139
vt 0.860847 0.015517
vt 0.852344 0.006936
vt 0.854290 0.018799
f 139/276/139 176/277/176 136/278/136
vt 0.855894 0.006263
f 139/276/139 175/279/175 176/277/176
vt 0.859590 0.018799
f 136/278/136 133/280/133 139/276/139
vt 0.902818 0.135986
vt 0.913179 0.129115
vt 0.897536 0.127233
f 177/281/177 178/282/178 146/283/146
vt 0.915581 0.135113
f 177/281/177 179/284/179 178/282/178
f 146/283/146 136/191/136 177/281/177
f 146/283/146 134/192/134 136/191/136
vt 0.848357 0.109381
vt 0.846209 0.106212
vt 0.843829 0.113018
f 172/285/172 124/286/124 156/287/156
vt 0.977295 0.033541
f 172/267/172 145/272/145 124/288/124
vt 0.845232 0.116455
f 172/285/172 156/287/156 8/289/8
vt 0.849876 0.116067
f 8/289/8 149/290/149 172/285/172
vt 0.840576 0.115998
f 156/287/156 9/291/9 8/289/8
vt 0.996365 0.172315
f 156/232/156 158/231/158 9/292/9
vt 0.864689 0.114244
f 173/269/173 149/290/149 148/293/148
f 173/269/173 172/285/172 149/290/149
f 148/293/148 174/273/174 173/269/173
vt 0.859478 0.008469
vt 0.858848 0.009623
f 148/294/148 175/279/175 174/295/174
vt 0.856837 0.004631
f 148/294/148 150/296/150 175/279/175
vt 0.851857 0.006280
f 150/296/150 151/297/151 175/279/175
f 151/297/151 176/277/176 175/279/175
vt 0.799881 0.025164
f 146/210/146 180/298/180 151/219/151
vt 0.794255 0.030518
f 146/210/146 178/299/178 180/298/180
f 151/219/151 147/211/147 146/210/146
vt 0.801124 0.026998
f 178/299/178 181/300/181 180/298/180
vt 0.653503 0.020286
vt 0.657204 0.023143
f 126/301/126 13/13/13 182/302/182
f 126/301/126 14/14/14 13/13/13
vt 0.934326 0.116455
vt 0.957506 0.116455
vt 0.948094 0.104943
f 151/303/151 35/304/35 177/305/177
vt 0.141357 0.729736
vt 0.141357 0.702534
vt 0.143015 0.706585
f 151/306/151 180/307/180 35/308/35
vt 0.840576 0.018354
f 177/309/177 176/277/176 151/297/151
f 177/309/177 136/278/136 176/277/176
vt 0.952619 0.109562
f 35/304/35 34/310/34 177/305/177
vt 0.663948 0.019026
vt 0.665188 0.024701
f 127/311/127 182/302/182 183/312/183
f 127/311/127 126/301/126 182/302/182
vt 0.665429 0.020168
f 183/312/183 184/313/184 127/311/127
vt 0.671840 0.020292
f 183/312/183 185/314/185 184/313/184
vt 0.673842 0.021828
f 183/312/183 186/315/186 185/314/185
vt 0.911816 0.194580
vt 0.907417 0.191370
vt 0.910397 0.194482
f 185/316/185 187/317/187 184/318/184
vt 0.625732 0.280086
vt 0.637638 0.282704
vt 0.634202 0.275864
f 188/319/188 24/320/24 23/321/23
f 188/319/188 32/32/32 24/320/24
vt 0.628747 0.295699
f 188/319/188 189/322/189 32/32/32
vt 0.627376 0.270733
f 23/321/23 7/323/7 188/319/188
f 32/32/32 31/31/31 24/320/24
vt 0.630790 0.269019
f 23/321/23 161/324/161 7/323/7
vt 0.635915 0.270726
f 23/321/23 190/325/190 161/324/161
vt 0.642709 0.284423
f 31/31/31 28/326/28 24/320/24
vt 0.644392 0.287851
f 31/31/31 191/327/191 28/326/28
f 31/31/31 42/42/42 191/327/191
vt 0.639227 0.294709
f 42/42/42 192/328/192 191/327/191
vt 0.631499 0.296281
f 189/322/189 193/329/193 32/32/32
vt 0.985140 0.014201
vt 0.966029 0.014893
f 21/21/21 194/330/194 195/331/195
vt 0.985000 0.011415
f 21/21/21 196/332/196 194/330/194
f 195/331/195 19/19/19 21/21/21
vt 0.988975 0.014110
f 196/332/196 197/333/197 194/330/194
vt 0.965576 0.013123
f 19/19/19 198/334/198 20/20/20
f 19/19/19 195/331/195 198/334/198
vt 0.922149 0.323486
vt 0.914620 0.314246
vt 0.910708 0.323486
f 197/335/197 199/336/199 17/337/17
vt 0.926171 0.321611
f 197/335/197 196/338/196 199/336/199
vt 0.906963 0.317953
f 199/336/199 200/339/200 17/337/17
vt 0.903076 0.322486
f 200/339/200 18/340/18 17/337/17
vt 0.625732 0.082424
vt 0.627654 0.087510
f 200/341/200 201/342/201 18/168/18
f 201/342/201 128/169/128 18/168/18
vt 0.914795 0.073486
vt 0.923117 0.072943
vt 0.914877 0.065287
f 201/343/201 202/344/202 128/345/128
vt 0.922743 0.063768
f 202/344/202 163/346/163 128/345/128
vt 0.926582 0.064389
f 202/344/202 203/347/203 163/346/163
vt 0.988428 0.011972
vt 0.969387 0.012939
f 194/330/194 204/348/204 205/349/205
f 205/349/205 195/331/195 194/330/194
vt 0.977295 0.440495
vt 0.980683 0.435492
vt 0.980255 0.434967
f 194/350/194 206/351/206 204/352/204
f 205/349/205 198/334/198 195/331/195
vt 0.981058 0.440674
vt 0.988413 0.432852
f 197/353/197 207/354/207 206/351/206
vt 0.992275 0.440674
f 197/353/197 17/355/17 207/354/207
vt 0.992608 0.433375
f 17/355/17 208/356/208 207/354/207
f 206/351/206 194/350/194 197/353/197
vt 0.997061 0.443438
vt 0.992920 0.448486
vt 0.997210 0.448486
f 208/357/208 16/358/16 127/359/127
vt 0.996685 0.438467
f 208/356/208 17/355/17 16/360/16
vt 0.909394 0.193455
vt 0.905610 0.194516
f 127/361/127 184/318/184 208/362/208
vt 0.825425 0.371739
vt 0.823355 0.366629
f 163/248/163 203/363/203 209/364/209
f 209/364/209 118/140/118 163/248/163
vt 0.823456 0.346069
f 210/365/210 168/259/168 114/134/114
vt 0.819994 0.324125
f 210/365/210 211/366/211 168/259/168
f 114/134/114 209/364/209 210/365/210
vt 0.817912 0.319065
f 211/366/211 212/367/212 168/259/168
vt 0.824895 0.342527
f 210/365/210 213/368/213 211/366/211
f 114/134/114 118/140/118 209/364/209
vt 0.826803 0.358141
f 209/364/209 214/369/214 210/365/210
vt 0.045054 0.003174
vt 0.037318 0.001836
vt 0.035889 0.003174
f 209/370/209 36/371/36 214/372/214
vt 0.973427 0.030518
vt 0.970283 0.026691
vt 0.965576 0.030518
f 209/373/209 37/374/37 36/375/36
vt 0.663179 0.033108
f 182/302/182 15/15/15 215/376/215
f 215/376/215 183/312/183 182/302/182
f 182/302/182 13/13/13 15/15/15
vt 0.668686 0.027570
f 215/376/215 216/377/216 183/312/183
vt 0.805420 0.042527
vt 0.805862 0.046143
vt 0.809666 0.045731
f 20/378/20 198/379/198 205/380/205
vt 0.808959 0.039523
f 205/380/205 21/381/21 20/378/20
vt 0.824261 0.038532
vt 0.828701 0.043788
f 196/382/196 205/380/205 204/383/204
f 196/382/196 21/381/21 205/380/205
vt 0.836392 0.043924
f 204/383/204 199/384/199 196/382/196
vt 0.836647 0.046143
f 204/383/204 217/385/217 199/384/199
vt 0.996048 0.241455
vt 0.993394 0.236691
vt 0.991924 0.236829
f 201/386/201 200/387/200 187/388/187
vt 0.989014 0.241455
f 187/388/187 185/389/185 201/386/201
vt 0.677206 0.018469
vt 0.680438 0.027077
vt 0.684789 0.028326
f 202/390/202 218/391/218 219/392/219
f 202/390/202 186/315/186 218/391/218
f 202/390/202 185/314/185 186/315/186
vt 0.670330 0.013567
f 202/390/202 201/393/201 185/314/185
vt 0.808237 0.245361
vt 0.808796 0.242361
vt 0.806813 0.241232
f 218/394/218 220/395/220 219/396/219
vt 0.899170 0.192323
vt 0.901262 0.194579
f 187/317/187 199/397/199 207/398/207
vt 0.907389 0.189885
f 187/317/187 200/399/200 199/397/199
f 207/398/207 208/362/208 187/317/187
f 208/362/208 184/318/184 187/317/187
vt 0.899199 0.194580
f 199/397/199 217/400/217 207/398/207
vt 0.677713 0.034886
f 216/377/216 221/401/221 218/391/218
f 218/391/218 186/315/186 216/377/216
vt 0.677929 0.035066
f 221/401/221 222/402/222 218/391/218
f 186/315/186 183/312/183 216/377/216
vt 0.805420 0.133673
vt 0.807898 0.135986
vt 0.819323 0.131643
f 188/403/188 155/404/155 157/405/157
vt 0.815788 0.121753
f 157/405/157 189/406/189 188/403/188
vt 0.820001 0.128610
f 157/405/157 223/407/223 189/406/189
vt 0.818470 0.124500
f 223/407/223 224/408/224 189/406/189
vt 0.987223 0.431343
f 207/354/207 217/409/217 204/352/204
f 204/352/204 206/351/206 207/354/207
vt 0.956988 0.113413
vt 0.960269 0.108806
f 34/310/34 33/410/33 179/411/179
f 179/411/179 177/305/177 34/310/34
vt 0.962684 0.111647
f 33/410/33 225/412/225 179/411/179
vt 0.771247 0.242195
vt 0.782829 0.239199
vt 0.775809 0.235868
f 226/413/226 227/414/227 228/415/228
vt 0.786492 0.241439
f 226/413/226 229/416/229 227/414/227
vt 0.770264 0.239555
f 228/415/228 230/417/230 226/413/226
vt 0.786629 0.239506
f 229/416/229 231/418/231 227/414/227
vt 0.935521 0.073486
vt 0.931401 0.063758
f 202/344/202 219/419/219 209/420/209
f 209/420/209 203/347/203 202/344/202
vt 0.771598 0.245361
f 232/421/232 229/416/229 226/413/226
vt 0.790583 0.244825
f 232/421/232 233/422/233 229/416/229
vt 0.991018 0.259497
vt 0.989014 0.252223
vt 0.994718 0.246236
f 234/423/234 235/424/235 230/425/230
vt 0.991032 0.271609
vt 0.989147 0.264360
f 236/426/236 237/427/237 234/423/234
vt 0.991047 0.283747
vt 0.989014 0.276469
f 238/428/238 239/429/239 236/426/236
vt 0.991127 0.243393
f 235/424/235 232/430/232 230/425/230
vt 0.994595 0.243167
f 232/430/232 226/431/226 230/425/230
vt 0.996387 0.311768
vt 0.988038 0.302594
vt 0.984417 0.304169
f 232/432/232 240/433/240 241/434/241
vt 0.977237 0.311768
f 241/434/241 233/435/233 232/432/232
vt 0.997700 0.302664
f 232/432/232 235/436/235 240/433/240
f 241/434/241 38/38/38 233/435/233
f 38/38/38 37/37/37 233/435/233
vt 0.798421 0.243279
vt 0.798833 0.238778
f 233/422/233 37/437/37 242/438/242
f 242/438/242 231/418/231 233/422/233
vt 0.806812 0.235699
f 37/437/37 46/439/46 242/438/242
vt 0.803073 0.235689
f 46/439/46 243/440/243 242/438/242
f 231/418/231 229/416/229 233/422/233
vt 0.997152 0.352165
vt 0.992920 0.354736
vt 0.992920 0.344081
f 37/441/37 209/442/209 219/443/219
f 219/396/219 46/439/46 37/437/37
vt 0.808765 0.236987
f 219/396/219 47/444/47 46/439/46
f 219/396/219 220/395/220 47/444/47
f 32/32/32 193/329/193 192/328/192
f 192/328/192 42/42/42 32/32/32
vt 0.632246 0.298169
f 193/329/193 244/445/244 192/328/192
f 42/42/42 30/30/30 32/32/32
vt 0.628847 0.299881
f 193/329/193 245/446/245 244/445/244
vt 0.824621 0.131658
f 246/447/246 223/407/223 157/405/157
vt 0.739014 0.393799
vt 0.744710 0.393799
vt 0.740626 0.387740
f 246/448/246 247/449/247 223/450/223
vt 0.883767 0.143799
vt 0.889217 0.139278
vt 0.883545 0.140208
f 225/451/225 35/452/35 181/453/181
vt 0.891093 0.143799
f 225/451/225 33/454/33 35/452/35
vt 0.885074 0.138262
f 35/452/35 180/455/180 181/453/181
vt 0.918604 0.133341
vt 0.919927 0.130540
f 178/282/178 225/456/225 181/457/181
f 178/282/178 179/284/179 225/456/225
vt 0.825952 0.131971
vt 0.834164 0.133819
vt 0.823189 0.123093
f 247/458/247 248/459/248 249/460/249
vt 0.344094 0.001142
vt 0.356589 0.005548
vt 0.354658 0.001375
f 247/461/247 250/462/250 248/463/248
f 249/460/249 223/407/223 247/458/247
f 249/460/249 224/408/224 223/407/223
vt 0.820597 0.120536
f 249/460/249 251/464/251 224/408/224
vt 0.849599 0.078902
vt 0.844808 0.087987
vt 0.855455 0.084293
f 231/465/231 252/466/252 253/467/253
vt 0.840576 0.087187
f 231/465/231 242/468/242 252/466/252
vt 0.853127 0.077465
f 253/467/253 227/469/227 231/465/231
vt 0.841198 0.089111
f 242/468/242 254/470/254 252/466/252
vt 0.861583 0.077364
vt 0.863248 0.082048
f 228/471/228 253/467/253 255/472/255
f 228/471/228 227/469/227 253/467/253
vt 0.863557 0.089111
f 253/467/253 256/473/256 255/472/255
vt 0.999257 0.261708
f 257/474/257 88/87/88 238/428/238
f 238/428/238 230/425/230 257/474/257
vt 0.446646 0.007080
vt 0.437454 0.004741
vt 0.430420 0.007080
f 230/475/230 255/476/255 257/477/257
vt 0.441719 0.003023
f 230/475/230 228/478/228 255/476/255
f 88/87/88 87/86/87 238/428/238
vt 0.896655 0.280895
vt 0.904608 0.273676
vt 0.896022 0.271816
f 258/479/258 259/480/259 260/481/260
vt 0.686032 0.036822
vt 0.676028 0.038330
f 260/482/260 222/402/222 258/483/258
vt 0.683247 0.029417
f 260/482/260 220/484/220 222/402/222
vt 0.688110 0.033660
f 260/482/260 48/485/48 220/484/220
vt 0.688487 0.028801
f 48/485/48 47/486/47 220/484/220
f 220/484/220 218/391/218 222/402/222
vt 0.644416 0.296403
vt 0.656454 0.294663
f 191/327/191 261/487/261 262/488/262
vt 0.659864 0.292951
f 262/488/262 263/489/263 191/327/191
f 191/327/191 192/328/192 261/487/261
vt 0.637485 0.299854
f 192/328/192 264/490/264 261/487/261
vt 0.639224 0.303269
f 264/490/264 265/491/265 261/487/261
f 192/328/192 244/445/244 264/490/264
vt 0.749167 0.328213
f 154/225/154 169/260/169 266/492/266
vt 0.747577 0.331686
f 266/492/266 246/493/246 154/225/154
vt 0.862351 0.073486
vt 0.859136 0.072608
f 169/494/169 49/49/49 266/495/266
vt 0.340576 0.007080
f 266/496/266 250/462/250 247/461/247
vt 0.359284 0.007080
f 266/496/266 57/497/57 250/462/250
vt 0.743318 0.329691
f 247/498/247 246/493/246 266/492/266
vt 0.817460 0.121410
vt 0.820010 0.120225
f 193/499/193 224/408/224 245/500/245
f 193/499/193 189/406/189 224/408/224
f 224/408/224 251/464/251 245/500/245
vt 0.831383 0.125556
f 248/459/248 56/56/56 52/501/52
f 52/501/52 249/460/249 248/459/248
vt 0.837431 0.124743
f 56/56/56 53/502/53 52/501/52
vt 0.828499 0.122938
f 52/501/52 267/503/267 249/460/249
f 56/56/56 55/55/55 53/502/53
vt 0.828374 0.348350
f 214/369/214 268/504/268 210/365/210
vt 0.832858 0.358410
f 214/369/214 243/505/243 268/504/268
vt 0.908297 0.139344
vt 0.910901 0.142151
vt 0.915453 0.140284
f 214/506/214 254/507/254 243/508/243
vt 0.911482 0.143799
f 254/507/254 242/509/242 243/508/243
vt 0.906982 0.140685
vt 0.907012 0.143799
f 254/507/254 36/510/36 38/511/38
f 254/507/254 214/506/214 36/510/36
vt 0.892781 0.098527
vt 0.892627 0.100611
vt 0.896093 0.100830
f 38/512/38 252/513/252 254/514/254
vt 0.882418 0.099597
vt 0.882349 0.097075
f 253/515/253 38/512/38 241/516/241
f 253/515/253 252/513/252 38/512/38
vt 0.873823 0.100830
vt 0.878016 0.094301
vt 0.871826 0.099470
f 256/517/256 240/518/240 269/519/269
f 256/517/256 253/515/253 240/518/240
f 253/515/253 241/516/241 240/518/240
vt 0.991490 0.295324
vt 0.997127 0.295608
f 269/520/269 235/436/235 234/521/234
f 269/520/269 240/433/240 235/436/235
vt 0.900372 0.284424
vt 0.898516 0.282673
f 270/522/270 259/480/259 271/523/271
vt 0.908313 0.277179
f 270/522/270 272/524/272 259/480/259
f 259/480/259 258/479/258 271/523/271
vt 0.697392 0.265530
vt 0.692280 0.272380
vt 0.698387 0.275772
f 270/525/270 273/526/273 274/527/274
vt 0.702776 0.275744
f 274/527/274 272/528/272 270/525/270
vt 0.690581 0.277515
f 273/526/273 275/529/275 274/527/274
vt 0.699366 0.277458
f 274/527/274 276/530/276 272/528/272
vt 0.911207 0.279176
vt 0.913588 0.276267
f 276/531/276 277/532/277 272/524/272
vt 0.850369 0.415296
vt 0.859860 0.412527
vt 0.850434 0.410707
f 49/533/49 170/534/170 50/535/50
vt 0.852169 0.421143
f 49/533/49 169/536/169 170/534/170
f 170/534/170 71/71/71 50/535/50
vt 0.840576 0.073486
f 266/495/266 54/54/54 57/537/57
f 266/495/266 51/51/51 54/54/54
vt 0.844115 0.065663
f 54/54/54 55/538/55 57/537/57
f 266/495/266 49/49/49 51/51/51
f 54/54/54 53/53/53 55/538/55
vt 0.634284 0.302917
vt 0.627729 0.300345
vt 0.629159 0.303833
f 51/539/51 249/540/249 267/541/267
f 51/539/51 244/445/244 249/540/249
f 51/539/51 264/490/264 244/445/244
vt 0.627685 0.300442
f 244/445/244 251/542/251 249/540/249
f 244/445/244 245/446/245 251/542/251
vt 0.837960 0.135887
f 250/543/250 57/57/57 56/56/56
f 56/56/56 248/459/248 250/543/250
vt 0.958809 0.004982
vt 0.953857 0.014893
vt 0.963635 0.014893
f 243/544/243 48/545/48 268/546/268
vt 0.955336 0.006522
f 243/544/243 46/547/46 48/545/48
vt 0.141358 0.473853
vt 0.143070 0.479859
vt 0.141357 0.483643
f 48/548/48 278/549/278 268/550/268
vt 0.828901 0.034424
vt 0.830148 0.027682
vt 0.824386 0.024564
f 257/551/257 256/552/256 279/553/279
vt 0.818114 0.028916
f 279/553/279 280/554/280 257/551/257
vt 0.883545 0.194580
vt 0.891041 0.193982
vt 0.890854 0.191672
f 279/555/279 281/556/281 280/557/280
vt 0.835998 0.031593
f 257/551/257 255/558/255 256/552/256
vt 0.646450 0.299761
vt 0.658414 0.298036
f 262/488/262 282/559/282 283/560/283
f 262/488/262 261/487/261 282/559/282
vt 0.643028 0.310038
f 282/559/282 265/491/265 284/561/284
f 282/559/282 261/487/261 265/491/265
vt 0.640109 0.307119
f 265/491/265 59/562/59 284/561/284
vt 0.639530 0.311768
f 59/562/59 58/563/58 284/561/284
f 50/535/50 71/71/71 59/59/59
vt 0.637446 0.304101
f 59/562/59 265/491/265 50/564/50
f 71/71/71 60/60/60 59/59/59
f 265/491/265 264/490/264 50/564/50
f 264/490/264 51/539/51 50/564/50
vt 0.629858 0.303689
vt 0.633477 0.302924
f 51/539/51 52/565/52 54/566/54
f 51/539/51 267/541/267 52/565/52
vt 0.895264 0.265864
vt 0.906410 0.265375
vt 0.903096 0.262152
f 278/567/278 285/568/285 286/569/286
f 278/567/278 260/481/260 285/568/285
vt 0.691732 0.037235
f 278/570/278 48/485/48 260/482/260
f 268/504/268 213/368/213 210/365/210
vt 0.830152 0.344954
f 268/504/268 287/571/287 213/368/213
vt 0.798252 0.010819
vt 0.799266 0.006855
vt 0.795449 0.009539
f 268/572/268 278/573/278 287/574/287
vt 0.995915 0.290683
f 269/520/269 234/521/234 237/575/237
vt 0.991096 0.290394
f 237/575/237 279/576/279 269/520/269
vt 0.989861 0.296091
f 279/576/279 256/577/256 269/520/269
vt 0.915438 0.268417
vt 0.909370 0.267858
f 277/532/277 288/578/288 289/579/289
f 289/579/289 272/524/272 277/532/277
f 289/579/289 259/480/259 272/524/272
f 289/579/289 285/568/285 259/480/259
f 285/568/285 260/481/260 259/480/259
vt 0.918349 0.270448
f 277/532/277 290/580/290 288/578/288
vt 0.911440 0.264369
f 288/578/288 291/581/291 289/579/289
vt 0.057429 0.003174
vt 0.049922 0.001684
vt 0.047607 0.003174
f 292/582/292 293/583/293 294/584/294
vt 0.508545 0.007080
vt 0.523178 0.007080
vt 0.517406 0.002842
f 294/585/294 295/586/295 292/587/292
vt 0.649871 0.306603
vt 0.656713 0.303171
f 282/559/282 62/588/62 296/589/296
f 296/589/296 283/560/283 282/559/282
f 282/559/282 284/561/284 62/588/62
vt 0.648176 0.311739
f 284/561/284 63/590/63 62/588/62
vt 0.665749 0.327747
vt 0.707289 0.319225
vt 0.669404 0.316685
f 297/591/297 171/592/171 168/593/168
vt 0.704338 0.345799
f 297/591/297 298/594/298 171/592/171
vt 0.707771 0.349802
f 298/594/298 299/595/299 171/592/171
vt 0.645537 0.319976
f 168/593/168 212/596/212 297/591/297
vt 0.646311 0.335056
f 212/596/212 300/597/300 297/591/297
vt 0.703996 0.349708
f 298/594/298 301/598/301 299/595/299
vt 0.677925 0.346684
f 298/594/298 297/591/297 302/599/302
vt 0.685783 0.350552
f 302/599/302 303/600/303 298/594/298
vt 0.690386 0.379250
vt 0.704916 0.366144
f 303/600/303 304/601/304 305/602/305
f 305/602/305 301/598/301 303/600/303
vt 0.693409 0.378910
f 304/601/304 306/603/306 305/602/305
f 301/598/301 298/594/298 303/600/303
vt 0.702238 0.378336
f 306/603/306 307/604/307 305/602/305
vt 0.141357 0.485697
vt 0.143779 0.495666
vt 0.141358 0.499268
f 307/605/307 308/606/308 305/607/305
vt 0.706248 0.358536
f 67/608/67 301/598/301 305/602/305
f 67/608/67 299/595/299 301/598/301
vt 0.785609 0.305571
f 305/609/305 68/68/68 67/67/67
vt 0.785681 0.311377
f 305/609/305 82/610/82 68/68/68
vt 0.801403 0.299465
vt 0.809067 0.305974
vt 0.820508 0.306125
f 299/611/299 309/612/309 64/613/64
vt 0.832280 0.300210
f 64/613/64 171/614/171 299/611/299
vt 0.824120 0.309494
f 64/613/64 66/615/66 171/614/171
vt 0.839596 0.311768
f 66/615/66 72/616/72 171/614/171
vt 0.839580 0.306414
f 72/616/72 71/617/71 171/614/171
vt 0.832478 0.299954
f 71/617/71 170/618/170 171/614/171
vt 0.801187 0.308718
f 67/67/67 69/69/69 74/619/74
f 74/619/74 299/611/299 67/67/67
f 74/619/74 309/612/309 299/611/299
vt 0.805029 0.309036
f 74/619/74 310/620/310 309/612/309
vt 0.813031 0.027126
vt 0.806271 0.034424
f 280/554/280 311/621/311 88/622/88
f 88/622/88 257/551/257 280/554/280
vt 0.805420 0.028985
f 311/621/311 89/623/89 88/622/88
vt 0.790720 0.006101
f 287/574/287 286/624/286 76/76/76
f 287/574/287 278/573/278 286/624/286
vt 0.786937 0.002082
f 286/624/286 312/625/312 76/76/76
f 312/625/312 77/77/77 76/76/76
vt 0.329121 0.006234
vt 0.337242 0.002140
vt 0.329791 0.001243
f 281/626/281 237/627/237 236/628/236
vt 0.336590 0.007080
f 281/626/281 279/629/279 237/627/237
vt 0.772785 0.014010
vt 0.791912 0.014893
f 76/76/76 211/630/211 213/631/213
vt 0.770941 0.006242
f 76/76/76 313/632/313 211/630/211
f 213/631/213 287/574/287 76/76/76
vt 0.677055 0.348910
vt 0.668535 0.379351
f 304/601/304 314/633/314 315/634/315
f 304/601/304 303/600/303 314/633/314
f 303/600/303 302/599/302 314/633/314
vt 0.857807 0.402297
vt 0.864115 0.401423
f 316/635/316 86/85/86 317/636/317
f 316/635/316 61/61/61 86/85/86
f 316/635/316 62/62/62 61/61/61
vt 0.869408 0.397276
f 86/85/86 318/637/318 317/636/317
vt 0.658104 0.306211
f 316/638/316 296/589/296 62/588/62
f 61/61/61 79/79/79 86/85/86
vt 0.862554 0.403645
f 61/61/61 319/639/319 79/79/79
f 61/61/61 70/70/70 319/639/319
f 61/61/61 60/60/60 70/70/70
f 61/61/61 63/63/63 60/60/60
vt 0.848922 0.400372
f 63/63/63 284/640/284 60/60/60
f 79/79/79 81/81/81 86/85/86
f 60/60/60 71/71/71 70/70/70
f 284/640/284 58/58/58 60/60/60
f 79/79/79 319/639/319 65/65/65
vt 0.880245 0.410845
f 65/65/65 320/641/320 79/79/79
vt 0.877308 0.419875
f 65/65/65 309/642/309 320/641/320
vt 0.889686 0.412188
f 309/642/309 321/643/321 320/641/320
f 65/65/65 64/64/64 309/642/309
vt 0.882113 0.418537
vt 0.891857 0.414551
f 309/642/309 310/644/310 322/645/322
f 322/645/322 321/643/321 309/642/309
vt 0.781290 0.305604
vt 0.778076 0.311477
f 308/646/308 323/647/323 82/610/82
f 82/610/82 305/609/305 308/646/308
vt 0.907251 0.261409
f 312/648/312 286/569/286 285/568/285
f 285/568/285 289/579/289 312/648/312
vt 0.325209 0.002102
f 239/649/239 281/626/281 236/628/236
vt 0.324867 0.007080
f 239/649/239 311/650/311 281/626/281
vt 0.895270 0.194580
f 311/651/311 280/557/280 281/556/281
vt 0.909692 0.260775
f 312/648/312 291/581/291 77/652/77
f 312/648/312 289/579/289 291/581/291
vt 0.783599 0.003827
f 291/653/291 78/78/78 77/77/77
vt 0.754639 0.117917
vt 0.759112 0.117751
vt 0.759194 0.123143
f 307/654/307 85/655/85 323/656/323
vt 0.754639 0.128174
f 323/656/323 308/657/308 307/654/307
f 319/639/319 66/66/66 65/65/65
f 319/639/319 72/72/72 66/66/66
f 319/639/319 70/70/70 72/72/72
f 74/74/74 322/645/322 310/644/310
f 74/74/74 73/73/73 322/645/322
vt 0.896943 0.045713
f 68/658/68 82/82/82 84/84/84
vt 0.901952 0.045384
f 84/84/84 69/659/69 68/658/68
vt 0.897374 0.419737
vt 0.892667 0.421143
f 84/660/84 75/75/75 69/661/69
f 75/75/75 74/74/74 69/661/69
vt 0.844482 0.448486
vt 0.888978 0.448486
vt 0.868560 0.447121
f 306/662/306 324/663/324 325/664/325
vt 0.907795 0.260975
vt 0.918781 0.259962
vt 0.922072 0.256999
f 76/665/76 326/666/326 313/667/313
vt 0.911633 0.263907
f 76/665/76 78/668/78 326/666/326
vt 0.953412 0.253174
vt 0.951273 0.240271
vt 0.950171 0.249311
f 326/669/326 327/670/327 313/671/313
vt 0.949098 0.240958
f 327/670/327 328/672/328 313/671/313
f 78/668/78 288/578/288 326/666/326
f 78/668/78 291/581/291 288/578/288
vt 0.948785 0.238895
f 327/670/327 329/673/329 328/672/328
vt 0.317139 0.005730
vt 0.317725 0.001502
f 89/674/89 239/649/239 238/675/238
f 89/674/89 311/650/311 239/649/239
vt 0.317521 0.001673
f 238/675/238 87/676/87 89/674/89
vt 0.922588 0.267606
f 288/578/288 290/580/290 330/677/330
f 330/677/330 326/666/326 288/578/288
vt 0.646103 0.350311
f 297/591/297 331/678/331 314/633/314
f 297/591/297 300/597/300 331/678/331
vt 0.735666 0.393799
vt 0.734134 0.391139
vt 0.711670 0.393799
f 314/679/314 302/680/302 297/681/297
vt 0.866815 0.398607
vt 0.869815 0.393916
vt 0.871349 0.394882
f 332/682/332 333/683/333 334/684/334
vt 0.865294 0.397584
f 332/682/332 335/685/335 333/683/333
vt 0.865923 0.398027
f 336/686/336 333/683/333 335/685/335
f 336/686/336 318/637/318 333/683/333
f 336/686/336 317/636/317 318/637/318
f 320/641/320 80/80/80 79/79/79
vt 0.882429 0.402576
f 320/641/320 337/687/337 80/80/80
f 337/687/337 333/683/333 80/80/80
f 333/683/333 318/637/318 80/80/80
f 318/637/318 86/85/86 80/80/80
vt 0.901928 0.409893
f 321/643/321 73/73/73 338/688/338
f 321/643/321 322/645/322 73/73/73
vt 0.894820 0.411089
f 338/688/338 339/689/339 321/643/321
f 339/689/339 320/641/320 321/643/321
f 339/689/339 337/687/337 320/641/320
vt 0.891611 0.056567
f 83/83/83 82/82/82 323/690/323
vt 0.933439 0.266342
vt 0.931613 0.255044
f 330/677/330 340/691/340 327/692/327
f 327/692/327 326/666/326 330/677/330
vt 0.925435 0.269516
f 330/677/330 341/693/341 340/691/340
vt 0.651373 0.366600
f 314/633/314 342/694/342 315/634/315
vt 0.648366 0.354366
f 314/633/314 343/695/343 342/694/342
f 314/633/314 331/678/331 343/695/343
vt 0.648681 0.379084
f 342/694/342 344/696/344 315/634/315
vt 0.645766 0.352646
f 331/678/331 345/697/345 343/695/343
vt 0.870130 0.393899
f 332/682/332 334/684/334 346/698/346
vt 0.867657 0.394522
f 346/698/346 347/699/347 332/682/332
vt 0.862726 0.395777
f 347/699/347 348/700/348 332/682/332
vt 0.875047 0.392684
f 334/684/334 349/701/349 346/698/346
vt 0.895264 0.426948
vt 0.898272 0.428955
vt 0.920124 0.428955
f 306/702/306 304/703/304 315/704/315
vt 0.818876 0.402767
vt 0.821176 0.405517
vt 0.831085 0.405296
f 315/705/315 350/706/350 351/707/351
vt 0.798933 0.402212
vt 0.799058 0.403211
f 315/705/315 344/708/344 324/709/324
vt 0.905492 0.415726
f 90/710/90 73/73/73 75/75/75
f 90/710/90 338/688/338 73/73/73
vt 0.898918 0.420815
f 75/75/75 84/660/84 83/711/83
vt 0.762451 0.005453
vt 0.767382 0.014893
f 313/632/313 328/712/328 212/713/212
f 212/713/212 211/630/211 313/632/313
vt 0.927056 0.252264
vt 0.941491 0.241774
vt 0.915233 0.248337
f 300/714/300 352/715/352 353/716/353
vt 0.942286 0.248710
f 300/714/300 212/717/212 352/715/352
vt 0.911794 0.253174
f 353/716/353 331/718/331 300/714/300
f 212/717/212 328/672/328 352/715/352
vt 0.909503 0.252490
f 353/716/353 345/719/345 331/718/331
vt 0.940904 0.258673
f 340/691/340 354/720/354 327/692/327
vt 0.941142 0.268872
f 340/691/340 355/721/355 354/720/354
vt 0.891131 0.394381
vt 0.895575 0.397510
vt 0.892906 0.397747
f 354/722/354 329/723/329 327/724/327
vt 0.939915 0.271615
f 340/691/340 356/725/356 355/721/355
vt 0.879220 0.395758
vt 0.875672 0.395342
f 349/701/349 357/726/357 358/727/358
f 358/727/358 346/698/346 349/701/349
vt 0.889416 0.407502
vt 0.890364 0.400785
f 357/726/357 359/728/359 360/729/360
f 357/726/357 334/684/334 359/728/359
vt 0.907658 0.408360
f 359/728/359 361/730/361 360/729/360
vt 0.887358 0.396245
f 360/729/360 362/731/362 357/726/357
vt 0.882891 0.393600
f 362/731/362 363/732/363 357/726/357
f 357/726/357 349/701/349 334/684/334
f 359/728/359 339/689/339 338/688/338
f 338/688/338 361/730/361 359/728/359
f 334/684/334 333/683/333 337/687/337
f 337/687/337 359/728/359 334/684/334
f 337/687/337 339/689/339 359/728/359
vt 0.914598 0.243892
vt 0.907661 0.251974
f 353/716/353 364/733/364 343/734/343
vt 0.080370 0.003174
vt 0.077958 0.001061
vt 0.071045 0.003174
f 343/735/343 345/736/345 353/737/353
vt 0.902583 0.239828
vt 0.899355 0.245443
f 343/734/343 365/738/365 366/739/366
f 343/734/343 364/733/364 365/738/365
vt 0.992920 0.186768
vt 0.992920 0.179888
vt 0.995363 0.184293
f 342/740/342 366/741/366 367/742/367
vt 0.645755 0.363045
f 342/694/342 343/695/343 366/743/366
vt 0.882589 0.397694
vt 0.891382 0.396780
f 354/722/354 368/744/368 369/745/369
vt 0.880204 0.395212
f 354/722/354 355/746/355 368/744/368
vt 0.893916 0.396283
f 369/745/369 370/747/370 354/722/354
vt 0.881086 0.396683
f 369/745/369 368/744/368 371/748/371
f 371/748/371 362/731/362 369/745/369
f 371/748/371 363/732/363 362/731/362
vt 0.879297 0.393169
f 371/748/371 372/749/372 363/732/363
f 358/727/358 363/732/363 372/749/372
f 358/727/358 357/726/357 363/732/363
vt 0.947249 0.271146
vt 0.944866 0.274050
vt 0.947742 0.276013
f 372/750/372 373/751/373 358/752/358
vt 0.911737 0.413456
vt 0.910043 0.408530
f 361/730/361 92/753/92 91/754/91
vt 0.904149 0.405208
f 91/754/91 374/755/374 361/730/361
f 374/755/374 360/729/360 361/730/361
vt 0.933244 0.239522
f 353/716/353 375/756/375 364/733/364
f 353/716/353 352/715/352 375/756/375
vt 0.914290 0.241847
f 375/756/375 376/757/376 364/733/364
vt 0.648837 0.366986
f 344/696/344 342/694/342 367/758/367
f 374/755/374 370/747/370 369/745/369
f 369/745/369 360/729/360 374/755/374
vt 0.905278 0.404004
f 374/755/374 375/759/375 370/747/370
f 369/745/369 362/731/362 360/729/360
vt 0.900757 0.403132
f 352/760/352 370/747/370 375/759/375
f 352/760/352 329/723/329 370/747/370
f 329/723/329 354/722/354 370/747/370
f 352/715/352 328/672/328 329/673/329
vt 0.910147 0.241327
f 364/733/364 376/757/376 378/761/378
vt 0.920350 0.414583
vt 0.929357 0.416569
vt 0.918774 0.415528
f 378/762/378 365/763/365 364/764/364
vt 0.898724 0.241002
vt 0.895264 0.245062
f 366/739/366 377/765/377 367/766/367
f 366/739/366 365/738/365 377/765/377
vt 0.918321 0.410691
vt 0.916236 0.409218
f 91/754/91 93/767/93 379/768/379
vt 0.919073 0.413687
f 379/768/379 376/769/376 91/754/91
f 376/769/376 375/759/375 91/754/91
f 375/759/375 374/755/374 91/754/91
f 379/768/379 378/762/378 376/769/376
f 236/426/236 230/425/230 238/428/238
f 234/423/234 230/425/230 236/426/236
vt 0.821861 0.012719
f 143/770/143 144/207/144 137/196/137
f 144/207/144 140/197/140 137/196/137
f 315/705/315 324/709/324 350/706/350
vt 0.907694 0.427952
vt 0.917500 0.426276
f 351/771/351 350/772/350 306/702/306
vt 0.646243 0.257008
vt 0.633923 0.258800
f 380/773/380 5/170/5 131/774/131
vt 0.633827 0.267455
f 162/775/162 161/324/161 190/325/190
vt 0.644598 0.279243
vt 0.641140 0.272409
vt 0.641304 0.280939
f 381/776/381 382/777/382 29/778/29
f 24/24/24 29/29/29 22/22/22
vt 0.960665 0.047077
vt 0.964668 0.043365
vt 0.957764 0.043933
f 383/779/383 384/780/384 385/781/385
f 381/776/381 29/778/29 28/326/28
vt 0.695762 0.262092
vt 0.699317 0.260349
vt 0.697693 0.257337
f 386/782/386 41/783/41 40/784/40
vt 0.858979 0.402541
f 387/785/387 316/635/316 317/636/317
vt 0.462230 0.002321
vt 0.465336 0.007080
vt 0.465602 0.006650
f 388/786/388 294/787/294 389/788/389
vt 0.675571 0.306562
vt 0.672342 0.308241
vt 0.673812 0.311710
f 390/789/390 348/790/348 347/791/347
f 355/746/355 371/748/371 368/744/368
f 131/774/131 382/777/382 380/773/380
f 131/774/131 162/775/162 382/777/382
f 162/775/162 190/325/190 382/777/382
vt 0.629073 0.266403
f 131/774/131 160/792/160 162/775/162
f 190/325/190 23/321/23 382/777/382
vt 0.636169 0.279236
f 23/321/23 22/793/22 382/777/382
f 22/793/22 29/778/29 382/777/382
vt 0.667690 0.254872
vt 0.666956 0.255229
f 167/794/167 129/171/129 391/795/391
f 167/794/167 153/224/153 129/171/129
f 153/224/153 130/173/130 129/171/129
vt 0.670299 0.287764
vt 0.669575 0.266769
f 381/776/381 392/796/392 384/797/384
f 384/797/384 380/773/380 381/776/381
f 381/776/381 263/489/263 392/796/392
f 384/797/384 129/171/129 380/773/380
f 380/773/380 382/777/382 381/776/381
vt 0.672128 0.274042
f 392/796/392 393/798/393 384/797/384
f 381/776/381 191/327/191 263/489/263
f 384/797/384 391/795/391 129/171/129
vt 0.671963 0.282640
f 392/796/392 394/799/394 393/798/393
vt 0.664787 0.293966
f 263/489/263 395/800/395 392/796/392
f 129/171/129 5/170/5 380/773/380
f 381/776/381 28/326/28 191/327/191
vt 0.673020 0.273603
f 393/798/393 385/801/385 384/797/384
vt 0.680525 0.248386
vt 0.690507 0.260536
vt 0.692507 0.255216
f 15/802/15 166/803/166 215/804/215
vt 0.668698 0.250083
f 15/802/15 152/805/152 166/803/166
vt 0.760834 0.042236
vt 0.754639 0.041082
vt 0.754749 0.037216
f 7/806/7 9/807/9 158/808/158
vt 0.758431 0.032938
f 158/808/158 188/809/188 7/806/7
vt 0.754639 0.032878
f 158/808/158 155/810/155 188/809/188
vt 0.674028 0.260309
f 164/811/164 391/795/391 384/797/384
f 164/811/164 167/794/167 391/795/391
vt 0.969178 0.050049
vt 0.970219 0.049235
f 384/780/384 26/812/26 164/813/164
vt 0.961315 0.050049
f 384/780/384 27/814/27 26/812/26
f 384/780/384 383/779/383 27/814/27
f 164/251/164 26/26/26 25/25/25
f 25/25/25 165/252/165 164/251/164
vt 0.958379 0.031476
f 40/40/40 39/39/39 221/815/221
vt 0.703963 0.261863
vt 0.699153 0.251822
f 221/816/221 216/817/216 40/784/40
f 216/817/216 215/804/215 40/784/40
f 215/804/215 386/782/386 40/784/40
f 215/804/215 166/803/166 386/782/386
vt 0.968922 0.143799
vt 0.965237 0.140800
vt 0.961670 0.143799
f 166/818/166 43/819/43 386/820/386
vt 0.966810 0.111098
vt 0.965576 0.110871
f 43/43/43 396/821/396 386/822/386
vt 0.978444 0.116455
vt 0.976814 0.108451
f 44/44/44 165/823/165 397/824/397
f 397/824/397 45/45/45 44/44/44
vt 0.972768 0.107622
f 397/824/397 398/825/398 45/45/45
vt 0.983255 0.116320
vt 0.991593 0.109099
vt 0.984354 0.106891
f 25/826/25 385/827/385 399/828/399
vt 0.990182 0.116455
f 25/826/25 27/829/27 385/827/385
f 399/828/399 397/824/397 25/826/25
f 397/824/397 165/823/165 25/826/25
vt 0.992459 0.108534
f 385/827/385 393/830/393 399/828/399
vt 0.992336 0.114476
f 27/829/27 383/831/383 385/827/385
vt 0.961700 0.035629
vt 0.961627 0.032878
f 221/815/221 271/832/271 258/833/258
f 221/815/221 39/39/39 271/832/271
vt 0.958581 0.031443
f 258/833/258 222/834/222 221/815/221
vt 0.690596 0.268749
f 398/835/398 273/526/273 270/525/270
vt 0.694766 0.262604
f 270/525/270 396/836/396 398/835/398
f 270/525/270 386/782/386 396/836/396
vt 0.700200 0.262340
f 270/525/270 39/837/39 386/782/386
vt 0.961828 0.038330
f 270/838/270 271/832/271 39/39/39
f 39/837/39 41/783/41 386/782/386
f 396/821/396 45/45/45 398/825/398
f 396/821/396 43/43/43 45/45/45
vt 0.686002 0.268107
vt 0.687291 0.279206
f 397/839/397 400/840/400 273/526/273
vt 0.680590 0.274051
f 397/839/397 399/841/399 400/840/400
vt 0.682186 0.277496
f 399/841/399 401/842/401 400/840/400
f 400/840/400 275/529/275 273/526/273
f 273/526/273 398/835/398 397/839/397
f 393/798/393 394/799/394 401/842/401
f 401/842/401 399/841/399 393/798/393
vt 0.684022 0.289452
f 392/796/392 390/789/390 402/843/402
vt 0.667020 0.306573
f 392/796/392 403/844/403 390/789/390
f 402/843/402 394/799/394 392/796/392
f 402/843/402 401/842/401 394/799/394
f 402/843/402 400/840/400 401/842/401
f 403/844/403 348/790/348 390/789/390
vt 0.996114 0.230245
vt 0.992920 0.220426
vt 0.996629 0.223118
f 295/845/295 404/846/404 292/847/292
vt 0.992920 0.233643
f 295/845/295 274/848/274 404/846/404
vt 0.141357 0.045362
vt 0.142710 0.047706
vt 0.141357 0.050049
f 295/849/295 276/850/276 274/851/274
vt 0.690924 0.286008
f 404/852/404 275/529/275 400/840/400
f 404/852/404 274/527/274 275/529/275
f 400/840/400 402/843/402 404/852/404
f 403/844/403 395/800/395 283/560/283
f 403/844/403 392/796/392 395/800/395
vt 0.660392 0.305568
f 283/560/283 387/853/387 403/844/403
f 283/560/283 296/589/296 387/853/387
vt 0.661316 0.309386
f 387/853/387 405/854/405 403/844/403
f 296/589/296 316/638/316 387/853/387
f 263/489/263 262/488/262 283/560/283
f 283/560/283 395/800/395 263/489/263
vt 0.450704 0.007080
vt 0.462016 0.002559
f 295/855/295 294/787/294 406/856/406
vt 0.449951 0.004486
f 406/856/406 276/857/276 295/855/295
f 294/787/294 388/786/388 406/856/406
vt 0.701081 0.280879
vt 0.700988 0.289457
vt 0.704509 0.287721
f 277/858/277 406/859/406 290/860/290
f 277/858/277 276/530/276 406/859/406
vt 0.687414 0.296301
vt 0.692679 0.289420
f 402/843/402 407/861/407 408/862/408
f 408/862/408 404/852/404 402/843/402
vt 0.694501 0.284260
f 408/862/408 292/863/292 404/852/404
vt 0.697929 0.291102
f 408/862/408 293/864/293 292/863/292
vt 0.687460 0.304851
f 402/843/402 390/789/390 409/865/409
f 409/865/409 407/861/407 402/843/402
vt 0.699198 0.303170
f 409/865/409 340/866/340 407/861/407
vt 0.699075 0.294635
f 340/866/340 341/867/341 407/861/407
vt 0.692586 0.306557
f 409/865/409 356/868/356 340/866/340
f 390/789/390 347/791/347 409/865/409
vt 0.694396 0.293384
vt 0.698693 0.292895
f 389/869/389 294/870/294 293/864/293
f 293/864/293 408/862/408 389/869/389
f 389/869/389 407/861/407 341/867/341
f 389/869/389 408/862/408 407/861/407
vt 0.701077 0.289668
f 341/867/341 388/871/388 389/869/389
vt 0.702498 0.292919
f 341/867/341 330/872/330 388/871/388
f 330/872/330 290/860/290 388/871/388
f 290/860/290 406/859/406 388/871/388
vt 0.860790 0.399147
f 405/873/405 317/636/317 336/686/336
f 405/873/405 387/785/387 317/636/317
vt 0.861264 0.399438
f 403/874/403 335/685/335 332/682/332
vt 0.665023 0.311768
f 403/844/403 405/854/405 335/875/335
f 332/682/332 348/700/348 403/874/403
f 405/873/405 336/686/336 335/685/335
vt 0.951959 0.284424
vt 0.952745 0.282215
f 347/876/347 346/877/346 358/752/358
vt 0.940420 0.276504
f 358/752/358 409/878/409 347/876/347
f 358/752/358 373/751/373 409/878/409
vt 0.942785 0.269876
f 371/879/371 409/878/409 373/751/373
f 371/879/371 356/725/356 409/878/409
f 371/879/371 355/721/355 356/725/356
f 373/751/373 372/750/372 371/879/371
vt 0.004175 0.920825
vt 0.000732 0.925049
vt 0.005984 0.925049
f 159/880/159 125/881/125 124/882/124
vt 0.006032 0.878174
vt 0.001264 0.874871
vt 0.000732 0.878174
f 157/883/157 154/884/154 246/885/246
# 794 faces, 885 coords texture

# End of File
