####
#
# OBJ File Generated by Meshlab
#
####
# Object bin_3.obj
#
# Vertices: 298
# Faces: 535
#
####
mtllib ./bin_3.obj.mtl

vn 0.655947 -0.751203 -0.073672
v 7.174243 -3.490466 0.132606
vn 0.425780 -0.887283 0.177315
v 7.121112 -3.490487 0.179630
vn 0.272711 -0.959955 0.064147
v 7.138980 -3.500328 0.156119
vn -0.999810 0.017454 0.008651
v 7.421134 -3.443442 0.233576
vn -0.804865 -0.589046 0.072232
v 7.421275 -3.419887 0.320703
vn -0.853741 -0.520006 -0.026825
v 7.421187 -3.419874 0.273683
vn -0.707301 -0.001106 0.706912
v 7.068419 -3.124927 0.508826
vn -0.848017 0.348984 0.398846
v 7.115615 -3.129633 0.414620
vn -0.225660 -0.407977 0.884665
v 7.115436 -3.124849 0.555853
vn -0.820284 -0.325026 -0.470629
v 7.200374 -3.132443 0.297102
vn -0.717474 -0.533117 0.448349
v 7.233047 -3.135561 0.109053
vn -0.494303 -0.822455 -0.281484
v 7.218097 -3.133019 0.273600
vn -0.654806 0.631661 -0.415010
v 7.192592 -3.131335 0.367619
vn -0.600509 -0.291065 0.744762
v 7.209540 -3.135595 0.084250
vn -0.647369 0.438586 -0.623343
v 7.125316 -3.128757 0.485134
vn -0.241685 0.847825 -0.471997
v 7.162608 -3.130473 0.399754
vn -0.758557 0.631966 0.158780
v 7.153327 -3.129803 0.438128
vn -0.875076 0.192655 -0.443989
v 6.991588 -3.278859 0.461780
vn -0.318579 0.267284 -0.909432
v 6.997890 -3.262578 0.461770
vn -0.714465 0.578758 -0.393165
v 7.034202 -3.208318 0.461784
vn 0.124748 -0.612927 0.780230
v 7.091944 -3.349394 0.477103
vn -0.018565 -0.835250 0.549556
v 7.115458 -3.349394 0.470222
vn 0.063128 -0.857900 0.509925
v 7.138972 -3.355373 0.485293
vn 0.227625 0.106606 0.967896
v 7.115458 -3.255343 0.444754
vn -0.840869 -0.136623 0.523712
v 7.138972 -3.238942 0.461778
vn -0.519265 -0.097661 0.849015
v 7.138976 -3.231831 0.463927
vn -0.148335 -0.367612 0.918073
v 7.186003 -3.231828 0.494760
vn -0.929405 -0.121725 0.348410
v 7.185996 -3.208318 0.505146
vn -0.459082 -0.584119 0.669364
v 7.186000 -3.184812 0.506245
vn -0.035381 0.004139 0.999365
v 7.209506 -3.490472 0.584987
vn -0.153002 -0.404452 0.901670
v 7.186007 -3.490479 0.584921
vn -0.640330 -0.292673 0.710155
v 7.176902 -3.490475 0.579329
vn -0.899874 0.087404 0.427302
v 7.216468 -3.255341 0.485296
vn -0.502825 0.099336 0.858661
v 7.209506 -3.255342 0.470904
vn 0.363923 -0.705294 0.608376
v 7.280005 -3.513102 0.542632
vn -0.048550 0.170415 0.984176
v 7.280074 -3.490459 0.579307
vn -0.377822 -0.411796 0.829262
v 7.257392 -3.172932 0.579345
vn -0.652086 0.164863 0.740003
v 7.244853 -3.138018 0.555830
vn 0.288139 0.196829 0.937141
v 7.303561 -3.184811 0.553031
vn 0.114546 0.523934 0.844022
v 7.350577 -3.184820 0.532322
vn -0.085059 -0.415424 0.905642
v 7.256534 -3.184804 0.567156
vn -0.397542 -0.003896 0.917576
v 7.397765 -3.466928 0.067715
vn -0.925493 -0.005494 0.378724
v 7.413852 -3.466967 0.085553
vn -0.997257 0.031973 0.066755
v 7.414889 -3.466954 0.109075
vn -0.256247 0.921748 -0.291064
v 7.068423 -3.244110 0.156116
vn -0.683584 0.682519 -0.258613
v 7.056842 -3.231823 0.226655
vn -0.386023 0.660587 -0.643902
v 7.068439 -3.231830 0.168970
vn -0.824889 -0.394417 0.404961
v 7.413444 -3.396418 0.085579
vn -0.381311 -0.379764 0.842841
v 7.397628 -3.396407 0.067917
vn 0.204617 -0.719467 0.663701
v 7.186007 -3.490494 0.065697
vn -0.151097 -0.468099 0.870663
v 7.068542 -3.466850 0.064761
vn -0.874753 -0.375483 0.306300
v 7.021461 -3.396393 0.064688
vn -0.708806 0.213139 0.672433
v 6.997897 -3.302368 0.064780
vn -0.565269 0.599426 0.566710
v 7.044917 -3.255345 0.065356
vn -0.264542 -0.596666 0.757633
v 7.091926 -3.466991 0.065023
vn -0.440801 0.605782 0.662362
v 7.068454 -3.231822 0.065685
vn -0.161250 0.712598 0.682790
v 7.115470 -3.208306 0.066169
vn -0.039789 0.569537 0.821002
v 7.139018 -3.208291 0.066428
vn -0.291204 0.118697 0.949269
v 7.186019 -3.161284 0.066974
vn -0.784721 -0.607607 0.122582
v 7.044917 -3.423982 0.085582
vn 0.325743 0.198851 0.924310
v 7.086596 -3.255342 0.461782
vn -0.134758 -0.169707 0.976238
v 7.068439 -3.255342 0.470606
vn -0.188653 0.493732 0.848904
v 7.091944 -3.278854 0.477006
vn -0.417915 -0.137763 0.897980
v 7.209506 -3.161291 0.074180
vn -0.699029 0.264297 0.664459
v 7.159167 -3.466967 0.555811
vn -0.106102 0.432898 0.895177
v 7.138972 -3.490466 0.537096
vn -0.735893 -0.568651 0.367557
v 7.162495 -3.473003 0.555818
vn -0.632979 -0.054512 0.772248
v 7.353465 -3.466953 0.626357
vn -0.023998 0.916880 0.398442
v 7.091944 -3.290532 0.485294
vn -0.289502 0.819955 0.493825
v 7.115458 -3.287423 0.485295
vn -0.280629 0.637639 0.717401
v 7.115458 -3.278853 0.476502
vn 0.185043 0.718826 0.670111
v 7.186003 -3.264980 0.485293
vn 0.428712 0.022097 0.903171
v 7.186000 -3.255342 0.477456
vn 0.488205 -0.791307 -0.368089
v 7.327098 -3.446226 0.438240
vn -0.806444 0.434304 -0.401283
v 7.115478 -3.142421 0.391257
vn -0.576282 -0.114078 0.809250
v 7.233008 -3.422682 0.555842
vn -0.544809 0.080702 0.834668
v 7.222312 -3.419930 0.532320
vn 0.310348 0.272520 0.910723
v 7.209495 -3.443439 0.537072
vn -0.588461 -0.046016 0.807215
v 7.327041 -3.490468 0.593876
vn -0.874270 -0.405490 -0.266890
v 6.997874 -3.396439 0.438261
vn -0.652448 -0.743555 -0.146415
v 7.060634 -3.490513 0.438251
vn -0.693072 -0.715764 -0.085634
v 7.008670 -3.466923 0.508809
vn -0.603304 -0.784904 -0.141242
v 7.068427 -3.480714 0.367734
vn -0.891099 -0.343187 0.296926
v 6.974357 -3.419932 0.535873
vn -0.960221 -0.168329 -0.222801
v 6.961848 -3.372900 0.485303
vn -0.512873 -0.834585 -0.201069
v 7.070407 -3.490459 0.391240
vn -0.926107 -0.191669 -0.324945
v 6.992905 -3.372418 0.438265
vn -0.721782 0.075399 0.688001
v 6.974383 -3.312552 0.555831
vn -0.987947 0.141398 0.062988
v 6.966388 -3.278854 0.508801
vn -0.506739 -0.134043 0.851615
v 6.974383 -3.362586 0.555836
vn -0.433149 -0.286541 0.854562
v 6.974372 -3.396416 0.554244
vn -0.960778 -0.005859 -0.277257
v 6.988132 -3.349373 0.438267
vn -0.885989 0.322175 -0.333506
v 6.963313 -3.255350 0.485306
vn -0.656036 0.754654 0.010692
v 7.044940 -3.147002 0.508808
vn -0.122214 0.969441 -0.212718
v 7.091941 -3.152046 0.461782
vn -0.791002 0.609525 0.052868
v 6.987514 -3.231815 0.508805
vn -0.560983 -0.536237 0.630673
v 7.021415 -3.466948 0.542250
vn -0.220507 -0.502433 0.836025
v 6.997897 -3.443441 0.553262
vn -0.961127 -0.024944 0.274978
v 7.016978 -3.325906 0.085590
vn -0.894911 -0.439338 -0.078205
v 7.021373 -3.403517 0.179630
vn -0.909498 -0.408237 -0.078457
v 7.010379 -3.396478 0.297190
vn -0.984206 -0.177028 -0.000659
v 7.019015 -3.372894 0.085586
vn -0.792183 0.596576 -0.128622
v 7.014934 -3.255373 0.273689
vn -0.722289 0.684476 -0.098947
v 7.019073 -3.255349 0.250172
vn -0.622639 0.779669 -0.066609
v 7.044890 -3.231812 0.346343
vn -0.413399 0.899632 -0.140586
v 7.044913 -3.226258 0.297196
vn -0.499835 0.828527 -0.252404
v 7.044883 -3.246195 0.273677
vn -0.000459 -0.468158 0.883645
v 7.068442 -3.493204 0.555836
vn -0.484461 -0.873402 -0.049659
v 7.087065 -3.490426 0.273683
vn -0.278248 -0.927491 -0.249678
v 7.115436 -3.499608 0.156119
vn -0.557749 -0.812285 -0.170616
v 7.091868 -3.467027 0.132601
vn -0.077575 0.996146 -0.040929
v 7.068416 -3.220261 0.226655
vn -0.073780 0.993346 0.088431
v 7.068431 -3.220663 0.273682
vn -0.575679 0.767391 -0.282319
v 7.068416 -3.197796 0.414744
vn -0.174344 0.945840 -0.273843
v 7.068446 -3.220572 0.320714
vn -0.882176 0.407641 -0.235786
v 7.112517 -3.161266 0.414749
vn -0.893502 0.311512 -0.323442
v 7.108741 -3.161754 0.391249
vn -0.262984 0.884052 -0.386383
v 7.068423 -3.221190 0.179634
vn -0.305194 0.150518 0.940320
v 7.233020 -3.137779 0.546610
vn -0.144086 0.212449 0.966491
v 7.138976 -3.161308 0.551753
vn -0.505081 -0.052488 0.861474
v 7.233024 -3.184802 0.555829
vn -0.781898 -0.061016 0.620413
v 7.213351 -3.396428 0.532307
vn -0.470154 0.231866 0.851583
v 7.138961 -3.396408 0.466911
vn -0.690910 0.295714 0.659694
v 7.138976 -3.441795 0.508802
vn -0.626782 -0.269626 0.731058
v 7.178191 -3.349396 0.485288
vn -0.087379 -0.498213 0.862641
v 7.162498 -3.349401 0.480930
vn -0.082300 -0.003755 0.996601
v 7.138965 -3.372897 0.452853
vn -0.783085 -0.085570 0.616000
v 7.185988 -3.325885 0.549141
vn 0.006149 -0.105708 0.994378
v 7.162486 -3.302369 0.519027
vn -0.495262 0.674637 0.547339
v 7.181805 -3.302375 0.532322
vn -0.802902 0.193273 0.563909
v 7.209487 -3.278866 0.560799
vn -0.501467 0.649301 0.571785
v 7.186000 -3.302367 0.532318
vn -0.546257 -0.217737 0.808823
v 7.290046 -3.396416 0.579354
vn -0.226898 0.336773 0.913839
v 7.256541 -3.466949 0.558226
vn -0.861002 0.297513 0.412507
v 7.219226 -3.255342 0.555833
vn -0.689391 0.014659 0.724241
v 7.220824 -3.278882 0.579230
vn -0.489856 0.300929 0.818219
v 7.233081 -3.251277 0.579216
vn -0.178602 0.253554 0.950690
v 7.256534 -3.208313 0.567468
vn -0.139574 0.374819 0.916531
v 7.256560 -3.231839 0.579288
vn -0.370981 -0.220707 0.902032
v 7.374164 -3.396428 0.667262
vn -0.506084 -0.272590 0.818275
v 7.387633 -3.443447 0.649998
vn -0.501391 0.149815 0.852152
v 7.397674 -3.325906 0.669857
vn -0.221828 0.420160 0.879919
v 7.327022 -3.273860 0.602966
vn -0.503321 0.338534 0.795024
v 7.360686 -3.278844 0.626401
vn -0.203786 0.651504 0.730762
v 7.356605 -3.208319 0.555831
vn 0.068231 0.533461 0.843068
v 7.327075 -3.217560 0.555835
vn -0.230679 -0.019423 0.972836
v 7.421123 -3.349392 0.679336
vn -0.832559 0.435447 0.342392
v 7.021522 -3.302392 0.085595
vn -0.909826 0.175833 0.375897
v 7.020843 -3.305902 0.085595
vn 0.344332 0.888638 -0.302916
v 7.100348 -3.231894 0.297202
vn 0.369992 0.927626 -0.051149
v 7.091926 -3.231859 0.273683
vn 0.020841 0.912638 -0.408236
v 7.091975 -3.221056 0.320713
vn 0.114710 0.991716 -0.057810
v 7.068439 -3.231831 0.297196
vn 0.834072 -0.471692 -0.286061
v 7.221263 -3.513979 0.414756
vn 0.095546 -0.860976 -0.499591
v 7.162486 -3.513978 0.404359
vn 0.475548 -0.424784 -0.770333
v 7.186000 -3.490466 0.398932
vn 0.377007 -0.822328 -0.426195
v 7.280032 -3.471906 0.438285
vn 0.205663 -0.880605 -0.426893
v 7.280047 -3.502222 0.461780
vn 0.254289 -0.877300 -0.407041
v 7.256511 -3.503981 0.485322
vn 0.564052 -0.783821 -0.259750
v 7.303576 -3.478704 0.485277
vn -0.928341 -0.369596 0.039781
v 7.421081 -3.396456 0.132607
vn -0.600661 0.685701 -0.411120
v 7.100707 -3.184804 0.391240
vn -0.477068 0.513285 -0.713404
v 7.138984 -3.184809 0.356325
vn -0.042991 0.842024 -0.537725
v 7.115455 -3.221540 0.320711
vn -0.710874 -0.406635 -0.573852
v 7.428596 -3.466948 0.367738
vn -0.758942 -0.495634 -0.422320
v 7.423915 -3.419895 0.344223
vn 0.440963 0.840268 -0.315438
v 7.206264 -3.302407 0.203149
vn 0.239480 0.659554 -0.712487
v 7.233024 -3.302385 0.215839
vn -0.455362 0.810351 0.368750
v 7.068439 -3.255336 0.085583
vn -0.126139 0.888716 0.440764
v 7.115458 -3.249430 0.109085
vn 0.187602 0.974866 0.120175
v 7.115458 -3.254090 0.132614
vn 0.463323 0.881874 -0.087352
v 7.112903 -3.255330 0.179633
vn 0.158728 0.818290 0.552456
v 7.138976 -3.250945 0.109092
vn 0.435323 0.894989 0.097412
v 7.185985 -3.294612 0.179629
vn 0.033134 -0.989524 -0.140516
v 7.138968 -3.501851 0.367732
vn 0.482207 -0.758327 -0.438652
v 7.170566 -3.490457 0.391240
vn 0.692150 -0.656062 -0.300849
v 7.157477 -3.466927 0.203161
vn 0.592974 -0.659548 0.461930
v 7.186015 -3.490480 0.291956
vn 0.767365 -0.639265 -0.049906
v 7.185985 -3.502275 0.273680
vn 0.665114 -0.717971 0.205284
v 7.155907 -3.466952 0.179633
vn 0.451988 0.351368 0.819907
v 7.256537 -3.302347 0.122589
vn 0.588011 0.778695 0.218809
v 7.209502 -3.307032 0.179630
vn -0.278701 0.138409 0.950352
v 7.280044 -3.278849 0.111108
vn -0.103760 0.058457 -0.992883
v 7.280047 -3.302367 0.223928
vn 0.437435 -0.096320 -0.894077
v 7.256534 -3.325869 0.215212
vn 0.587750 -0.788402 -0.181584
v 7.209537 -3.468653 0.297171
vn 0.533655 -0.782665 -0.320387
v 7.261077 -3.443382 0.344221
vn 0.003476 -0.999946 0.009771
v 7.138976 -3.500689 0.297194
vn 0.381023 -0.680448 -0.625949
v 7.303641 -3.345449 0.250118
vn 0.139206 -0.834268 -0.533497
v 7.350616 -3.372948 0.361244
vn 0.691388 -0.540472 -0.479451
v 7.256549 -3.396435 0.250158
vn 0.503601 -0.695708 -0.512227
v 7.327075 -3.431764 0.414766
vn 0.685409 -0.657620 -0.312651
v 7.209453 -3.419870 0.203179
vn 0.814873 -0.573142 -0.086542
v 7.202697 -3.419928 0.179633
vn 0.758241 -0.611611 0.225836
v 7.186000 -3.449378 0.132608
vn 0.489262 -0.836468 -0.246869
v 7.217967 -3.490505 0.438251
vn 0.193010 -0.973977 -0.118814
v 7.162486 -3.524488 0.438269
vn 0.523854 -0.851586 -0.019434
v 7.162486 -3.525171 0.461778
vn 0.456243 -0.840878 -0.291146
v 7.186015 -3.481976 0.391227
vn 0.361121 -0.895717 -0.259391
v 7.162543 -3.525579 0.485228
vn 0.484686 -0.873616 -0.043293
v 7.279971 -3.525132 0.532403
vn 0.487431 -0.748193 -0.450131
v 7.303580 -3.490516 0.513911
vn 0.712521 -0.311673 -0.628628
v 7.209865 -3.488342 0.426326
vn 0.898522 -0.430107 -0.087558
v 7.209498 -3.406382 0.179633
vn 0.791486 -0.513147 0.332010
v 7.223159 -3.419927 0.109093
vn 0.704682 0.222435 -0.673756
v 7.237614 -3.325881 0.203142
vn 0.944046 0.297072 0.143265
v 7.226501 -3.325885 0.179629
vn -0.807195 -0.054384 -0.587774
v 7.305152 -3.231834 0.226663
vn -0.867009 -0.475465 -0.149091
v 7.307261 -3.208341 0.203146
vn -0.730428 0.300425 -0.613368
v 7.186007 -3.161299 0.332402
vn -0.983201 -0.120937 -0.136713
v 7.313170 -3.231826 0.203151
vn -0.831768 -0.418236 0.365022
v 7.298754 -3.208288 0.132609
vn -0.424635 -0.775829 -0.466663
v 7.314479 -3.325850 0.226667
vn -0.630304 -0.297697 -0.717003
v 7.303550 -3.302379 0.216458
vn -0.392669 -0.898619 -0.195692
v 7.374129 -3.359369 0.320715
vn -0.721972 0.103244 -0.684177
v 7.303561 -3.278853 0.216616
vn -0.906185 -0.387815 -0.168610
v 7.320075 -3.302399 0.179629
vn -0.879339 -0.137332 0.455964
v 7.303565 -3.231829 0.129105
vn -0.752921 -0.514337 0.410571
v 7.312781 -3.302372 0.132609
vn -0.469077 -0.424350 0.774528
v 7.303561 -3.302373 0.122051
vn -0.641602 -0.758578 0.113605
v 7.374118 -3.349366 0.132607
vn -0.244843 -0.712478 -0.657592
v 7.350581 -3.443442 0.441059
vn -0.660108 -0.702451 -0.266121
v 7.397639 -3.379684 0.344250
vn -0.595508 -0.533835 -0.600326
v 7.357363 -3.466942 0.461796
vn -0.754595 -0.651996 -0.074086
v 7.397652 -3.384621 0.203145
vn -0.800773 -0.598125 -0.031752
v 7.374122 -3.354368 0.226661
vn 0.328039 -0.064665 0.942448
v 6.997878 -3.302361 0.560525
vn 0.075856 0.956373 -0.282130
v 7.138972 -3.278854 0.468054
vn 0.224674 0.871306 0.436289
v 7.115458 -3.259453 0.461781
vn -0.655798 0.587850 0.473668
v 7.138972 -3.264930 0.485294
vn 0.078618 0.812974 0.576968
v 7.115458 -3.161290 0.428524
vn -0.246636 0.272753 0.929933
v 6.997905 -3.255350 0.560104
vn 0.037404 0.198570 0.979373
v 6.997897 -3.419930 0.560278
vn 0.553244 0.084415 0.828731
v 6.997887 -3.396414 0.539457
vn 0.470306 -0.083229 0.878570
v 7.044929 -3.325885 0.501263
vn 0.790457 -0.332280 0.514556
v 7.028831 -3.255328 0.532312
vn 0.025608 -0.007677 0.999643
v 7.068442 -3.184816 0.558346
vn -0.174891 0.758865 0.627325
v 7.068439 -3.151793 0.532318
vn -0.400187 -0.882632 0.246599
v 7.115451 -3.519639 0.532319
vn -0.458284 -0.872064 -0.171697
v 7.091944 -3.513976 0.438269
vn -0.059293 0.116453 0.991425
v 7.044906 -3.466988 0.560621
vn 0.561477 0.432338 0.705568
v 7.021415 -3.426800 0.532325
vn 0.512798 0.676289 0.528839
v 7.091941 -3.454965 0.508802
vn 0.488749 0.509717 0.708035
v 7.044929 -3.398587 0.485296
vn 0.249708 0.833731 0.492483
v 7.091952 -3.450871 0.485304
vn 0.116162 0.621420 0.774819
v 7.115455 -3.497149 0.532312
vn 0.759786 0.133737 0.636270
v 7.022449 -3.396415 0.509663
vn -0.069430 -0.104947 0.992051
v 7.115458 -3.513977 0.539594
vn 0.609467 0.198318 0.767606
v 7.042529 -3.396415 0.485309
vn -0.703091 0.669761 0.238921
v 7.044940 -3.271011 0.085586
vn 0.564907 -0.560935 0.605171
v 7.068439 -3.231832 0.477725
vn 0.254151 -0.618599 0.743467
v 7.115462 -3.193613 0.461783
vn 0.448245 -0.314694 0.836686
v 7.044940 -3.255359 0.458938
vn -0.359763 -0.179242 0.915665
v 7.051543 -3.255347 0.461784
vn 0.329502 -0.092088 0.939653
v 7.091944 -3.396419 0.463440
vn -0.383585 -0.588348 0.711836
v 7.091941 -3.325876 0.517159
vn 0.525559 0.391036 0.755565
v 7.044925 -3.278855 0.461781
vn -0.211918 0.617911 0.757151
v 7.115458 -3.297644 0.532317
vn -0.143491 -0.330576 0.932808
v 7.115458 -3.325876 0.545128
vn -0.215563 0.494675 0.841920
v 7.068439 -3.281899 0.461781
vn -0.332891 0.918856 0.211868
v 7.068439 -3.147383 0.508805
vn -0.306078 0.887893 -0.343457
v 7.115458 -3.161292 0.472479
vn -0.542137 0.329504 0.772991
v 7.091944 -3.154452 0.532318
vn -0.268898 -0.923312 -0.274205
v 7.091944 -3.495768 0.391242
vn -0.181560 -0.957712 -0.223211
v 7.115458 -3.500058 0.391241
vn -0.223155 0.480558 0.848095
v 7.138972 -3.513988 0.550424
vn -0.567054 -0.515689 0.642273
v 7.138968 -3.191684 0.461782
vn -0.126815 -0.887259 0.443497
v 7.138972 -3.184807 0.493051
vn 0.219489 -0.448918 0.866197
v 7.115458 -3.184802 0.553662
vn -0.046887 0.411167 0.910353
v 7.091944 -3.161291 0.535142
vn -0.096794 0.150455 0.983867
v 7.115458 -3.161290 0.532321
vn -0.217077 -0.888529 -0.404219
v 7.138972 -3.478707 0.132606
vn -0.017023 -0.857716 -0.513842
v 7.162486 -3.490465 0.120090
vn 0.088805 -0.959500 0.267346
v 7.162475 -3.483820 0.085540
vn 0.094123 -0.695484 0.712350
v 7.233020 -3.525964 0.555827
vn 0.017766 0.757018 0.653152
v 7.162486 -3.513986 0.552982
vn -0.513119 -0.679654 0.524194
v 7.186000 -3.513985 0.555831
vn -0.586826 0.681510 0.437241
v 7.138972 -3.482516 0.532318
vn -0.971955 0.133423 0.193655
v 7.154658 -3.466954 0.532318
vn -0.851221 0.093566 0.516399
v 7.151958 -3.466954 0.508805
vn 0.149921 0.608453 0.779300
v 7.162486 -3.270697 0.508806
vn 0.290231 0.545237 0.786437
v 7.168788 -3.278854 0.508804
vn -0.086568 0.476465 0.874921
v 7.162486 -3.255342 0.496505
vn -0.193235 0.033901 0.980567
v 7.162486 -3.490465 0.518127
vn -0.999889 -0.003456 0.014462
v 7.186000 -3.512659 0.555830
vn -0.350520 -0.860223 0.370342
v 7.162486 -3.471703 0.532318
vn 0.619636 0.161538 0.768086
v 7.144237 -3.490466 0.532849
vn -0.567749 0.723306 0.393052
v 7.143245 -3.278854 0.461781
vn -0.286796 0.681014 0.673771
v 7.115458 -3.443441 0.485294
vn 0.138799 0.459994 0.877006
v 7.115458 -3.466954 0.493984
vn -0.126293 0.279399 0.951833
v 7.115458 -3.419929 0.448663
vn 0.590193 -0.807258 -0.002377
v 7.162495 -3.470675 0.109094
vn 0.652636 0.373342 0.659305
v 7.096530 -3.419930 0.461780
vn -0.438801 0.744318 0.503432
v 7.138972 -3.484445 0.508805
vn 0.431861 -0.630696 0.644763
v 7.209502 -3.456054 0.085559
vn -0.547385 -0.037272 0.836051
v 7.280047 -3.231830 0.103471
vn 0.233609 -0.217191 0.947763
v 7.280059 -3.325897 0.112825
vn 0.725755 -0.104482 0.679973
v 7.256534 -3.325879 0.126390
# 298 vertices, 0 vertices normals


usemtl material_0
vt 0.727295 0.893799
vt 0.738843 0.893799
vt 0.734130 0.891941
f 1/1/1 2/2/2 3/3/3
vt 0.727295 0.388708
vt 0.729800 0.361932
vt 0.732695 0.358113
f 11/4/11 12/5/12 10/6/10
vt 0.877427 0.893799
vt 0.874629 0.893306
vt 0.864014 0.893799
f 18/7/18 19/8/19 20/9/20
vt 0.906999 0.846924
vt 0.903448 0.845108
vt 0.899170 0.846924
f 21/10/21 22/11/22 23/12/23
vt 0.381981 0.940674
vt 0.376617 0.939849
vt 0.375733 0.940674
f 24/13/24 25/14/25 26/15/26
vt 0.789860 0.846924
vt 0.785741 0.846190
vt 0.781982 0.846924
f 27/16/27 28/17/28 29/18/29
vt 0.861587 0.925049
vt 0.857817 0.924406
vt 0.856201 0.925049
f 30/19/30 31/20/31 32/21/32
vt 0.602295 0.872419
vt 0.605809 0.874268
vt 0.611874 0.872071
f 28/22/28 27/23/27 33/24/33
vt 0.612338 0.874268
f 27/23/27 34/25/34 33/24/33
vt 0.875987 0.083632
vt 0.875732 0.081642
vt 0.883351 0.079251
f 37/26/37 41/27/41 39/28/39
vt 0.555420 0.874268
vt 0.567225 0.874268
vt 0.557793 0.872612
f 45/29/45 46/30/46 47/31/47
vt 0.813254 0.382294
vt 0.816360 0.382317
vt 0.816306 0.393799
f 42/32/42 43/33/43 48/34/48
vt 0.813232 0.393772
f 48/34/48 49/35/49 42/32/42
vt 0.391200 0.202397
vt 0.379723 0.202513
vt 0.395318 0.236832
f 42/36/42 49/37/49 50/38/50
vt 0.391618 0.252176
vt 0.391626 0.255982
f 50/38/50 55/39/55 51/40/51
vt 0.384677 0.259859
f 60/41/60 51/40/51 55/39/55
vt 0.992920 0.600830
vt 0.996206 0.600830
vt 0.993220 0.596198
f 61/42/61 62/43/62 63/44/63
vt 0.341737 0.237267
vt 0.341706 0.233436
vt 0.337522 0.233453
f 59/45/59 64/46/64 14/47/14
vt 0.719482 0.003174
vt 0.725374 0.003174
vt 0.719818 0.002104
f 65/48/65 66/49/66 67/50/67
vt 0.762369 0.003174
vt 0.762407 0.000851
vt 0.758566 0.001185
f 63/51/63 69/52/69 70/53/70
vt 0.758545 0.003174
f 70/53/70 71/54/71 63/51/63
vt 0.211670 0.003174
vt 0.215848 0.000912
vt 0.212001 0.001379
f 72/55/72 34/56/34 73/57/73
vt 0.216797 0.003174
f 72/55/72 33/58/33 34/56/34
vt 0.481617 0.381850
vt 0.478754 0.376222
vt 0.477693 0.389493
f 60/59/60 52/60/52 51/61/51
vt 0.517142 0.323714
vt 0.519455 0.320849
vt 0.516842 0.317777
f 76/62/76 77/63/77 78/64/78
vt 0.539585 0.378187
vt 0.538153 0.395900
vt 0.550599 0.390213
f 80/65/80 81/66/81 82/67/82
vt 0.526633 0.394187
f 80/65/80 83/68/83 81/66/81
vt 0.555744 0.381443
f 82/67/82 84/69/84 80/65/80
vt 0.547930 0.373119
f 84/69/84 85/70/85 80/65/80
vt 0.530370 0.395991
f 83/68/83 86/71/86 81/66/81
vt 0.539743 0.374225
f 85/70/85 87/72/87 80/65/80
vt 0.559254 0.365034
vt 0.551892 0.359028
f 88/73/88 89/74/89 85/70/85
vt 0.559122 0.372759
f 85/70/85 90/75/90 88/73/88
f 85/70/85 84/69/84 90/75/90
vt 0.558776 0.377968
f 84/69/84 91/76/91 90/75/90
vt 0.543816 0.359912
vt 0.539894 0.370425
f 85/70/85 18/77/18 92/78/92
f 85/70/85 89/74/89 18/77/18
f 92/78/92 87/72/87 85/70/85
vt 0.548214 0.355044
f 89/74/89 93/79/93 18/77/18
vt 0.888834 0.197975
vt 0.883410 0.195851
vt 0.883585 0.198486
f 93/80/93 19/81/19 18/82/18
vt 0.889337 0.175620
vt 0.879679 0.172561
vt 0.882070 0.185455
f 94/83/94 95/84/95 20/85/20
vt 0.891467 0.191940
f 20/85/20 96/86/96 94/83/94
f 20/85/20 19/81/19 96/86/96
f 19/81/19 93/80/93 96/86/96
vt 0.555764 0.391147
vt 0.558050 0.386416
f 82/67/82 97/87/97 98/88/98
f 98/88/98 84/69/84 82/67/82
vt 0.482404 0.365288
vt 0.497317 0.378288
vt 0.516546 0.377636
f 99/89/99 100/90/100 101/91/101
f 101/91/101 92/78/92 99/89/99
vt 0.482241 0.372646
f 99/89/99 102/92/102 100/90/100
vt 0.513035 0.355883
vt 0.509156 0.355891
f 99/89/99 103/93/103 104/94/104
f 99/89/99 92/78/92 103/93/103
f 92/78/92 18/77/18 103/93/103
vt 0.863474 0.190308
vt 0.853521 0.198287
f 18/82/18 105/95/105 103/96/103
f 18/82/18 20/85/20 105/95/105
vt 0.855916 0.190966
f 105/95/105 106/97/106 103/96/103
vt 0.852108 0.194023
f 106/97/106 107/98/107 103/96/103
vt 0.557006 0.397705
f 108/99/108 97/87/97 82/67/82
vt 0.511053 0.395839
f 101/91/101 109/100/109 83/68/83
f 83/68/83 80/65/80 101/91/101
f 102/92/102 52/60/52 60/59/60
f 60/59/60 100/90/100 102/92/102
vt 0.491491 0.397705
f 109/100/109 100/90/100 110/101/110
f 109/100/109 101/91/101 100/90/100
vt 0.488220 0.391278
f 100/90/100 111/102/111 110/101/110
f 100/90/100 60/59/60 111/102/111
vt 0.477295 0.390705
f 60/59/60 55/103/55 111/102/111
f 52/60/52 102/92/102 99/89/99
vt 0.479462 0.360508
f 99/89/99 53/104/53 52/60/52
vt 0.849677 0.198486
vt 0.844360 0.192299
vt 0.832764 0.194483
f 104/105/104 46/106/46 45/107/45
vt 0.843883 0.189680
f 104/105/104 112/108/112 46/106/46
vt 0.851155 0.188451
f 107/98/107 113/109/113 112/108/112
f 112/108/112 104/105/104 107/98/107
f 104/105/104 103/96/103 107/98/107
vt 0.873179 0.181855
vt 0.858433 0.187163
f 105/95/105 114/110/114 115/111/115
f 105/95/105 20/85/20 114/110/114
f 20/85/20 95/84/95 114/110/114
vt 0.871299 0.172788
f 95/84/95 116/112/116 114/110/114
vt 0.871396 0.168633
f 95/84/95 8/113/8 116/112/116
vt 0.867678 0.170831
f 8/113/8 75/114/75 116/112/116
vt 0.867846 0.173882
f 75/114/75 117/115/117 116/112/116
vt 0.836599 0.191067
f 46/106/46 112/108/112 118/116/118
vt 0.834857 0.192644
f 118/116/118 47/117/47 46/106/46
vt 0.560012 0.335171
vt 0.550074 0.344073
vt 0.557053 0.347353
f 120/118/120 121/119/121 119/120/119
vt 0.523327 0.321850
vt 0.531775 0.308207
vt 0.523363 0.307703
f 122/121/122 123/122/123 124/123/124
vt 0.534648 0.318128
f 122/121/122 125/124/125 123/122/123
vt 0.516099 0.311611
f 124/123/124 65/125/65 122/121/122
vt 0.535950 0.316009
f 125/124/125 126/126/126 123/122/123
vt 0.535745 0.309086
f 126/126/126 127/127/127 123/122/123
vt 0.534122 0.326166
f 122/121/122 76/62/76 128/128/128
f 128/128/128 125/124/125 122/121/122
f 122/121/122 77/63/77 76/62/76
vt 0.540526 0.323105
vt 0.538520 0.326351
f 129/129/129 125/124/125 130/130/130
f 129/129/129 126/126/126 125/124/125
vt 0.538421 0.333774
vt 0.538232 0.326823
f 128/128/128 131/131/131 132/132/132
vt 0.515656 0.334276
f 128/128/128 133/133/133 131/131/131
f 128/128/128 76/62/76 133/133/133
vt 0.509272 0.322766
f 76/62/76 134/134/134 133/133/133
f 76/62/76 78/64/78 134/134/134
vt 0.541259 0.336483
f 132/132/132 131/131/131 135/135/135
vt 0.536701 0.336535
f 131/131/131 136/136/136 135/135/135
vt 0.539680 0.340276
f 136/136/136 137/137/137 135/135/135
vt 0.552633 0.332681
vt 0.555831 0.334782
f 28/138/28 121/119/121 29/139/29
f 28/138/28 135/135/135 121/119/121
vt 0.544609 0.345645
f 135/135/135 138/140/138 121/119/121
f 135/135/135 137/137/137 138/140/138
vt 0.540750 0.344587
f 137/137/137 139/141/139 138/140/138
vt 0.505394 0.350830
f 136/136/136 133/133/133 140/142/140
f 136/136/136 131/131/131 133/133/133
vt 0.498834 0.346930
f 133/133/133 141/143/141 140/142/140
vt 0.597864 0.041433
vt 0.587821 0.034708
vt 0.575794 0.046143
f 140/144/140 142/145/142 143/146/143
vt 0.528876 0.350830
f 143/147/143 136/136/136 140/142/140
vt 0.578300 0.040223
f 142/145/142 144/148/144 143/146/143
f 143/147/143 139/141/139 136/136/136
f 139/141/139 137/137/137 136/136/136
vt 0.555736 0.349408
f 121/119/121 38/149/38 119/120/119
vt 0.548844 0.349727
f 121/119/121 37/150/37 38/149/38
vt 0.547879 0.347632
f 121/119/121 41/151/41 37/150/37
f 121/119/121 138/140/138 41/151/41
vt 0.499134 0.339166
f 141/143/141 133/133/133 68/152/68
vt 0.499349 0.331561
f 133/133/133 79/153/79 68/152/68
f 133/133/133 134/134/134 79/153/79
vt 0.503325 0.325102
f 134/134/134 36/154/36 79/153/79
vt 0.566086 0.041070
vt 0.566309 0.045891
f 145/155/145 146/156/146 143/146/143
vt 0.592609 0.031783
vt 0.605552 0.042291
f 147/157/147 140/144/140 141/158/141
f 147/157/147 142/145/142 140/144/140
f 101/91/101 80/65/80 87/72/87
f 101/91/101 87/72/87 92/78/92
vt 0.482381 0.361888
vt 0.482385 0.362396
f 104/94/104 148/159/148 149/160/149
f 104/94/104 149/160/149 99/89/99
f 107/98/107 106/97/106 113/109/113
vt 0.947318 0.027431
vt 0.950086 0.031278
vt 0.946045 0.034896
f 105/161/105 115/162/115 106/163/106
vt 0.954976 0.035854
vt 0.953125 0.039427
vt 0.953812 0.031605
f 150/164/150 151/165/151 152/166/152
vt 0.949942 0.035437
f 151/165/151 153/167/153 152/166/152
vt 0.503996 0.064192
vt 0.508017 0.071819
vt 0.508941 0.066436
f 154/168/154 155/169/155 156/170/156
vt 0.499958 0.052595
vt 0.495017 0.055672
vt 0.492382 0.059079
f 157/171/157 158/172/158 159/173/159
vt 0.491595 0.050478
f 159/173/159 158/172/158 160/174/160
f 158/172/158 157/171/157 160/174/160
vt 0.923810 0.339537
vt 0.941381 0.343915
vt 0.946918 0.339134
f 161/175/161 4/176/4 6/177/6
vt 0.951398 0.015586
vt 0.955531 0.019140
f 115/162/115 114/178/114 162/179/162
vt 0.960793 0.025108
vt 0.957531 0.031931
f 162/179/162 163/180/163 164/181/164
vt 0.922607 0.350830
f 4/176/4 161/175/161 44/182/44
vt 0.720708 0.359711
vt 0.721021 0.352135
vt 0.711781 0.356979
f 161/183/161 48/184/48 44/185/44
vt 0.949044 0.038650
f 113/186/113 153/167/153 151/165/151
f 113/186/113 106/163/106 153/167/153
vt 0.971969 0.054940
f 164/181/164 167/187/167 150/164/150
vt 0.976469 0.053299
f 164/181/164 168/188/168 167/187/167
f 150/164/150 152/166/152 164/181/164
f 152/166/152 153/167/153 115/162/115
f 153/167/153 106/163/106 115/162/115
vt 0.961670 0.209333
vt 0.963187 0.214111
vt 0.971051 0.213428
f 56/189/56 169/190/169 170/191/170
vt 0.968125 0.204264
f 170/191/170 57/192/57 56/189/56
vt 0.946045 0.069580
vt 0.947228 0.058057
vt 0.954460 0.062771
f 169/193/169 45/194/45 171/195/171
vt 0.953782 0.066261
f 171/195/171 170/196/170 169/193/169
vt 0.955141 0.055424
f 45/194/45 172/197/172 171/195/171
vt 0.957542 0.066629
f 171/195/171 173/198/173 170/196/170
vt 0.947101 0.055525
vt 0.946977 0.053406
f 47/199/47 118/200/118 172/197/172
f 172/197/172 45/194/45 47/199/47
f 150/164/150 167/187/167 172/197/172
f 172/197/172 151/165/151 150/164/150
vt 0.967987 0.058032
f 167/187/167 174/201/174 172/197/172
vt 0.947986 0.046000
f 172/197/172 112/202/112 151/165/151
f 174/201/174 171/195/171 172/197/172
f 172/197/172 118/200/118 112/202/112
f 112/202/112 113/186/113 151/165/151
vt 0.515068 0.073486
vt 0.510743 0.068405
f 175/203/175 176/204/176 155/169/155
vt 0.540647 0.066608
vt 0.525015 0.065730
vt 0.527215 0.066751
f 177/205/177 178/206/178 179/207/179
vt 0.544609 0.073486
f 179/207/179 2/208/2 177/205/177
vt 0.544247 0.066660
f 2/208/2 180/209/180 177/205/177
vt 0.978110 0.068212
f 174/201/174 181/210/181 173/198/173
f 173/198/173 171/195/171 174/201/174
vt 0.972115 0.058861
f 174/201/174 182/211/182 181/210/181
vt 0.974753 0.212449
vt 0.997713 0.209014
vt 0.971784 0.203127
f 173/212/173 183/213/183 58/214/58
vt 0.995305 0.214111
f 173/212/173 181/215/181 183/213/183
f 58/214/58 170/191/170 173/212/173
f 58/214/58 57/192/57 170/191/170
vt 0.984063 0.052642
f 168/188/168 163/180/163 184/216/184
f 168/188/168 164/181/164 163/180/163
vt 0.980953 0.054694
f 184/216/184 185/217/185 168/188/168
vt 0.524262 0.060579
vt 0.516211 0.051704
f 186/218/186 187/219/187 176/204/176
vt 0.525721 0.072908
f 176/204/176 188/220/188 186/218/186
f 176/204/176 175/203/175 188/220/188
vt 0.533123 0.036062
vt 0.513182 0.033299
f 189/221/189 190/222/190 187/219/187
vt 0.532718 0.047146
f 187/219/187 191/223/191 189/221/189
vt 0.503390 0.042408
f 190/222/190 192/224/192 187/219/187
f 187/219/187 186/218/186 191/223/191
vt 0.540658 0.055263
f 186/218/186 193/225/193 191/223/191
f 186/218/186 177/205/177 193/225/193
f 186/218/186 178/206/178 177/205/177
vt 0.499189 0.043955
f 192/224/192 74/226/74 187/219/187
vt 0.544475 0.055998
f 194/227/194 193/225/193 177/205/177
f 177/205/177 180/209/180 194/227/194
vt 0.550871 0.060715
f 180/209/180 195/228/195 194/227/194
vt 0.501694 0.062514
vt 0.502433 0.073057
f 196/229/196 197/230/197 154/168/154
vt 0.498868 0.073278
f 196/229/196 198/231/198 197/230/197
vt 0.510493 0.065565
f 199/232/199 187/219/187 157/171/157
f 187/219/187 74/226/74 157/171/157
f 199/232/199 176/204/176 187/219/187
f 157/171/157 159/173/159 196/229/196
vt 0.495323 0.073464
f 159/173/159 200/233/200 196/229/196
vt 0.483343 0.058359
f 159/173/159 201/234/201 200/233/200
f 200/233/200 198/231/198 196/229/196
f 74/226/74 160/174/160 157/171/157
vt 0.486743 0.051806
f 159/173/159 202/235/202 201/234/201
f 159/173/159 160/174/160 202/235/202
f 156/170/156 176/204/176 199/232/199
f 156/170/156 155/169/155 176/204/176
vt 0.503925 0.063288
f 199/232/199 203/236/203 156/170/156
f 154/168/154 203/236/203 196/229/196
f 154/168/154 156/170/156 203/236/203
vt 0.544821 0.053801
f 195/228/195 204/237/204 194/227/194
vt 0.554220 0.052853
f 195/228/195 205/238/205 204/237/204
vt 0.543854 0.042509
f 204/237/204 206/239/206 191/223/191
vt 0.547852 0.043809
f 204/237/204 207/240/207 206/239/206
f 191/223/191 193/225/193 204/237/204
f 193/225/193 194/227/194 204/237/204
vt 0.977704 0.056339
f 206/241/206 167/187/167 168/188/168
vt 0.975429 0.059878
f 206/241/206 207/242/207 167/187/167
f 207/242/207 182/211/182 167/187/167
f 168/188/168 185/217/185 206/241/206
f 182/211/182 174/201/174 167/187/167
vt 0.754261 0.373149
vt 0.775972 0.379770
vt 0.756954 0.368979
f 208/243/208 12/244/12 209/245/209
vt 0.775801 0.389893
f 208/243/208 210/246/210 12/244/12
vt 0.777936 0.383667
f 210/246/210 10/247/10 12/244/12
vt 0.753294 0.369296
f 209/245/209 211/248/211 208/243/208
f 207/242/207 181/210/181 182/211/182
vt 0.772765 0.353070
vt 0.757144 0.357600
f 11/249/11 212/250/212 209/245/209
f 209/245/209 12/244/12 11/249/11
vt 0.541249 0.040110
f 191/223/191 185/251/185 189/221/189
f 191/223/191 206/239/206 185/251/185
vt 0.540049 0.034822
f 185/251/185 184/252/184 189/221/189
vt 0.747305 0.373891
vt 0.740966 0.374492
vt 0.739613 0.378641
f 184/253/184 213/254/213 189/255/189
vt 0.745010 0.372551
f 184/253/184 214/256/214 213/254/213
vt 0.518920 0.028643
f 189/221/189 215/257/215 190/222/190
vt 0.537105 0.032598
f 189/221/189 213/258/213 215/257/215
vt 0.748116 0.372228
vt 0.743115 0.366494
f 216/259/216 211/248/211 217/260/217
f 216/259/216 208/243/208 211/248/211
f 217/260/217 214/256/214 216/259/216
vt 0.753550 0.357355
f 218/261/218 217/260/217 211/248/211
vt 0.743395 0.358917
f 218/261/218 219/262/219 217/260/217
f 211/248/211 212/250/212 218/261/218
f 211/248/211 209/245/209 212/250/212
vt 0.744175 0.357258
vt 0.731376 0.359273
f 220/263/220 221/264/221 219/262/219
vt 0.722366 0.349361
f 220/263/220 49/265/49 221/264/221
f 49/265/49 48/184/48 221/264/221
f 213/254/213 217/260/217 221/264/221
vt 0.731717 0.389893
f 221/264/221 215/266/215 213/254/213
f 217/260/217 219/262/219 221/264/221
f 213/254/213 214/256/214 217/260/217
vt 0.513455 0.027680
vt 0.493420 0.042147
vt 0.497913 0.040631
f 223/267/223 224/268/224 222/269/222
f 222/269/222 190/222/190 223/267/223
f 222/269/222 192/224/192 190/222/190
f 190/222/190 215/257/215 223/267/223
vt 0.979410 0.338304
vt 0.957124 0.329906
vt 0.963267 0.344036
f 224/270/224 223/271/223 165/272/165
vt 0.958025 0.337241
f 223/271/223 166/273/166 165/272/165
vt 0.725115 0.371092
f 221/264/221 161/183/161 225/274/225
vt 0.938083 0.328345
vt 0.934978 0.334695
f 6/177/6 226/275/226 225/276/225
vt 0.954352 0.337798
vt 0.953127 0.326435
f 6/177/6 5/277/5 215/278/215
f 5/277/5 223/271/223 215/278/215
f 221/264/221 48/184/48 161/183/161
f 5/277/5 166/273/166 223/271/223
vt 0.711670 0.353174
f 43/279/43 44/185/44 48/184/48
f 162/179/162 164/181/164 152/166/152
f 162/179/162 152/166/152 115/162/115
f 157/171/157 196/229/196 203/236/203
f 157/171/157 203/236/203 199/232/199
f 6/177/6 215/278/215 226/275/226
vt 0.731547 0.374583
f 225/274/225 226/280/226 221/264/221
f 225/276/225 161/175/161 6/177/6
vt 0.711670 0.745361
vt 0.722219 0.745361
vt 0.719237 0.742351
f 90/281/90 227/282/227 88/283/88
vt 0.330000 0.440674
vt 0.327892 0.436125
vt 0.324951 0.440674
f 169/284/169 56/285/56 54/286/54
vt 0.828847 0.663999
vt 0.824951 0.667236
vt 0.830437 0.667236
f 228/287/228 229/288/229 230/289/230
vt 0.601705 0.800569
vt 0.598389 0.797481
vt 0.599069 0.803955
f 231/290/231 17/291/17 8/292/8
vt 0.817388 0.777144
vt 0.826161 0.780517
vt 0.820431 0.772244
f 155/293/155 154/294/154 197/295/197
vt 0.320654 0.865439
vt 0.326997 0.873515
vt 0.328906 0.864441
f 89/296/89 232/297/232 96/298/96
vt 0.317139 0.874268
f 89/296/89 88/299/88 232/297/232
vt 0.729326 0.742525
f 88/283/88 227/282/227 232/300/232
vt 0.323389 0.860754
f 96/298/96 93/301/93 89/296/89
vt 0.604419 0.667236
vt 0.602890 0.663884
vt 0.598507 0.667236
f 98/302/98 233/303/233 84/304/84
vt 0.327882 0.092334
vt 0.324951 0.096924
vt 0.329472 0.096924
f 84/305/84 234/306/234 91/307/91
vt 0.598389 0.662014
f 84/304/84 233/303/233 234/308/234
vt 0.010855 0.515221
vt 0.025971 0.511356
vt 0.015511 0.510314
f 234/309/234 227/310/227 90/311/90
vt 0.023181 0.523936
f 234/309/234 235/312/235 227/310/227
vt 0.034131 0.517470
f 235/312/235 236/313/236 227/310/227
vt 0.033356 0.510805
f 236/313/236 232/314/232 227/310/227
vt 0.010167 0.510951
f 90/311/90 91/315/91 234/309/234
vt 0.342943 0.874268
vt 0.345566 0.863883
f 96/298/96 237/316/237 94/317/94
f 96/298/96 232/297/232 237/316/237
vt 0.347222 0.868946
f 237/316/237 238/318/238 94/317/94
vt 0.953857 0.932914
vt 0.971253 0.927712
vt 0.967312 0.919246
f 81/319/81 239/320/239 108/321/108
vt 0.954380 0.918211
f 108/321/108 82/322/82 81/319/81
vt 0.958315 0.936787
f 81/319/81 240/323/240 239/320/239
vt 0.477295 0.712773
vt 0.482445 0.714111
vt 0.485763 0.710568
f 108/324/108 241/325/241 97/326/97
vt 0.491015 0.714111
f 97/326/97 241/325/241 242/327/242
vt 0.006887 0.518923
vt 0.003681 0.514093
vt 0.000732 0.518193
f 242/328/242 98/329/98 97/330/97
vt 0.220854 0.134125
vt 0.209611 0.140481
vt 0.221694 0.143799
f 242/331/242 243/332/243 244/333/244
vt 0.213305 0.129530
f 242/331/242 241/334/241 243/332/243
vt 0.210321 0.143799
f 243/332/243 245/335/245 244/333/244
vt 0.207661 0.130148
f 241/334/241 108/336/108 243/332/243
vt 0.201892 0.136377
f 108/336/108 246/337/246 243/332/243
vt 0.011501 0.526883
vt 0.011346 0.521486
f 244/338/244 247/339/247 242/328/242
vt 0.199951 0.134327
f 108/336/108 248/340/248 246/337/246
vt 0.011748 0.526607
f 244/338/244 249/341/249 247/339/247
vt 0.007487 0.512908
f 242/328/242 234/309/234 233/342/233
f 242/328/242 247/339/247 234/309/234
f 233/342/233 98/329/98 242/328/242
vt 0.590576 0.667236
vt 0.593892 0.667236
vt 0.593748 0.662163
f 99/343/99 149/344/149 53/345/53
vt 0.812099 0.879450
vt 0.813158 0.887895
vt 0.814760 0.881864
f 54/346/54 148/347/148 250/348/250
vt 0.809326 0.889893
f 54/346/54 53/349/53 148/347/148
vt 0.594474 0.667236
f 53/345/53 149/344/149 148/350/148
vt 0.827325 0.879090
vt 0.840605 0.889893
f 45/351/45 148/347/148 104/352/104
f 45/351/45 250/348/250 148/347/148
vt 0.815838 0.877438
f 45/351/45 169/353/169 250/348/250
vt 0.038514 0.528091
vt 0.046111 0.534424
vt 0.047176 0.517347
f 251/354/251 252/355/252 237/356/237
f 237/356/237 236/313/236 251/354/251
f 237/356/237 232/314/232 236/313/236
vt 0.033600 0.528348
f 236/313/236 253/357/253 251/354/251
vt 0.267180 0.419121
vt 0.266707 0.420191
vt 0.268880 0.425049
f 253/358/253 254/359/254 251/360/251
vt 0.020945 0.532098
f 249/341/249 21/361/21 235/312/235
vt 0.013337 0.534424
f 249/341/249 255/362/255 21/361/21
vt 0.209184 0.104732
vt 0.204741 0.098626
vt 0.199951 0.104736
f 21/363/21 256/364/256 235/365/235
f 249/341/249 244/338/244 255/362/255
vt 0.029950 0.528292
f 257/366/257 253/357/253 236/313/236
f 236/313/236 235/312/235 257/366/257
vt 0.357789 0.795189
vt 0.349967 0.796900
vt 0.346112 0.801555
f 235/367/235 256/368/256 258/369/258
vt 0.362115 0.803955
f 258/369/258 257/370/257 235/367/235
vt 0.344409 0.796808
f 256/368/256 259/371/259 258/369/258
vt 0.263684 0.417772
f 257/372/257 254/359/254 253/358/253
vt 0.261641 0.420700
f 257/372/257 260/373/260 254/359/254
vt 0.384609 0.802451
vt 0.376148 0.801887
vt 0.381190 0.803955
f 257/374/257 69/375/69 260/376/260
vt 0.369426 0.796480
f 257/374/257 258/377/258 69/375/69
vt 0.372684 0.803591
f 258/377/258 70/378/70 69/375/69
vt 0.258545 0.424843
vt 0.260350 0.425049
f 260/373/260 69/379/69 63/380/63
vt 0.265477 0.423031
f 63/380/63 62/381/62 260/373/260
f 62/381/62 254/359/254 260/373/260
f 62/381/62 251/360/251 254/359/254
vt 0.607992 0.801518
vt 0.616154 0.801049
vt 0.607307 0.797123
f 95/382/95 261/383/261 262/384/262
vt 0.618438 0.803955
f 95/382/95 94/385/94 261/383/261
f 262/384/262 231/290/231 95/382/95
f 231/290/231 8/292/8 95/382/95
vt 0.631195 0.698486
vt 0.633942 0.695794
vt 0.628413 0.695763
f 238/386/238 263/387/263 261/388/261
vt 0.552268 0.989987
vt 0.541151 0.987165
vt 0.538364 0.998696
f 188/389/188 175/390/175 83/391/83
vt 0.553900 0.999268
f 83/391/83 109/392/109 188/389/188
vt 0.557880 0.983554
f 109/392/109 179/393/179 188/389/188
vt 0.570103 0.997686
f 109/392/109 2/394/2 179/393/179
vt 0.573539 0.999268
f 109/392/109 110/395/110 2/394/2
vt 0.535558 0.993716
f 175/390/175 264/396/264 83/391/83
vt 0.536498 0.989943
f 175/390/175 265/397/265 264/396/264
vt 0.534703 0.997207
f 264/396/264 86/398/86 83/391/83
vt 0.574495 0.995581
f 110/395/110 3/399/3 2/394/2
vt 0.971856 0.926646
f 248/400/248 108/321/108 239/320/239
vt 0.214889 0.099914
vt 0.205392 0.093471
f 256/364/256 23/401/23 259/402/259
f 256/364/256 21/363/21 23/401/23
vt 0.967763 0.851383
vt 0.972056 0.850622
vt 0.969624 0.848282
f 229/403/229 63/404/63 71/405/71
vt 0.970273 0.854736
f 229/403/229 61/406/61 63/404/63
vt 0.035278 0.532262
f 61/407/61 252/355/252 251/354/251
vt 0.865292 0.725830
vt 0.858216 0.719719
vt 0.854202 0.725830
f 61/408/61 26/409/26 252/410/252
vt 0.728833 0.682861
vt 0.724654 0.679356
vt 0.719482 0.682861
f 61/411/61 24/412/24 26/413/26
vt 0.852295 0.722501
f 26/409/26 267/414/267 252/410/252
vt 0.034706 0.529290
f 251/354/251 62/415/62 61/407/61
vt 0.781274 0.858735
vt 0.777519 0.864071
vt 0.781564 0.873638
f 252/416/252 268/417/268 269/418/269
vt 0.789228 0.874268
f 269/418/269 237/419/237 252/416/252
vt 0.777611 0.874230
f 268/417/268 120/420/120 269/418/269
vt 0.777441 0.858861
f 252/416/252 267/421/267 268/417/268
vt 0.355888 0.848066
vt 0.348327 0.848770
vt 0.352098 0.853463
f 237/422/237 269/423/269 270/424/270
vt 0.355835 0.854736
f 270/424/270 238/425/238 237/422/237
vt 0.348322 0.853875
f 269/423/269 271/426/271 270/424/270
vt 0.352057 0.854519
f 270/424/270 263/427/263 238/425/238
vt 0.720425 0.780517
vt 0.721552 0.774740
vt 0.712014 0.774719
f 15/428/15 262/429/262 261/430/261
vt 0.967089 0.709301
vt 0.966759 0.708180
vt 0.961670 0.714111
f 263/431/263 270/432/270 9/433/9
vt 0.972491 0.714111
f 9/433/9 7/434/7 263/431/263
vt 0.972497 0.710457
f 7/434/7 261/435/261 263/431/263
vt 0.955753 0.944580
vt 0.967098 0.944265
f 240/323/240 265/436/265 197/437/197
vt 0.528076 0.991387
f 240/438/240 264/396/264 265/397/265
vt 0.578285 0.997068
f 110/395/110 272/439/272 3/399/3
vt 0.335713 0.819580
vt 0.335114 0.813024
vt 0.330521 0.819451
f 110/440/110 111/441/111 272/442/272
vt 0.579674 0.991272
f 272/439/272 1/443/1 3/399/3
vt 0.581167 0.993600
f 272/439/272 273/444/273 1/443/1
vt 0.326226 0.806675
vt 0.322048 0.818200
f 55/445/55 274/446/274 272/442/272
f 272/442/272 111/441/111 55/445/55
vt 0.317139 0.819580
f 55/445/55 50/447/50 274/446/274
vt 0.301332 0.839111
vt 0.301246 0.832054
vt 0.282166 0.836756
f 9/448/9 271/449/271 119/450/119
vt 0.305082 0.832267
f 9/448/9 270/451/270 271/449/271
vt 0.547571 0.792236
vt 0.547111 0.789714
vt 0.539392 0.791174
f 201/452/201 35/453/35 275/454/275
vt 0.295245 0.617918
vt 0.292404 0.614991
vt 0.290264 0.618718
f 248/455/248 266/456/266 66/457/66
vt 0.293817 0.620361
f 66/457/66 246/458/246 248/455/248
vt 0.289182 0.612884
f 266/456/266 276/459/276 66/457/66
vt 0.289528 0.620005
f 66/457/66 278/460/278 246/458/246
vt 0.286290 0.620361
f 66/457/66 279/461/279 278/460/278
vt 0.306754 0.190674
vt 0.304446 0.187049
vt 0.301054 0.188865
f 124/462/124 280/463/280 279/464/279
vt 0.297607 0.190674
f 279/464/279 65/465/65 124/462/124
vt 0.299089 0.185898
f 279/464/279 66/466/66 65/465/65
vt 0.212897 0.089859
vt 0.218118 0.097664
f 129/467/129 23/401/23 126/468/126
f 129/467/129 259/402/259 23/401/23
vt 0.218424 0.104736
f 23/401/23 127/469/127 126/468/126
vt 0.675620 0.678360
vt 0.672607 0.682861
vt 0.682223 0.682861
f 129/470/129 281/471/281 258/472/258
vt 0.340576 0.803955
f 258/369/258 259/371/259 129/473/129
vt 0.423425 0.775040
vt 0.427431 0.774771
vt 0.428011 0.773468
f 129/474/129 282/475/282 281/476/281
vt 0.970370 0.846751
vt 0.962684 0.842118
vt 0.965206 0.846765
f 70/477/70 281/478/281 230/479/230
vt 0.364014 0.803955
f 70/378/70 258/377/258 281/480/281
vt 0.961233 0.844618
f 281/478/281 283/481/283 230/479/230
vt 0.961909 0.851792
f 283/481/283 26/482/26 230/479/230
vt 0.956002 0.844865
f 283/481/283 27/483/27 26/482/26
f 230/479/230 71/405/71 70/477/70
f 230/479/230 229/403/229 71/405/71
vt 0.729239 0.780518
f 262/429/262 15/428/15 17/484/17
vt 0.727169 0.772964
f 17/484/17 231/485/231 262/429/262
vt 0.344286 0.851465
vt 0.328857 0.854736
f 120/486/120 119/487/119 271/426/271
f 271/426/271 269/423/269 120/486/120
vt 0.286053 0.618741
vt 0.285889 0.610884
f 284/488/284 276/459/276 285/489/285
vt 0.754639 0.667236
vt 0.755591 0.662371
vt 0.754834 0.663007
f 286/490/286 66/491/66 287/492/287
vt 0.758439 0.667236
f 286/490/286 67/493/67 66/491/66
vt 0.387950 0.821328
vt 0.383545 0.827393
vt 0.401640 0.827393
f 65/494/65 31/495/31 122/496/122
vt 0.383610 0.825661
f 65/494/65 32/497/32 31/495/31
vt 0.292882 0.649418
vt 0.292087 0.650209
vt 0.292262 0.655517
f 65/498/65 67/499/67 32/500/32
vt 0.302954 0.374321
vt 0.297607 0.377844
vt 0.298769 0.378174
f 230/501/230 26/502/26 25/503/25
vt 0.305279 0.378174
f 25/503/25 288/504/288 230/501/230
vt 0.305251 0.377068
f 288/504/288 228/505/228 230/501/230
vt 0.949951 0.849053
vt 0.955280 0.854736
f 27/483/27 29/506/29 268/507/268
f 268/507/268 26/482/26 27/483/27
vt 0.927704 0.682861
vt 0.924073 0.679124
vt 0.918701 0.682861
f 268/508/268 267/509/267 26/510/26
vt 0.769919 0.866280
vt 0.762451 0.874268
f 120/420/120 29/511/29 121/512/121
f 120/420/120 268/417/268 29/511/29
vt 0.285889 0.647517
vt 0.286811 0.655518
f 67/499/67 284/513/284 285/514/285
f 285/514/285 32/500/32 67/499/67
vt 0.289597 0.647399
f 67/499/67 286/515/286 284/513/284
vt 0.531739 0.791210
vt 0.534302 0.784560
f 277/516/277 275/454/275 30/517/30
vt 0.529274 0.786171
f 30/517/30 32/518/32 277/516/277
vt 0.531721 0.791056
f 32/518/32 285/519/285 277/516/277
vt 0.254490 0.315674
vt 0.253234 0.312065
vt 0.242920 0.315673
f 31/520/31 30/521/30 78/522/78
vt 0.542899 0.742138
vt 0.535889 0.745361
vt 0.553941 0.745361
f 78/523/78 122/524/122 31/525/31
vt 0.245240 0.306742
f 30/521/30 134/526/134 78/522/78
vt 0.248815 0.301425
f 30/521/30 36/527/36 134/526/134
vt 0.538686 0.742650
f 78/523/78 77/528/77 122/524/122
vt 0.309326 0.577393
vt 0.314080 0.577392
vt 0.312413 0.566681
f 128/529/128 130/530/130 125/531/125
vt 0.423123 0.779078
vt 0.422915 0.778428
vt 0.418701 0.780518
f 132/532/132 130/533/130 128/534/128
f 132/532/132 129/474/129 130/533/130
f 132/532/132 282/475/282 129/474/129
vt 0.432385 0.776183
vt 0.431043 0.772488
f 72/535/72 283/536/283 282/475/282
f 282/475/282 132/532/132 72/535/72
vt 0.434300 0.775564
f 72/535/72 73/537/73 283/536/283
f 283/536/283 281/476/281 282/475/282
vt 0.558173 0.680098
vt 0.555420 0.682861
vt 0.562038 0.682861
f 73/538/73 34/539/34 27/540/27
vt 0.562289 0.677499
f 27/540/27 283/541/283 73/538/73
vt 0.269244 0.007214
vt 0.258545 0.006458
vt 0.260697 0.014893
f 33/542/33 132/543/132 135/544/135
vt 0.434941 0.780518
f 33/545/33 72/535/72 132/532/132
vt 0.272063 0.014893
f 33/542/33 135/544/135 28/546/28
vt 0.545723 0.783046
f 275/454/275 35/453/35 36/547/36
f 36/547/36 30/517/30 275/454/275
vt 0.349016 0.780518
vt 0.345674 0.768666
vt 0.340576 0.772588
f 139/548/139 146/549/146 39/550/39
vt 0.357326 0.769602
f 139/548/139 143/551/143 146/549/146
vt 0.344735 0.780356
f 39/550/39 138/552/138 139/548/139
vt 0.341315 0.780518
f 39/550/39 41/553/41 138/552/138
f 234/309/234 247/339/247 235/312/235
f 247/339/247 249/341/249 235/312/235
vt 0.289322 0.618723
f 284/488/284 287/554/287 276/459/276
f 287/554/287 66/457/66 276/459/276
vt 0.915486 0.667236
vt 0.912301 0.663319
vt 0.910889 0.667236
f 169/555/169 54/556/54 250/557/250
vt 0.671093 0.690674
vt 0.669631 0.685181
vt 0.667478 0.689538
f 289/558/289 243/559/243 290/560/290
vt 0.576349 0.690674
vt 0.576040 0.687086
vt 0.572377 0.686522
f 116/561/116 117/562/117 162/563/162
vt 0.898082 0.813458
vt 0.888188 0.818393
vt 0.898170 0.819580
f 291/564/291 124/565/124 123/566/123
vt 0.322565 0.221924
vt 0.319844 0.215977
vt 0.317139 0.221924
f 24/567/24 288/568/288 25/569/25
vt 0.318584 0.054329
vt 0.317139 0.057861
vt 0.320968 0.057861
f 287/570/287 284/571/284 286/572/286
vt 0.582979 0.994541
f 292/573/292 273/444/273 272/439/272
vt 0.031303 0.131599
vt 0.034649 0.136873
vt 0.039786 0.132252
f 10/574/10 210/575/210 13/576/13
vt 0.567139 0.690674
f 114/577/114 116/561/116 162/563/162
vt 0.315631 0.151611
vt 0.310997 0.143626
vt 0.309326 0.151611
f 81/578/81 264/579/264 240/580/240
vt 0.314481 0.143933
f 81/578/81 86/581/86 264/579/264
vt 0.410595 0.725830
vt 0.407309 0.720402
vt 0.404054 0.718949
f 245/582/245 293/583/293 255/584/255
vt 0.399170 0.725830
f 255/584/255 244/585/244 245/582/245
vt 0.302098 0.049250
vt 0.307002 0.050049
vt 0.307521 0.048928
f 229/586/229 228/587/228 288/588/288
vt 0.301528 0.046458
f 288/588/288 24/589/24 229/586/229
vt 0.297608 0.050049
f 24/589/24 61/590/61 229/586/229
vt 0.660889 0.685170
vt 0.662500 0.690674
f 246/591/246 294/592/294 290/560/290
f 290/560/290 243/559/243 246/591/246
vt 0.879639 0.812294
vt 0.880895 0.816351
vt 0.883458 0.814546
f 246/593/246 278/594/278 294/595/294
vt 0.412380 0.722887
vt 0.409345 0.717291
f 289/596/289 291/597/291 293/583/293
vt 0.891148 0.813878
f 289/598/289 124/565/124 291/564/291
f 293/583/293 245/582/245 289/596/289
vt 0.319912 0.391083
vt 0.317139 0.393799
vt 0.322867 0.393799
f 245/599/245 243/600/243 289/601/289
vt 0.269250 0.143799
vt 0.271279 0.140516
vt 0.264172 0.136908
f 22/602/22 21/603/21 255/604/255
vt 0.260861 0.143799
f 255/604/255 123/605/123 22/602/22
vt 0.258545 0.138368
f 255/604/255 291/606/291 123/605/123
f 255/584/255 293/583/293 291/597/291
vt 0.006388 0.135846
vt 0.003931 0.147705
f 210/575/210 208/607/208 184/608/184
vt 0.040445 0.144274
f 184/608/184 163/609/163 210/575/210
vt 0.002321 0.142403
f 208/607/208 216/610/216 184/608/184
vt 0.049445 0.140604
f 163/609/163 75/611/75 210/575/210
vt 0.809326 0.775331
vt 0.810863 0.780517
f 265/612/265 175/613/175 155/293/155
f 155/293/155 197/295/197 265/612/265
vt 0.281032 0.189220
vt 0.275597 0.196472
vt 0.281943 0.198486
f 180/614/180 1/615/1 195/616/195
vt 0.275955 0.185106
f 180/614/180 2/617/2 1/615/1
vt 0.887514 0.812359
vt 0.885196 0.817635
f 290/618/290 280/619/280 124/565/124
f 290/618/290 294/595/294 280/619/280
f 124/565/124 289/598/289 290/618/290
vt 0.545891 0.661649
vt 0.543701 0.667236
vt 0.548349 0.667236
f 127/620/127 23/621/23 22/622/22
vt 0.367920 0.690674
vt 0.376492 0.690674
vt 0.373220 0.687645
f 22/623/22 123/624/123 127/625/127
vt 0.046366 0.134831
f 210/575/210 16/626/16 13/576/13
f 210/575/210 75/611/75 16/626/16
vt 0.802376 0.706299
vt 0.795561 0.701198
vt 0.794701 0.704519
f 188/627/188 179/628/179 178/629/178
vt 0.789795 0.706299
f 178/629/178 186/630/186 188/627/188
vt 0.060037 0.581250
vt 0.068353 0.584349
vt 0.064246 0.577685
f 292/631/292 295/632/295 195/633/195
vt 0.059665 0.585113
f 292/631/292 274/634/274 295/632/295
vt 0.055420 0.578633
f 292/631/292 272/635/272 274/634/274
vt 0.882377 0.819580
f 280/619/280 278/594/278 279/636/279
f 280/619/280 294/595/294 278/594/278
vt 0.659308 0.903546
vt 0.654087 0.897962
vt 0.637221 0.896776
f 183/637/183 296/638/296 64/639/64
vt 0.633545 0.909424
f 64/639/64 58/640/58 183/637/183
vt 0.634141 0.899232
f 64/639/64 59/641/59 58/640/58
vt 0.099177 0.589111
vt 0.088256 0.570059
f 295/632/295 49/642/49 297/643/297
vt 0.062868 0.589111
f 295/632/295 50/644/50 49/642/49
vt 0.093138 0.567631
f 49/642/49 220/645/220 297/643/297
f 295/632/295 274/634/274 50/644/50
vt 0.276213 0.198486
f 292/646/292 195/616/195 1/615/1
vt 0.274170 0.196765
f 1/615/1 273/647/273 292/646/292
vt 0.072557 0.578499
f 195/633/195 295/632/295 205/648/205
vt 0.069575 0.569247
vt 0.084679 0.567465
vt 0.078910 0.560635
f 204/649/204 298/650/298 207/651/207
f 204/649/204 205/648/205 298/650/298
f 297/643/297 298/650/298 205/648/205
f 205/648/205 295/632/295 297/643/297
vt 0.086876 0.565054
f 207/651/207 298/650/298 181/652/181
f 298/650/298 297/643/297 181/652/181
vt 0.092447 0.564659
f 297/643/297 183/653/183 181/652/181
vt 0.639210 0.889694
f 11/654/11 64/639/64 296/638/296
vt 0.655432 0.891872
f 296/638/296 212/655/212 11/654/11
vt 0.635160 0.893021
f 11/654/11 14/656/14 64/639/64
vt 0.658189 0.894597
f 296/638/296 218/657/218 212/655/212
vt 0.000732 0.145623
f 184/608/184 216/610/216 214/658/214
f 218/657/218 296/638/296 183/637/183
vt 0.666633 0.902541
f 183/637/183 219/659/219 218/657/218
vt 0.664996 0.903885
f 183/637/183 220/660/220 219/659/219
vt 0.664205 0.909424
f 183/637/183 297/661/297 220/660/220
vt 0.455084 0.677264
vt 0.450309 0.677602
vt 0.449951 0.682861
f 146/662/146 145/663/145 40/664/40
vt 0.458165 0.682861
f 40/664/40 39/665/39 146/662/146
vt 0.048112 0.147705
vt 0.048836 0.143843
f 163/609/163 162/666/162 117/667/117
f 163/609/163 117/667/117 75/611/75
# 535 faces, 667 coords texture

# End of File
