####
#
# OBJ File Generated by Meshlab
#
####
# Object black_chair_1.obj
#
# Vertices: 443
# Faces: 778
#
####
mtllib ./black_chair_1.obj.mtl

vn -0.998977 -0.021918 0.039546
v -6.690601 -0.225323 0.375662
vn -0.837247 -0.081739 0.540682
v -6.659843 -0.225325 0.399188
vn -0.962419 0.242175 0.122887
v -6.665293 -0.201804 0.375658
vn -0.948055 0.162719 -0.273340
v -6.643693 -0.789613 0.704824
vn -0.989334 0.077599 -0.123271
v -6.667083 -0.789620 0.728346
vn -0.970411 0.235624 -0.052756
v -6.644896 -0.766110 0.728351
vn -0.503495 0.858930 -0.093443
v -6.608313 -0.609493 0.493225
vn -0.230681 0.954692 0.188016
v -6.561308 -0.586593 0.516783
vn -0.477492 0.782681 0.399263
v -6.584844 -0.582219 0.493233
vn -0.843837 0.481423 0.237004
v -6.675165 -0.107777 0.352154
vn -0.835092 0.466811 0.291049
v -6.661897 -0.107672 0.399179
vn -0.553645 0.832669 0.011800
v -6.655345 -0.095790 0.352151
vn -0.347165 0.888136 0.301151
v -6.631863 -0.080814 0.399255
vn -0.434862 0.900141 -0.025320
v -6.638224 -0.084097 0.352149
vn 0.821097 -0.289492 0.491930
v -6.702357 -0.272349 0.022971
vn 0.900790 -0.410545 0.141524
v -6.668173 -0.225322 0.046488
vn 0.861692 -0.478327 -0.169385
v -6.696096 -0.248836 0.046487
vn 0.901030 -0.247413 0.356274
v -6.655281 -0.225399 0.001088
vn 0.314371 -0.439865 -0.841243
v -6.702368 -0.295867 0.046483
vn -0.112194 -0.598082 -0.793543
v -6.704653 -0.295866 0.046481
vn 0.548003 0.210677 0.809511
v -6.678833 -0.342870 0.001856
vn 0.560893 0.224035 0.796999
v -6.702408 -0.342878 0.018450
vn -0.920808 0.183792 0.343996
v -6.642366 -0.789615 0.775402
vn -0.978168 0.206203 0.025849
v -6.645524 -0.719097 0.751871
vn -0.881828 0.409065 0.234615
v -6.635691 -0.695594 0.798850
vn -0.873439 -0.479924 -0.082327
v -6.642508 -0.507474 0.375668
vn -0.743809 -0.220264 0.631057
v -6.624793 -0.507473 0.399178
vn -0.395374 -0.122487 0.910317
v -6.631814 -0.483958 0.399169
vn -0.989763 0.142621 0.005395
v -6.667108 -0.460447 0.375662
vn -0.979242 -0.136032 0.150266
v -6.627724 -0.530985 0.375619
vn -0.432551 -0.017367 0.901442
v -6.631795 -0.154553 0.451380
vn -0.877094 0.160371 0.452756
v -6.662574 -0.131272 0.422695
vn -0.621247 -0.157873 0.767547
v -6.631839 -0.272353 0.433696
vn -0.922827 -0.258876 0.285260
v -6.648956 -0.272343 0.399187
vn -0.683559 -0.154974 0.713253
v -6.659090 -0.248822 0.399180
vn -0.348378 0.434406 0.830617
v -6.631818 -0.119294 0.447084
vn 0.936634 0.306568 0.169507
v -6.678833 -0.084266 -0.000105
vn 0.864224 0.389987 0.317848
v -6.678887 -0.115088 0.022976
vn 0.979961 0.189690 -0.060778
v -6.659928 -0.154788 0.022975
vn 0.953867 -0.030779 -0.298648
v -6.655324 -0.178290 0.117026
vn 0.973569 -0.221842 0.054305
v -6.676996 -0.225325 0.070002
vn 0.901256 -0.181736 -0.393332
v -6.667121 -0.201810 0.117008
vn 0.624429 -0.000535 -0.781082
v -6.655330 -0.201807 0.128728
vn -0.992646 -0.021419 0.119143
v -6.664418 -0.178299 0.375665
vn 0.904046 0.322227 -0.280839
v -6.678816 -0.107790 0.140538
vn 0.636827 0.558895 -0.531119
v -6.655344 -0.138409 0.140540
vn 0.515092 0.301286 -0.802438
v -6.655344 -0.131279 0.183890
vn 0.789354 -0.223768 -0.571707
v -6.655449 -0.107608 0.164052
vn -0.033115 0.896077 -0.442663
v -6.631820 -0.131272 0.187564
vn 0.389226 0.912508 -0.125830
v -6.678832 -0.109589 0.258101
vn 0.354120 0.921807 -0.157704
v -6.654351 -0.118982 0.258166
vn 0.454555 0.885861 0.092898
v -6.655325 -0.121178 0.211075
vn -0.028234 0.945830 -0.323432
v -6.655349 -0.104935 0.305007
vn -0.065205 0.512361 0.856291
v -6.584801 -0.113433 0.447041
vn -0.104806 0.994273 -0.020909
v -6.584795 -0.807826 0.893027
vn -0.209934 0.964966 0.157382
v -6.561281 -0.805346 0.893068
vn -0.509979 0.528632 0.678579
v -6.584795 -0.808324 0.869354
vn -0.327571 0.228788 0.916708
v -6.584818 -0.672013 0.846418
vn -0.732761 0.330083 0.595068
v -6.625393 -0.836646 0.822390
vn -0.629186 0.626435 0.460113
v -6.608284 -0.664822 0.822387
vn -0.261703 0.699659 0.664823
v -6.645658 -0.813136 0.798860
vn -0.186295 0.497257 0.847366
v -6.584831 -0.669271 0.845933
vn -0.999827 -0.005901 -0.017628
v -6.612879 -0.672045 0.446185
vn -0.926708 0.375610 0.011357
v -6.627144 -0.672055 0.681316
vn -0.986946 0.154009 -0.047110
v -6.616434 -0.625041 0.446207
vn -0.245234 0.931504 0.268627
v -6.584835 -0.598490 0.563757
vn -0.627870 0.775347 0.067947
v -6.608239 -0.596078 0.540242
vn -0.803143 0.081991 0.590118
v -6.631853 -0.439280 0.399166
vn -0.596124 -0.063497 0.800377
v -6.608325 -0.342890 0.434767
vn -0.945206 -0.146434 0.291791
v -6.631775 -0.342861 0.399175
vn -0.428774 -0.080086 0.899855
v -6.584779 -0.460538 0.448337
vn -0.599175 0.055112 0.798719
v -6.584823 -0.530986 0.431225
vn -0.840760 -0.046236 0.539431
v -6.618613 -0.530986 0.399188
vn 0.390364 0.360249 -0.847252
v -6.631820 -0.154784 0.154999
vn 0.008052 0.153826 -0.988065
v -6.608290 -0.178298 0.151764
vn 0.167092 0.814399 -0.555729
v -6.631817 -0.138484 0.164067
vn -0.077590 0.932622 -0.352414
v -6.608309 -0.122606 0.187577
vn -0.049289 0.908277 -0.415455
v -6.467216 -0.105918 0.187580
vn -0.096928 0.992145 0.079079
v -6.549515 -0.116774 0.222902
vn 0.082934 0.974324 -0.209319
v -6.631815 -0.127629 0.258224
vn -0.311680 0.913229 -0.262428
v -6.635725 -0.084130 0.328633
vn -0.991926 -0.019679 0.125285
v -6.615076 -0.695570 0.422698
vn -0.920007 0.165545 0.355221
v -6.613383 -0.601521 0.422689
vn -0.688229 0.482535 0.541758
v -6.584822 -0.569449 0.446179
vn -0.150017 0.963906 0.219953
v -6.490716 -0.602612 0.646013
vn -0.150018 0.963906 0.219952
v -6.514291 -0.576814 0.516878
vn -0.086073 0.901178 0.424818
v -6.537680 -0.650085 0.822027
vn -0.085797 0.757182 0.647545
v -6.443749 -0.555138 0.470000
vn -0.219833 0.829574 0.513304
v -6.561285 -0.573273 0.469711
vn -0.374737 0.142760 0.916074
v -6.561285 -0.530980 0.444059
vn -0.079466 0.046967 0.995731
v -6.514281 -0.201692 0.466619
vn -0.018423 0.612190 -0.790496
v -6.584796 -0.154775 0.154806
vn -0.059466 -0.276373 -0.959209
v -6.584795 -0.178299 0.129048
vn 0.007496 0.355918 -0.934487
v -6.514265 -0.154759 0.153909
vn -0.051819 0.526350 0.848687
v -6.443725 -0.098827 0.446597
vn -0.074875 0.808059 0.584324
v -6.467256 -0.082519 0.422704
vn -0.044430 0.165459 0.985215
v -6.502512 -0.717895 0.857835
vn -0.015772 0.379306 0.925137
v -6.420207 -0.763774 0.869252
vn 0.017369 0.607711 0.793968
v -6.420208 -0.795148 0.893266
vn -0.112674 0.238040 0.964698
v -6.537772 -0.530993 0.449626
vn -0.041621 -0.059105 0.997384
v -6.443728 -0.354565 0.460503
vn -0.035225 -0.030024 0.998928
v -6.478977 -0.483988 0.451363
vn -0.010775 0.545384 -0.838117
v -6.537765 -0.154764 0.154208
vn -0.065572 0.847276 -0.527090
v -6.509356 -0.107238 0.275768
vn -0.093703 0.994731 -0.041582
v -6.510343 -0.071581 0.346307
vn -0.088431 0.939200 -0.331789
v -6.386891 -0.060689 0.328671
vn -0.070558 0.825130 -0.560519
v -6.511311 -0.085487 0.310975
vn -0.080566 0.950363 0.300530
v -6.384971 -0.059870 0.399208
vn -0.089152 0.995978 -0.008948
v -6.508412 -0.069922 0.381619
vn -0.039108 0.499138 0.865639
v -6.431976 -0.672048 0.853343
vn -0.075214 0.974248 -0.212566
v -6.508379 -0.118113 0.258166
vn -0.041625 -0.059099 0.997384
v -6.514253 -0.407551 0.454420
vn -0.044256 0.165760 0.985173
v -6.502501 -0.786050 0.869303
vn -0.541124 -0.768127 -0.342294
v -6.662207 -0.248818 0.375658
vn -0.943237 -0.286385 -0.168188
v -6.665698 -0.225314 0.352144
vn -0.968991 -0.228823 -0.093257
v -6.652063 -0.813132 0.728347
vn -0.737237 -0.062223 -0.672763
v -6.642360 -0.460450 0.352160
vn -0.913878 0.405487 -0.020169
v -6.637654 -0.436935 0.375666
vn 0.997989 -0.017095 -0.061033
v -6.657333 -0.295678 0.093340
vn 0.933900 0.066308 -0.351333
v -6.640750 -0.295860 0.070001
vn 0.818371 0.280579 -0.501542
v -6.667095 -0.272347 0.070004
vn 0.104527 0.113294 -0.988048
v -6.561285 -0.178299 0.145550
vn 0.167060 -0.542695 -0.823148
v -6.702346 -0.359974 0.117150
vn 0.397405 -0.203143 -0.894876
v -6.678864 -0.413444 0.144430
vn 0.129090 0.230882 -0.964380
v -6.702327 -0.460526 0.141840
vn 0.134374 -0.281336 -0.950155
v -6.678841 -0.360353 0.117136
vn 0.198078 0.228584 -0.953160
v -6.678816 -0.460490 0.141908
vn 0.149233 0.539232 -0.828830
v -6.678786 -0.463857 0.140529
vn -0.012213 0.972859 -0.231077
v -6.655293 -0.522729 0.093321
vn 0.196837 0.771666 -0.604803
v -6.631855 -0.507385 0.116891
vn -0.177938 0.950147 0.256044
v -6.631794 -0.519093 0.093247
vn -0.411075 -0.599726 -0.686546
v -6.702358 -0.319371 0.059048
vn -0.223862 0.974427 -0.019469
v -6.678845 -0.822703 0.469712
vn -0.337813 0.933300 0.121792
v -6.641565 -0.813199 0.516745
vn -0.783871 0.586765 0.203110
v -6.631755 -0.819877 0.399180
vn -0.262738 -0.267567 0.927026
v -6.702593 -0.295874 0.269370
vn -0.894150 -0.171177 0.413755
v -6.624162 -0.389880 0.281621
vn -0.686561 -0.306986 0.659086
v -6.655283 -0.293824 0.281619
vn -0.260657 -0.242213 0.934554
v -6.655336 -0.413423 0.241697
vn -0.667629 -0.485588 0.564336
v -6.702351 -0.201805 0.305115
vn -0.803150 -0.177603 0.568689
v -6.631864 -0.413420 0.258113
vn -0.224839 0.567846 0.791832
v -6.702320 -0.789620 0.284157
vn -0.441160 0.398369 0.804164
v -6.655324 -0.742603 0.268607
vn 0.008609 0.162680 0.986641
v -6.678884 -0.719089 0.263600
vn -0.523946 0.596800 0.607710
v -6.678834 -0.804305 0.305116
vn -0.182020 0.697751 0.692830
v -6.702359 -0.810447 0.305121
vn -0.339004 0.129501 0.931829
v -6.655339 -0.719085 0.263921
vn 0.149294 -0.034939 0.988175
v -6.678801 -0.436932 0.242058
vn -0.268035 -0.002683 0.963405
v -6.655344 -0.436933 0.238646
vn -0.162568 0.389180 0.906703
v -6.655320 -0.437044 0.054972
vn 0.381849 -0.751596 -0.537862
v -6.678837 -0.319371 0.072541
vn 0.481321 -0.415822 -0.771636
v -6.655336 -0.339787 0.117045
vn 0.579214 -0.768332 -0.272353
v -6.655333 -0.314522 0.070002
vn 0.591893 -0.042339 -0.804903
v -6.678843 -0.248835 0.070000
vn -0.149429 0.885203 0.440553
v -6.678835 -0.831187 0.540247
vn -0.040698 0.823544 0.565791
v -6.678849 -0.863498 0.587276
vn -0.966287 0.257456 0.002436
v -6.612807 -0.789624 0.422710
vn -0.933197 0.266795 0.240758
v -6.616156 -0.789653 0.399198
vn -0.867153 0.181983 0.463602
v -6.631869 -0.719091 0.283487
vn -0.918448 0.377275 0.118815
v -6.652031 -0.813132 0.775363
vn 0.145211 0.279829 -0.949004
v -6.537766 -0.436931 0.207581
vn 0.507148 0.323858 -0.798697
v -6.527698 -0.507457 0.164029
vn 0.205503 -0.360584 -0.909807
v -6.561293 -0.342854 0.164113
vn 0.144694 -0.213511 -0.966166
v -6.537774 -0.410699 0.211087
vn 0.425683 -0.117537 -0.897206
v -6.584795 -0.319332 0.150764
vn 0.644308 -0.116609 -0.755823
v -6.647419 -0.319370 0.117038
vn -0.996871 -0.071039 0.034669
v -6.620408 -0.389890 0.305153
vn 0.265202 -0.067610 -0.961819
v -6.584802 -0.295825 0.146995
vn 0.478177 0.748711 0.459106
v -6.561277 -0.522594 0.093408
vn -0.747623 0.095553 0.657213
v -6.655332 -0.460442 0.057944
vn -0.568534 0.438780 0.695875
v -6.655350 -0.513514 0.070484
vn 0.773678 0.587017 -0.238396
v -6.561296 -0.535337 0.117059
vn 0.917016 0.328206 0.226632
v -6.557035 -0.530984 0.093513
vn 0.009510 -0.139514 -0.990174
v -6.514259 -0.295861 0.153563
vn 0.053220 -0.417253 -0.907231
v -6.420208 -0.342867 0.161320
vn 0.940305 0.337046 -0.047177
v -6.537796 -0.701728 0.117035
vn 0.713785 0.593911 -0.371188
v -6.490758 -0.798503 0.140546
vn 0.614729 0.458306 0.641922
v -6.490751 -0.781653 0.093496
vn 0.828791 0.262961 0.493920
v -6.534203 -0.695586 0.093465
vn 0.976433 0.199480 -0.082378
v -6.539506 -0.695574 0.117033
vn 0.769495 0.059085 -0.635913
v -6.528805 -0.625038 0.164138
vn 0.710257 0.080632 -0.699309
v -6.525567 -0.672065 0.164106
vn 0.937358 0.148494 0.315135
v -6.552349 -0.554498 0.093506
vn 0.975534 0.123960 -0.181567
v -6.557291 -0.554477 0.116997
vn 0.656260 0.171178 0.734862
v -6.467345 -0.648548 0.022801
vn 0.056660 -0.176129 -0.982735
v -6.443645 -0.413442 0.203097
vn 0.754982 0.252525 -0.605172
v -6.514320 -0.719108 0.166712
vn 0.165120 0.144766 -0.975591
v -6.537772 -0.413365 0.210730
vn -0.990137 -0.049689 -0.130995
v -6.634956 -0.813121 0.599038
vn -0.990135 -0.049723 -0.130995
v -6.646030 -0.824870 0.687202
vn 0.544179 0.176890 -0.820109
v -6.349672 -0.201810 0.105269
vn -0.370348 -0.023156 -0.928604
v -6.373183 -0.201811 0.105267
vn -0.129941 0.866684 -0.481637
v -6.373184 -0.190054 0.117026
vn -0.027235 0.546394 0.837086
v -6.302649 -0.084223 0.446153
vn 0.619171 0.281201 0.733180
v -6.114618 -0.084109 0.436085
vn 0.698186 0.479614 0.531514
v -6.114564 -0.064775 0.422794
vn 0.251384 0.895277 -0.367812
v -6.114592 -0.062149 0.304796
vn 0.194185 0.944967 -0.263305
v -6.138057 -0.037247 0.328709
vn 0.518069 0.851534 -0.080590
v -6.091035 -0.066676 0.328640
vn 0.607157 0.718958 0.338320
v -6.090979 -0.644505 0.822430
vn 0.522707 0.851630 0.038778
v -6.091136 -0.589514 0.634873
vn 0.081434 0.864056 0.496765
v -6.114543 -0.637611 0.822368
vn -0.206242 -0.782193 -0.587910
v -6.114547 -0.331130 0.187563
vn -0.169455 0.039120 -0.984761
v -6.114547 -0.319372 0.175806
vn 0.713927 0.042944 -0.698902
v -6.102791 -0.319372 0.187563
vn 0.967603 0.082439 0.238638
v -6.082605 -0.319372 0.422685
vn 0.991409 -0.129470 -0.018604
v -6.109245 -0.295861 0.375691
vn 0.787365 0.568058 0.239513
v -6.103782 -0.295856 0.422621
vn -0.877557 0.185742 0.442034
v -6.114523 -0.107801 0.002732
vn -0.381927 0.429207 0.818482
v -6.091035 -0.102880 0.046487
vn -0.452916 0.644205 0.616334
v -6.091015 -0.060768 0.002486
vn 0.769982 0.617524 0.160596
v -6.086571 -0.601465 0.587287
vn 0.957957 0.280344 0.061035
v -6.059346 -0.648530 0.587280
vn 0.993000 0.114920 0.027275
v -6.052521 -0.625032 0.563761
vn 0.967208 0.246922 -0.059487
v -6.069988 -0.601574 0.493242
vn 0.828017 0.160735 0.537170
v -6.067525 -0.366397 0.324538
vn 0.884879 -0.065753 0.461157
v -6.090988 -0.248835 0.328654
vn 0.409995 0.154520 0.898904
v -6.090971 -0.342883 0.318858
vn 0.996895 -0.072017 0.031842
v -6.055996 -0.131272 0.070001
vn 0.432843 0.896673 -0.092868
v -6.068958 -0.107759 0.070001
vn 0.294203 0.953584 -0.064211
v -6.067521 -0.093287 0.093514
vn 0.992468 -0.063004 -0.105064
v -6.032263 -0.695572 0.281618
vn 0.640882 -0.239612 0.729285
v -6.047376 -0.695655 0.305127
vn 0.965946 0.254827 -0.044853
v -6.032370 -0.742661 0.281601
vn 0.536426 -0.598104 0.595416
v -6.067522 -0.178299 0.022976
vn 0.326139 -0.600116 0.730407
v -6.067492 -0.201859 0.003670
vn 0.884085 0.004363 0.467306
v -6.043974 -0.131324 0.003245
vn -0.151283 0.953646 -0.260138
v -6.138072 -0.089560 0.257995
vn -0.046732 0.847766 -0.528307
v -6.279143 -0.103163 0.187578
vn -0.075219 0.974244 -0.212582
v -6.384943 -0.108595 0.258110
vn -0.000786 0.312762 -0.949831
v -6.420206 -0.107792 0.187549
vn -0.126229 0.980475 0.150782
v -6.161564 -0.088984 0.211074
vn -0.068362 0.925487 -0.372559
v -6.161548 -0.083213 0.187577
vn -0.070561 0.825131 -0.560518
v -6.386899 -0.086844 0.293314
vn -0.382526 0.923653 -0.023224
v -6.090991 -0.073205 0.258431
vn 0.170724 0.926829 0.334425
v -6.138079 -0.038924 0.399161
vn -0.089153 0.995978 -0.008949
v -6.384960 -0.059031 0.363983
vn -0.060736 0.559896 -0.826334
v -6.467240 -0.154750 0.154295
vn 0.091484 0.064831 0.993694
v -6.208596 -0.201817 0.467810
vn 0.716534 0.062769 0.694723
v -6.114676 -0.154592 0.447163
vn 0.649471 0.722301 0.237630
v -6.114443 -0.050509 0.399325
vn 0.450590 -0.002367 0.892728
v -6.114587 -0.806495 0.870047
vn 0.325213 0.220048 0.919682
v -6.114517 -0.695573 0.867821
vn 0.006270 0.370306 0.928889
v -6.279133 -0.672081 0.860267
vn -0.041480 0.790955 0.610466
v -6.302679 -0.652081 0.846137
vn -0.015310 0.144042 0.989453
v -6.373175 -0.507437 0.454389
vn 0.038328 0.352142 0.935161
v -6.208569 -0.530894 0.457061
vn -0.001087 0.259745 0.965677
v -6.373137 -0.548694 0.469347
vn 0.096439 0.977734 0.186378
v -6.114551 -0.587300 0.634374
vn 0.050410 0.909683 0.412233
v -6.138126 -0.546221 0.470237
vn -0.004717 0.499452 -0.866329
v -6.396696 -0.154777 0.153770
vn -0.023251 0.401726 -0.915465
v -6.302647 -0.154781 0.153158
vn -0.004530 0.485219 -0.874381
v -6.373183 -0.154780 0.153673
vn 0.096093 0.565837 0.818898
v -6.161618 -0.530976 0.455677
vn 0.425685 0.738401 0.523025
v -6.114547 -0.536192 0.446216
vn -0.060009 0.303721 -0.950870
v -6.185086 -0.154783 0.144316
vn -0.505886 0.409352 -0.759283
v -6.114550 -0.131253 0.156888
vn -0.472953 0.523210 -0.708919
v -6.114549 -0.154773 0.136305
vn 0.489380 0.480994 0.727428
v -6.090877 -0.659915 0.845919
vn 0.502176 -0.140679 0.853246
v -6.114537 -0.460448 0.438294
vn 0.586279 0.104149 0.803386
v -6.114699 -0.295859 0.443330
vn 0.292938 0.127801 0.947552
v -6.159007 -0.507474 0.446248
vn 0.684988 0.220884 0.694263
v -6.114546 -0.507472 0.413977
vn 0.840399 0.443638 0.311312
v -6.087387 -0.530985 0.422685
vn 0.593651 0.804294 -0.026248
v -6.103419 -0.554497 0.446199
vn 0.731019 -0.390653 0.559466
v -6.107879 -0.483959 0.422695
vn -0.313228 0.942529 -0.116307
v -6.114546 -0.084249 0.211075
vn -0.607308 0.514523 -0.605345
v -6.114552 -0.107754 0.164050
vn -0.577205 0.808189 0.116894
v -6.091036 -0.073213 0.234589
vn 0.563156 0.788858 0.246085
v -6.091035 -0.554501 0.495250
vn 0.609005 0.792130 0.040521
v -6.091034 -0.545644 0.469711
vn 0.821569 -0.141871 0.552174
v -6.099007 -0.460445 0.422692
vn 0.923020 -0.013674 0.384510
v -6.097352 -0.366398 0.422691
vn -0.835095 0.326874 -0.442459
v -6.094541 -0.154784 0.117026
vn -0.439453 -0.596753 -0.671392
v -6.091035 -0.155999 0.093513
vn 0.020050 -0.571163 -0.820592
v -6.091036 -0.178298 0.098647
vn -0.496440 -0.168524 -0.851556
v -6.114545 -0.178302 0.105268
vn 0.706486 0.641676 0.298544
v -6.091082 -0.066925 0.352140
vn 0.662753 0.398851 0.633779
v -6.067474 -0.081556 0.352154
vn 0.931976 0.138145 0.335167
v -6.034830 -0.742499 0.775344
vn 0.821974 -0.277358 0.497425
v -6.073216 -0.813138 0.798909
vn 0.700951 -0.312973 0.640871
v -6.044044 -0.784436 0.775372
vn 0.745731 -0.104653 0.657976
v -6.032530 -0.765986 0.775310
vn 0.659787 0.101376 0.744584
v -6.091035 -0.559705 0.422687
vn 0.987499 0.104703 0.117827
v -6.087189 -0.601481 0.422675
vn 0.984266 0.158196 0.078708
v -6.075939 -0.648525 0.399174
vn 0.966167 0.257746 -0.009370
v -6.075605 -0.671892 0.422664
vn 0.850414 -0.316111 0.420560
v -6.102728 -0.483959 0.399174
vn 0.918022 -0.008106 0.396446
v -6.079292 -0.460447 0.399173
vn 0.944457 0.039576 0.326243
v -6.087630 -0.413422 0.352145
vn 0.978119 0.201852 0.050397
v -6.091037 -0.366398 0.352150
vn 0.985725 -0.023979 0.166649
v -6.087622 -0.436934 0.352143
vn 0.916214 0.287367 0.279234
v -6.091027 -0.366397 0.349921
vn 0.882585 0.020758 0.469695
v -6.098291 -0.342886 0.328679
vn 0.996935 0.046529 -0.062895
v -6.109833 -0.319373 0.375693
vn 0.805011 -0.103323 0.584193
v -6.105619 -0.178303 0.352212
vn 0.987316 -0.025765 0.156664
v -6.065320 -0.248835 0.281619
vn 0.910837 -0.191532 0.365639
v -6.057915 -0.178298 0.328635
vn 0.434220 -0.666705 0.605770
v -6.067413 -0.178291 0.342310
vn 0.059915 -0.693930 0.717545
v -6.091038 -0.178298 0.022977
vn -0.409241 -0.475149 0.778945
v -6.114546 -0.201810 0.003438
vn -0.691216 -0.496920 0.524682
v -6.091033 -0.156053 0.046487
vn -0.806975 0.338858 0.483701
v -6.092595 -0.107759 0.046488
vn -0.907524 -0.406752 0.104656
v -6.091036 -0.139136 0.070001
vn -0.852308 0.382963 -0.356245
v -6.091038 -0.109975 0.117026
vn -0.447457 0.470427 -0.760579
v -6.091038 -0.084249 0.123807
vn -0.529573 0.844265 0.082278
v -6.091031 -0.072073 0.140540
vn 0.926072 0.358859 -0.116666
v -6.067421 -0.108956 0.117027
vn 0.716166 0.654049 0.243570
v -6.067523 -0.104072 0.046488
vn 0.401228 0.914995 0.042424
v -6.067476 -0.052167 0.234591
vn 0.485223 0.810895 -0.327121
v -6.067452 -0.065454 0.140542
vn 0.956139 0.161766 0.244193
v -6.063228 -0.836642 0.775372
vn 0.953331 -0.246832 0.173879
v -6.057224 -0.836635 0.751857
vn 0.931832 0.362618 0.014078
v -6.020555 -0.793948 0.446197
vn 0.917977 0.328207 -0.222706
v -6.006896 -0.813912 0.281601
vn 0.865919 0.178967 0.467071
v -6.067574 -0.659392 0.328640
vn 0.974723 0.223211 0.009571
v -6.028459 -0.766198 0.540267
vn 0.829281 0.296495 -0.473691
v -6.020410 -0.813661 0.258099
vn 0.962430 0.175799 0.206936
v -6.084458 -0.625011 0.352152
vn 0.998502 -0.046198 0.029320
v -6.033415 -0.766065 0.657795
vn 0.953209 0.301398 0.023486
v -6.091032 -0.530984 0.403162
vn 0.940957 -0.002949 0.338514
v -6.091037 -0.507473 0.352153
vn 0.983235 0.182314 0.003124
v -6.055855 -0.389908 0.281626
vn 0.832649 0.068167 0.549590
v -6.067521 -0.413422 0.318118
vn 0.351801 -0.021460 -0.935829
v -6.091034 -0.295860 0.199505
vn 0.565538 -0.251294 -0.785505
v -6.091048 -0.248822 0.200622
vn 0.695453 -0.092301 -0.712619
v -6.080379 -0.248824 0.211076
vn 0.942192 0.024360 -0.334187
v -6.063467 -0.295859 0.234590
vn 0.996831 -0.049144 -0.062552
v -6.065612 -0.154781 0.211078
vn 0.950905 -0.159375 -0.265292
v -6.070710 -0.201824 0.211054
vn 0.927457 -0.008706 -0.373828
v -6.062367 -0.366397 0.234592
vn 0.599045 -0.242143 -0.763224
v -6.074171 -0.413423 0.211072
vn 0.866184 -0.499596 0.011406
v -6.067396 -0.139991 0.093514
vn 0.700734 -0.622497 -0.348524
v -6.073178 -0.178297 0.117026
vn 0.943512 -0.221966 -0.245999
v -6.067388 -0.154779 0.117027
vn 0.983107 -0.137982 0.120255
v -6.066234 -0.154785 0.046486
vn 0.490242 0.604513 0.627875
v -6.067522 -0.084249 0.020265
vn 0.931099 0.118235 0.345072
v -6.055784 -0.836652 0.610788
vn 0.767010 0.398081 0.503216
v -6.020520 -0.825759 0.563754
vn 0.834768 0.190058 0.516759
v -6.028383 -0.813115 0.563754
vn 0.608042 0.578093 0.544144
v -6.020497 -0.873759 0.610780
vn 0.843337 0.479453 0.242710
v -6.044012 -0.869260 0.634298
vn 0.992114 0.080539 -0.096036
v -6.032151 -0.648553 0.281471
vn 0.997079 -0.002106 -0.076348
v -6.032107 -0.601520 0.281469
vn 0.798354 0.060083 0.599184
v -6.067519 -0.625032 0.325146
vn 0.824821 -0.042646 0.563784
v -6.036201 -0.672052 0.305107
vn 0.760884 0.127897 0.636159
v -6.044006 -0.436934 0.301877
vn 0.762547 0.494579 -0.417029
v -6.044007 -0.401670 0.281613
vn 0.978755 0.176618 -0.104142
v -6.032675 -0.436934 0.281465
vn 0.004319 0.581220 -0.813735
v -6.499564 -0.778308 0.915610
vn 0.004319 0.581220 -0.813735
v -6.414332 -0.778926 0.915621
vn 0.004319 0.581220 -0.813735
v -6.461360 -0.786555 0.909922
vn -0.230884 0.058683 -0.971210
v -6.490747 -0.178295 0.153210
vn -0.370758 0.086407 -0.924701
v -6.467234 -0.178314 0.128716
vn -0.161065 -0.242321 -0.956733
v -6.443721 -0.201838 0.136778
vn 0.323406 0.631663 0.704564
v -6.467253 -0.789630 0.087882
vn 0.120476 0.805618 0.580056
v -6.373186 -0.756959 0.022969
vn 0.501718 0.436940 0.746568
v -6.420199 -0.704087 -0.000523
vn 0.151440 0.249015 -0.956586
v -6.490798 -0.483943 0.191142
vn 0.451625 -0.014221 -0.892095
v -6.490854 -0.507360 0.187995
vn -0.149848 -0.413191 -0.898231
v -6.373183 -0.225307 0.131453
vn 0.097627 -0.266081 -0.958994
v -6.255620 -0.272332 0.140633
vn 0.176027 -0.363289 -0.914896
v -6.349672 -0.225313 0.133520
vn -0.296116 0.080073 -0.951790
v -6.396698 -0.201831 0.134758
vn 0.411121 0.833104 0.370022
v -6.469697 -0.813138 0.117027
vn 0.584605 0.771304 -0.251648
v -6.473932 -0.813149 0.140551
vn 0.283915 -0.550877 -0.784810
v -6.420289 -0.389871 0.195461
vn 0.086859 0.266761 -0.959841
v -6.396762 -0.789639 0.234667
vn 0.312409 0.728276 -0.609931
v -6.396690 -0.836648 0.213111
vn 0.320526 -0.005326 -0.947225
v -6.420191 -0.625064 0.236763
vn 0.440441 -0.022725 -0.897494
v -6.443703 -0.601541 0.226030
vn 0.276016 -0.443125 -0.852910
v -6.373241 -0.389852 0.211253
vn -0.007305 -0.052514 -0.998594
v -6.279131 -0.460430 0.247603
vn 0.011199 0.106777 -0.994220
v -6.302703 -0.601488 0.258289
vn -0.224096 0.010684 -0.974509
v -6.279249 -0.577958 0.258454
vn 0.239151 -0.313206 -0.919080
v -6.302624 -0.384599 0.234514
vn 0.129163 0.941777 0.310439
v -6.396696 -0.841052 0.140538
vn -0.166600 0.985455 0.033515
v -6.373182 -0.848725 0.164045
vn -0.395623 0.669275 -0.628931
v -6.373187 -0.836654 0.211073
vn -0.095301 0.831433 0.547391
v -6.349672 -0.757190 0.022965
vn -0.049938 0.488551 -0.871105
v -6.396697 -0.184060 0.140536
vn 0.190467 0.714768 -0.672926
v -6.373183 -0.186235 0.140567
vn -0.183626 0.283352 -0.941272
v -6.349624 -0.695622 0.234704
vn -0.250033 0.154658 -0.955806
v -6.369671 -0.719128 0.234679
vn 0.239889 -0.574108 -0.782849
v -6.397695 -0.389861 0.203045
vn 0.374844 -0.788266 -0.487983
v -6.208613 -0.292133 0.164069
vn 0.200282 -0.432019 -0.879344
v -6.208583 -0.272359 0.144231
vn -0.334691 0.879397 0.338589
v -6.326158 -0.813119 0.117020
vn 0.007570 0.809411 0.587194
v -6.279135 -0.750974 0.046471
vn -0.120711 0.964532 0.234750
v -6.302648 -0.804101 0.117022
vn -0.573486 0.356217 -0.737715
v -6.323755 -0.766114 0.187580
vn -0.428829 0.312571 -0.847588
v -6.255671 -0.624985 0.241407
vn 0.335276 -0.612561 -0.715793
v -6.122895 -0.248834 0.187571
vn 0.236784 0.180898 -0.954573
v -6.326158 -0.220518 0.140535
vn -0.351019 0.818163 -0.455408
v -6.302646 -0.800221 0.140524
vn -0.449327 0.615375 -0.647626
v -6.302614 -0.775081 0.164103
vn -0.278966 0.196813 -0.939916
v -6.185038 -0.601529 0.198977
vn -0.273998 0.477929 -0.834571
v -6.279121 -0.758374 0.164046
vn 0.097824 -0.451278 -0.887005
v -6.185075 -0.319379 0.231187
vn -0.238201 -0.287410 -0.927715
v -6.138064 -0.295843 0.211105
vn 0.032481 -0.258465 -0.965475
v -6.114564 -0.272322 0.201865
vn -0.239321 -0.117582 -0.963795
v -6.161574 -0.342887 0.234600
vn -0.145731 -0.114919 -0.982627
v -6.138059 -0.198830 0.140535
vn 0.346782 -0.764155 -0.543884
v -6.114561 -0.197480 0.140550
vn 0.067665 0.965614 -0.251022
v -6.208628 -0.821204 0.116943
vn -0.075278 0.479841 -0.874120
v -6.185085 -0.789630 0.142154
vn 0.204918 0.788125 0.580403
v -6.232111 -0.742601 0.018500
vn -0.093271 0.300317 -0.949268
v -6.185081 -0.766112 0.150230
vn 0.332774 0.134091 -0.933424
v -6.137957 -0.625017 0.192990
vn -0.262252 0.102442 -0.959546
v -6.185063 -0.530991 0.204542
vn 0.044502 0.111612 -0.992755
v -6.114467 -0.436953 0.211072
vn -0.186938 -0.038216 -0.981628
v -6.114439 -0.413422 0.213174
vn 0.923893 -0.327074 -0.198606
v -6.071730 -0.178312 0.187549
vn 0.506543 0.122561 -0.853459
v -6.138019 -0.648562 0.189572
vn -0.457149 -0.252252 -0.852868
v -6.116560 -0.342883 0.211072
vn 0.194866 -0.024507 -0.980524
v -6.091033 -0.366397 0.199906
vn 0.393715 -0.170449 -0.903292
v -6.091140 -0.436937 0.217955
vn 0.576543 -0.027369 -0.816609
v -6.091038 -0.319373 0.199765
vn 0.792408 -0.094510 -0.602625
v -6.071755 -0.436935 0.234692
vn 0.707977 0.059470 -0.703728
v -6.067557 -0.695556 0.237646
vn -0.669966 -0.151946 -0.726676
v -6.126619 -0.320879 0.211087
vn -0.288211 0.100621 -0.952266
v -6.114547 -0.295860 0.204282
vn 0.000000 0.000000 0.000000
v -6.502502 -0.786420 0.904433
vn -0.574180 0.817892 -0.037007
v -6.725935 -0.154698 0.207452
vn 0.000000 0.000000 0.000000
v -6.678833 -0.084266 -0.000103
vn 0.145065 0.776134 0.613655
v -6.749390 -0.131280 0.007720
vn -0.183469 0.771255 0.609512
v -6.725869 -0.131272 0.002150
vn -0.624240 0.780934 -0.021593
v -6.725939 -0.154690 0.070004
vn -0.407589 0.822495 0.396702
v -6.725887 -0.147738 0.022979
vn -0.540813 0.839921 0.045316
v -6.725831 -0.141460 0.140542
vn -0.580184 0.771230 0.261897
v -6.678816 -0.107790 0.140540
vn -0.612637 0.776830 0.145642
v -6.678887 -0.115088 0.022979
vn -0.553628 0.819956 0.145493
v -6.655449 -0.107608 0.164054
vn -0.590689 0.802428 -0.084827
v -6.678832 -0.109589 0.258103
vn -0.614522 0.782264 -0.102110
v -6.736364 -0.154784 0.258103
vn -0.672566 0.564195 0.478893
v -6.715040 -0.131356 0.328640
vn -0.513699 0.857947 0.006417
v -6.655345 -0.095790 0.352154
vn -0.643772 0.691931 0.326786
v -6.675165 -0.107777 0.352156
vn -0.630648 0.052616 0.774283
v -6.711832 -0.154785 0.328642
vn -0.679284 -0.104495 0.726398
v -6.664418 -0.178299 0.375667
vn -0.749003 -0.273278 0.603584
v -6.713390 -0.178293 0.328635
vn -0.702224 -0.427616 0.569232
v -6.665698 -0.225314 0.352147
vn -0.740181 -0.616355 0.268772
v -6.702351 -0.201805 0.305117
# 443 vertices, 0 vertices normals


usemtl material_0
vt 0.063232 0.571875
vt 0.064388 0.577393
vt 0.067336 0.572853
f 1/1/1 2/2/2 3/3/3
vt 0.906490 0.858502
vt 0.903165 0.858719
vt 0.904195 0.863142
f 4/4/4 5/5/5 6/6/6
vt 0.948285 0.876181
vt 0.945395 0.882723
vt 0.949506 0.881219
f 7/7/7 8/8/8 9/9/9
vt 0.963527 0.637170
vt 0.957593 0.632211
vt 0.960458 0.638960
f 10/10/10 11/11/11 12/12/12
vt 0.952558 0.634850
f 11/11/11 13/13/13 12/12/12
vt 0.957749 0.640497
f 13/13/13 14/14/14 12/12/12
vt 0.067304 0.483643
vt 0.074928 0.476921
vt 0.069424 0.478589
f 15/15/15 16/16/16 17/17/17
vt 0.078642 0.483643
f 15/15/15 18/18/18 16/16/16
vt 0.063233 0.481617
f 17/17/17 19/19/19 15/15/15
vt 0.830680 0.913613
vt 0.830308 0.913629
vt 0.830746 0.917200
f 19/20/19 20/21/20 15/22/15
vt 0.659643 0.899463
vt 0.663744 0.910801
vt 0.667083 0.891588
f 15/23/15 21/24/21 18/25/18
vt 0.659925 0.910930
f 15/23/15 22/26/22 21/24/21
vt 0.895688 0.862109
vt 0.903183 0.871314
f 23/27/23 24/28/24 6/6/6
vt 0.897177 0.877590
f 23/27/23 25/29/25 24/28/24
f 6/6/6 5/5/5 23/27/23
vt 0.363814 0.588726
vt 0.363746 0.592762
vt 0.367590 0.591754
f 26/30/26 27/31/27 28/32/28
vt 0.371528 0.585099
f 28/32/28 29/33/29 26/30/26
vt 0.359951 0.590916
f 26/30/26 30/34/30 27/31/27
vt 0.421144 0.595599
vt 0.425038 0.589338
vt 0.409749 0.588170
f 31/35/31 32/36/32 2/37/2
vt 0.401991 0.594274
f 2/37/2 33/38/33 31/35/31
vt 0.731201 0.792198
vt 0.739056 0.792236
vt 0.739716 0.786002
f 2/39/2 34/40/34 33/41/33
vt 0.617963 0.581299
vt 0.614209 0.580555
vt 0.610107 0.581299
f 2/42/2 35/43/35 34/44/34
vt 0.426886 0.595446
f 31/35/31 36/45/36 32/36/32
vt 0.996676 0.850830
vt 0.991709 0.847112
vt 0.984803 0.847175
f 37/46/37 38/47/38 39/48/39
vt 0.973389 0.850830
f 39/48/39 18/49/18 37/46/37
vt 0.973712 0.843433
f 39/48/39 16/50/16 18/49/18
vt 0.754639 0.792236
vt 0.768585 0.792236
vt 0.757554 0.789419
f 16/51/16 40/52/40 41/53/41
vt 0.980777 0.831900
f 16/50/16 39/48/39 40/54/40
vt 0.766214 0.788709
f 40/52/40 42/55/42 41/53/41
vt 0.637200 0.589600
vt 0.633545 0.587383
vt 0.635554 0.585708
f 40/56/40 43/57/43 42/58/42
vt 0.071092 0.572123
vt 0.080044 0.577393
vt 0.083093 0.573281
f 44/59/44 32/60/32 11/61/11
vt 0.081449 0.565631
f 11/61/11 10/62/10 44/59/44
f 44/59/44 2/2/2 32/60/32
f 44/59/44 3/3/3 2/2/2
vt 0.992716 0.827970
f 40/54/40 38/47/38 45/63/45
f 40/54/40 39/48/39 38/47/38
vt 0.035557 0.141329
vt 0.032729 0.146291
vt 0.034672 0.153535
f 45/64/45 46/65/46 40/66/40
vt 0.081293 0.125853
vt 0.074951 0.132080
vt 0.082102 0.132080
f 45/67/45 47/68/47 46/69/46
vt 0.078858 0.318838
vt 0.078858 0.312283
vt 0.081681 0.314678
f 48/70/48 49/71/49 47/72/47
vt 0.081346 0.323486
f 47/72/47 45/73/45 48/70/48
vt 0.972524 0.649265
vt 0.969777 0.651644
vt 0.974226 0.657791
f 50/74/50 51/75/51 52/76/52
vt 0.070702 0.402750
vt 0.063232 0.405518
vt 0.079002 0.405518
f 52/77/52 48/78/48 50/79/50
vt 0.066083 0.399525
f 52/77/52 49/80/49 48/78/48
vt 0.965089 0.645257
f 50/74/50 12/12/12 53/81/53
vt 0.981201 0.932065
vt 0.981253 0.924354
vt 0.991092 0.931337
f 36/82/36 54/83/54 13/84/13
vt 0.989117 0.936768
f 13/84/13 11/85/11 36/82/36
vt 0.428901 0.588170
f 11/86/11 32/36/32 36/45/36
vt 0.031324 0.364900
vt 0.035154 0.365045
vt 0.031294 0.361407
f 55/87/55 56/88/56 57/89/57
vt 0.879639 0.866423
f 57/90/57 25/29/25 23/27/23
vt 0.890610 0.885602
f 57/90/57 58/91/58 25/29/25
vt 0.885735 0.858159
f 23/27/23 59/92/59 57/90/57
vt 0.894948 0.884497
f 58/91/58 60/93/60 25/29/25
vt 0.414244 0.581299
vt 0.409138 0.579442
vt 0.403076 0.581299
f 23/94/23 61/95/61 59/96/59
vt 0.890834 0.885986
f 58/91/58 62/97/62 60/93/60
vt 0.952101 0.864293
vt 0.916330 0.875539
vt 0.954713 0.871160
f 63/98/63 64/99/64 65/100/65
f 63/98/63 4/4/4 64/99/64
f 4/4/4 24/28/24 64/99/64
f 4/4/4 6/6/6 24/28/24
vt 0.945767 0.716764
vt 0.968466 0.719232
vt 0.971195 0.714562
f 64/101/64 66/102/66 67/103/67
vt 0.937836 0.882342
f 64/99/64 60/93/60 66/104/66
f 64/99/64 24/28/24 60/93/60
f 24/28/24 25/29/25 60/93/60
vt 0.374861 0.591867
vt 0.390453 0.597733
vt 0.390552 0.592137
f 68/105/68 69/106/69 70/107/70
vt 0.371235 0.601780
f 68/105/68 71/108/71 69/106/69
f 68/105/68 27/31/27 71/108/71
vt 0.359788 0.600614
f 27/31/27 72/109/72 71/108/71
f 68/105/68 28/32/28 27/31/27
vt 0.359904 0.593643
f 27/31/27 73/110/73 72/109/72
f 33/38/33 70/107/70 69/106/69
vt 0.750869 0.792236
f 33/41/33 34/40/34 70/111/70
vt 0.633545 0.596924
f 43/57/43 40/56/40 74/112/74
vt 0.028980 0.148127
vt 0.026065 0.152466
vt 0.034896 0.155518
f 74/113/74 75/114/75 43/115/43
f 40/66/40 46/65/46 74/113/74
vt 0.028204 0.145215
f 46/65/46 76/116/76 74/113/74
vt 0.976174 0.666356
vt 0.977108 0.661455
vt 0.973752 0.663198
f 76/117/76 47/118/47 49/119/49
vt 0.981310 0.667236
f 76/117/76 46/120/46 47/118/47
vt 0.970351 0.665360
f 49/119/49 77/121/77 76/117/76
f 49/119/49 52/76/52 77/121/77
vt 0.076672 0.382080
vt 0.064837 0.362218
vt 0.064819 0.373414
f 78/122/78 77/123/77 79/124/79
vt 0.967247 0.653834
f 77/121/77 52/76/52 80/125/80
f 52/76/52 51/75/51 80/125/80
vt 0.959541 0.643842
f 80/125/80 53/81/53 81/126/81
f 81/126/81 12/12/12 14/14/14
f 81/126/81 53/81/53 12/12/12
f 81/126/81 14/14/14 13/13/13
vt 0.954428 0.859511
vt 0.959560 0.873610
f 82/127/82 63/98/63 83/128/83
vt 0.970783 0.881172
f 83/128/83 30/129/30 82/127/82
vt 0.967076 0.882734
f 83/128/83 73/130/73 30/129/30
f 63/98/63 65/100/65 83/128/83
vt 0.968436 0.885986
f 73/130/73 27/131/27 30/129/30
vt 0.348389 0.581299
vt 0.364459 0.581299
vt 0.356529 0.580630
f 65/132/65 67/133/67 7/134/7
vt 0.941833 0.880552
f 65/100/65 64/99/64 67/135/67
vt 0.957397 0.880756
f 7/7/7 84/136/84 65/100/65
f 7/7/7 9/9/9 84/136/84
f 84/136/84 83/128/83 65/100/65
vt 0.959595 0.737549
vt 0.979350 0.728391
f 66/102/66 85/137/85 86/138/86
vt 0.925427 0.726354
vt 0.928957 0.737549
f 66/102/66 60/139/60 87/140/87
vt 0.990234 0.737549
vt 0.977052 0.720921
f 88/141/88 8/142/8 66/102/66
vt 0.984768 0.718991
f 88/141/88 89/143/89 8/142/8
vt 0.922607 0.730996
f 60/139/60 62/144/62 87/140/87
vt 0.979866 0.716265
f 89/143/89 9/145/9 8/142/8
vt 0.987555 0.714324
f 89/143/89 84/146/84 9/145/9
vt 0.353513 0.601360
f 84/147/84 72/109/72 73/110/73
vt 0.348389 0.595586
f 73/110/73 83/148/83 84/147/84
vt 0.359718 0.604933
f 84/147/84 90/149/90 72/109/72
vt 0.352809 0.606275
f 84/147/84 89/150/89 90/149/90
vt 0.413167 0.614261
f 69/106/69 91/151/91 33/38/33
f 69/106/69 71/108/71 91/151/91
f 91/151/91 31/35/31 33/38/33
vt 0.021637 0.150181
vt 0.023214 0.155518
f 92/152/92 93/153/93 75/114/75
f 75/114/75 74/113/74 92/152/92
vt 0.023243 0.142084
vt 0.000732 0.146050
vt 0.010645 0.153317
f 77/154/77 78/155/78 94/156/94
f 92/152/92 76/116/76 77/154/77
f 92/152/92 74/113/74 76/116/76
vt 0.429753 0.624161
vt 0.427724 0.602630
f 95/157/95 54/158/54 91/151/91
f 54/158/54 31/35/31 91/151/91
f 54/158/54 36/45/36 31/35/31
vt 0.986120 0.904776
f 13/84/13 54/83/54 96/159/96
f 67/103/67 66/102/66 8/142/8
vt 0.977752 0.712124
f 8/142/8 7/160/7 67/103/67
vt 0.005317 0.030515
vt 0.027650 0.030518
vt 0.012941 0.017108
f 58/161/58 57/162/57 97/163/97
vt 0.539795 0.792236
vt 0.564044 0.792236
vt 0.541845 0.786141
f 98/164/98 56/165/56 99/166/99
vt 0.058137 0.364321
f 98/167/98 57/89/57 56/88/56
vt 0.000732 0.022986
vt 0.004866 0.030518
f 87/168/87 62/169/62 58/161/58
vt 0.359652 0.608835
f 90/149/90 100/170/100 71/108/71
f 71/108/71 72/109/72 90/149/90
vt 0.388121 0.624267
f 91/151/91 71/108/71 101/171/101
vt 0.367155 0.618027
f 71/108/71 100/170/100 102/172/102
vt 0.355470 0.624268
f 100/170/100 89/150/89 88/173/88
f 100/170/100 90/149/90 89/150/89
vt 0.014307 0.152272
f 94/156/94 103/174/103 77/154/77
f 103/174/103 92/152/92 77/154/77
f 51/75/51 53/81/53 80/125/80
f 50/74/50 53/81/53 51/75/51
vt 0.949036 0.662966
f 104/175/104 80/125/80 81/126/81
vt 0.941282 0.653291
f 105/176/105 81/126/81 13/13/13
vt 0.926514 0.667236
vt 0.945183 0.657970
f 81/126/81 106/177/106 107/178/107
vt 0.990509 0.891063
vt 0.993279 0.911229
f 13/84/13 108/179/108 109/180/109
f 66/102/66 87/140/87 85/137/85
f 13/84/13 96/159/96 108/179/108
vt 0.005524 0.005614
f 87/168/87 58/161/58 110/181/110
vt 0.981201 0.901285
f 96/159/96 54/83/54 95/182/95
f 106/177/106 81/126/81 105/176/105
vt 0.950962 0.665464
f 111/183/111 80/125/80 104/175/104
f 107/178/107 104/175/104 81/126/81
vt 0.937790 0.648795
f 109/184/109 105/176/105 13/13/13
vt 0.959363 0.666218
f 79/185/79 80/125/80 111/183/111
vt 0.379678 0.613024
f 112/186/112 71/108/71 102/172/102
f 110/181/110 58/161/58 97/163/97
vt 0.063232 0.382080
f 78/122/78 79/124/79 111/187/111
f 79/185/79 77/121/77 80/125/80
vt 0.024108 0.017109
f 97/163/97 57/162/57 113/188/113
vt 0.055690 0.084125
vt 0.059565 0.088449
vt 0.055420 0.089111
f 114/189/114 1/190/1 115/191/115
vt 0.089640 0.451581
vt 0.086670 0.456299
vt 0.092293 0.456299
f 115/192/115 1/193/1 3/194/3
vt 0.879639 0.934518
vt 0.882436 0.936768
vt 0.884987 0.934839
f 116/195/116 5/196/5 4/197/4
vt 0.992921 0.809631
vt 0.984536 0.809710
vt 0.985410 0.813032
f 26/198/26 29/199/29 117/200/117
vt 0.086670 0.464111
vt 0.092225 0.464111
vt 0.088749 0.459057
f 117/201/117 29/202/29 118/203/118
vt 0.088703 0.397418
vt 0.086670 0.401611
vt 0.092417 0.401611
f 119/204/119 120/205/120 121/206/121
vt 0.854786 0.932697
vt 0.847168 0.933081
vt 0.850899 0.932697
f 122/207/122 75/208/75 93/209/93
vt 0.830535 0.903898
vt 0.834104 0.895325
vt 0.829967 0.887818
f 123/210/123 124/211/124 125/212/125
vt 0.834354 0.903675
f 123/210/123 126/213/126 124/211/124
vt 0.833790 0.887663
f 124/211/124 127/214/127 125/212/125
vt 0.833767 0.887103
vt 0.837010 0.876923
f 125/212/125 128/215/128 129/216/129
vt 0.841015 0.879484
f 128/215/128 130/217/130 129/216/129
vt 0.722863 0.959585
vt 0.723098 0.958907
vt 0.726943 0.958474
f 130/218/130 131/219/131 129/220/129
f 125/212/125 127/214/127 128/215/128
vt 0.830575 0.909921
f 20/21/20 132/221/132 123/210/123
f 20/21/20 19/20/19 132/221/132
vt 0.968321 0.797689
vt 0.976146 0.792118
vt 0.957798 0.789120
f 133/222/133 134/223/134 135/224/135
vt 0.930869 0.678560
vt 0.947711 0.671723
vt 0.933935 0.671233
f 136/225/136 137/226/137 138/227/138
vt 0.945711 0.677675
f 136/225/136 139/228/139 137/226/137
vt 0.922001 0.673474
f 138/227/138 140/229/140 136/225/136
vt 0.948278 0.674125
f 139/228/139 141/230/141 137/226/137
vt 0.942041 0.819619
vt 0.958321 0.823281
vt 0.947342 0.811524
f 140/231/140 138/232/138 115/233/115
vt 0.943726 0.807526
vt 0.940045 0.807312
f 115/233/115 3/234/3 44/235/44
vt 0.807541 0.849852
vt 0.800186 0.841721
vt 0.796186 0.844544
f 142/236/142 143/237/143 144/238/144
vt 0.937415 0.798365
vt 0.941579 0.795151
vt 0.934326 0.789661
f 142/239/142 145/240/145 143/241/143
vt 0.941370 0.799061
f 142/239/142 146/242/146 145/240/145
vt 0.796351 0.841233
f 143/237/143 147/243/147 144/238/144
vt 0.750256 0.841435
vt 0.750412 0.837839
f 148/244/148 147/243/147 149/245/149
f 148/244/148 144/238/144 147/243/147
vt 0.746597 0.837967
f 148/244/148 149/245/149 139/246/139
vt 0.727223 0.846302
f 139/246/139 136/247/136 148/244/148
vt 0.598709 0.818954
vt 0.598389 0.823486
vt 0.616255 0.821244
f 21/248/21 22/249/22 150/250/150
vt 0.039795 0.153398
vt 0.049116 0.151233
vt 0.042725 0.145782
f 123/251/123 151/252/151 152/253/152
vt 0.050156 0.155518
f 123/251/123 132/254/132 151/252/151
vt 0.838311 0.906851
f 152/255/152 126/213/126 123/210/123
vt 0.054493 0.155517
vt 0.061197 0.153116
vt 0.050030 0.147734
f 19/256/19 17/257/17 153/258/153
f 153/258/153 151/252/151 19/256/19
f 151/252/151 132/254/132 19/256/19
vt 0.078857 0.306652
vt 0.083088 0.304930
vt 0.084743 0.307861
f 17/259/17 154/260/154 121/261/121
vt 0.056024 0.148166
f 121/262/121 153/258/153 17/257/17
vt 0.052702 0.144982
f 121/262/121 120/263/120 153/258/153
vt 0.078857 0.301684
vt 0.082001 0.301302
f 16/264/16 41/265/41 154/260/154
f 154/260/154 17/259/17 16/264/16
vt 0.060627 0.083418
vt 0.058284 0.081264
f 2/266/2 114/189/114 35/267/35
f 2/266/2 1/190/1 114/189/114
vt 0.979799 0.798786
vt 0.988244 0.800049
f 134/223/134 155/268/155 156/269/156
f 134/223/134 133/222/133 155/268/155
vt 0.917373 0.904274
vt 0.916770 0.897614
vt 0.904015 0.911209
f 157/270/157 135/271/135 134/272/134
vt 0.920112 0.901547
f 157/270/157 158/273/158 135/271/135
vt 0.929763 0.887501
vt 0.941670 0.896257
f 145/274/145 158/273/158 159/275/159
f 145/274/145 135/271/135 158/273/158
vt 0.940870 0.891202
f 159/275/159 143/276/143 145/274/145
f 157/270/157 116/195/116 4/197/4
vt 0.928107 0.920375
f 4/197/4 63/277/63 157/270/157
vt 0.928147 0.914991
f 63/277/63 82/278/82 157/270/157
vt 0.901703 0.855832
vt 0.894518 0.858200
f 23/27/23 116/279/116 160/280/160
f 23/27/23 5/5/5 116/279/116
vt 0.890853 0.859645
f 160/280/160 61/281/61 23/27/23
vt 0.857136 0.891161
vt 0.858133 0.879218
f 130/217/130 161/282/161 162/283/162
f 130/217/130 128/215/128 161/282/161
f 161/282/161 127/214/127 124/211/124
f 161/282/161 128/215/128 127/214/127
vt 0.063232 0.085205
vt 0.067744 0.078954
vt 0.064389 0.079529
f 29/284/29 68/285/68 118/286/118
vt 0.070861 0.085205
f 29/284/29 28/287/28 68/285/68
vt 0.853765 0.906168
vt 0.857322 0.895454
f 124/211/124 163/288/163 164/289/164
f 124/211/124 152/255/152 163/288/163
vt 0.850048 0.910017
f 152/255/152 165/290/165 163/288/163
f 124/211/124 126/213/126 152/255/152
vt 0.839734 0.910111
f 152/255/152 166/291/166 165/290/165
vt 0.891357 0.589111
vt 0.902570 0.581268
vt 0.894810 0.581160
f 42/292/42 121/293/121 41/294/41
vt 0.910688 0.589111
vt 0.913887 0.588498
vt 0.906598 0.585159
f 166/295/166 152/296/152 119/297/119
vt 0.910040 0.580593
f 152/296/152 151/298/151 119/297/119
vt 0.828858 0.671134
vt 0.829940 0.675272
vt 0.828857 0.678955
f 121/299/121 154/300/154 41/301/41
vt 0.090508 0.328263
vt 0.087092 0.326760
vt 0.086670 0.331299
f 153/302/153 120/303/120 119/304/119
vt 0.092806 0.331299
f 119/304/119 151/305/151 153/302/153
vt 0.967402 0.804264
vt 0.955591 0.804002
f 138/232/138 70/306/70 34/307/34
vt 0.974939 0.819616
f 138/232/138 167/308/167 70/306/70
f 34/307/34 115/233/115 138/232/138
vt 0.974707 0.823486
f 138/232/138 137/309/137 167/308/167
vt 0.476740 0.581299
vt 0.470962 0.580529
vt 0.465576 0.581299
f 34/310/34 114/311/114 115/312/115
vt 0.055420 0.078369
f 34/313/34 35/267/35 114/189/114
vt 0.839274 0.929363
vt 0.850188 0.913796
f 166/291/166 43/314/43 168/315/168
vt 0.837311 0.929328
f 166/291/166 42/316/42 43/314/43
f 43/314/43 75/208/75 168/315/168
f 168/315/168 165/290/165 166/291/166
vt 0.952502 0.928234
vt 0.979559 0.928479
f 159/275/159 30/317/30 141/318/141
f 159/275/159 82/278/82 30/317/30
vt 0.976730 0.936768
f 30/317/30 167/319/167 141/318/141
f 159/275/159 158/273/158 82/278/82
f 158/273/158 157/270/157 82/278/82
vt 0.979478 0.934031
f 167/319/167 137/320/137 141/318/141
vt 0.979289 0.922911
f 159/275/159 141/318/141 149/321/149
vt 0.944101 0.893376
f 149/321/149 147/322/147 159/275/159
vt 0.948451 0.678955
f 141/230/141 139/228/139 149/323/149
f 147/322/147 143/276/143 159/275/159
vt 0.631321 0.822286
vt 0.635029 0.811961
f 150/250/150 131/324/131 169/325/169
vt 0.726507 0.973634
vt 0.726677 0.969856
f 150/326/150 170/327/170 131/219/131
vt 0.727025 0.961007
f 170/327/170 171/328/171 131/219/131
f 171/328/171 129/220/129 131/219/131
vt 0.981960 0.808953
vt 0.982638 0.805068
f 118/329/118 68/330/68 70/306/70
f 70/306/70 167/308/167 118/329/118
f 167/308/167 117/200/117 118/329/118
vt 0.997209 0.809553
f 167/308/167 30/331/30 117/200/117
f 30/331/30 26/198/26 117/200/117
vt 0.630617 0.823486
vt 0.637993 0.813783
f 169/325/169 130/332/130 172/333/172
vt 0.711670 0.957949
f 169/334/169 131/219/131 130/218/130
vt 0.636482 0.811556
f 172/333/172 173/335/173 169/325/169
vt 0.862620 0.936277
vt 0.861682 0.913370
f 122/207/122 94/336/94 174/337/174
f 174/337/174 168/315/168 122/207/122
f 168/315/168 75/208/75 122/207/122
vt 0.858800 0.936441
f 122/207/122 103/338/103 94/336/94
vt 0.876691 0.905170
f 175/339/175 163/288/163 174/337/174
f 163/288/163 168/315/168 174/337/174
f 163/288/163 165/290/165 168/315/168
vt 0.851156 0.936768
f 122/207/122 92/340/92 103/338/103
vt 0.086670 0.385986
vt 0.091345 0.385986
vt 0.088936 0.380845
f 122/341/122 93/342/93 92/343/92
vt 0.663995 0.814573
vt 0.681669 0.811584
vt 0.677046 0.808182
f 176/344/176 177/345/177 178/346/178
vt 0.662185 0.812397
f 178/346/178 179/347/179 176/344/176
vt 0.662995 0.814668
f 179/347/179 180/348/180 176/344/176
vt 0.655003 0.814251
vt 0.662197 0.814976
f 181/349/181 182/350/182 180/348/180
f 182/350/182 176/344/176 180/348/180
vt 0.640218 0.811466
vt 0.641040 0.813678
f 183/351/183 184/352/184 180/348/180
f 180/348/180 179/347/179 183/351/183
f 183/351/183 172/333/172 184/352/184
f 183/351/183 173/335/173 172/333/172
vt 0.654993 0.796849
f 183/351/183 179/347/179 185/353/185
vt 0.872576 0.894284
f 163/288/163 175/339/175 186/354/186
f 186/354/186 164/289/164 163/288/163
vt 0.669872 0.814684
f 176/344/176 182/350/182 187/355/187
f 187/355/187 177/345/177 176/344/176
vt 0.857304 0.895017
f 124/211/124 164/289/164 188/356/188
f 124/211/124 188/356/188 161/282/161
f 42/292/42 166/295/166 119/297/119
f 42/292/42 119/297/119 121/293/121
vt 0.894464 0.920598
f 157/270/157 189/357/189 116/195/116
vt 0.883009 0.928760
f 189/357/189 190/358/190 116/195/116
vt 0.051514 0.178174
vt 0.053723 0.181299
vt 0.051514 0.182861
f 191/359/191 192/360/192 193/361/193
vt 0.716658 0.704474
vt 0.747296 0.705258
vt 0.747500 0.702001
f 194/362/194 195/363/195 196/364/196
vt 0.034578 0.293985
vt 0.039573 0.297717
vt 0.038025 0.290391
f 197/365/197 198/366/198 199/367/199
vt 0.827172 0.770698
vt 0.825027 0.738969
vt 0.823347 0.770597
f 200/368/200 201/369/201 202/370/202
vt 0.380584 0.672489
vt 0.378791 0.672841
vt 0.378673 0.670626
f 203/371/203 204/372/204 205/373/205
vt 0.777038 0.671450
vt 0.779691 0.679075
vt 0.780998 0.671737
f 206/374/206 207/375/207 208/376/208
vt 0.072539 0.038462
vt 0.065717 0.042754
vt 0.074814 0.046143
f 209/377/209 210/378/210 211/379/211
vt 0.520447 0.720588
vt 0.522296 0.712236
vt 0.517583 0.714570
f 212/380/212 213/381/213 214/382/214
vt 0.867920 0.960205
vt 0.885115 0.960205
vt 0.872915 0.957847
f 213/383/213 215/384/215 214/385/214
vt 0.469482 0.682861
vt 0.469482 0.663338
vt 0.472664 0.678396
f 216/386/216 217/387/217 218/388/218
vt 0.986618 0.992930
vt 0.988850 0.989753
vt 0.987086 0.985626
f 219/389/219 220/390/220 221/391/221
vt 0.363856 0.839101
vt 0.363799 0.834601
vt 0.356201 0.839111
f 222/392/222 223/393/223 224/394/224
vt 0.172270 0.310423
vt 0.171413 0.305544
vt 0.164795 0.315674
f 225/395/225 226/396/226 227/397/227
vt 0.025794 0.297722
vt 0.013809 0.320216
vt 0.013000 0.350760
f 228/398/228 229/399/229 78/400/78
vt 0.023859 0.337975
f 78/400/78 230/401/230 228/398/228
vt 0.640722 0.846924
vt 0.617754 0.846507
vt 0.610107 0.846924
f 229/402/229 231/403/231 78/404/78
vt 0.018608 0.301171
f 228/398/228 232/405/232 229/399/229
vt 0.015367 0.300930
f 232/405/232 233/406/233 229/399/229
vt 0.037354 0.338333
vt 0.030464 0.338336
f 106/407/106 198/366/198 234/408/234
vt 0.026195 0.358282
f 230/401/230 104/409/104 234/408/234
f 198/366/198 197/365/197 228/398/228
vt 0.026968 0.289917
f 197/365/197 235/410/235 228/398/228
vt 0.048139 0.338550
vt 0.050194 0.298274
vt 0.042828 0.338271
f 108/411/108 236/412/236 237/413/237
vt 0.038982 0.358610
f 106/407/106 105/414/105 237/413/237
vt 0.005116 0.351016
vt 0.004895 0.358643
f 78/400/78 238/415/238 94/416/94
vt 0.681595 0.722733
vt 0.731252 0.724211
f 91/417/91 239/418/239 194/362/194
f 239/418/239 195/363/195 194/362/194
vt 0.746890 0.716804
f 239/418/239 240/419/240 195/363/195
vt 0.418701 0.834179
vt 0.445311 0.839111
vt 0.432416 0.829767
f 96/420/96 194/421/194 108/422/108
vt 0.743991 0.697485
f 194/362/194 196/364/196 236/423/236
vt 0.113067 0.253174
vt 0.109516 0.250459
vt 0.106201 0.253174
f 196/424/196 241/425/241 236/426/236
vt 0.896227 0.745361
vt 0.895832 0.727506
vt 0.868948 0.724172
f 242/427/242 243/428/243 244/429/244
vt 0.846343 0.739675
f 244/429/244 98/430/98 242/427/242
vt 0.844066 0.724572
vt 0.832764 0.732324
f 110/431/110 97/432/97 98/430/98
vt 0.754639 0.775717
vt 0.797048 0.779946
vt 0.793068 0.777016
f 87/433/87 244/434/244 245/435/245
vt 0.772153 0.780518
f 87/433/87 110/436/110 244/434/244
vt 0.703318 0.772966
f 246/437/246 239/418/239 91/417/91
vt 0.729940 0.777580
f 246/437/246 247/438/247 239/418/239
vt 0.691514 0.780518
vt 0.676514 0.775973
f 88/439/88 246/437/246 100/440/100
vt 0.703020 0.779799
f 88/439/88 248/441/248 246/437/246
vt 0.821220 0.739033
vt 0.765910 0.715566
f 245/435/245 249/442/249 88/443/88
f 88/443/88 87/433/87 245/435/245
vt 0.815536 0.711871
f 249/442/249 250/444/250 88/443/88
vt 0.741208 0.780517
f 250/445/250 248/441/248 88/439/88
f 245/435/245 202/370/202 249/442/249
f 202/370/202 201/369/201 249/442/249
vt 0.013049 0.343152
vt 0.005279 0.339566
f 238/415/238 231/446/231 251/447/251
f 238/415/238 78/400/78 231/446/231
vt 0.846501 0.745361
f 242/427/242 98/430/98 99/448/99
vt 0.005510 0.324301
vt 0.005345 0.335750
f 229/399/229 252/449/252 253/450/253
f 253/450/253 231/446/231 229/399/229
f 253/450/253 251/447/251 231/446/231
f 248/441/248 250/445/250 247/438/247
f 247/438/247 246/437/246 248/441/248
vt 0.737580 0.777803
f 250/445/250 254/451/254 247/438/247
vt 0.819093 0.707404
vt 0.811559 0.709112
f 250/444/250 255/452/255 254/453/254
vt 0.004571 0.305159
f 229/399/229 233/406/233 256/454/256
f 256/454/256 252/449/252 229/399/229
vt 0.008086 0.293567
f 233/406/233 257/455/257 256/454/256
vt 0.003597 0.293653
f 257/455/257 258/456/258 256/454/256
vt 0.823857 0.780518
f 202/370/202 244/434/244 243/457/243
f 202/370/202 245/435/245 244/434/244
vt 0.827453 0.775097
f 243/457/243 259/458/259 202/370/202
f 259/458/259 200/368/200 202/370/202
vt 0.745680 0.766417
vt 0.746315 0.739721
f 247/438/247 260/459/260 261/460/261
f 261/460/261 239/418/239 247/438/247
f 261/460/261 240/419/240 239/418/239
vt 0.738186 0.773915
f 247/438/247 262/461/262 260/459/260
f 247/438/247 254/451/254 262/461/262
vt 0.745287 0.778791
f 262/461/262 254/451/254 255/462/255
vt 0.169349 0.373555
vt 0.166389 0.367242
vt 0.160889 0.374268
f 255/463/255 263/464/263 262/465/262
vt 0.172158 0.368371
f 255/463/255 264/466/264 263/464/263
vt 0.172709 0.374268
f 255/463/255 265/467/265 264/466/264
vt 0.745684 0.773845
vt 0.746794 0.770132
f 260/459/260 263/468/263 266/469/266
f 260/459/260 262/461/262 263/468/263
vt 0.019044 0.293493
vt 0.010533 0.293379
f 233/406/233 267/470/267 268/471/268
vt 0.238079 0.289560
vt 0.235107 0.292236
vt 0.247132 0.292236
f 268/472/268 257/473/257 233/474/233
f 233/406/233 232/405/232 267/470/267
vt 0.023340 0.289743
f 267/470/267 235/410/235 269/475/269
f 267/470/267 228/398/228 235/410/235
f 267/470/267 232/405/232 228/398/228
vt 0.823464 0.715644
vt 0.823176 0.711255
f 250/444/250 270/476/270 271/477/271
f 250/444/250 249/442/249 270/476/270
f 271/477/271 255/452/255 250/444/250
vt 0.748336 0.766354
vt 0.749007 0.751083
f 260/459/260 272/478/272 273/479/273
f 273/479/273 261/460/261 260/459/260
vt 0.751605 0.743513
f 273/479/273 206/480/206 261/460/261
vt 0.781700 0.668230
f 206/374/206 208/376/208 261/481/261
vt 0.294371 0.272564
vt 0.291861 0.268797
vt 0.290853 0.272705
f 260/482/260 266/483/266 272/484/272
vt 0.222850 0.307221
vt 0.225996 0.309390
vt 0.227610 0.306098
f 274/485/274 275/486/275 276/487/276
vt 0.232186 0.237549
vt 0.231081 0.233730
vt 0.227295 0.237549
f 276/488/276 277/489/277 274/490/274
vt 0.049632 0.294560
vt 0.041586 0.290580
f 236/412/236 241/491/241 278/492/278
f 278/492/278 198/366/198 236/412/236
f 278/492/278 199/367/199 198/366/198
vt 0.040825 0.286901
f 278/492/278 279/493/279 199/367/199
vt 0.573620 0.701844
vt 0.555690 0.704257
vt 0.568619 0.718557
f 242/494/242 280/495/280 243/496/243
vt 0.562529 0.696199
f 242/494/242 281/497/281 280/495/280
vt 0.563575 0.722042
f 280/495/280 259/498/259 243/496/243
vt 0.188232 0.276611
vt 0.195438 0.273945
vt 0.201806 0.276574
f 281/499/281 282/500/282 280/501/280
vt 0.051514 0.238373
vt 0.052700 0.241708
vt 0.051514 0.245361
f 282/502/282 283/503/283 280/504/280
vt 0.504030 0.724303
vt 0.505593 0.716149
f 270/505/270 212/380/212 215/506/215
vt 0.527382 0.725830
f 270/505/270 249/507/249 212/380/212
f 212/380/212 214/382/214 215/506/215
vt 0.825226 0.732165
f 249/442/249 201/369/201 212/508/212
vt 0.198590 0.243821
vt 0.196045 0.245361
vt 0.196045 0.240039
f 265/509/265 255/510/255 271/511/271
vt 0.202582 0.244255
f 271/511/271 284/512/284 265/509/265
vt 0.494573 0.714174
vt 0.492800 0.705624
vt 0.491620 0.724863
f 285/513/285 286/514/286 264/515/264
vt 0.906982 0.858887
vt 0.907589 0.863560
vt 0.906982 0.870361
f 264/516/264 284/517/284 285/518/285
vt 0.497471 0.702988
f 285/513/285 287/519/287 286/514/286
vt 0.174933 0.370922
f 264/466/264 265/467/265 284/520/284
vt 0.288231 0.267964
f 288/521/288 272/484/272 266/483/266
vt 0.285889 0.272705
f 288/521/288 289/522/289 272/484/272
vt 0.760008 0.679731
vt 0.767559 0.681068
vt 0.769660 0.669745
f 290/523/290 291/524/291 273/525/273
vt 0.754639 0.666898
f 273/525/273 272/526/272 290/523/290
vt 0.170806 0.284424
vt 0.167396 0.281174
vt 0.156982 0.284424
f 272/527/272 289/528/289 290/529/290
vt 0.158901 0.281560
f 289/528/289 292/530/292 290/529/290
vt 0.767495 0.681422
f 290/523/290 293/531/293 291/524/291
vt 0.262261 0.232411
vt 0.258545 0.237549
vt 0.264174 0.237549
f 218/532/218 293/533/293 216/534/216
vt 0.260276 0.232550
f 218/532/218 294/535/294 293/533/293
vt 0.770709 0.685350
f 294/536/294 291/524/291 293/531/293
vt 0.775938 0.678359
f 291/524/291 295/537/295 273/525/273
f 291/524/291 294/536/294 295/537/295
f 206/374/206 295/537/295 207/375/207
f 206/374/206 273/525/273 295/537/295
vt 0.797774 0.686391
vt 0.804397 0.671848
f 296/538/296 240/539/240 261/481/261
vt 0.785676 0.688315
f 261/481/261 217/540/217 296/538/296
f 261/481/261 208/376/208 217/540/217
vt 0.815346 0.675715
f 296/538/296 195/541/195 240/539/240
vt 0.815441 0.690027
f 296/538/296 278/542/278 195/541/195
f 208/376/208 207/375/207 217/540/217
vt 0.819653 0.682558
f 278/542/278 241/543/241 195/541/195
vt 0.770356 0.687057
f 207/375/207 218/544/218 217/540/217
f 207/375/207 295/537/295 218/544/218
vt 0.936984 0.960205
vt 0.928275 0.959271
vt 0.926514 0.960205
f 295/545/295 294/546/294 218/547/218
vt 0.818052 0.678404
f 241/543/241 196/548/196 195/541/195
vt 0.696533 0.837464
vt 0.698705 0.829135
vt 0.685806 0.831444
f 217/549/217 297/550/297 298/551/298
vt 0.684326 0.839111
f 298/551/298 296/552/296 217/549/217
vt 0.185175 0.362549
vt 0.182803 0.361238
vt 0.176514 0.362549
f 298/553/298 299/554/299 296/555/296
vt 0.270081 0.767481
vt 0.270198 0.771286
vt 0.274023 0.771157
f 226/556/226 225/557/225 300/558/300
vt 0.277736 0.767232
f 300/558/300 301/559/301 226/556/226
vt 0.061944 0.034993
vt 0.065443 0.041987
f 209/377/209 302/560/302 303/561/303
vt 0.065772 0.024783
f 209/377/209 301/562/301 302/560/302
vt 0.469482 0.710755
vt 0.471794 0.716185
vt 0.470505 0.721241
f 301/563/301 300/564/300 302/565/302
f 303/561/303 210/378/210 209/377/209
vt 0.059880 0.038937
vt 0.055420 0.046143
f 304/566/304 305/567/305 303/561/303
vt 0.227214 0.313685
vt 0.218430 0.313045
f 304/568/304 274/485/274 305/569/305
f 304/568/304 275/486/275 274/485/274
vt 0.214991 0.315674
f 274/485/274 306/570/306 305/569/305
f 303/561/303 302/560/302 304/566/304
vt 0.203857 0.284424
vt 0.203857 0.278037
vt 0.219665 0.278372
f 296/571/296 299/572/299 279/573/279
vt 0.221989 0.282187
f 279/573/279 278/574/278 296/571/296
vt 0.214932 0.305625
vt 0.211670 0.307937
f 257/575/257 268/576/268 306/570/306
f 306/570/306 274/485/274 257/575/257
vt 0.211683 0.315674
f 268/576/268 307/577/307 306/570/306
vt 0.000732 0.290261
f 274/578/274 258/456/258 257/455/257
vt 0.184095 0.276611
vt 0.180241 0.272162
vt 0.176532 0.272945
f 305/579/305 221/580/221 220/581/220
vt 0.172607 0.276611
f 220/581/220 303/582/303 305/579/305
vt 0.184190 0.272855
f 305/579/305 308/583/308 221/580/221
vt 0.172688 0.272514
f 220/581/220 309/584/309 303/582/303
vt 0.965794 0.749268
vt 0.962037 0.748519
vt 0.961670 0.749268
f 309/585/309 210/586/210 303/587/303
vt 0.024637 0.285703
vt 0.009561 0.285121
f 267/470/267 310/588/310 311/589/311
f 311/589/311 268/471/268 267/470/267
vt 0.667974 0.655518
vt 0.664622 0.653360
vt 0.656982 0.655518
f 311/590/311 307/591/307 268/592/268
vt 0.051514 0.247050
vt 0.053571 0.252368
vt 0.051514 0.257080
f 267/593/267 269/594/269 310/595/310
f 235/410/235 279/493/279 310/588/310
f 235/410/235 199/367/199 279/493/279
f 235/410/235 197/365/197 199/367/199
f 310/588/310 269/475/269 235/410/235
vt 0.559769 0.691270
vt 0.556045 0.690082
f 281/497/281 312/596/312 313/597/313
vt 0.188232 0.267724
f 313/598/313 282/500/282 281/499/281
vt 0.506039 0.682949
vt 0.480939 0.672874
vt 0.478067 0.684810
f 314/599/314 315/600/315 224/601/224
f 224/601/224 287/519/287 314/599/314
vt 0.482130 0.700844
f 224/601/224 316/602/316 287/519/287
vt 0.519699 0.691186
f 287/519/287 317/603/317 314/599/314
vt 0.369679 0.829540
f 224/394/224 223/393/223 316/604/316
f 316/602/316 286/514/286 287/519/287
vt 0.477295 0.672599
f 315/600/315 318/605/318 224/601/224
vt 0.484460 0.707729
f 316/602/316 319/606/319 286/514/286
f 287/519/287 215/506/215 213/381/213
f 213/381/213 317/603/317 287/519/287
vt 0.538192 0.696026
f 213/381/213 320/607/320 317/603/317
f 213/381/213 280/495/280 320/607/320
vt 0.556659 0.700594
f 280/495/280 283/608/283 320/607/320
f 287/519/287 285/513/285 215/506/215
vt 0.527447 0.724464
vt 0.559237 0.723462
f 280/495/280 201/609/201 200/610/200
f 280/495/280 213/381/213 201/609/201
f 200/610/200 259/498/259 280/495/280
f 213/381/213 212/380/212 201/609/201
vt 0.488567 0.724263
f 319/606/319 321/611/321 264/515/264
f 264/515/264 286/514/286 319/606/319
vt 0.479563 0.725830
f 319/606/319 322/612/322 321/611/321
vt 0.492841 0.720676
vt 0.499644 0.724645
f 285/513/285 284/613/284 271/614/271
f 271/614/271 215/506/215 285/513/285
f 271/614/271 270/505/270 215/506/215
vt 0.715460 0.839111
f 297/550/297 217/549/217 216/615/216
vt 0.766537 0.685925
vt 0.761425 0.692268
vt 0.784071 0.696298
f 216/616/216 323/617/323 297/618/297
vt 0.758832 0.685537
f 216/616/216 324/619/324 323/617/323
f 216/616/216 290/523/290 324/619/324
f 216/616/216 293/531/293 290/523/290
vt 0.246248 0.284423
vt 0.246157 0.276789
vt 0.243728 0.276770
f 325/620/325 326/621/326 327/622/327
vt 0.239014 0.284424
f 327/622/327 328/623/328 325/620/325
vt 0.965684 0.982740
vt 0.947846 0.974838
vt 0.947468 0.988593
f 329/624/329 298/625/298 297/626/297
vt 0.961271 0.988966
f 297/626/297 330/627/330 329/624/329
vt 0.949289 0.999268
f 297/626/297 328/628/328 330/627/330
vt 0.775175 0.702393
f 297/618/297 323/617/323 328/629/328
vt 0.763886 0.700305
f 323/617/323 331/630/331 328/629/328
vt 0.242695 0.269059
f 328/623/328 327/622/327 330/631/330
vt 0.755800 0.702393
f 323/617/323 332/632/332 331/630/331
vt 0.473009 0.729736
vt 0.469482 0.725843
f 333/633/333 304/634/304 302/565/302
vt 0.475430 0.716985
f 302/565/302 225/635/225 333/633/333
f 302/565/302 300/564/300 225/635/225
vt 0.228544 0.263979
vt 0.223389 0.261115
vt 0.225156 0.264893
f 275/636/275 334/637/334 276/638/276
vt 0.226442 0.258971
f 275/636/275 335/639/335 334/637/334
vt 0.230681 0.260009
f 275/636/275 333/640/333 335/639/335
vt 0.233050 0.264892
f 275/636/275 304/641/304 333/640/333
vt 0.992318 0.991481
vt 0.987546 0.998219
vt 0.997666 0.991316
f 309/642/309 336/643/336 337/644/337
f 309/642/309 219/389/219 336/643/336
f 309/642/309 220/390/220 219/389/219
vt 0.137684 0.245361
vt 0.137817 0.241534
vt 0.133639 0.241460
f 308/645/308 305/646/305 306/647/306
vt 0.129639 0.245361
f 306/647/306 311/648/311 308/645/308
vt 0.130561 0.241573
f 306/647/306 307/649/307 311/648/311
vt 0.181233 0.260998
vt 0.176514 0.264893
vt 0.186419 0.264892
f 337/650/337 211/651/211 210/652/210
vt 0.186568 0.261084
f 210/652/210 309/653/309 337/650/337
vt 0.972215 0.966898
vt 0.953836 0.959742
f 298/625/298 310/654/310 279/655/279
f 298/625/298 329/624/329 310/654/310
vt 0.983458 0.977508
f 329/624/329 311/656/311 310/654/310
vt 0.978179 0.991579
f 329/624/329 335/657/335 311/656/311
vt 0.946045 0.973510
f 279/655/279 299/658/299 298/625/298
vt 0.982489 0.985495
f 335/657/335 308/659/308 311/656/311
vt 0.982693 0.991827
f 335/657/335 333/660/333 308/659/308
vt 0.533862 0.684498
vt 0.525853 0.682726
vt 0.525358 0.684994
f 338/661/338 339/662/339 340/663/340
vt 0.535258 0.677293
f 338/661/338 341/664/341 339/662/339
vt 0.538872 0.679949
f 338/661/338 342/665/342 341/664/341
f 342/665/342 338/661/338 313/597/313
f 320/607/320 283/608/283 313/597/313
f 313/597/313 338/661/338 320/607/320
f 338/661/338 340/663/340 320/607/320
vt 0.198887 0.274633
f 283/666/283 282/500/282 313/598/313
f 339/662/339 314/599/314 317/603/317
f 317/603/317 340/663/340 339/662/339
f 317/603/317 320/607/320 340/663/340
vt 0.371500 0.839111
vt 0.379146 0.839096
vt 0.375284 0.829961
f 343/667/343 344/668/344 345/669/345
vt 0.367573 0.835789
f 345/669/345 346/670/346 343/667/343
f 345/669/345 316/604/316 346/670/346
f 316/604/316 223/393/223 346/670/346
vt 0.405858 0.835251
vt 0.409724 0.830733
f 345/669/345 347/671/347 324/672/324
f 345/669/345 344/668/344 347/671/347
vt 0.411702 0.837722
vt 0.413681 0.836447
f 324/672/324 348/673/348 323/674/323
f 324/672/324 347/671/347 348/673/348
f 333/660/333 336/643/336 219/389/219
vt 0.641357 0.655518
vt 0.654422 0.655518
vt 0.649233 0.653967
f 333/675/333 225/676/225 336/677/336
f 219/389/219 221/391/221 333/660/333
f 221/391/221 308/659/308 333/660/333
vt 0.173581 0.315674
f 225/395/225 227/397/227 336/678/336
vt 0.995462 0.999268
f 337/644/337 336/643/336 227/679/227
vt 0.405906 0.838967
f 347/671/347 349/680/349 348/673/348
f 347/671/347 344/668/344 349/680/349
f 234/408/234 198/366/198 228/398/228
f 237/413/237 236/412/236 198/366/198
f 198/366/198 106/407/106 237/413/237
vt 0.472741 0.830286
f 108/422/108 194/421/194 236/681/236
f 228/398/228 230/401/230 234/408/234
vt 0.022892 0.358102
f 78/400/78 111/682/111 230/401/230
vt 0.356608 0.914851
vt 0.370467 0.915320
vt 0.362853 0.913673
f 350/683/350 351/684/351 352/685/352
vt 0.692457 0.747850
vt 0.686253 0.768630
f 101/686/101 102/687/102 246/437/246
vt 0.422228 0.839111
f 96/420/96 95/688/95 194/421/194
f 244/429/244 110/431/110 98/430/98
vt 0.693669 0.706182
f 194/362/194 95/689/95 91/417/91
vt 0.044456 0.358549
f 237/413/237 105/414/105 109/690/109
vt 0.032800 0.358643
f 234/408/234 104/409/104 107/691/107
f 107/691/107 106/407/106 234/408/234
f 109/690/109 108/411/108 237/413/237
f 230/401/230 111/682/111 104/409/104
f 102/687/102 100/440/100 246/437/246
vt 0.833034 0.743569
f 97/432/97 113/692/113 98/430/98
vt 0.680822 0.756071
f 101/686/101 112/693/112 102/687/102
vt 0.754984 0.724651
vt 0.760274 0.745641
f 86/694/86 85/695/85 88/443/88
vt 0.184868 0.253174
vt 0.180084 0.250407
vt 0.176514 0.253174
f 353/696/353 354/697/354 355/698/355
vt 0.603867 0.681207
vt 0.604836 0.699291
vt 0.615387 0.695322
f 356/699/356 357/700/357 358/701/358
vt 0.192291 0.249326
vt 0.188232 0.248773
vt 0.188434 0.253174
f 346/702/346 223/703/223 222/704/222
vt 0.621635 0.675029
f 179/705/179 356/699/356 358/701/358
vt 0.626146 0.689812
f 358/701/358 185/706/185 179/705/179
vt 0.606187 0.677786
f 179/705/179 178/707/178 356/699/356
vt 0.409504 0.739056
vt 0.414503 0.745714
vt 0.409971 0.757080
f 162/708/162 172/709/172 130/710/130
vt 0.397615 0.739571
vt 0.405412 0.732420
f 161/711/161 359/712/359 162/708/162
vt 0.417613 0.745039
f 162/708/162 184/713/184 172/709/172
vt 0.409247 0.732475
f 359/712/359 360/714/360 162/708/162
vt 0.360116 0.726919
vt 0.363975 0.715720
vt 0.382782 0.722202
f 355/715/355 361/716/361 175/717/175
vt 0.375231 0.737581
f 175/717/175 174/718/174 355/715/355
vt 0.371512 0.696531
f 361/716/361 362/719/362 175/717/175
vt 0.363953 0.711893
f 361/716/361 363/720/363 362/719/362
vt 0.360130 0.719438
f 355/715/355 364/721/364 361/716/361
vt 0.356377 0.730958
f 355/715/355 354/722/354 364/721/364
vt 0.010358 0.280518
vt 0.011730 0.276475
vt 0.005160 0.274425
f 177/723/177 365/724/365 178/725/178
vt 0.013302 0.279516
f 177/723/177 366/726/366 365/724/365
vt 0.428605 0.739017
f 184/713/184 162/708/162 181/727/181
vt 0.440533 0.741931
f 181/727/181 180/728/180 184/713/184
vt 0.393756 0.739526
vt 0.393835 0.724653
f 188/729/188 186/730/186 359/712/359
f 359/712/359 161/711/161 188/729/188
vt 0.393319 0.739521
f 186/730/186 188/729/188 164/731/164
vt 0.390079 0.721167
f 175/717/175 367/732/367 186/730/186
vt 0.454633 0.715564
vt 0.462484 0.716075
vt 0.459394 0.730543
f 368/733/368 369/734/369 366/735/366
vt 0.443861 0.736451
f 366/735/366 187/736/187 368/733/368
vt 0.457016 0.733267
f 366/735/366 177/737/177 187/736/187
vt 0.427878 0.719560
f 187/736/187 370/738/370 368/733/368
f 187/736/187 181/727/181 370/738/370
vt 0.424165 0.723674
f 181/727/181 371/739/371 370/738/370
vt 0.436245 0.738413
f 187/736/187 182/740/182 181/727/181
f 181/727/181 162/708/162 360/714/360
f 360/714/360 371/739/371 181/727/181
vt 0.389914 0.713181
vt 0.401010 0.696943
f 372/741/372 373/742/373 371/739/371
f 371/739/371 360/714/360 372/741/372
vt 0.423823 0.700164
f 373/742/373 374/743/374 371/739/371
f 360/714/360 186/730/186 372/741/372
f 374/743/374 370/738/370 371/739/371
vt 0.419996 0.696443
f 373/742/373 375/744/375 374/743/374
vt 0.388823 0.701216
f 372/741/372 376/745/376 373/742/373
f 360/714/360 359/712/359 186/730/186
vt 0.352305 0.737830
vt 0.356133 0.734037
f 174/718/174 94/746/94 353/747/353
f 353/747/353 355/715/355 174/718/174
vt 0.352295 0.730281
f 94/746/94 238/748/238 353/747/353
vt 0.024430 0.272775
vt 0.030609 0.280518
f 377/749/377 366/726/366 369/750/369
f 377/749/377 365/724/365 366/726/366
vt 0.029856 0.273264
f 369/750/369 378/751/378 377/749/377
vt 0.033301 0.277781
f 369/750/369 379/752/379 378/751/378
vt 0.008016 0.271729
vt 0.014654 0.250252
vt 0.011767 0.252753
f 356/753/356 380/754/380 357/755/357
f 356/753/356 377/749/377 380/754/380
f 356/753/356 365/724/365 377/749/377
vt 0.600187 0.678756
f 356/699/356 178/707/178 365/756/365
vt 0.352298 0.718988
vt 0.357186 0.719308
f 238/748/238 251/757/251 381/758/381
f 381/758/381 354/722/354 238/748/238
f 381/758/381 364/721/364 354/722/354
vt 0.352297 0.715222
f 251/757/251 253/759/253 381/758/381
vt 0.357537 0.715534
f 253/759/253 382/760/382 381/758/381
vt 0.184449 0.248866
f 354/697/354 353/696/353 238/761/238
vt 0.439354 0.708179
vt 0.443175 0.711350
f 370/738/370 383/762/383 384/763/384
f 384/763/384 368/733/368 370/738/370
f 370/738/370 374/743/374 383/762/383
vt 0.390000 0.717332
f 385/764/385 175/717/175 362/719/362
vt 0.374491 0.688300
f 362/719/362 386/765/386 385/764/385
f 385/764/385 367/732/367 175/717/175
vt 0.930425 0.745361
vt 0.936310 0.741579
vt 0.933839 0.737809
f 362/766/362 387/767/387 386/768/386
vt 0.029269 0.261127
vt 0.024985 0.244958
f 380/754/380 388/769/388 389/770/389
f 380/754/380 377/749/377 388/769/388
vt 0.031596 0.258122
f 388/769/388 390/771/390 389/770/389
f 377/749/377 378/751/378 388/769/388
vt 0.451271 0.705231
f 391/772/391 368/733/368 384/763/384
vt 0.462503 0.712365
f 391/772/391 379/773/379 368/733/368
f 379/773/379 369/734/369 368/733/368
vt 0.427803 0.693058
f 374/743/374 375/744/375 392/774/392
f 392/774/392 383/762/383 374/743/374
vt 0.902062 0.737640
vt 0.948355 0.730909
f 372/775/372 386/768/386 393/776/393
vt 0.899170 0.740473
f 372/775/372 385/777/385 386/768/386
vt 0.129639 0.253174
vt 0.135758 0.253174
vt 0.131099 0.250950
f 192/778/192 364/779/364 193/780/193
vt 0.360418 0.716500
f 192/781/192 361/716/361 364/721/364
vt 0.136534 0.250275
f 364/779/364 381/782/381 193/780/193
vt 0.144893 0.284424
vt 0.154279 0.284424
vt 0.149494 0.278692
f 382/783/382 394/784/394 191/785/191
vt 0.145208 0.280578
f 191/785/191 193/786/193 382/783/382
vt 0.141357 0.284350
f 193/786/193 381/787/381 382/783/382
vt 0.464930 0.713667
vt 0.457277 0.703112
f 378/788/378 379/773/379 395/789/395
vt 0.033448 0.260496
f 395/790/395 388/769/388 378/751/378
vt 0.452959 0.702488
f 395/789/395 391/772/391 396/791/396
f 395/789/395 379/773/379 391/772/391
vt 0.424406 0.682974
vt 0.450243 0.698754
f 392/774/392 397/792/397 398/793/398
f 398/793/398 383/762/383 392/774/392
f 398/793/398 391/772/391 383/762/383
f 391/772/391 384/763/384 383/762/383
f 398/793/398 396/791/396 391/772/391
vt 0.378249 0.682586
f 372/741/372 399/794/399 376/745/376
vt 0.932368 0.725518
f 372/775/372 393/776/393 399/795/399
vt 0.367215 0.673976
vt 0.374620 0.675659
f 393/796/393 400/797/400 399/794/399
vt 0.370889 0.672196
f 393/796/393 401/798/401 400/797/400
vt 0.360415 0.712731
f 191/799/191 363/720/363 361/716/361
f 361/716/361 192/781/192 191/799/191
vt 0.363102 0.707935
f 191/799/191 394/800/394 363/720/363
vt 0.352295 0.703930
f 382/760/382 252/801/252 394/800/394
f 382/760/382 253/759/253 252/801/252
vt 0.352371 0.685335
f 252/801/252 256/802/256 394/800/394
vt 0.382032 0.678680
f 376/745/376 399/794/399 402/803/402
f 402/803/402 373/742/373 376/745/376
vt 0.371476 0.688890
f 394/800/394 256/802/256 387/804/387
f 387/804/387 362/719/362 394/800/394
vt 0.359560 0.677823
f 256/802/256 403/805/403 387/804/387
vt 0.359339 0.674059
f 403/805/403 404/806/404 387/804/387
f 362/719/362 363/720/363 394/800/394
vt 0.352442 0.674254
f 256/802/256 258/807/258 403/805/403
vt 0.044114 0.248992
f 395/790/395 405/808/405 390/771/390
vt 0.455528 0.684241
vt 0.460911 0.688668
f 395/789/395 406/809/406 405/810/405
vt 0.167849 0.234816
vt 0.164795 0.237549
vt 0.170599 0.237549
f 390/811/390 388/812/388 395/813/395
vt 0.027740 0.236398
f 405/808/405 407/814/407 389/770/389
f 389/770/389 390/771/390 405/808/405
f 398/793/398 406/809/406 395/789/395
vt 0.451628 0.684055
f 398/793/398 408/815/408 406/809/406
f 395/789/395 396/791/396 398/793/398
vt 0.428277 0.675554
f 408/815/408 397/792/397 409/816/409
f 408/815/408 398/793/398 397/792/397
vt 0.412892 0.682950
f 397/792/397 410/817/410 409/816/409
vt 0.397543 0.671621
f 410/817/410 411/818/411 409/816/409
f 375/744/375 410/817/410 397/792/397
f 375/744/375 373/742/373 410/817/410
f 397/792/397 392/774/392 375/744/375
f 373/742/373 402/803/402 411/818/411
f 411/818/411 410/817/410 373/742/373
vt 0.393699 0.671600
f 402/803/402 412/819/412 411/818/411
vt 0.955702 0.739507
f 387/767/387 404/820/404 393/776/393
f 393/776/393 386/768/386 387/767/387
vt 0.952058 0.726896
f 404/820/404 326/821/326 393/776/393
vt 0.961770 0.731099
f 404/820/404 413/822/413 326/821/326
vt 0.958968 0.726554
f 413/822/413 330/823/330 326/821/326
vt 0.953134 0.724718
f 330/823/330 327/824/327 326/821/326
vt 0.367081 0.668504
f 326/825/326 401/798/401 393/796/393
vt 0.432136 0.675617
f 408/815/408 409/816/409 414/826/414
vt 0.382260 0.672127
vt 0.386189 0.668307
f 415/827/415 416/828/416 412/819/412
f 412/819/412 402/803/402 415/827/415
f 402/803/402 399/794/399 400/797/400
vt 0.397469 0.667688
f 416/828/416 417/829/417 412/819/412
vt 0.378551 0.668398
f 415/827/415 418/830/418 416/828/416
vt 0.423571 0.656136
f 409/816/409 417/829/417 344/831/344
f 409/816/409 411/818/411 417/829/417
vt 0.397301 0.664109
f 417/829/417 419/832/419 344/831/344
vt 0.396833 0.656527
f 419/832/419 349/833/349 344/831/344
vt 0.439286 0.662882
f 344/831/344 420/834/420 409/816/409
vt 0.431212 0.656058
f 344/831/344 343/835/343 420/834/420
f 420/834/420 414/826/414 409/816/409
f 411/818/411 412/819/412 417/829/417
vt 0.378687 0.673779
f 203/371/203 415/827/415 421/836/421
f 421/836/421 204/372/204 203/371/203
f 418/830/418 203/371/203 205/373/205
f 418/830/418 415/827/415 203/371/203
vt 0.374688 0.672082
f 421/836/421 400/797/400 422/837/422
f 422/837/422 204/372/204 421/836/421
vt 0.374734 0.668447
f 401/798/401 326/825/326 325/838/325
f 325/838/325 422/837/422 401/798/401
f 325/838/325 418/830/418 422/837/422
f 422/837/422 400/797/400 401/798/401
vt 0.275362 0.259293
vt 0.278334 0.264893
vt 0.280319 0.261007
f 277/839/277 258/840/258 274/841/274
vt 0.270264 0.264893
f 277/839/277 403/842/403 258/840/258
vt 0.963476 0.740860
f 334/843/334 413/822/413 404/820/404
vt 0.958527 0.745361
f 404/820/404 277/844/277 334/843/334
vt 0.961695 0.744625
f 277/844/277 276/845/276 334/843/334
vt 0.952581 0.741080
f 404/820/404 403/846/403 277/844/277
vt 0.173704 0.352439
vt 0.181251 0.346199
vt 0.177325 0.344624
f 322/847/322 289/848/289 288/849/288
vt 0.185194 0.352345
f 322/847/322 292/850/292 289/848/289
vt 0.169713 0.345113
f 288/849/288 321/851/321 322/847/322
vt 0.173401 0.341728
f 263/852/263 321/851/321 288/849/288
vt 0.213875 0.231951
vt 0.211670 0.237549
vt 0.214902 0.237549
f 263/853/263 264/854/264 321/855/321
vt 0.177226 0.340822
f 288/849/288 266/856/266 263/852/263
vt 0.271739 0.243093
vt 0.276274 0.245361
vt 0.273271 0.240800
f 205/857/205 422/858/422 418/859/418
vt 0.270264 0.245361
f 205/857/205 204/860/204 422/858/422
vt 0.438849 0.655986
vt 0.446499 0.655918
f 420/834/420 222/861/222 224/862/224
f 420/834/420 343/835/343 222/861/222
vt 0.196003 0.253174
f 343/863/343 346/702/346 222/704/222
vt 0.154771 0.358643
vt 0.189216 0.358643
f 345/864/345 324/865/324 322/847/322
vt 0.154613 0.353483
f 322/847/322 319/866/319 345/864/345
f 324/865/324 292/850/292 322/847/322
vt 0.189018 0.352230
f 324/865/324 290/867/290 292/850/292
vt 0.149170 0.358295
f 319/866/319 316/868/316 345/864/345
vt 0.385842 0.662735
vt 0.393716 0.665205
f 416/828/416 331/869/331 332/870/332
f 332/870/332 417/829/417 416/828/416
vt 0.086670 0.228603
vt 0.091504 0.226111
vt 0.090950 0.229736
f 332/871/332 419/872/419 417/873/417
vt 0.389194 0.660323
f 419/832/419 323/874/323 349/833/349
vt 0.086670 0.216296
f 419/872/419 332/871/332 323/875/323
vt 0.391104 0.658403
f 323/874/323 348/876/348 349/833/349
vt 0.374382 0.663040
f 331/869/331 418/830/418 328/877/328
f 331/869/331 416/828/416 418/830/418
f 418/830/418 325/838/325 328/877/328
vt 0.266115 0.300017
vt 0.254660 0.303955
vt 0.269964 0.303955
f 413/878/413 335/879/335 329/880/329
vt 0.254639 0.300015
f 413/878/413 334/881/334 335/879/335
vt 0.269968 0.296294
f 329/880/329 330/882/330 413/878/413
f 402/803/402 400/797/400 421/836/421
f 402/803/402 421/836/421 415/827/415
f 186/730/186 367/732/367 385/764/385
f 186/730/186 385/764/385 372/741/372
vt 0.075348 0.452385
vt 0.079508 0.452393
vt 0.078669 0.448567
f 429/883/429 427/884/427 426/885/426
vt 0.609228 0.586221
vt 0.597802 0.596924
vt 0.609225 0.595632
f 431/886/431 428/887/428 430/888/430
vt 0.590132 0.586935
f 431/886/431 432/889/432 428/887/428
vt 0.613122 0.583142
f 430/888/430 433/890/433 431/886/431
vt 0.620162 0.596924
f 430/888/430 424/891/424 433/890/433
vt 0.628361 0.586396
f 424/891/424 434/892/434 433/890/433
vt 0.985088 0.651826
vt 0.981884 0.644145
f 424/893/424 435/894/435 434/74/434
vt 0.971791 0.636672
f 435/894/435 436/895/436 434/74/434
f 436/895/436 437/12/437 434/74/434
vt 0.590124 0.596246
f 432/889/432 429/896/429 428/887/428
f 436/895/436 438/10/438 437/12/437
vt 0.072725 0.561285
f 440/59/440 438/62/438 439/897/439
vt 0.068959 0.561968
f 439/897/439 441/898/441 440/59/440
vt 0.076410 0.560271
f 438/62/438 436/899/436 439/897/439
vt 0.586670 0.594653
f 427/900/427 429/896/429 432/889/432
vt 0.937981 0.815837
f 441/901/441 443/231/443 442/233/442
f 442/233/442 440/235/440 441/901/441
l 99 423
l 352 423
l 425 432
# 778 faces, 901 coords texture

# End of File
