####
#
# OBJ File Generated by Meshlab
#
####
# Object hallway_chair_4.obj
#
# Vertices: 292
# Faces: 557
#
####
mtllib ./hallway_chair_4.obj.mtl

vn 0.248175 -0.003659 -0.968708
v 7.843208 -0.409292 0.339791
vn -0.065616 -0.110255 -0.991735
v 7.843211 -0.432804 0.364922
vn -0.732610 0.080242 -0.675902
v 7.819694 -0.409291 0.368558
vn -0.218034 0.237194 -0.946678
v 7.843211 -0.385779 0.364431
vn 0.047391 0.881981 -0.468895
v 7.937259 -0.279974 0.350540
vn -0.484629 0.871878 0.070451
v 7.913745 -0.281923 0.374053
vn -0.241406 0.771719 0.588364
v 7.937261 -0.283533 0.397554
vn 0.270370 0.958804 0.087155
v 8.031307 -0.256463 0.374054
vn -0.313513 0.933442 0.174343
v 7.984282 -0.256398 0.374053
vn -0.313716 0.648936 0.693155
v 7.984282 -0.268217 0.385810
vn -0.933780 -0.290744 -0.208621
v 7.781469 -0.691440 0.397580
vn -0.955009 -0.194369 0.224006
v 7.789763 -0.644419 0.397568
vn -0.046024 -0.592551 -0.804217
v 7.843204 -0.714956 0.392508
vn -0.415443 -0.890922 -0.183479
v 7.819696 -0.718221 0.397569
vn 0.057465 -0.896188 -0.439937
v 7.866720 -0.720547 0.397564
vn 0.276767 -0.501657 -0.819597
v 7.866720 -0.691442 0.389983
vn -0.263955 -0.325423 -0.907980
v 7.890232 -0.691442 0.389336
vn -0.276571 -0.676301 -0.682734
v 7.913745 -0.714956 0.390701
vn -0.509076 -0.752798 -0.417297
v 7.913747 -0.702832 0.374056
vn -0.552117 0.120050 -0.825078
v 7.913749 -0.691441 0.362672
vn -0.675075 -0.236748 -0.698730
v 7.937258 -0.714956 0.389946
vn -0.607724 -0.792349 -0.053424
v 7.937259 -0.702782 0.374054
vn -0.066855 -0.588844 0.805477
v 7.866717 -0.714951 0.417166
vn -0.404298 -0.243340 0.881663
v 7.796177 -0.691427 0.407793
vn -0.162734 0.045823 0.985605
v 7.843243 -0.573870 0.410819
vn -0.831988 0.290266 0.472802
v 7.797756 -0.573879 0.397569
vn -0.909423 -0.140818 0.391306
v 7.778214 -0.620904 0.397560
vn -0.661621 0.167769 0.730829
v 7.809617 -0.526854 0.397569
vn -0.381418 0.100861 0.918884
v 7.843202 -0.479828 0.403894
vn -0.114682 -0.566370 -0.816133
v 7.843205 -0.691442 0.365106
vn -0.575724 0.196308 -0.793729
v 7.796185 -0.597393 0.365963
vn -0.533835 0.230846 -0.813468
v 7.808998 -0.573878 0.373909
vn -0.060373 0.013015 -0.998091
v 7.890552 -0.338800 0.364280
vn -0.100538 -0.075971 -0.992028
v 7.890288 -0.597426 0.362537
vn -0.943963 0.020990 -0.329382
v 7.793937 -0.526854 0.373940
vn 0.001975 0.030369 -0.999537
v 7.843279 -0.620778 0.362813
vn 0.370724 -0.189446 -0.909216
v 7.866722 -0.667929 0.362431
vn -0.539357 0.340757 -0.770051
v 7.913738 -0.291730 0.364166
vn -0.042261 -0.126704 -0.991040
v 7.937259 -0.315243 0.358968
vn -0.996873 0.019575 -0.076563
v 7.814227 -0.409292 0.374049
vn -0.510317 0.090350 0.855227
v 7.841752 -0.409294 0.397868
vn 0.138465 -0.329032 0.934112
v 8.007582 -0.738364 0.417212
vn 0.023845 -0.032686 0.999181
v 8.007911 -0.432871 0.417010
vn -0.408369 -0.499749 0.763863
v 7.913748 -0.732485 0.421065
vn -0.141376 -0.424338 0.894399
v 7.960769 -0.743500 0.421128
vn -0.704685 0.391351 -0.591831
v 7.851062 -0.338756 0.374056
vn -0.862902 0.136451 -0.486602
v 7.843207 -0.338754 0.389311
vn 0.021667 0.029553 -0.999328
v 7.937260 -0.291731 0.338785
vn -0.600524 0.051735 0.797931
v 7.852625 -0.362270 0.397935
vn -0.161089 0.207869 0.964801
v 7.937287 -0.338755 0.420759
vn 0.030091 0.148370 0.988474
v 8.007830 -0.338772 0.425449
vn -0.930070 0.159060 0.331165
v 7.838038 -0.338760 0.397868
vn -0.403756 0.337957 -0.850156
v 7.937260 -0.714954 0.315473
vn 0.300756 0.300067 -0.905266
v 7.960770 -0.714955 0.314536
vn -0.137043 -0.938975 -0.315508
v 7.937257 -0.765193 0.350542
vn -0.999720 -0.000383 -0.023642
v 7.909861 -0.738466 0.350541
vn -0.669929 -0.683192 -0.290594
v 7.916185 -0.761975 0.350540
vn -0.686408 -0.603142 0.406280
v 7.937258 -0.747713 0.374055
vn -0.973704 0.227713 0.006881
v 7.937259 -0.734482 0.374054
vn -0.916652 0.399634 -0.006414
v 7.928509 -0.714954 0.350541
vn -0.854011 -0.095616 0.511392
v 7.937259 -0.714954 0.359290
vn -0.184130 0.755644 -0.628568
v 7.937259 -0.706204 0.350540
vn 0.021134 0.527461 -0.849317
v 7.937259 -0.691441 0.362716
vn 0.080031 -0.973323 0.215027
v 7.984282 -0.770823 0.397565
vn -0.873622 -0.301899 -0.381631
v 7.913746 -0.728633 0.397567
vn 0.133109 0.264898 0.955045
v 8.102039 -0.315325 0.410743
vn 0.208277 0.820724 0.532008
v 8.078333 -0.279970 0.397582
vn 0.075082 0.616512 0.783757
v 8.031307 -0.280137 0.397570
vn -0.192558 0.811353 0.551931
v 7.960770 -0.282194 0.397560
vn 0.094189 -0.649456 -0.754543
v 8.007791 -0.738461 0.365283
vn 0.602528 0.436561 -0.668113
v 8.001385 -0.714957 0.350538
vn -0.323785 -0.800759 0.503933
v 8.031303 -0.750773 0.397571
vn 0.194453 0.130024 -0.972256
v 8.007797 -0.714957 0.357319
vn -0.017526 -0.882822 0.469380
v 8.031213 -0.738424 0.410698
vn 0.094231 0.000557 0.995550
v 8.007747 -0.585618 0.417111
vn 0.139294 -0.068221 0.987898
v 8.113468 -0.667867 0.407150
vn 0.094232 0.000557 0.995550
v 8.113550 -0.591494 0.407100
vn 0.286379 -0.533468 0.795863
v 8.125443 -0.738506 0.394987
vn -0.001862 -0.609308 0.792932
v 8.054702 -0.761926 0.408443
vn -0.763251 0.646097 -0.002730
v 7.972527 -0.268217 0.374054
vn -0.249669 0.263828 -0.931697
v 7.984282 -0.268217 0.338785
vn -0.479307 -0.851598 -0.212242
v 8.031307 -0.771304 0.374053
vn -0.098306 -0.286609 -0.952991
v 8.059925 -0.738466 0.350543
vn 0.124340 -0.941678 -0.312700
v 8.054819 -0.772080 0.374053
vn 0.350993 -0.879724 -0.320765
v 8.125357 -0.750220 0.374054
vn 0.254123 -0.392252 -0.884059
v 8.101846 -0.738466 0.362824
vn 0.092390 -0.376202 -0.921920
v 8.078334 -0.738466 0.339360
vn 0.160067 0.764459 0.624484
v 8.125359 -0.304557 0.397573
vn -0.067261 0.599663 0.797421
v 7.984308 -0.281508 0.397563
vn 0.088772 -0.006517 0.996031
v 8.113632 -0.515121 0.407049
vn 0.083306 -0.013591 0.996431
v 8.117817 -0.456359 0.407501
vn 0.078345 -0.348942 -0.933864
v 7.890244 -0.667910 0.377947
vn -0.005372 0.592414 -0.805616
v 7.960768 -0.291728 0.367165
vn 0.250795 0.961021 0.116362
v 8.078334 -0.282646 0.374054
vn 0.041675 0.974070 -0.222376
v 8.078333 -0.253666 0.350541
vn -0.046328 0.556342 -0.829661
v 8.054460 -0.282945 0.348707
vn 0.037034 0.155052 -0.987212
v 8.078333 -0.714954 0.354501
vn 0.285237 0.782507 -0.553464
v 8.101848 -0.290080 0.350542
vn -0.070944 -0.140066 -0.987597
v 8.172194 -0.573848 0.313657
vn -0.022103 -0.291165 -0.956418
v 8.125359 -0.691438 0.352455
vn -0.079513 0.021423 -0.996604
v 8.007835 -0.691361 0.362593
vn -0.248410 -0.023228 -0.968376
v 7.913759 -0.667905 0.374149
vn 0.002117 -0.120359 -0.992728
v 8.195709 -0.550340 0.309511
vn -0.167302 0.016693 -0.985764
v 7.960809 -0.550370 0.350699
vn -0.155628 0.213814 -0.964398
v 8.078232 -0.315231 0.337483
vn -0.003589 -0.413546 -0.910476
v 7.983966 -0.291684 0.361346
vn 0.001684 0.499324 -0.866414
v 8.196049 -0.268247 0.310032
vn -0.205316 -0.014844 -0.978583
v 8.160551 -0.326987 0.320390
vn 0.137583 0.471853 -0.870876
v 8.007622 -0.268192 0.354235
vn -0.081409 -0.681426 -0.727346
v 7.984285 -0.287841 0.350596
vn -0.358383 0.915668 -0.181971
v 7.960770 -0.289293 0.374054
vn 0.376608 0.926351 0.006417
v 8.054819 -0.274145 0.374054
vn -0.279184 0.959919 -0.024720
v 8.125357 -0.291728 0.350541
vn -0.201082 0.016053 -0.979443
v 8.136971 -0.432786 0.323497
vn 0.180885 0.216180 0.959451
v 8.195928 -0.338771 0.407120
vn 0.460405 0.106595 0.881286
v 8.219406 -0.338755 0.388193
vn 0.040146 0.088799 0.995240
v 8.242921 -0.315240 0.385817
vn -0.561008 0.783982 0.265786
v 8.262264 -0.620837 0.395980
vn -0.087122 0.191705 0.977578
v 8.219356 -0.597370 0.397088
vn -0.867310 0.326512 -0.375718
v 8.242906 -0.600469 0.421084
vn -0.953268 0.078685 0.291701
v 8.259756 -0.479829 0.421079
vn -0.131952 -0.068646 0.988876
v 8.227722 -0.479848 0.397992
vn -0.853712 -0.011241 0.520624
v 8.264214 -0.503302 0.397026
vn -0.195694 -0.967206 0.161916
v 8.242921 -0.747860 0.515128
vn 0.031022 -0.953057 -0.301198
v 8.242920 -0.770177 0.444591
vn 0.532520 -0.812918 -0.235769
v 8.266433 -0.747923 0.444591
vn -0.478617 -0.877849 0.017530
v 8.266428 -0.738465 0.609177
vn -0.623560 -0.770308 0.133410
v 8.259651 -0.761829 0.679928
vn -0.958691 -0.089276 0.270078
v 8.245292 -0.715125 0.608929
vn 0.480692 0.473465 -0.738082
v 8.266431 -0.656977 0.374053
vn 0.860006 -0.296354 -0.415408
v 8.253484 -0.597391 0.374054
vn 0.017526 -0.932039 -0.361934
v 8.266433 -0.584917 0.374055
vn 0.493584 -0.862176 -0.114133
v 8.289955 -0.751402 0.703224
vn -0.669042 -0.730591 0.136456
v 8.273063 -0.761754 0.727101
vn -0.613003 -0.770345 0.175490
v 8.266279 -0.761792 0.703243
vn -0.276829 0.382843 0.881361
v 8.313520 -0.338829 0.491602
vn -0.943916 0.313656 0.103161
v 8.284451 -0.338755 0.468104
vn -0.878774 0.429824 0.207385
v 8.286984 -0.361818 0.492365
vn 0.431458 -0.883278 0.183475
v 8.289951 -0.761990 0.750251
vn -0.785304 0.015525 0.618915
v 8.287342 -0.738016 0.756166
vn -0.034002 -0.494080 0.868751
v 8.286340 -0.761372 0.758178
vn -0.449762 -0.150715 0.880341
v 8.360478 -0.479830 0.768448
vn -0.302309 -0.230186 0.924999
v 8.394020 -0.503330 0.773641
vn -0.569294 -0.261180 0.779544
v 8.400227 -0.479850 0.797469
vn -0.318954 -0.266982 0.909389
v 8.195806 -0.696251 0.396663
vn -0.385584 0.353510 0.852265
v 8.266397 -0.385765 0.401042
vn -0.755732 0.137913 0.640194
v 8.255180 -0.526817 0.396993
vn 0.318190 -0.625093 0.712751
v 8.172397 -0.714965 0.394316
vn -0.208626 -0.972229 0.106045
v 8.219530 -0.715012 0.385725
vn -0.089193 0.177890 0.980000
v 8.219406 -0.291726 0.378048
vn 0.148018 -0.677851 -0.720145
v 8.172323 -0.715071 0.362159
vn -0.058611 -0.653405 -0.754736
v 8.219448 -0.714875 0.339080
vn 0.346809 -0.860614 -0.372918
v 8.254725 -0.714953 0.374055
vn -0.095433 -0.987250 -0.127399
v 8.242918 -0.726178 0.397567
vn 0.725764 -0.675191 -0.131846
v 8.172381 -0.731243 0.374053
vn -0.088162 0.913401 0.397399
v 8.195899 -0.256451 0.374051
vn 0.169409 0.384348 0.907512
v 8.242920 -0.268217 0.385810
vn 0.403136 0.884556 0.234611
v 8.242914 -0.256471 0.374057
vn -0.393392 0.815121 0.425229
v 8.172381 -0.256462 0.374056
vn -0.982651 0.119715 -0.141651
v 8.228944 -0.597240 0.444811
vn -0.999576 -0.028734 0.004684
v 8.222665 -0.691442 0.444595
vn -0.950226 -0.310595 0.024508
v 8.214313 -0.738060 0.468701
vn -0.741497 -0.662957 -0.103293
v 8.232385 -0.714954 0.421084
vn -0.650535 -0.699454 -0.295918
v 8.227470 -0.761978 0.444593
vn -0.855059 -0.487421 0.176904
v 8.219118 -0.738129 0.491739
vn 0.403767 -0.910591 0.088291
v 8.289939 -0.749608 0.491614
vn 0.505532 -0.862791 -0.005330
v 8.266434 -0.738471 0.562154
vn -0.854627 -0.512990 0.080337
v 8.228964 -0.738269 0.538929
vn -0.799686 0.157602 0.579365
v 8.311996 -0.573627 0.752448
vn -0.867245 0.439954 0.233082
v 8.304535 -0.386050 0.632116
vn -0.949076 0.203368 0.240615
v 8.270470 -0.585434 0.598629
vn -0.769241 0.133803 0.624792
v 8.330401 -0.479401 0.750871
vn -0.947520 0.175959 0.266915
v 8.278644 -0.644376 0.680688
vn -0.853668 0.288858 0.433372
v 8.329938 -0.409316 0.726703
vn -0.738585 -0.674127 0.006689
v 8.230616 -0.761794 0.562421
vn -0.222450 -0.796373 -0.562410
v 8.243185 -0.722413 0.423417
vn -0.466623 0.831252 0.302132
v 8.289945 -0.378782 0.397563
vn 0.186267 -0.634995 -0.749724
v 8.266432 -0.738466 0.428439
vn 0.077188 -0.741948 -0.665999
v 8.266432 -0.721948 0.421079
vn 0.205551 -0.959591 -0.192184
v 8.242918 -0.765196 0.562153
vn -0.831566 0.524748 -0.182039
v 8.281679 -0.362282 0.421080
vn -0.909337 0.244804 -0.336418
v 8.302301 -0.338745 0.421078
vn -0.102248 0.418933 0.902242
v 8.290006 -0.338827 0.386283
vn -0.814359 0.518485 0.260753
v 8.304792 -0.362267 0.397564
vn -0.869269 0.407472 0.279889
v 8.310825 -0.338755 0.397564
vn -0.689959 0.723610 0.018556
v 8.313293 -0.336111 0.397601
vn 0.778504 -0.598874 -0.187835
v 8.301619 -0.738460 0.468104
vn 0.828830 -0.549692 0.104307
v 8.300518 -0.738456 0.491614
vn 0.659029 -0.694674 -0.288285
v 8.301025 -0.714933 0.585672
vn 0.475376 -0.863109 -0.170472
v 8.266430 -0.738466 0.598696
vn 0.246880 -0.881603 -0.402276
v 8.289936 -0.748931 0.609180
vn 0.188272 -0.635508 -0.748788
v 8.314022 -0.667936 0.359837
vn 0.516843 -0.781007 -0.350573
v 8.303030 -0.691464 0.397569
vn 0.352088 -0.726632 -0.589950
v 8.289945 -0.696199 0.397565
vn 0.286534 -0.811283 -0.509626
v 8.336983 -0.667943 0.363085
vn 0.707160 0.498510 0.501410
v 8.278224 -0.315243 0.374054
vn 0.849557 0.299593 0.434162
v 8.278195 -0.291724 0.374052
vn 0.174562 0.721077 0.670504
v 8.290143 -0.327195 0.374009
vn 0.610340 -0.751202 -0.251359
v 8.348508 -0.691450 0.632691
vn 0.524955 -0.813813 0.249260
v 8.360488 -0.714963 0.750250
vn 0.138876 -0.628628 0.765206
v 8.313473 -0.741879 0.773761
vn 0.766985 -0.461766 -0.445540
v 8.323874 -0.714915 0.609198
vn 0.194928 -0.648764 -0.735601
v 8.289950 -0.714960 0.406303
vn 0.520872 -0.709067 -0.475307
v 8.289930 -0.724758 0.421078
vn -0.155271 -0.013415 0.987781
v 8.313461 -0.714954 0.776882
vn -0.431662 0.076742 0.898765
v 8.313475 -0.620906 0.761694
vn -0.847856 -0.353009 -0.395632
v 8.280628 -0.597391 0.374054
vn -0.610453 0.022103 -0.791744
v 8.280040 -0.644416 0.374052
vn -0.636247 0.735603 -0.232546
v 8.302978 -0.315244 0.421079
vn -0.536132 0.819582 0.202110
v 8.336980 -0.322019 0.491615
vn -0.522939 0.846156 0.102733
v 8.336838 -0.313799 0.397597
vn -0.393220 0.498808 0.772379
v 8.315078 -0.338801 0.491608
vn -0.474278 -0.422964 0.772115
v 8.398748 -0.691451 0.773861
vn -0.280099 -0.543076 0.791589
v 8.383987 -0.691440 0.759570
vn -0.792451 0.452749 0.408706
v 8.383996 -0.343618 0.750257
vn -0.764162 0.602566 0.230156
v 8.384012 -0.328276 0.726739
vn -0.741361 0.656245 0.140448
v 8.413733 -0.268329 0.585643
vn -0.681018 0.714338 0.161046
v 8.360411 -0.325945 0.585681
vn -0.644489 0.755880 0.115238
v 8.360462 -0.304026 0.491622
vn -0.664965 0.744536 0.059063
v 8.358327 -0.291567 0.374081
vn -0.075536 0.968545 0.237098
v 8.313519 -0.311961 0.350526
vn -0.417024 0.807385 -0.417397
v 8.336817 -0.302053 0.327064
vn 0.041361 0.829744 -0.556610
v 8.313470 -0.310593 0.327026
vn -0.142011 -0.950228 0.277308
v 8.383999 -0.701772 0.750247
vn -0.826845 -0.177385 -0.533724
v 8.325180 -0.573879 0.350541
vn -0.143267 -0.169119 -0.975127
v 8.313454 -0.597389 0.364842
vn -0.002951 -0.882913 -0.469527
v 8.313455 -0.555480 0.350543
vn -0.749276 0.162888 -0.641914
v 8.325212 -0.620903 0.350542
vn -0.578727 -0.005466 0.815503
v 8.397812 -0.456322 0.797301
vn -0.738298 0.257137 0.623536
v 8.405807 -0.362264 0.797255
vn -0.840132 0.297272 0.453660
v 8.398405 -0.338768 0.773763
vn -0.790016 0.546929 0.277027
v 8.400379 -0.315254 0.750266
vn -0.815544 0.558869 0.150181
v 8.420745 -0.244703 0.538641
vn -0.830389 0.556576 -0.026032
v 8.407522 -0.221212 0.350541
vn -0.966924 0.023047 -0.254022
v 8.430988 -0.221191 0.204010
vn -0.715541 -0.697190 0.043903
v 8.396914 -0.714965 0.750310
vn -0.909572 -0.267058 -0.318370
v 8.413464 -0.691439 0.679743
vn 0.224967 -0.973409 -0.043195
v 8.415388 -0.639436 0.397671
vn -0.006055 -0.788109 -0.615506
v 8.416042 -0.613047 0.327139
vn -0.898930 0.322103 0.296943
v 8.421057 -0.503396 0.185789
vn -0.582122 -0.807564 0.094734
v 8.414270 -0.615325 0.491705
vn -0.485798 -0.808864 -0.331269
v 8.412657 -0.657168 0.656289
vn -0.937702 -0.033605 -0.345812
v 8.417432 -0.573867 0.280107
vn -0.977485 -0.143898 0.154328
v 8.436864 -0.409285 0.185975
vn -0.971084 -0.029886 -0.236862
v 8.427316 -0.315244 0.209460
vn -0.658150 0.095023 0.746866
v 8.437451 -0.456327 0.185971
vn 0.196520 -0.918927 -0.341984
v 8.415828 -0.621722 0.350326
vn -0.944594 0.148295 0.292833
v 8.299669 -0.655822 0.754307
vn 0.622317 0.781002 0.052510
v 8.273897 -0.291728 0.350540
vn -0.437731 0.164217 -0.883982
v 8.384010 -0.503353 0.324969
vn 0.204451 0.033014 -0.978320
v 8.336980 -0.503352 0.323767
vn 0.014851 0.606040 -0.795295
v 8.360496 -0.503345 0.338806
vn 0.007317 -0.312739 -0.949811
v 8.360481 -0.385780 0.338785
vn 0.152471 -0.147032 -0.977310
v 8.360493 -0.409298 0.318701
vn 0.152832 -0.140573 -0.978203
v 8.336981 -0.385777 0.312833
vn -0.214246 -0.367395 -0.905052
v 8.383991 -0.385781 0.313808
vn 0.242324 -0.967715 -0.069334
v 8.383946 -0.616724 0.515154
vn 0.116872 -0.652009 -0.749150
v 8.383999 -0.620909 0.329851
vn 0.428421 -0.709972 -0.558923
v 8.360472 -0.625401 0.515135
vn 0.735269 -0.676463 -0.042154
v 8.336954 -0.648275 0.515138
vn 0.864681 -0.497480 -0.069573
v 8.313450 -0.691433 0.468102
vn 0.462809 -0.876663 0.131416
v 8.360471 -0.652200 0.421074
vn 0.297118 -0.204592 -0.932664
v 8.242895 -0.667963 0.332959
vn 0.453031 -0.363085 -0.814207
v 8.242898 -0.691468 0.338682
vn 0.016008 0.119916 -0.992655
v 8.242869 -0.338744 0.303297
vn -0.554314 0.816522 -0.161332
v 8.170630 -0.268217 0.350538
vn -0.187000 0.875926 -0.444730
v 8.195892 -0.247707 0.327037
vn -0.293430 0.823551 0.485450
v 8.148870 -0.289766 0.374053
vn 0.284411 -0.348330 -0.893183
v 8.289955 -0.563846 0.326688
vn 0.865938 -0.135691 -0.481393
v 8.336986 -0.432806 0.319100
vn -0.168158 0.122317 -0.978142
v 8.336970 -0.338758 0.308929
vn -0.335208 -0.060586 -0.940194
v 8.335279 -0.573890 0.326770
vn -0.253096 -0.296514 -0.920881
v 8.383970 -0.597385 0.320399
vn -0.128795 -0.437452 -0.889970
v 8.360491 -0.613305 0.326847
vn -0.793416 -0.080455 -0.603339
v 8.317907 -0.597401 0.326776
vn 0.429123 -0.477230 -0.766880
v 8.266421 -0.691437 0.355671
vn -0.071707 0.092662 -0.993112
v 8.289945 -0.667928 0.356431
vn 0.903884 -0.342585 -0.256183
v 8.266436 -0.631899 0.350536
vn -0.378726 -0.013874 -0.925405
v 8.289941 -0.644415 0.364184
vn 0.595657 0.132129 -0.792297
v 8.266428 -0.667928 0.352641
vn 0.019299 -0.453584 0.891004
v 8.266432 -0.597391 0.355413
vn -0.297641 -0.481882 -0.824136
v 8.336969 -0.620905 0.338786
vn 0.170720 -0.259582 -0.950511
v 8.360520 -0.432821 0.338823
vn -0.635694 0.414262 -0.651368
v 8.374441 -0.291721 0.303497
vn -0.773616 -0.295325 -0.560626
v 8.413854 -0.338741 0.280037
vn -0.366585 -0.238352 -0.899335
v 8.407514 -0.409300 0.321273
vn -0.829349 -0.119930 -0.545708
v 8.407573 -0.318231 0.280040
vn -0.867883 0.195421 -0.456716
v 8.407494 -0.244709 0.291308
vn -0.838706 0.475983 -0.264600
v 8.401116 -0.244705 0.303520
vn -0.949920 0.159688 -0.268612
v 8.461704 -0.456311 0.280016
vn -0.566072 0.172495 -0.806107
v 8.452524 -0.432796 0.303469
vn -0.905435 -0.376972 -0.195142
v 8.454509 -0.409298 0.280004
# 292 vertices, 0 vertices normals


usemtl material_0
vt 0.853723 0.673967
vt 0.848905 0.673417
vt 0.849310 0.678101
f 1/1/1 2/2/2 3/3/3
vt 0.831177 0.696872
vt 0.835095 0.696890
vt 0.838704 0.698263
f 2/4/2 1/5/1 4/6/4
vt 0.616713 0.653204
vt 0.622121 0.653582
vt 0.622325 0.650760
f 5/7/5 6/8/6 7/9/7
vt 0.730999 0.673525
vt 0.723423 0.673361
vt 0.723367 0.676073
f 8/10/8 9/11/9 10/12/10
vt 0.608107 0.667835
vt 0.608461 0.660800
vt 0.597563 0.669935
f 11/13/11 12/14/12 13/15/13
vt 0.601272 0.671143
f 13/15/13 14/16/14 11/13/11
vt 0.593929 0.670720
f 13/15/13 15/17/15 14/16/14
vt 0.594654 0.665930
f 13/15/13 16/18/16 15/17/15
vt 0.590999 0.665503
f 16/18/16 17/19/17 15/17/15
vt 0.586602 0.668665
f 17/19/17 18/20/18 15/17/15
vt 0.586393 0.665745
f 17/19/17 19/21/19 18/20/18
vt 0.586358 0.663294
f 17/19/17 20/22/20 19/21/19
vt 0.582942 0.668231
f 19/21/19 21/23/21 18/20/18
vt 0.582764 0.665356
f 19/21/19 22/24/22 21/23/21
vt 0.805269 0.678850
vt 0.797607 0.678955
vt 0.797607 0.675637
f 14/25/14 15/26/15 23/27/23
vt 0.009657 0.097935
vt 0.013529 0.086407
vt 0.009247 0.090175
f 23/28/23 24/29/24 14/30/14
vt 0.834722 0.680704
vt 0.832764 0.682861
vt 0.840360 0.682861
f 24/31/24 11/32/11 14/33/14
vt 0.021242 0.085305
vt 0.032637 0.094080
vt 0.032715 0.086605
f 12/34/12 25/35/25 26/36/26
f 12/34/12 24/29/24 25/35/25
vt 0.025063 0.083427
f 26/36/26 27/37/27 12/34/12
vt 0.040365 0.088534
f 25/35/25 28/38/28 26/36/26
vt 0.047977 0.094033
f 25/35/25 29/39/29 28/38/28
vt 0.013593 0.083956
f 12/34/12 11/40/11 24/29/24
vt 0.597343 0.664606
f 30/41/30 13/15/13 12/14/12
vt 0.795554 0.699870
vt 0.803463 0.699400
vt 0.789795 0.689155
f 12/42/12 31/43/31 30/44/30
vt 0.798979 0.702393
f 12/42/12 27/45/27 31/43/31
vt 0.649643 0.678762
vt 0.650245 0.674555
vt 0.645891 0.673584
f 26/46/26 32/47/32 31/48/31
vt 0.641357 0.678955
f 31/48/31 27/49/27 26/46/26
vt 0.847604 0.692198
vt 0.806229 0.684470
f 2/4/2 33/50/33 34/51/34
vt 0.814633 0.702078
f 34/51/34 35/52/35 2/4/2
vt 0.807550 0.698299
f 34/51/34 32/53/32 35/52/35
vt 0.834229 0.701381
f 35/52/35 3/54/3 2/4/2
f 2/4/2 4/6/4 33/50/33
vt 0.801117 0.691191
f 34/51/34 36/55/36 32/53/32
f 36/55/36 31/43/31 32/53/32
f 36/55/36 30/44/30 31/43/31
vt 0.794261 0.686077
f 36/55/36 37/56/37 30/44/30
vt 0.855814 0.689945
f 4/6/4 38/57/38 33/50/33
vt 0.852771 0.685393
f 38/57/38 39/58/39 33/50/33
vt 0.657464 0.678955
f 28/59/28 32/47/32 26/46/26
vt 0.469157 0.651013
vt 0.469553 0.655518
vt 0.476572 0.652915
f 28/60/28 35/61/35 32/62/32
vt 0.830537 0.682861
vt 0.817268 0.681607
vt 0.817139 0.682861
f 29/63/29 40/64/40 3/65/3
vt 0.449951 0.655518
vt 0.460608 0.647409
f 3/66/3 35/61/35 29/67/29
vt 0.059488 0.093763
vt 0.059643 0.089150
f 29/39/29 41/68/41 40/69/40
f 35/61/35 28/60/28 29/67/29
vt 0.005884 0.120848
vt 0.055564 0.120900
f 42/70/42 43/71/43 25/35/25
f 25/35/25 23/28/23 42/70/42
f 25/35/25 24/29/24 23/28/23
vt 0.006791 0.105607
f 23/28/23 44/72/44 42/70/42
vt 0.005011 0.113256
f 44/72/44 45/73/45 42/70/42
vt 0.620502 0.675398
vt 0.633805 0.678955
vt 0.633274 0.676776
f 46/74/46 6/75/6 38/76/38
vt 0.618911 0.677669
f 46/74/46 47/77/47 6/75/6
vt 0.846396 0.698692
f 38/57/38 4/6/4 46/78/46
vt 0.834035 0.702393
f 4/6/4 40/79/40 46/78/46
vt 0.854171 0.678955
vt 0.848389 0.678955
f 4/80/4 3/3/3 40/81/40
f 4/80/4 1/1/1 3/3/3
vt 0.637900 0.675426
f 6/75/6 5/82/5 38/76/38
vt 0.615310 0.655518
vt 0.620942 0.655518
f 5/7/5 48/83/48 38/84/38
vt 0.783215 0.678955
vt 0.773538 0.674585
vt 0.770264 0.678955
f 40/85/40 49/86/49 46/87/46
vt 0.067137 0.095532
f 40/69/40 41/68/41 49/88/49
vt 0.070827 0.109433
f 29/39/29 43/71/43 50/89/50
f 29/39/29 25/35/25 43/71/43
f 50/89/50 49/88/49 29/39/29
f 49/88/49 41/68/41 29/39/29
vt 0.070809 0.120934
f 43/71/43 51/90/51 50/89/50
vt 0.070957 0.093159
f 50/89/50 52/91/52 49/88/49
vt 0.537018 0.647252
vt 0.537514 0.651579
vt 0.540306 0.651611
f 49/92/49 47/93/47 46/94/46
vt 0.535889 0.651611
f 49/92/49 52/95/52 47/93/47
vt 0.080379 0.105337
f 52/91/52 50/89/50 6/96/6
vt 0.617920 0.678955
f 6/75/6 47/77/47 52/97/52
vt 0.079964 0.109296
f 50/89/50 7/98/7 6/96/6
vt 0.594428 0.660591
f 30/41/30 37/99/37 16/18/16
f 16/18/16 13/15/13 30/41/30
vt 0.611193 0.669623
vt 0.614572 0.671143
vt 0.614782 0.660382
f 53/100/53 54/101/54 55/102/55
vt 0.610107 0.661972
f 55/102/55 56/103/56 53/100/53
vt 0.611618 0.659487
f 55/102/55 57/104/57 56/103/56
vt 0.817139 0.678955
vt 0.823155 0.678955
vt 0.822713 0.676988
f 56/105/56 58/106/58 59/107/59
vt 0.645272 0.671143
vt 0.646385 0.668293
vt 0.641504 0.666407
f 56/108/56 57/109/57 58/110/58
vt 0.818354 0.674263
f 59/107/59 60/111/60 56/105/56
vt 0.820323 0.673844
f 59/107/59 61/112/61 60/111/60
vt 0.595378 0.652866
vt 0.592793 0.647651
vt 0.591370 0.648566
f 53/113/53 60/114/60 62/115/62
vt 0.596044 0.645717
f 53/113/53 56/116/56 60/114/60
vt 0.524434 0.655517
vt 0.529030 0.653776
vt 0.524170 0.653562
f 60/117/60 20/118/20 62/119/62
vt 0.529113 0.655518
f 60/117/60 19/120/19 20/118/20
vt 0.526430 0.651738
f 20/118/20 63/121/63 62/119/62
vt 0.637978 0.657774
vt 0.633545 0.663199
f 58/110/58 64/122/64 45/123/45
vt 0.646009 0.665085
f 58/110/58 55/124/55 64/122/64
vt 0.634185 0.670680
f 45/123/45 44/125/44 58/110/58
vt 0.637527 0.671143
f 44/125/44 65/126/65 58/110/58
f 58/110/58 57/109/57 55/124/55
vt 0.813132 0.674991
vt 0.809326 0.678955
vt 0.813864 0.678955
f 59/127/59 65/128/65 21/129/21
vt 0.811956 0.673345
f 59/127/59 58/130/58 65/128/65
vt 0.586386 0.671143
f 65/131/65 18/20/18 21/23/21
vt 0.826769 0.675627
vt 0.829855 0.678955
vt 0.829496 0.677041
f 22/132/22 60/133/60 61/134/61
vt 0.824951 0.678955
f 22/132/22 19/135/19 60/133/60
vt 0.074744 0.136175
vt 0.080577 0.132243
vt 0.080539 0.124594
f 66/136/66 67/137/67 68/138/68
f 68/138/68 51/90/51 66/136/66
vt 0.080187 0.113120
f 69/139/69 50/89/50 51/90/51
f 69/139/69 7/98/7 50/89/50
vt 0.625424 0.666652
vt 0.624942 0.658404
f 55/102/55 70/140/70 64/141/64
f 55/102/55 54/101/54 70/140/70
vt 0.622918 0.670437
f 54/101/54 71/142/71 70/140/70
vt 0.631326 0.663726
f 70/140/70 72/143/72 64/141/64
vt 0.624309 0.670228
f 71/142/71 73/144/73 70/140/70
vt 0.592707 0.655518
vt 0.584217 0.655518
f 54/145/54 62/115/62 71/146/71
f 54/145/54 53/113/53 62/115/62
vt 0.739014 0.678955
vt 0.747143 0.678149
vt 0.744006 0.673791
f 64/147/64 72/148/72 42/149/42
vt 0.000732 0.116946
f 42/70/42 45/73/45 64/150/64
vt 0.747685 0.675271
f 72/148/72 74/151/74 42/149/42
vt 0.030724 0.120874
vt 0.017441 0.138014
vt 0.029861 0.138027
f 75/152/75 76/153/76 77/154/77
vt 0.006039 0.139893
f 42/70/42 78/155/78 76/153/76
f 66/136/66 51/90/51 43/71/43
vt 0.813223 0.682861
vt 0.809247 0.682532
vt 0.793701 0.682861
f 42/156/42 74/157/74 78/158/78
vt 0.695969 0.678955
vt 0.692134 0.675124
vt 0.680420 0.678955
f 74/159/74 79/160/79 78/161/78
vt 0.721312 0.674681
f 80/162/80 10/12/10 9/11/9
vt 0.516611 0.649475
vt 0.516983 0.655518
vt 0.519287 0.649922
f 9/163/9 81/164/81 80/165/80
vt 0.760814 0.674279
vt 0.754639 0.677326
vt 0.758826 0.678955
f 82/166/82 79/167/79 72/168/72
vt 0.765574 0.678955
f 72/168/72 70/169/70 82/166/82
vt 0.750631 0.678955
f 79/170/79 74/151/74 72/148/72
vt 0.632072 0.671143
f 70/140/70 73/144/73 83/171/83
vt 0.489715 0.655148
vt 0.483917 0.649588
vt 0.481201 0.655518
f 83/172/83 82/173/82 70/174/70
vt 0.487651 0.648760
f 83/172/83 84/175/84 82/173/82
vt 0.703409 0.673137
vt 0.715548 0.677550
vt 0.715666 0.673687
f 79/176/79 85/177/85 78/178/78
vt 0.703613 0.678955
f 79/176/79 84/179/84 85/177/85
vt 0.699951 0.678955
f 79/176/79 82/180/82 84/179/84
vt 0.496259 0.652831
vt 0.499542 0.649568
f 84/175/84 86/181/86 85/182/85
f 84/175/84 83/172/83 86/181/86
vt 0.492797 0.655518
f 83/172/83 87/183/87 86/181/86
vt 0.076590 0.139893
f 88/184/88 67/137/67 66/136/66
vt 0.080305 0.116949
f 68/138/68 89/185/89 51/90/51
f 89/185/89 69/139/69 51/90/51
vt 0.042281 0.138040
f 43/71/43 75/152/75 90/186/90
vt 0.051835 0.138723
f 43/71/43 90/186/90 91/187/91
f 75/152/75 42/70/42 76/153/76
f 91/187/91 66/136/66 43/71/43
f 90/186/90 75/152/75 77/154/77
vt 0.006986 0.076313
vt 0.013949 0.081299
vt 0.007494 0.072930
f 37/188/37 36/189/36 92/190/92
vt 0.834077 0.678955
vt 0.837112 0.674927
vt 0.832764 0.674596
f 48/191/48 39/192/39 38/193/38
vt 0.839075 0.678955
f 39/192/39 48/191/48 93/194/93
vt 0.508425 0.651339
vt 0.504639 0.653706
vt 0.510603 0.655139
f 94/195/94 95/196/95 96/197/96
vt 0.001734 0.037079
vt 0.001282 0.040279
vt 0.004957 0.041250
f 86/198/86 87/199/87 97/200/97
vt 0.505860 0.655518
f 98/201/98 95/196/95 94/195/94
vt 0.030309 0.029139
vt 0.009961 0.034352
vt 0.006869 0.053266
f 99/202/99 100/203/100 101/204/101
vt 0.018914 0.074440
f 101/204/101 34/205/34 99/202/99
vt 0.008128 0.069106
f 101/204/101 102/206/102 34/205/34
f 102/206/102 92/190/92 34/205/34
f 92/190/92 36/189/36 34/205/34
vt 0.785889 0.678955
vt 0.785889 0.673481
vt 0.793764 0.675067
f 18/207/18 44/208/44 23/209/23
vt 0.793441 0.677948
f 23/209/23 15/210/15 18/207/18
vt 0.850189 0.682861
vt 0.848108 0.681492
vt 0.844482 0.682861
f 18/211/18 65/212/65 44/213/44
vt 0.003028 0.076320
vt 0.003640 0.072569
f 16/214/16 92/190/92 17/215/17
vt 0.591384 0.661270
f 16/18/16 37/99/37 92/216/92
f 92/190/92 102/206/102 17/215/17
vt 0.003115 0.052525
vt 0.005032 0.064484
f 101/204/101 73/217/73 63/218/63
f 63/218/63 102/206/102 101/204/101
vt 0.004425 0.068220
f 63/218/63 20/219/20 102/206/102
f 20/219/20 17/215/17 102/206/102
vt 0.034719 0.025930
vt 0.028371 0.064209
vt 0.069246 0.051480
f 103/220/103 104/221/104 105/222/105
vt 0.070433 0.067634
f 104/221/104 106/223/106 105/222/105
f 103/220/103 99/202/99 104/221/104
f 99/202/99 34/205/34 104/221/104
vt 0.080017 0.033372
vt 0.069600 0.037693
f 105/222/105 107/224/107 108/225/108
vt 0.073741 0.056372
f 106/223/106 96/226/96 105/222/105
vt 0.060434 0.081299
f 34/205/34 33/227/33 104/221/104
vt 0.074863 0.064334
f 106/223/106 109/228/109 96/226/96
vt 0.065459 0.074378
f 104/221/104 39/229/39 106/223/106
f 104/221/104 33/227/33 39/229/39
vt 0.069787 0.071453
f 39/229/39 93/230/93 106/223/106
vt 0.071129 0.067439
f 93/230/93 110/231/110 106/223/106
vt 0.841524 0.675085
vt 0.844674 0.678955
vt 0.844578 0.675698
f 61/232/61 21/233/21 22/234/22
vt 0.840576 0.678955
f 61/232/61 59/235/59 21/233/21
vt 0.589451 0.647034
vt 0.582764 0.655384
f 71/146/71 63/236/63 73/237/73
f 71/146/71 62/115/62 63/236/63
vt 0.616919 0.651419
f 5/7/5 7/9/7 111/238/111
vt 0.616097 0.652175
f 111/238/111 93/239/93 5/7/5
vt 0.619725 0.649001
f 7/9/7 69/240/69 111/238/111
f 93/239/93 48/83/48 5/7/5
vt 0.611517 0.651104
vt 0.615618 0.647793
f 110/241/110 93/239/93 80/242/80
vt 0.610107 0.649197
f 80/242/80 81/243/81 110/241/110
f 93/239/93 111/238/111 80/242/80
f 80/242/80 111/238/111 69/240/69
vt 0.719482 0.678955
vt 0.723288 0.678955
f 69/244/69 89/245/89 80/162/80
f 89/245/89 10/12/10 80/162/80
f 110/231/110 109/228/109 106/223/106
vt 0.074359 0.067689
f 110/231/110 81/246/81 109/228/109
vt 0.730886 0.678955
f 10/12/10 89/245/89 68/247/68
f 68/247/68 8/10/8 10/12/10
vt 0.734462 0.675638
f 68/247/68 112/248/112 8/10/8
vt 0.511089 0.649818
vt 0.510260 0.650786
f 8/249/8 112/250/112 96/197/96
vt 0.514640 0.653272
f 96/197/96 109/251/109 8/249/8
f 109/251/109 9/163/9 8/249/8
f 109/251/109 81/164/81 9/163/9
f 112/250/112 94/195/94 96/197/96
f 101/204/101 100/203/100 97/200/97
f 97/200/97 73/217/73 101/204/101
vt 0.000732 0.043461
f 97/200/97 83/252/83 73/217/73
f 97/200/97 87/199/87 83/252/83
vt 0.508747 0.647543
vt 0.505909 0.648993
f 98/201/98 67/253/67 88/254/88
f 98/201/98 94/195/94 67/253/67
f 94/195/94 112/250/112 67/253/67
vt 0.514295 0.647212
f 112/250/112 68/255/68 67/253/67
vt 0.079047 0.053396
vt 0.073808 0.048693
f 96/226/96 95/256/95 98/257/98
f 98/257/98 105/222/105 96/226/96
f 86/198/86 97/200/97 100/203/100
vt 0.074151 0.044912
f 107/224/107 105/222/105 113/258/113
f 105/222/105 98/257/98 113/258/113
vt 0.051983 0.038705
f 105/222/105 108/225/108 114/259/114
vt 0.328389 0.546363
vt 0.332378 0.546282
vt 0.336345 0.549983
f 115/260/115 116/261/116 117/262/117
vt 0.285889 0.276611
vt 0.293851 0.276611
vt 0.290335 0.272387
f 118/263/118 119/264/119 120/265/120
vt 0.295313 0.260986
vt 0.293331 0.254873
vt 0.289795 0.260986
f 121/266/121 122/267/122 123/268/123
vt 0.354426 0.508973
vt 0.354980 0.520776
vt 0.350085 0.520261
f 124/269/124 125/270/125 126/271/126
vt 0.262098 0.135737
vt 0.250732 0.139893
vt 0.264760 0.139893
f 127/272/127 128/273/128 129/274/129
vt 0.018405 0.060590
vt 0.027746 0.063890
vt 0.029998 0.062064
f 130/275/130 131/276/131 132/277/132
vt 0.259864 0.108568
vt 0.262960 0.104640
vt 0.263988 0.108541
f 133/278/133 134/279/134 135/280/135
vt 0.124453 0.036850
vt 0.119506 0.039725
vt 0.123519 0.042473
f 136/281/136 137/282/137 138/283/138
vt 0.209185 0.089234
vt 0.207764 0.093018
vt 0.207764 0.089199
f 139/284/139 140/285/140 141/286/141
vt 0.043615 0.011184
vt 0.040011 0.016811
vt 0.043935 0.018713
f 142/287/142 143/288/143 144/289/144
vt 0.314079 0.518133
vt 0.330901 0.504197
vt 0.332881 0.523264
f 90/290/90 119/291/119 122/292/122
vt 0.313232 0.550685
vt 0.315069 0.527667
f 122/292/122 66/293/66 91/294/91
f 122/292/122 115/260/115 66/293/66
vt 0.314912 0.481763
vt 0.326550 0.488245
f 78/295/78 145/296/145 119/291/119
vt 0.339638 0.538346
f 122/292/122 146/297/146 115/260/115
vt 0.337098 0.515476
f 119/291/119 147/298/147 122/292/122
vt 0.322670 0.485335
f 78/295/78 148/299/148 145/296/145
vt 0.337754 0.500147
f 119/291/119 118/300/118 147/298/147
vt 0.338691 0.519251
f 147/298/147 123/301/123 122/292/122
vt 0.330404 0.485089
f 148/299/148 149/302/149 145/296/145
vt 0.317200 0.552339
vt 0.332724 0.553955
f 88/303/88 115/260/115 150/304/150
f 88/303/88 66/293/66 115/260/115
f 115/260/115 117/262/117 150/304/150
vt 0.313232 0.296143
vt 0.321820 0.296143
vt 0.315581 0.291465
f 151/305/151 149/306/149 148/307/148
vt 0.351174 0.553955
vt 0.346275 0.547590
vt 0.353447 0.545763
f 151/308/151 152/309/152 149/310/149
vt 0.350648 0.540795
f 152/309/152 153/311/153 149/310/149
vt 0.355107 0.542093
f 153/311/153 154/312/154 149/310/149
vt 0.283258 0.264346
vt 0.282411 0.268479
vt 0.283519 0.268799
f 148/313/148 155/314/155 151/315/151
vt 0.263009 0.199135
vt 0.264956 0.191457
vt 0.266997 0.192619
f 156/316/156 157/317/157 158/318/158
vt 0.261011 0.202393
f 156/316/156 159/319/159 157/317/157
vt 0.313787 0.425269
vt 0.313599 0.422134
vt 0.329030 0.424014
f 160/320/160 120/321/120 161/322/161
vt 0.337092 0.426953
f 161/322/161 162/323/162 160/320/160
vt 0.690727 0.625077
vt 0.698429 0.636588
vt 0.694555 0.624578
f 160/324/160 147/325/147 120/326/120
vt 0.698598 0.621297
f 147/325/147 118/327/118 120/326/120
vt 0.332193 0.420525
f 161/322/161 163/328/163 162/323/162
vt 0.340233 0.423516
f 163/328/163 164/329/164 162/323/162
vt 0.349783 0.395626
vt 0.356519 0.401611
vt 0.353368 0.396913
f 162/330/162 124/331/124 165/332/165
vt 0.344482 0.401611
f 162/330/162 125/333/125 124/331/124
vt 0.344895 0.398815
f 162/330/162 164/334/164 125/333/125
vt 0.347189 0.512566
vt 0.350854 0.501082
f 124/269/124 166/335/166 167/336/167
vt 0.356214 0.505026
f 167/336/167 168/337/168 124/269/124
f 124/269/124 126/271/126 166/335/166
vt 0.360710 0.399549
f 168/338/168 165/332/165 124/331/124
vt 0.640453 0.628964
vt 0.660012 0.659512
f 160/324/160 169/339/169 170/340/170
vt 0.335042 0.450477
vt 0.313510 0.451269
f 160/320/160 129/341/129 171/342/171
vt 0.682793 0.663465
f 170/340/170 138/343/138 160/324/160
vt 0.640644 0.644326
f 169/339/169 172/344/172 170/340/170
vt 0.340208 0.475122
vt 0.324137 0.463873
f 129/341/129 140/345/140 173/346/173
f 160/320/160 162/323/162 129/341/129
vt 0.343385 0.461744
f 129/341/129 128/347/128 140/345/140
vt 0.644562 0.655738
f 172/344/172 174/348/174 170/340/170
vt 0.337960 0.438579
vt 0.342084 0.442090
f 168/349/168 175/350/175 129/341/129
vt 0.343853 0.469712
vt 0.344009 0.475158
f 134/351/134 141/352/141 140/345/140
vt 0.313232 0.417382
f 119/353/119 161/322/161 120/321/120
vt 0.329610 0.415293
f 119/353/119 145/354/145 161/322/161
vt 0.322177 0.307861
vt 0.322105 0.302627
vt 0.316022 0.303136
f 145/355/145 149/356/149 163/357/163
vt 0.313232 0.307861
f 163/357/163 161/358/161 145/355/145
vt 0.318716 0.299462
f 149/356/149 154/359/154 163/357/163
vt 0.314920 0.301278
f 154/359/154 176/360/176 163/357/163
vt 0.253507 0.188746
vt 0.250732 0.178092
vt 0.253801 0.175468
f 116/361/116 146/362/146 177/363/177
vt 0.250732 0.191720
f 116/361/116 115/364/115 146/362/146
vt 0.350613 0.270692
vt 0.344482 0.273943
vt 0.345444 0.276611
f 178/365/178 125/366/125 164/367/164
vt 0.352949 0.274733
vt 0.353542 0.270979
f 176/368/176 179/369/179 178/365/178
vt 0.336743 0.271834
vt 0.332764 0.276611
vt 0.339872 0.276611
f 180/370/180 168/371/168 167/372/167
vt 0.334911 0.271734
f 180/370/180 175/373/175 168/371/168
vt 0.354793 0.362549
vt 0.354217 0.357456
vt 0.344482 0.362549
f 127/374/127 129/375/129 175/376/175
vt 0.357669 0.501635
vt 0.356022 0.501676
vt 0.351393 0.493478
f 175/377/175 180/378/180 127/379/127
vt 0.694408 0.663399
vt 0.694488 0.644236
f 138/343/138 181/380/181 121/381/121
f 121/381/121 160/324/160 138/343/138
f 121/381/121 147/325/147 160/324/160
vt 0.694352 0.667259
f 138/343/138 182/382/182 181/380/181
vt 0.698397 0.640428
f 121/381/121 123/383/123 147/325/147
vt 0.697711 0.659560
f 146/384/146 121/381/121 181/380/181
vt 0.337869 0.523036
f 146/297/146 122/292/122 121/385/121
vt 0.259569 0.178986
vt 0.258720 0.187501
f 116/361/116 183/386/183 117/387/117
f 116/361/116 177/363/177 183/386/183
f 183/386/183 157/317/157 117/387/117
vt 0.257251 0.174800
f 177/363/177 184/388/184 183/386/183
vt 0.260882 0.175942
f 184/388/184 185/389/185 183/386/183
vt 0.109591 0.034181
vt 0.109692 0.033611
vt 0.106918 0.036430
f 185/390/185 186/391/186 183/392/183
vt 0.344483 0.516111
f 187/393/187 166/335/166 126/271/126
vt 0.349323 0.522705
f 126/271/126 178/394/178 187/393/187
vt 0.344917 0.512314
f 187/393/187 188/395/188 166/335/166
f 126/271/126 125/270/125 178/394/178
vt 0.344483 0.496685
f 167/336/167 188/395/188 189/396/189
f 167/336/167 166/335/166 188/395/188
vt 0.351273 0.495173
f 189/396/189 190/397/190 167/336/167
vt 0.264994 0.112354
vt 0.260115 0.123793
f 128/398/128 191/399/191 133/278/133
vt 0.260536 0.131873
f 128/273/128 127/272/127 191/400/191
f 133/278/133 135/280/135 128/398/128
vt 0.263504 0.135090
f 127/272/127 190/401/190 191/400/191
vt 0.344637 0.530556
vt 0.351818 0.531609
vt 0.352405 0.533791
f 192/402/192 193/403/193 194/404/194
f 194/404/194 153/311/153 192/402/192
vt 0.357858 0.537405
f 194/404/194 179/405/179 153/311/153
f 179/405/179 154/312/154 153/311/153
vt 0.344482 0.526894
f 192/402/192 195/406/195 193/403/193
vt 0.313573 0.298396
f 179/407/179 176/360/176 154/359/154
vt 0.262200 0.182783
f 157/317/157 183/386/183 196/408/196
vt 0.265317 0.184765
f 196/408/196 197/409/197 157/317/157
f 197/409/197 158/318/158 157/317/157
vt 0.261629 0.180127
f 183/386/183 198/410/198 196/408/196
vt 0.246826 0.120686
f 133/278/133 191/399/191 199/411/199
vt 0.246826 0.101158
f 199/411/199 200/412/200 133/278/133
vt 0.255483 0.097193
f 200/412/200 201/413/201 133/278/133
vt 0.252418 0.124202
f 191/399/191 202/414/202 199/411/199
vt 0.260614 0.100770
f 201/413/201 139/415/139 133/278/133
f 139/415/139 134/279/134 133/278/133
vt 0.260997 0.099531
f 139/415/139 141/416/141 134/279/134
vt 0.255584 0.128174
f 191/399/191 189/417/189 202/414/202
vt 0.266380 0.130550
f 191/400/191 190/401/190 189/418/189
vt 0.329162 0.305861
vt 0.324951 0.307861
vt 0.331749 0.307861
f 203/419/203 179/420/179 194/421/194
vt 0.326727 0.304540
f 203/419/203 204/422/204 179/420/179
vt 0.336267 0.479736
vt 0.320934 0.478305
f 140/345/140 205/423/205 206/424/206
vt 0.313232 0.477269
f 206/424/206 169/425/169 140/345/140
vt 0.340532 0.478978
f 140/345/140 201/426/201 205/423/205
vt 0.341835 0.268799
vt 0.341545 0.264768
vt 0.336670 0.268799
f 140/427/140 139/428/139 201/429/201
vt 0.028260 0.059527
vt 0.020684 0.058660
f 132/277/132 207/430/207 208/431/208
f 208/431/208 130/275/130 132/277/132
vt 0.329604 0.284424
vt 0.332057 0.279666
vt 0.328462 0.279694
f 181/432/181 184/433/184 177/434/177
vt 0.334664 0.284424
f 181/432/181 182/435/182 184/433/184
vt 0.324951 0.281448
f 177/434/177 146/436/146 181/432/181
vt 0.686743 0.667221
vt 0.694345 0.671085
f 182/382/182 137/437/137 209/438/209
f 182/382/182 138/343/138 137/437/137
vt 0.698158 0.667276
f 209/438/209 185/439/185 182/382/182
vt 0.698178 0.663440
f 185/439/185 184/440/184 182/382/182
vt 0.112835 0.033576
vt 0.125402 0.032250
vt 0.110618 0.028454
f 209/441/209 210/442/210 211/443/211
f 209/441/209 137/282/137 210/442/210
f 137/282/137 136/281/136 210/442/210
vt 0.124521 0.036653
f 136/281/136 212/444/212 210/442/210
vt 0.020371 0.004468
f 206/445/206 143/288/143 142/287/142
vt 0.009447 0.018799
f 206/445/206 213/446/213 143/288/143
vt 0.009319 0.015842
f 206/445/206 214/447/214 213/446/213
vt 0.005120 0.005780
f 206/445/206 205/448/205 214/447/214
vt 0.640582 0.666502
vt 0.644405 0.669005
f 174/348/174 215/449/215 216/450/216
f 216/450/216 170/340/170 174/348/174
vt 0.667281 0.678839
vt 0.667419 0.669385
f 216/450/216 217/451/217 218/452/218
vt 0.141186 0.032711
vt 0.146298 0.047143
vt 0.164339 0.034491
f 218/453/218 170/454/170 216/455/216
f 218/453/218 138/283/138 170/454/170
f 218/453/218 212/444/212 138/283/138
vt 0.682721 0.672976
f 217/451/217 219/456/219 218/452/218
vt 0.143248 0.020325
vt 0.107769 0.022811
vt 0.126345 0.027529
f 217/457/217 220/458/220 219/459/219
f 220/458/220 211/443/211 219/459/219
f 211/443/211 210/442/210 219/459/219
vt 0.102217 0.029684
f 220/458/220 221/460/221 211/443/211
vt 0.099507 0.025041
f 220/458/220 222/461/222 221/460/221
vt 0.104949 0.034866
f 221/460/221 198/462/198 211/443/211
f 198/462/198 186/391/186 211/443/211
f 212/444/212 136/281/136 138/283/138
vt 0.098524 0.028805
f 222/461/222 223/463/223 221/460/221
f 198/462/198 183/392/183 186/391/186
vt 0.340106 0.288095
vt 0.336670 0.292236
vt 0.343380 0.292236
f 186/464/186 209/465/209 211/466/211
vt 0.339764 0.287616
f 186/464/186 185/467/185 209/465/209
vt 0.005325 0.011904
f 205/448/205 200/468/200 214/447/214
vt 0.000732 0.005816
f 205/448/205 201/469/201 200/468/200
vt 0.007611 0.015486
f 200/468/200 224/470/224 214/447/214
vt 0.033260 0.052485
vt 0.029029 0.054109
vt 0.035998 0.054746
f 225/471/225 226/472/226 227/473/227
vt 0.025696 0.051518
f 225/471/225 228/474/228 226/472/226
vt 0.028024 0.003504
vt 0.043453 0.005683
f 169/475/169 142/287/142 172/476/172
f 169/475/169 206/445/206 142/287/142
vt 0.047747 0.018173
f 142/287/142 229/477/229 172/476/172
vt 0.063091 0.018799
f 229/477/229 230/478/230 172/476/172
f 142/287/142 144/289/144 229/477/229
vt 0.632884 0.663487
f 174/348/174 230/479/230 215/449/215
f 174/348/174 172/344/172 230/479/230
vt 0.636720 0.667306
f 230/479/230 231/480/231 215/449/215
vt 0.640534 0.671142
f 231/480/231 232/481/232 215/449/215
vt 0.701853 0.675029
vt 0.674908 0.682705
vt 0.705547 0.686556
f 220/482/220 233/483/233 234/484/234
f 220/482/220 217/451/217 233/483/233
vt 0.005544 0.017592
f 214/447/214 224/470/224 236/485/236
f 236/485/236 213/446/213 214/447/214
vt 0.652063 0.609952
vt 0.682645 0.622388
vt 0.697951 0.618488
f 237/486/237 241/487/241 238/488/238
vt 0.655874 0.615535
f 237/486/237 242/489/242 241/487/241
vt 0.709422 0.622801
vt 0.717064 0.629191
vt 0.732389 0.640689
f 239/490/239 243/491/243 240/492/240
f 232/481/232 217/451/217 216/450/216
f 216/450/216 215/449/215 232/481/232
vt 0.141265 0.010986
vt 0.133267 0.009624
vt 0.125732 0.010986
f 240/493/240 246/494/246 244/495/244
f 210/442/210 218/453/218 219/459/219
f 212/444/212 218/453/218 210/442/210
f 190/397/190 180/378/180 167/336/167
f 127/379/127 180/378/180 190/397/190
vt 0.337377 0.430767
f 162/323/162 165/496/165 129/341/129
f 165/496/165 168/349/168 129/341/129
vt 0.343616 0.465682
f 128/347/128 135/497/135 140/345/140
f 135/497/135 134/351/134 140/345/140
vt 0.354035 0.276611
f 176/368/176 164/367/164 163/498/163
f 178/365/178 164/367/164 176/368/176
vt 0.665590 0.627021
vt 0.652229 0.617419
f 171/499/171 173/500/173 169/339/169
vt 0.313656 0.505711
f 90/290/90 77/501/77 119/291/119
vt 0.313233 0.493290
f 76/502/76 78/295/78 119/291/119
f 91/294/91 90/290/90 122/292/122
f 77/501/77 76/502/76 119/291/119
f 171/342/171 129/341/129 173/346/173
vt 0.640199 0.615568
f 173/500/173 248/503/248 169/339/169
vt 0.326720 0.476195
f 173/346/173 140/345/140 248/504/248
vt 0.265920 0.185706
f 249/505/249 197/409/197 196/408/196
vt 0.333295 0.306603
f 203/419/203 194/421/194 193/506/193
vt 0.046127 0.044077
vt 0.045255 0.051618
vt 0.045463 0.048070
f 250/507/250 251/508/251 252/509/252
vt 0.064376 0.050476
vt 0.060911 0.049684
vt 0.064343 0.053854
f 253/510/253 254/511/254 255/512/255
vt 0.065218 0.046313
f 253/510/253 255/512/255 256/513/256
f 253/510/253 256/513/256 254/511/254
vt 0.090576 0.007080
vt 0.118217 0.007080
vt 0.094378 0.002128
f 241/514/241 242/515/242 257/516/257
vt 0.216527 0.127920
vt 0.211670 0.128174
vt 0.212518 0.124285
f 258/517/258 239/518/239 247/519/247
vt 0.219453 0.098131
vt 0.224768 0.097982
vt 0.232283 0.105099
f 259/520/259 260/521/260 261/522/261
vt 0.222449 0.112888
f 261/522/261 262/523/262 259/520/259
vt 0.233803 0.116600
f 261/522/261 193/524/193 262/523/262
vt 0.227194 0.122230
f 193/524/193 195/525/195 262/523/262
vt 0.238796 0.112377
f 261/522/261 204/526/204 193/524/193
vt 0.237834 0.114927
f 204/526/204 203/527/203 193/524/193
vt 0.227938 0.058647
vt 0.215688 0.074280
vt 0.223612 0.058636
f 200/528/200 242/529/242 224/530/224
vt 0.227384 0.078154
f 200/528/200 199/531/199 242/529/242
vt 0.214250 0.116344
f 195/525/195 238/532/238 262/523/262
f 195/525/195 258/517/258 238/532/238
f 258/517/258 247/519/247 238/532/238
vt 0.030953 0.076507
vt 0.016845 0.063515
vt 0.010532 0.082228
f 99/533/99 263/534/263 100/535/100
vt 0.007466 0.074345
f 263/534/263 151/536/151 100/535/100
vt 0.008757 0.066419
f 263/534/263 152/537/152 151/536/151
vt 0.012973 0.063122
f 263/534/263 264/538/264 152/537/152
vt 0.070338 0.083531
vt 0.070278 0.069796
vt 0.052822 0.085205
f 108/539/108 265/540/265 114/541/114
vt 0.101388 0.053955
vt 0.093958 0.051182
vt 0.092930 0.053955
f 88/542/88 113/543/113 98/544/98
vt 0.000732 0.081359
vt 0.002356 0.085205
f 100/535/100 85/545/85 86/546/86
f 100/535/100 151/536/151 85/545/85
vt 0.004676 0.074188
f 151/536/151 155/547/155 85/545/85
vt 0.090576 0.038726
vt 0.095823 0.043190
f 107/548/107 113/543/113 266/549/266
vt 0.093147 0.037248
f 266/549/266 267/550/267 107/548/107
vt 0.274736 0.264949
vt 0.274170 0.268799
f 78/551/78 85/552/85 155/314/155
f 155/314/155 148/313/148 78/551/78
vt 0.102357 0.040309
vt 0.098658 0.048799
f 88/542/88 150/553/150 268/554/268
f 268/554/268 113/543/113 88/542/88
f 268/554/268 266/549/266 113/543/113
vt 0.100557 0.039614
f 266/549/266 156/555/156 267/550/267
vt 0.099536 0.042553
f 266/549/266 159/556/159 156/555/156
f 266/549/266 268/554/268 159/556/159
vt 0.354585 0.430619
vt 0.351025 0.421724
vt 0.355774 0.418885
f 159/557/159 150/558/150 157/559/157
vt 0.348389 0.432861
f 159/557/159 268/560/268 150/558/150
vt 0.348389 0.416891
f 150/558/150 117/561/117 157/559/157
vt 0.035246 0.073144
vt 0.034586 0.057984
f 99/533/99 103/562/103 269/563/269
f 269/563/269 263/534/263 99/533/99
f 265/540/265 255/512/255 251/508/251
f 251/508/251 103/562/103 265/540/265
f 251/508/251 269/563/269 103/562/103
vt 0.056678 0.052988
f 255/512/255 270/564/270 251/508/251
vt 0.071969 0.054757
f 265/540/265 271/565/271 255/512/255
vt 0.033827 0.050494
f 251/508/251 272/566/272 269/563/269
f 251/508/251 250/507/250 272/566/272
vt 0.031072 0.042090
f 250/507/250 273/567/273 272/566/272
vt 0.027963 0.045638
f 273/567/273 274/568/274 272/566/272
f 255/512/255 254/511/254 270/564/270
vt 0.029716 0.052806
f 274/568/274 275/569/275 272/566/272
vt 0.083656 0.079574
vt 0.075767 0.059389
f 265/540/265 267/570/267 223/571/223
vt 0.080625 0.078867
f 265/540/265 107/572/107 267/570/267
f 223/571/223 271/565/271 265/540/265
vt 0.102600 0.033743
vt 0.100411 0.032624
f 267/550/267 158/573/158 249/574/249
f 249/574/249 223/463/223 267/550/267
f 267/550/267 156/555/156 158/573/158
vt 0.104284 0.032836
f 158/573/158 197/575/197 249/574/249
f 249/574/249 221/460/221 223/463/223
vt 0.013154 0.059604
vt 0.017369 0.056315
vt 0.017770 0.052497
f 276/576/276 277/577/277 192/578/192
vt 0.008857 0.061286
f 192/578/192 153/579/153 276/576/276
vt 0.344482 0.543167
vt 0.346421 0.538880
f 153/311/153 264/580/264 276/581/276
f 153/311/153 152/309/152 264/580/264
vt 0.022813 0.060740
f 269/563/269 226/472/226 278/582/278
f 278/582/278 263/534/263 269/563/269
vt 0.021029 0.056916
f 226/472/226 279/583/279 278/582/278
f 269/563/269 227/473/227 226/472/226
vt 0.016984 0.060037
f 278/582/278 280/584/280 263/534/263
f 280/584/280 264/538/264 263/534/263
f 280/584/280 276/576/276 264/538/264
vt 0.028287 0.061522
f 131/276/131 278/582/278 281/585/281
f 131/276/131 130/275/130 278/582/278
f 130/275/130 280/584/280 278/582/278
f 132/277/132 281/585/281 207/430/207
f 132/277/132 131/276/131 281/585/281
vt 0.238582 0.104435
f 187/586/187 204/526/204 261/522/261
vt 0.243153 0.111190
f 187/586/187 178/587/178 204/526/204
vt 0.313552 0.258060
vt 0.313232 0.260986
vt 0.317084 0.260986
f 178/588/178 179/589/179 204/590/204
vt 0.026105 0.049447
f 279/583/279 228/474/228 282/591/282
f 282/591/282 277/577/277 279/583/279
f 279/583/279 226/472/226 228/474/228
f 277/577/277 130/275/130 279/583/279
f 277/577/277 280/584/280 130/275/130
f 130/275/130 208/431/208 279/583/279
f 277/577/277 276/576/276 280/584/280
f 207/430/207 281/585/281 278/582/278
f 278/582/278 208/431/208 207/430/207
f 278/582/278 279/583/279 208/431/208
vt 0.104387 0.035169
f 196/592/196 221/460/221 249/574/249
vt 0.266601 0.178514
f 196/408/196 198/410/198 221/593/221
vt 0.235929 0.085830
vt 0.238656 0.100646
f 260/521/260 189/594/189 188/595/188
f 188/595/188 261/522/261 260/521/260
f 188/595/188 187/586/187 261/522/261
vt 0.215591 0.098042
f 257/596/257 242/529/242 199/531/199
f 199/531/199 260/521/260 257/596/257
f 199/531/199 189/594/189 260/521/260
vt 0.232966 0.081804
f 199/531/199 202/597/202 189/594/189
f 260/521/260 259/520/259 257/596/257
vt 0.027138 0.041750
vt 0.018152 0.048857
f 282/591/282 258/598/258 195/599/195
f 282/591/282 274/568/274 258/598/258
f 274/568/274 273/567/273 258/598/258
vt 0.029053 0.036718
f 273/567/273 239/600/239 258/598/258
f 272/566/272 225/471/225 227/473/227
f 227/473/227 269/563/269 272/566/272
f 282/591/282 275/569/275 274/568/274
f 282/591/282 228/474/228 275/569/275
f 275/569/275 225/471/225 272/566/272
f 275/569/275 228/474/228 225/471/225
vt 0.056808 0.049509
f 251/508/251 283/601/283 252/509/252
f 251/508/251 270/564/270 283/601/283
vt 0.077583 0.055812
vt 0.080332 0.049612
f 271/565/271 222/602/222 284/603/284
f 271/565/271 223/571/223 222/602/222
vt 0.211670 0.101557
f 262/523/262 238/532/238 241/604/241
f 241/604/241 259/520/259 262/523/262
f 241/604/241 257/596/257 259/520/259
vt 0.073887 0.041954
f 271/565/271 284/603/284 285/605/285
f 285/605/285 256/513/256 271/565/271
f 256/513/256 255/512/255 271/565/271
vt 0.061761 0.042166
f 285/605/285 286/606/286 256/513/256
vt 0.077068 0.043384
f 284/603/284 287/607/287 285/605/285
vt 0.088715 0.045074
f 284/603/284 288/608/288 287/607/287
f 286/606/286 254/511/254 256/513/256
f 286/606/286 283/601/283 254/511/254
f 283/601/283 270/564/270 254/511/254
vt 0.337091 0.409052
vt 0.330771 0.396593
vt 0.342289 0.397599
f 234/609/234 284/610/284 220/611/220
vt 0.329884 0.404441
f 234/609/234 289/612/289 284/610/284
vt 0.097402 0.018563
f 284/613/284 222/461/222 220/458/220
vt 0.327870 0.404303
f 289/612/289 288/614/288 284/610/284
vt 0.055881 0.031858
vt 0.036129 0.036572
f 250/507/250 290/615/290 243/616/243
f 250/507/250 286/606/286 290/615/290
f 250/507/250 283/601/283 286/606/286
vt 0.359132 0.413330
vt 0.356840 0.404271
vt 0.344482 0.413330
f 243/617/243 273/618/273 250/619/250
vt 0.059117 0.034176
f 286/606/286 291/620/291 290/615/290
f 250/507/250 252/509/252 283/601/283
f 243/616/243 239/600/239 273/567/273
vt 0.344855 0.393799
vt 0.356830 0.390042
vt 0.344482 0.390919
f 224/621/224 237/622/237 236/623/236
vt 0.362397 0.393799
f 224/621/224 242/624/242 237/622/237
vt 0.063308 0.033976
f 286/606/286 292/625/292 291/620/291
f 286/606/286 285/605/285 292/625/292
vt 0.315613 0.391769
vt 0.313232 0.406925
f 245/626/245 288/614/288 235/627/235
vt 0.327200 0.392235
f 245/626/245 287/628/287 288/614/288
vt 0.314771 0.360906
vt 0.329054 0.370402
vt 0.313967 0.368671
f 240/629/240 290/630/290 246/631/246
vt 0.331168 0.350987
f 240/629/240 243/632/243 290/630/290
vt 0.327485 0.388975
vt 0.313232 0.376273
f 285/633/285 245/626/245 244/634/244
vt 0.328355 0.377939
f 244/634/244 292/635/292 285/633/285
f 285/633/285 287/628/287 245/626/245
f 246/631/246 292/635/292 244/634/244
f 246/631/246 290/630/290 292/635/292
vt 0.332534 0.374496
f 290/630/290 291/636/291 292/635/292
f 195/599/195 192/578/192 282/591/282
f 192/578/192 277/577/277 282/591/282
f 114/541/114 265/540/265 103/562/103
f 108/539/108 107/572/107 265/540/265
# 557 faces, 636 coords texture

# End of File
