####
#
# OBJ File Generated by Meshlab
#
####
# Object hallway_chair_2.obj
#
# Vertices: 451
# Faces: 822
#
####
mtllib ./hallway_chair_2.obj.mtl

vn 0.474507 0.615625 -0.629165
v -4.695534 0.660289 0.043864
vn -0.317762 0.621738 -0.715869
v -4.742560 0.662622 0.043864
vn 0.066641 0.996093 -0.057938
v -4.719046 0.680443 0.067375
vn 0.723568 0.660429 -0.200706
v -4.701000 0.658135 0.067375
vn -0.160965 0.984811 0.065092
v -4.719047 0.675961 0.090889
vn 0.175896 0.968157 0.178136
v -4.695535 0.684628 0.090889
vn -0.965718 0.233574 0.113280
v -4.679182 0.093810 0.443574
vn -0.989653 0.143046 0.011195
v -4.695538 0.052794 0.514111
vn -0.853633 0.504276 0.130446
v -4.669489 0.070322 0.490600
vn 0.275776 0.957723 0.081935
v -4.671993 0.657829 0.097956
vn 0.195432 0.961927 -0.191057
v -4.672020 0.664392 0.161468
vn 0.052036 0.951802 -0.302267
v -4.648520 0.656845 0.161208
vn 0.756368 0.571228 -0.318757
v -4.638081 0.070324 0.020351
vn -0.129584 0.967715 -0.216184
v -4.672022 0.077442 0.043863
vn 0.792609 0.581372 -0.183787
v -4.638928 0.046810 0.043863
vn -0.236617 0.539752 -0.807886
v -4.507620 0.011633 0.043959
vn -0.038260 0.412576 -0.910119
v -4.483924 0.023299 0.032109
vn -0.098391 0.419672 -0.902327
v -4.483923 -0.000217 0.032110
vn 0.000000 0.000000 0.000000
v -4.483923 -0.000223 0.805014
vn 0.010404 0.364223 0.931254
v -4.483923 0.023302 0.825616
vn -0.120736 0.856955 0.501050
v -4.413387 0.023296 0.829490
vn -0.488845 -0.612320 0.621365
v -4.413386 -0.000214 0.806323
vn -0.213252 -0.501586 0.838412
v -4.396289 -0.000214 0.819774
vn 0.007350 0.645713 0.763544
v -4.342847 0.023293 0.828129
vn 0.058817 0.003323 0.998263
v -4.319337 -0.000214 0.826822
vn 0.106550 -0.092936 0.989955
v -4.272329 0.305395 -0.102083
vn 0.013051 0.035440 0.999287
v -4.272326 0.211356 -0.104189
vn 0.273680 0.041743 0.960915
v -4.248797 0.258423 -0.116880
vn -0.234761 0.726145 -0.646220
v -4.201778 0.678367 0.067369
vn -0.106700 0.891410 -0.440457
v -4.248831 0.687115 0.090657
vn -0.341314 0.934331 -0.102615
v -4.201742 0.696691 0.114406
vn 0.580130 0.529530 0.618908
v -4.178267 0.728666 0.317496
vn -0.131759 0.726532 0.674382
v -4.225288 0.728687 0.306795
vn 0.543613 0.488167 0.682772
v -4.178265 0.681822 0.332470
vn 0.046618 -0.452568 0.890510
v -4.178262 -0.023726 0.815420
vn 0.035433 0.051113 0.998064
v -4.178262 -0.000210 0.827371
vn 0.374518 -0.066693 0.924818
v -4.201775 -0.024239 0.835160
vn 0.363640 0.899296 0.242965
v -4.174762 0.023308 0.796278
vn 0.081443 0.679601 0.729047
v -4.201776 0.039595 0.796160
vn 0.106884 0.867893 0.485117
v -4.178262 0.038292 0.819782
vn -0.952794 -0.164598 0.255128
v -4.178259 0.658134 -0.051418
vn -0.797347 -0.431222 0.422238
v -4.201777 0.658136 -0.090783
vn -0.561548 -0.365171 0.742506
v -4.178248 0.636573 -0.100288
vn -0.111680 0.032436 0.993215
v -4.154750 -0.023726 0.831357
vn 0.850984 -0.076874 0.519534
v -4.131247 0.070319 0.749232
vn 0.515403 -0.085034 0.852718
v -4.131252 0.093834 0.765773
vn 0.470823 0.249957 0.846078
v -4.154749 0.093835 0.770506
vn 0.905258 0.371353 -0.206411
v -4.131213 0.211405 0.373037
vn 0.487030 0.868788 -0.089491
v -4.153005 0.234990 0.373042
vn 0.449545 0.743356 -0.495310
v -4.131235 0.234982 0.381803
vn 0.996497 0.039715 -0.073594
v -4.136399 0.517065 0.255498
vn 0.994452 0.034670 0.099309
v -4.118281 0.517058 0.278986
vn 0.977983 -0.120487 0.170390
v -4.135534 0.493542 0.278973
vn 0.975682 0.163494 0.145997
v -4.138895 0.540569 0.278982
vn 0.836792 0.061103 0.544101
v -4.148319 0.517077 0.302565
vn -0.949928 0.312115 0.014896
v -4.708592 -0.023781 -0.105514
vn -0.470008 0.305451 0.828126
v -4.696683 0.063995 -0.106697
vn -0.116128 0.199406 0.973012
v -4.710526 0.091286 -0.113942
vn -0.694077 0.172165 0.699011
v -4.700737 -0.000275 -0.105868
vn -0.086220 0.577819 0.811598
v -4.672011 0.093951 -0.114075
vn 0.099868 0.303932 0.947445
v -4.554493 0.070299 -0.114226
vn -0.547188 -0.556546 0.625173
v -4.742700 0.568624 -0.110350
vn -0.606463 0.712944 0.352014
v -4.742670 0.673351 -0.109523
vn 0.952568 -0.019695 0.303689
v -4.672053 0.587697 -0.110178
vn 0.161557 -0.143178 0.976422
v -4.677891 0.564179 -0.110365
vn -0.123379 0.080854 0.989060
v -4.672018 0.564150 -0.109630
vn -0.871889 0.479439 0.099742
v -4.719037 -0.040525 -0.073738
vn -0.785145 0.615564 0.068027
v -4.695529 -0.057339 0.137891
vn -0.797211 0.603684 -0.004478
v -4.695526 -0.057344 0.184825
vn -0.325918 0.570770 0.753657
v -4.178250 0.728652 -0.100987
vn 0.163920 0.746035 0.645417
v -4.131222 0.728653 -0.100766
vn -0.279960 0.064840 0.957819
v -4.225270 0.681618 -0.100851
vn -0.305350 0.209752 0.928852
v -4.436874 0.446471 -0.100055
vn 0.169904 0.271163 0.947419
v -4.295809 0.476810 -0.099628
vn -0.283292 -0.145240 0.947972
v -4.436891 0.399449 -0.099703
vn -0.497763 -0.155327 0.853291
v -4.172143 0.587576 -0.099888
vn -0.302010 -0.459861 0.835056
v -4.154738 0.561120 -0.099605
vn -0.311531 0.313174 0.897146
v -4.178270 0.423004 -0.098662
vn -0.001231 0.025985 0.999662
v -4.742558 0.540612 -0.109832
vn 0.218541 -0.022778 0.975562
v -4.272308 0.422924 -0.099105
vn -0.373046 0.223652 0.900454
v -4.201774 0.399439 -0.098597
vn -0.650875 0.184833 0.736341
v -4.154765 -0.000277 -0.109362
vn 0.006585 -0.141440 0.989925
v -4.342825 0.352545 -0.096680
vn -0.486632 -0.235273 0.841330
v -4.173653 0.046932 -0.101882
vn -0.012592 -0.273499 0.961790
v -4.176364 0.164453 -0.100308
vn -0.349710 -0.055985 0.935184
v -4.225286 0.328941 -0.099903
vn -0.259111 -0.443378 0.858066
v -4.154779 0.164248 -0.107489
vn -0.275468 -0.034657 0.960685
v -4.217942 0.211468 -0.099820
vn -0.392582 -0.125280 0.911145
v -4.154760 0.023235 -0.109015
vn 0.001500 0.018496 0.999828
v -4.742629 0.554617 -0.110091
vn 0.620079 -0.758627 -0.199965
v -4.695509 0.577464 -0.026672
vn -0.822159 -0.569041 -0.015711
v -4.745160 0.587598 -0.026671
vn -0.454358 -0.798397 -0.395123
v -4.719048 0.574924 -0.003164
vn -0.995213 -0.096816 -0.013340
v -4.745279 0.587591 0.114406
vn -0.794318 0.607002 0.024628
v -4.742509 0.658133 0.161423
vn -0.826083 0.547003 -0.135556
v -4.748851 0.658137 0.043861
vn -0.893699 -0.445831 -0.050361
v -4.742589 0.583717 0.067376
vn -0.755961 0.631160 0.173665
v -4.742659 0.658137 -0.078690
vn -0.822564 -0.562458 0.083837
v -4.742604 0.577153 0.043866
vn -0.839104 -0.503856 -0.205022
v -4.742554 0.571815 0.090892
vn -0.722537 -0.647778 -0.241503
v -4.729978 0.564084 0.020351
vn -0.453782 -0.269788 -0.849292
v -4.728342 0.540571 0.114468
vn -0.926393 -0.065562 -0.370806
v -4.729861 0.399493 0.137865
vn -0.975808 -0.103303 0.192686
v -4.715863 0.211458 0.184997
vn -0.950295 -0.102247 0.294085
v -4.741197 0.564092 0.208425
vn -0.940015 -0.147812 -0.307446
v -4.734550 0.281958 0.137899
vn -0.996615 -0.078746 0.023599
v -4.737570 0.493541 0.126136
vn -0.930470 0.365753 0.021198
v -4.743039 0.658129 0.208420
vn -0.917049 0.308191 0.253061
v -4.742579 0.658129 0.231967
vn -0.694510 -0.359051 -0.623489
v -4.718413 0.256483 0.137919
vn -0.910927 -0.103887 0.399273
v -4.718895 0.535213 0.231941
vn -0.931144 0.225840 0.286300
v -4.729844 0.658160 0.255456
vn 0.753529 0.647932 -0.111259
v -4.693384 0.658139 0.043863
vn 0.720322 0.681522 0.129089
v -4.695519 0.650173 -0.050188
vn 0.564268 0.754318 0.335568
v -4.695523 0.660745 -0.073946
vn -0.166020 0.984600 -0.054773
v -4.719035 0.665229 0.161578
vn -0.852957 0.515909 -0.079388
v -4.743498 0.658130 0.184899
vn -0.127196 0.866843 -0.482083
v -4.695537 0.677038 0.184921
vn -0.544343 0.564243 0.620742
v -4.701759 0.705182 0.302500
vn -0.510447 0.836412 -0.199646
v -4.697572 0.705163 0.231965
vn -0.855282 0.400042 0.329331
v -4.716047 0.681591 0.302549
vn 0.020398 0.707507 0.706412
v -4.648513 0.044271 0.819766
vn -0.181617 0.897869 0.401056
v -4.625000 0.038040 0.796305
vn 0.007945 0.326082 0.945308
v -4.648511 0.023300 0.827000
vn -0.707196 -0.031230 -0.706328
v -4.695557 0.305445 0.107098
vn -0.919584 -0.141626 -0.366479
v -4.709984 0.234864 0.137920
vn -0.431369 -0.390888 -0.813097
v -4.695609 0.540567 0.105000
vn -0.178299 -0.088977 -0.979945
v -4.672023 0.423009 0.079439
vn -0.113564 0.052486 -0.992143
v -4.672009 0.211403 0.080983
vn -0.287155 -0.385404 -0.876930
v -4.648632 0.540566 0.069647
vn -0.844044 -0.017365 -0.535993
v -4.700953 0.140862 0.114408
vn -0.931862 0.148254 0.331141
v -4.679594 0.093848 0.231947
vn -0.978116 -0.070575 0.195727
v -4.700645 0.070318 0.208417
vn 0.172111 -0.848759 -0.499986
v -4.695537 0.554238 -0.003161
vn -0.119546 -0.875125 -0.468898
v -4.672024 0.552494 0.067375
vn -0.290078 -0.945354 -0.148866
v -4.695533 0.555019 0.067376
vn -0.828247 -0.085547 0.553795
v -4.695668 0.399485 0.326026
vn -0.986537 -0.064710 0.150191
v -4.704143 0.528782 0.326072
vn -0.986537 -0.064707 0.150191
v -4.715755 0.596646 0.279030
vn -0.798817 0.200549 0.567162
v -4.712616 0.658079 0.326119
vn 0.474933 0.799260 0.368268
v -4.695528 0.676558 -0.109484
vn -0.143986 0.946065 -0.290221
v -4.672002 0.713999 0.232043
vn -0.952077 0.303026 0.041538
v -4.687667 -0.047314 0.137918
vn -0.972425 0.233176 -0.004212
v -4.687980 -0.047308 0.184941
vn -0.975809 0.218618 0.001636
v -4.693247 0.046749 0.584648
vn -0.970965 0.209863 0.114820
v -4.696303 0.057026 0.231965
vn -0.995844 -0.026162 -0.087242
v -4.696382 0.056669 0.114406
vn -0.932095 0.347892 0.100849
v -4.696095 0.023256 -0.060237
vn -0.943995 0.168531 0.283673
v -4.693278 0.046704 0.678689
vn -0.902253 0.353374 -0.247117
v -4.691099 0.070321 0.067376
vn -0.135099 0.944455 -0.299588
v -4.672040 0.051779 -0.003164
vn -0.127591 0.868265 0.479412
v -4.672031 0.046825 -0.073701
vn -0.931480 0.349660 -0.100417
v -4.687796 0.070322 0.090899
vn -0.536226 0.331059 -0.776442
v -4.681889 0.093834 0.090894
vn -0.981331 0.168420 0.092870
v -4.677087 0.095514 0.255413
vn -0.975178 0.217041 -0.043839
v -4.683990 0.093798 0.396547
vn -0.944674 0.317719 0.081524
v -4.672056 0.098862 0.302505
vn -0.977088 0.144612 0.156162
v -4.658965 0.117339 0.326013
vn -0.870805 0.430078 -0.238184
v -4.683536 0.070354 0.514117
vn -0.177992 0.632588 0.753758
v -4.672028 0.076262 -0.097290
vn 0.108892 0.102537 -0.988751
v -4.624992 0.140868 0.079106
vn -0.099141 0.150339 -0.983651
v -4.648511 0.117348 0.080586
vn 0.595051 0.191923 -0.780435
v -4.661997 0.211415 0.090872
vn -0.963052 0.265994 0.042159
v -4.661411 0.187887 0.349515
vn -0.640388 0.625241 0.446069
v -4.648460 0.199491 0.349401
vn -0.276424 0.511927 0.813339
v -4.625008 0.228910 0.348924
vn -0.347672 0.015087 0.937495
v -4.675695 0.564111 0.352912
vn -0.341051 0.318591 0.884412
v -4.695557 0.658417 0.339107
vn 0.902024 0.025128 -0.430955
v -4.685629 0.587593 -0.003163
vn 0.575687 0.618445 -0.534893
v -4.685451 0.634621 0.067371
vn 0.288053 0.727217 -0.623042
v -4.670529 0.610868 0.044171
vn 0.778169 0.051269 -0.625959
v -4.660266 0.587594 0.020352
vn 0.374275 0.802770 -0.464197
v -4.671988 0.657781 0.090952
vn 0.023731 0.957954 -0.285940
v -4.225286 0.742044 0.232052
vn -0.237865 0.942816 -0.233490
v -4.201744 0.696955 0.161574
vn 0.255164 0.954226 -0.156026
v -4.154783 0.723785 0.208348
vn -0.291972 0.842062 0.453524
v -4.695533 0.708582 0.302677
vn -0.058018 0.879715 0.471948
v -4.483940 0.717041 0.302645
vn 0.040849 0.999153 0.004922
v -4.225292 0.743547 0.255476
vn -0.937029 -0.151068 0.314890
v -4.657834 0.023300 0.725722
vn -0.784577 -0.206376 0.584678
v -4.673318 0.070339 0.702213
vn -0.009558 0.841960 0.539456
v -4.342849 0.026768 0.822705
vn -0.106859 0.707733 0.698352
v -4.201776 0.030235 0.819794
vn 0.028376 0.958002 -0.285353
v -4.672020 0.076831 0.067374
vn -0.986862 0.046117 -0.154842
v -4.675513 0.093870 0.514119
vn -0.783624 0.598382 0.166947
v -4.671827 0.181531 0.490578
vn -0.823934 0.473390 0.311502
v -4.671900 0.117383 0.725732
vn -0.988533 0.092623 0.119264
v -4.678162 0.164325 0.467075
vn -0.892710 -0.041057 0.448757
v -4.660576 0.046816 0.749241
vn 0.569549 0.573472 -0.588849
v -4.648512 0.070323 0.071282
vn -0.907150 0.416861 -0.057500
v -4.682311 0.187883 0.396553
vn -0.845615 0.348599 -0.404244
v -4.672014 0.187885 0.364762
vn -0.623445 0.750498 -0.219244
v -4.656065 0.211464 0.373053
vn 0.470486 -0.656798 -0.589287
v -4.672022 0.564083 0.055787
vn 0.234982 -0.121660 -0.964356
v -4.648511 0.587598 0.032107
vn 0.098584 0.044713 0.994124
v -4.248881 0.587568 0.366819
vn -0.119274 0.553004 0.824597
v -4.577904 0.235021 0.354253
vn 0.126792 0.255253 0.958525
v -4.225318 0.281891 0.357785
vn 0.325032 0.264489 0.907965
v -4.210602 0.281804 0.353163
vn 0.089629 0.425455 0.900530
v -4.225305 0.681685 0.350061
vn 0.126259 0.144431 0.981427
v -4.225327 0.611218 0.359817
vn 0.134933 0.714624 0.686372
v -4.225289 0.713060 0.325957
vn 0.421120 0.318978 0.849065
v -4.178261 0.658329 0.349774
vn -0.598667 0.529996 0.600584
v -4.660096 0.117585 0.749594
vn -0.346643 0.347279 0.871342
v -4.625013 0.070540 0.778621
vn 0.799609 0.117952 -0.588823
v -4.648520 0.046801 0.020351
vn 0.352493 0.867115 -0.351937
v -4.601484 0.005602 0.043871
vn 0.371267 0.829450 0.417341
v -4.625017 0.027042 -0.073699
vn 0.155943 0.537295 0.828852
v -4.507433 -0.000210 -0.094263
vn -0.002835 0.573077 0.819497
v -4.201775 -0.023790 -0.097338
vn -0.548522 0.600219 0.582117
v -4.154757 -0.018518 -0.097394
vn 0.343681 0.862406 0.371671
v -4.554471 -0.000242 -0.072329
vn 0.297002 0.841897 0.450555
v -4.507436 -0.019432 -0.073713
vn 0.350702 0.593366 -0.724517
v -4.624998 0.051170 0.090889
vn 0.194339 0.023878 -0.980644
v -4.625001 0.070319 0.102645
vn 0.097362 0.397570 0.912392
v -4.201776 0.140812 0.774523
vn -0.029040 0.689770 0.723446
v -4.225294 0.171862 0.749524
vn -0.174953 0.717111 0.674643
v -4.594190 0.141086 0.749391
vn 0.313756 0.669150 0.673643
v -4.154770 0.170814 0.749620
vn -0.264813 0.914078 0.307140
v -4.601524 0.160190 0.702342
vn -0.239685 0.949911 0.200552
v -4.601439 0.208028 0.514000
vn -0.472224 0.877884 -0.079529
v -4.648534 0.216743 0.373052
vn 0.352630 0.023808 -0.935460
v -4.601485 0.587596 0.032104
vn -0.158138 0.524244 -0.836756
v -4.295836 0.611223 0.031964
vn -0.058906 0.617265 -0.784547
v -4.483920 0.634584 0.057939
vn 0.099503 0.555493 -0.825546
v -4.601490 0.611213 0.056609
vn -0.080119 0.138909 -0.987059
v -4.436887 0.611003 0.032242
vn -0.094192 0.154395 -0.983509
v -4.530971 0.611321 0.056011
vn -0.160995 0.597310 -0.785685
v -4.201779 0.611143 0.020307
vn 0.071708 0.128815 -0.989073
v -4.483905 0.610931 0.032334
vn 0.115699 -0.186929 -0.975536
v -4.624999 0.092157 0.090888
vn -0.030682 -0.217898 -0.975489
v -4.624998 0.117349 0.089666
vn -0.106480 0.979173 0.172867
v -4.507416 0.237592 0.373009
vn -0.048326 0.988677 0.142065
v -4.319363 0.248635 0.443654
vn -0.063480 0.908120 0.413870
v -4.319322 0.255109 0.373012
vn 0.159070 0.932299 -0.324830
v -4.483916 -0.039510 -0.003157
vn 0.169648 0.967412 0.187970
v -4.460408 -0.043009 -0.050185
vn -0.074535 0.446360 -0.891744
v -4.530949 0.023296 0.055623
vn -0.190289 0.584930 -0.788446
v -4.577973 0.025599 0.067372
vn -0.577368 0.270516 -0.770368
v -4.577973 0.046806 0.079137
vn 0.084331 0.601865 -0.794133
v -4.460411 -0.000212 0.032192
vn -0.017756 0.892719 -0.450263
v -4.436897 -0.038816 -0.003170
vn 0.551449 0.320500 0.770184
v -4.154748 0.090635 0.772164
vn 0.451379 0.283801 0.845999
v -4.154747 0.070337 0.782679
vn -0.387069 -0.084570 -0.918164
v -4.601486 0.070326 0.090884
vn -0.588053 -0.275251 -0.760546
v -4.577973 0.070324 0.078648
vn -0.159733 -0.057527 -0.985483
v -4.601461 0.093848 0.079101
vn 0.167069 0.132706 -0.976973
v -4.601489 0.117346 0.079136
vn 0.039711 0.915382 0.400623
v -4.225263 0.192475 0.725631
vn 0.119929 0.972841 0.197985
v -4.248873 0.214981 0.608321
vn 0.104351 0.968285 0.227014
v -4.225318 0.241048 0.514160
vn -0.372216 0.296944 -0.879363
v -4.566697 0.070323 0.067374
vn 0.134081 0.434111 -0.890825
v -4.530954 0.070314 0.055626
vn 0.217305 0.885573 0.410536
v -4.201777 0.250323 0.373050
vn 0.043459 0.891341 0.451246
v -4.389874 -0.044949 -0.073685
vn 0.029650 0.929112 0.368608
v -4.272313 -0.045059 -0.073706
vn -0.178294 0.915281 0.361209
v -4.201788 -0.047239 -0.073705
vn 0.020208 0.989695 -0.141756
v -4.366362 -0.041008 -0.026664
vn -0.079833 0.960801 0.265496
v -4.272311 0.738226 0.278981
vn 0.019286 0.928068 0.371912
v -4.201776 0.738011 0.302488
vn 0.495466 0.808633 0.317217
v -4.131269 0.172348 0.725724
vn 0.560776 0.812559 0.158993
v -4.131225 0.195009 0.561162
vn 0.335374 0.936773 0.099905
v -4.154743 0.245667 0.420067
vn 0.397768 0.560865 0.726093
v -4.178263 0.256810 0.349521
vn 0.899600 0.436710 0.002018
v -4.121670 0.234927 0.396544
vn 0.451826 0.123230 0.883554
v -4.178285 0.281939 0.344101
vn 0.785305 0.082290 0.613615
v -4.142889 0.470027 0.326243
vn 0.538723 -0.039363 0.841563
v -4.178206 0.540567 0.338166
vn 0.408725 -0.059530 0.910714
v -4.178333 0.611114 0.354207
vn -0.536133 0.095059 0.838764
v -4.211156 0.234911 -0.097200
vn -0.245538 0.092219 0.964991
v -4.225287 0.258422 -0.130911
vn 0.636543 0.733365 0.238722
v -4.178266 0.731735 0.302502
vn -0.818497 0.379294 -0.431508
v -4.192849 0.681661 0.067366
vn -0.545335 0.284968 -0.788291
v -4.174972 0.587598 -0.003165
vn -0.316359 -0.019080 -0.948448
v -4.248794 0.587590 0.008608
vn 0.625521 0.512984 0.587853
v -4.154757 0.258422 0.337012
vn 0.609414 0.651633 0.451652
v -4.154747 0.244517 0.349525
vn 0.925643 -0.142456 0.350558
v -4.139624 0.540559 0.302462
vn 0.810762 0.119665 0.573014
v -4.154702 0.634624 0.337316
vn 0.456484 0.830610 0.318918
v -4.131231 0.705174 -0.073697
vn -0.460267 0.781545 0.421119
v -4.165407 0.705185 -0.073700
vn 0.767011 0.511888 0.386866
v -4.131215 0.710776 0.231963
vn 0.642246 0.742795 0.189147
v -4.154165 0.728668 0.255582
vn 0.786279 0.137960 0.602273
v -4.117800 0.117402 0.749228
vn 0.804745 0.482328 0.346042
v -4.123212 0.164327 0.725717
vn 0.087916 -0.607673 -0.789306
v -4.178261 0.564084 -0.014918
vn -0.470172 0.260242 -0.843334
v -4.201775 0.575841 -0.003160
vn -0.479539 -0.306584 -0.822222
v -4.201775 0.564082 -0.014918
vn 0.233069 -0.656133 -0.717753
v -4.154755 0.589246 -0.018455
vn -0.995028 0.011778 -0.098893
v -4.175255 0.681667 -0.026676
vn -0.447574 -0.842607 -0.299485
v -4.154759 0.596130 -0.026677
vn -0.853771 0.372793 0.363456
v -4.178271 0.681646 -0.071398
vn 0.236911 0.557310 0.795788
v -4.087641 -0.000214 0.819770
vn 0.723071 0.689584 0.040539
v -4.131238 0.025776 0.772748
vn 0.741421 0.139421 0.656397
v -4.145132 0.046812 0.772749
vn 0.352145 0.932244 0.083160
v -4.125072 0.023273 0.796270
vn 0.927204 0.362015 0.096110
v -4.132394 0.211409 0.349523
vn 0.927607 0.154199 0.340248
v -4.132382 0.258431 0.302536
vn 0.621378 -0.749674 -0.227766
v -4.154743 0.576441 -0.003162
vn 0.212681 -0.803435 0.556111
v -4.131244 0.587602 -0.079506
vn -0.585507 -0.506053 0.633318
v -4.154756 0.587594 -0.087981
vn 0.230089 -0.413159 0.881112
v -4.107725 0.587597 -0.085650
vn 0.798390 -0.502314 0.332045
v -4.107780 0.611124 -0.079004
vn 0.997288 -0.060353 0.042118
v -4.103314 0.634630 -0.073701
vn 0.941743 0.218113 0.256020
v -4.107720 -0.027990 0.725720
vn 0.980761 0.041261 0.190802
v -4.090435 -0.000195 0.655181
vn 0.886973 0.457831 0.060581
v -4.120242 0.187878 0.514111
vn 0.864763 0.460263 0.200856
v -4.131269 0.224439 0.420062
vn 0.976092 0.215306 0.029784
v -4.127257 0.187896 0.325985
vn 0.983327 0.181680 -0.007716
v -4.089233 0.093795 0.443579
vn 0.991202 0.131568 -0.014454
v -4.092840 0.070313 0.231936
vn 0.986475 0.119147 0.112570
v -4.112828 0.164344 0.231974
vn 0.933935 -0.057015 0.352866
v -4.131583 0.658113 0.231904
vn 0.990984 -0.003592 0.133935
v -4.129545 0.564089 0.208456
vn 0.962487 0.120104 0.243297
v -4.131019 0.470049 0.232002
vn 0.970641 0.024317 0.239300
v -4.131103 0.375998 0.265425
vn 0.978209 0.026918 0.205872
v -4.128380 0.328973 0.255494
vn 0.923053 -0.376000 0.081223
v -4.121593 0.658103 0.184861
vn 0.945324 0.199855 -0.257723
v -4.117926 0.517059 0.137918
vn 0.873569 0.425144 0.236917
v -4.100842 0.470032 0.161421
vn 0.965097 -0.070583 -0.252203
v -4.122346 0.564095 0.137910
vn 0.846086 0.281725 -0.452514
v -4.113150 0.493550 0.137913
vn 0.779864 0.075315 -0.621402
v -4.154769 0.540582 0.103998
vn 0.800196 0.146810 -0.581493
v -4.131243 0.510781 0.114406
vn 0.787522 -0.297918 -0.539494
v -4.144602 0.564084 0.114400
vn 0.261495 0.073309 -0.962417
v -4.154729 0.517048 0.079825
vn 0.566263 -0.823905 -0.022941
v -4.131237 0.601696 -0.003162
vn 0.927543 -0.369112 -0.058482
v -4.123199 0.611107 0.090891
vn 0.572613 -0.819619 -0.018426
v -4.154746 0.576365 0.020352
vn 0.793467 -0.537139 -0.286168
v -4.144040 0.587598 0.090887
vn 0.961446 0.009877 0.274815
v -4.101258 0.681653 0.208451
vn 0.961123 0.274608 0.028853
v -4.106426 0.681660 0.067372
vn 0.890831 0.452201 0.043992
v -4.112245 0.681643 -0.073692
vn 0.982129 0.092419 0.163958
v -4.089452 0.070312 0.655187
vn 0.984038 0.115427 0.135449
v -4.092683 -0.000219 0.231951
vn 0.999122 0.041593 -0.004971
v -4.082600 -0.047271 0.420068
vn 0.756705 0.495892 0.426015
v -4.064059 -0.070770 0.231961
vn 0.885654 0.265500 0.380956
v -4.086595 -0.000231 0.208445
vn 0.130737 -0.572842 -0.809173
v -4.601481 0.564077 0.051744
vn 0.158685 0.103985 -0.981838
v -4.577971 0.587591 0.054496
vn 0.148443 0.498077 -0.854332
v -4.507411 0.046844 0.065964
vn -0.101646 0.051506 -0.993486
v -4.460410 0.587594 0.043871
vn 0.060120 -0.141133 -0.988163
v -4.460417 0.187881 0.202963
vn 0.475284 0.089609 -0.875257
v -4.483954 0.187881 0.193818
vn 0.137597 -0.145186 -0.979790
v -4.483943 0.258448 0.183601
vn -0.059821 0.074760 0.995406
v -4.366363 0.423009 -0.071577
vn -0.057512 0.028490 -0.997938
v -4.295837 0.587617 0.008687
vn 0.034256 -0.267384 -0.962981
v -4.295827 0.564086 0.028796
vn -0.329760 0.222002 -0.917591
v -4.319341 0.587602 0.034098
vn 0.292571 -0.857150 -0.423906
v -4.225288 0.546166 0.043861
vn 0.113178 -0.975099 -0.190715
v -4.201775 0.562761 0.020350
vn 0.460593 -0.779832 -0.423930
v -4.178263 0.557610 0.067375
vn -0.207104 -0.800728 -0.562087
v -4.210918 0.564081 0.020350
vn -0.815741 0.090507 0.571293
v -4.133774 0.046810 -0.073701
vn -0.586637 -0.452091 0.671916
v -4.154751 0.187885 -0.076105
vn 0.296812 0.235898 -0.925340
v -4.154757 0.470044 0.095031
vn 0.425748 0.554719 -0.714860
v -4.544406 0.117363 0.114403
vn 0.300975 0.388267 -0.871012
v -4.436892 0.117353 0.201967
vn 0.058426 -0.132850 -0.989413
v -4.484005 0.352472 0.176850
vn 0.584350 -0.016150 -0.811341
v -4.667010 0.317212 0.085155
vn 0.451921 -0.026765 -0.891656
v -4.622512 0.352477 0.106650
vn 0.451922 -0.026766 -0.891656
v -4.573001 0.281945 0.133861
vn 0.049895 -0.304138 -0.951320
v -4.648506 0.470023 0.079104
vn 0.237989 -0.407967 -0.881433
v -4.507434 0.399488 0.161413
vn 0.443919 -0.052092 -0.894552
v -4.578014 0.387741 0.128144
vn -0.096727 -0.532335 -0.840989
v -4.483933 0.399489 0.163640
vn -0.417428 -0.009274 -0.908663
v -4.622192 0.517059 0.067373
vn -0.297037 0.318032 -0.900347
v -4.601493 0.517071 0.059231
vn -0.119794 -0.024222 -0.992503
v -4.577972 0.564081 0.053181
vn -0.128181 -0.864592 -0.485850
v -4.577977 0.457118 0.090862
vn -0.020579 -0.822487 -0.568411
v -4.507435 0.423013 0.137915
vn -0.331771 -0.568671 -0.752690
v -4.624998 0.470057 0.055636
vn -0.472149 -0.006608 -0.881494
v -4.613244 0.493541 0.043859
vn -0.448414 -0.782747 -0.431546
v -4.554461 0.468013 0.043865
vn -0.444264 0.070721 -0.893100
v -4.554464 0.493542 0.023195
vn -0.218550 -0.975826 -0.000137
v -4.530945 0.459780 0.043885
vn -0.150967 0.262306 -0.953103
v -4.530945 0.552812 0.043888
vn -0.193780 -0.558900 -0.806276
v -4.319344 0.611117 0.041908
vn 0.058421 -0.044296 -0.997309
v -4.389876 0.517067 0.023931
vn 0.041406 -0.932798 -0.358013
v -4.507431 0.456317 0.043882
vn -0.007030 -0.775847 -0.630882
v -4.366359 0.423032 0.114414
vn -0.151011 -0.262152 -0.953138
v -4.530949 0.470032 0.004842
vn -0.161837 -0.900223 -0.404237
v -4.530949 0.453715 0.020351
vn 0.166094 0.559164 -0.812249
v -4.413396 0.093808 0.195227
vn 0.390852 0.755962 -0.525125
v -4.483940 0.063334 0.090909
vn 0.077091 0.132731 -0.988150
v -4.507436 0.493546 0.013598
vn 0.069599 0.691447 -0.719066
v -4.483944 0.039539 0.043895
vn 0.369296 -0.587776 -0.719819
v -4.507433 0.470026 0.022542
vn 0.161432 -0.564056 -0.809803
v -4.342849 0.477297 0.043848
vn 0.049286 -0.743151 -0.667307
v -4.315439 0.446499 0.090856
vn 0.184827 0.728841 -0.659265
v -4.319336 0.023270 0.133323
vn 0.511312 0.540504 -0.668143
v -4.342893 -0.034208 -0.003100
vn 0.357296 0.772367 -0.525156
v -4.460410 0.038780 0.067381
vn 0.373931 0.914036 -0.157207
v -4.295790 -0.043974 0.043809
vn -0.239822 0.334838 -0.911246
v -4.389921 0.093723 0.192226
vn -0.218573 -0.434045 -0.873974
v -4.413363 0.399508 0.143409
vn -0.123392 -0.353371 -0.927310
v -4.295776 0.423023 0.109380
vn 0.180111 -0.524444 -0.832177
v -4.248806 0.540580 0.039799
vn -0.147306 -0.321588 -0.935351
v -4.272308 0.587590 0.027695
vn -0.224025 -0.058834 -0.972806
v -4.413432 0.140831 0.205433
vn -0.358964 0.032850 -0.932773
v -4.389866 0.117354 0.196624
vn -0.339213 -0.068313 -0.938226
v -4.366301 0.258445 0.150176
vn -0.406637 -0.187118 -0.894222
v -4.366446 0.234929 0.152488
vn -0.357922 -0.033915 -0.933135
v -4.225218 0.211353 0.075496
vn -0.424841 -0.118129 -0.897528
v -4.197859 0.117335 0.090891
vn -0.258570 0.054051 -0.964479
v -4.201674 0.328980 0.093733
vn 0.032348 -0.274008 -0.961183
v -4.248796 0.446555 0.098383
vn -0.493625 0.302700 -0.815296
v -4.178273 -0.025234 0.090861
vn 0.200040 0.849551 -0.488105
v -4.248793 -0.064676 0.090902
vn -0.097356 0.654405 -0.749850
v -4.225286 -0.065979 0.090868
vn -0.694519 0.195977 -0.692269
v -4.131200 -0.000216 0.059685
vn -0.581550 -0.019199 -0.813284
v -4.131256 0.164372 0.060965
vn -0.057912 0.985027 0.162385
v -4.201769 -0.052958 -0.003170
vn 0.531720 0.835313 -0.139736
v -4.285937 -0.047247 0.067371
vn -0.380428 0.072422 -0.921971
v -4.131358 0.211460 0.057737
vn -0.222362 0.241677 -0.944536
v -4.107802 0.322988 0.067224
vn -0.819761 0.324648 -0.471800
v -4.102460 0.234935 0.043723
vn -0.242459 0.286895 -0.926771
v -4.084316 0.305503 0.055667
vn -0.892941 0.093749 -0.440304
v -4.112672 0.187936 0.043584
vn 0.354572 -0.403957 -0.843266
v -4.178231 0.540541 0.088201
vn -0.227382 0.955218 -0.189358
v -4.201757 -0.070787 0.067371
vn -0.363259 -0.277834 0.889298
v -4.225297 0.281936 -0.111115
vn 0.089134 0.319734 -0.943306
v -4.154731 0.446519 0.079431
vn -0.020122 0.168649 -0.985471
v -4.107721 0.352476 0.074590
vn 0.738315 -0.652660 -0.170077
v -4.154749 0.576063 0.067375
vn -0.614886 0.783614 -0.088684
v -4.131235 -0.044456 0.020354
vn -0.936795 0.244059 -0.250701
v -4.103526 -0.000219 0.020355
vn -0.547319 -0.105818 0.830207
v -4.178271 0.234913 -0.076749
vn -0.823655 0.167634 0.541748
v -4.112307 0.234908 -0.026671
vn -0.762264 0.279794 0.583669
v -4.077016 0.281874 -0.003323
vn -0.483174 0.120062 0.867253
v -4.131248 0.352489 -0.057718
vn -0.553781 0.011380 0.832585
v -4.178260 0.258422 -0.075456
vn -0.811248 0.528034 0.251111
v -4.084217 0.269390 -0.003178
vn -0.932907 0.283049 0.222639
v -4.105068 -0.000212 -0.003162
vn -0.726601 0.033850 0.686225
v -4.134781 0.117349 -0.097213
vn -0.815082 -0.178877 0.551039
v -4.137246 0.140862 -0.097216
vn -0.824151 -0.136284 0.549729
v -4.131199 0.187887 -0.047890
vn -0.875533 0.305109 0.374634
v -4.116866 0.187885 -0.026674
vn 0.000000 0.000000 0.000000
v -4.060647 0.300338 -0.003324
vn -0.994198 -0.047084 -0.096709
v -4.107708 0.164374 0.020362
vn 0.930623 0.275186 0.241275
v -4.073152 0.423003 0.137913
vn 0.801552 0.402602 -0.442071
v -4.070662 0.423005 0.114405
vn -0.110194 0.334474 -0.935940
v -4.084210 0.331185 0.067376
vn 0.963062 -0.020043 0.268534
v -4.101647 0.281920 0.161420
vn 0.959955 0.162935 0.227900
v -4.105938 0.140862 0.161386
vn -0.537948 0.753351 0.378251
v -4.083027 0.258425 0.020354
vn 0.760818 0.302528 0.574136
v -4.060747 0.117327 0.112249
vn 0.738823 0.227275 -0.634418
v -4.063375 0.399255 0.114384
vn 0.761627 0.385009 0.521242
v -4.037189 -0.068325 0.184937
vn 0.670427 0.615010 0.415079
v -4.060717 -0.074411 0.231957
vn 0.702692 -0.005147 -0.711475
v -4.672016 0.317206 0.080211
# 451 vertices, 0 vertices normals


usemtl material_0
vt 0.081027 0.161052
vt 0.076035 0.166867
vt 0.082113 0.167236
f 1/1/1 2/2/2 3/3/3
vt 0.079388 0.053955
vt 0.084190 0.052212
vt 0.082651 0.049123
f 4/4/4 5/5/5 6/6/6
vt 0.063232 0.249268
vt 0.076777 0.249268
vt 0.071294 0.245997
f 7/7/7 8/8/8 9/9/9
vt 0.036316 0.489023
vt 0.026307 0.489077
vt 0.026885 0.492811
f 10/10/10 11/11/11 12/12/12
vt 0.074637 0.542106
vt 0.077202 0.537597
vt 0.070900 0.541311
f 13/13/13 14/14/14 15/15/15
vt 0.016234 0.167109
vt 0.012846 0.164705
vt 0.011540 0.167622
f 16/16/16 17/17/17 18/18/18
vt 0.975585 0.673902
vt 0.974306 0.678955
vt 0.977070 0.678583
f 21/19/21 22/20/22 23/21/23
vt 0.503749 0.941725
vt 0.504141 0.957021
vt 0.507759 0.949243
f 26/22/26 27/23/27 28/24/28
vt 0.041517 0.565614
vt 0.037290 0.558064
vt 0.033303 0.565810
f 29/25/29 30/26/30 31/27/31
vt 0.499399 0.652971
vt 0.499658 0.660789
vt 0.492920 0.652261
f 32/28/32 33/29/33 34/30/34
vt 0.078785 0.104097
vt 0.074951 0.104728
vt 0.077297 0.108643
f 35/31/35 36/32/36 37/33/37
vt 0.516622 0.800450
vt 0.521062 0.800761
vt 0.517418 0.796737
f 38/34/38 39/35/39 40/36/40
vt 0.083645 0.007080
vt 0.077784 0.002459
vt 0.074951 0.007080
f 41/37/41 42/38/42 43/39/43
vt 0.081375 0.085205
vt 0.077644 0.082382
vt 0.074951 0.085205
f 45/40/45 46/41/46 47/42/47
vt 0.082149 0.362395
vt 0.078857 0.366455
vt 0.082677 0.366455
f 48/43/48 49/44/49 50/45/50
vt 0.087914 0.354736
vt 0.090682 0.350780
vt 0.086670 0.350068
f 51/46/51 52/47/52 53/48/53
vt 0.092760 0.354736
f 54/49/54 52/47/52 51/46/51
vt 0.078919 0.264892
vt 0.083459 0.260648
vt 0.078857 0.259593
f 55/50/55 52/51/52 54/52/54
vt 0.434143 0.997107
vt 0.435712 0.982774
vt 0.433337 0.978380
f 56/53/56 57/54/57 58/55/58
vt 0.435322 0.993250
f 56/53/56 59/56/59 57/54/57
vt 0.437521 0.897460
vt 0.436670 0.901311
vt 0.437626 0.901292
f 64/57/64 65/58/65 66/59/66
vt 0.518870 0.895398
vt 0.517670 0.887451
vt 0.509831 0.880319
f 76/60/76 43/61/43 72/62/72
vt 0.458812 0.981138
vt 0.524150 0.990951
f 61/63/61 82/64/82 27/23/27
vt 0.492087 0.934359
vt 0.476582 0.927118
f 27/23/27 83/65/83 75/66/75
vt 0.547957 0.827393
vt 0.539723 0.825918
vt 0.508545 0.827393
f 82/67/82 84/68/84 27/69/27
vt 0.520887 0.983362
vt 0.519955 0.964256
f 84/70/84 85/71/85 27/23/27
f 27/23/27 26/22/26 83/65/83
vt 0.503263 0.922608
f 26/22/26 80/72/80 83/65/83
vt 0.523460 0.964186
f 84/70/84 87/73/87 85/71/85
vt 0.512993 0.956782
f 85/71/85 88/74/88 27/23/27
vt 0.828858 0.694028
vt 0.830353 0.697551
vt 0.828858 0.702393
f 82/75/82 89/76/89 84/77/84
vt 0.426247 0.905418
f 79/78/79 66/59/66 65/58/65
vt 0.426177 0.903139
f 65/58/65 90/79/90 79/78/79
vt 0.043701 0.255432
vt 0.054206 0.254830
vt 0.051925 0.268723
f 62/80/62 65/81/65 91/82/91
vt 0.043701 0.269287
f 91/82/91 92/83/92 62/80/62
vt 0.426107 0.900860
f 62/84/62 90/79/90 65/58/65
vt 0.048467 0.272680
f 91/82/91 93/85/93 92/83/92
vt 0.950221 0.696994
vt 0.941860 0.707972
vt 0.960977 0.709127
f 94/86/94 95/87/95 96/88/96
vt 0.957837 0.696776
f 96/88/96 97/89/97 94/86/94
vt 0.973057 0.698305
f 96/88/96 92/90/92 97/89/97
vt 0.980732 0.710205
f 96/88/96 98/91/98 92/90/92
vt 0.986762 0.695981
f 98/91/98 62/92/62 92/90/92
vt 0.065669 0.384855
vt 0.063232 0.389893
vt 0.080279 0.389893
f 98/93/98 63/94/63 62/95/62
vt 0.961709 0.695930
f 92/90/92 99/96/99 97/89/97
vt 0.954150 0.694627
f 97/89/97 100/97/100 94/86/94
vt 0.621826 0.581299
vt 0.630395 0.581299
vt 0.626255 0.579354
f 99/98/99 93/99/93 101/100/101
vt 0.045132 0.280518
f 99/101/99 92/83/92 93/85/93
vt 0.950456 0.689201
f 94/86/94 100/97/100 102/102/102
vt 0.516482 0.815354
vt 0.539015 0.809833
vt 0.508545 0.814206
f 102/103/102 103/104/103 94/105/94
vt 0.624011 0.745442
vt 0.596744 0.729510
vt 0.635114 0.772276
f 103/106/103 104/107/104 105/108/105
vt 0.610449 0.731941
f 103/106/103 106/109/106 104/107/104
vt 0.636304 0.754767
f 105/108/105 107/110/107 103/106/103
vt 0.935183 0.692269
vt 0.934260 0.707540
f 105/111/105 108/112/108 94/86/94
vt 0.930441 0.707316
f 105/111/105 109/113/109 108/112/108
vt 0.607349 0.729212
f 106/109/106 110/114/110 104/107/104
vt 0.931366 0.687147
vt 0.926466 0.706978
f 105/111/105 111/115/111 112/116/112
f 112/116/112 109/113/109 105/111/105
vt 0.063232 0.210205
vt 0.072253 0.210205
vt 0.072014 0.195107
f 96/117/96 113/118/113 114/119/114
vt 0.064316 0.190361
f 114/119/114 98/120/98 96/117/96
vt 0.074951 0.167236
vt 0.081078 0.160613
f 96/121/96 2/2/2 113/122/113
vt 0.071963 0.191086
f 114/119/114 115/123/115 98/120/98
f 2/2/2 1/1/1 113/122/113
vt 0.026418 0.477562
vt 0.026061 0.481452
vt 0.036128 0.481582
f 95/124/95 116/125/116 5/126/5
vt 0.044197 0.476557
f 5/126/5 96/127/96 95/124/95
vt 0.072747 0.007080
vt 0.069892 0.004432
vt 0.063232 0.007080
f 5/128/5 3/129/3 96/130/96
vt 0.063976 0.006073
f 3/129/3 2/131/2 96/130/96
vt 0.022859 0.477397
f 95/124/95 117/132/117 116/125/116
vt 0.021913 0.485392
f 117/132/117 118/133/118 116/125/116
vt 0.817644 0.596977
vt 0.824945 0.588091
vt 0.827466 0.599040
f 112/134/112 119/135/119 120/136/120
vt 0.820550 0.588830
f 112/134/112 121/137/121 119/135/119
vt 0.817139 0.601188
f 120/136/120 109/138/109 112/134/112
vt 0.562310 0.808231
vt 0.555134 0.815239
vt 0.565973 0.808843
f 110/139/110 125/140/125 126/141/126
vt 0.557863 0.806719
f 110/139/110 106/142/106 125/140/125
vt 0.517246 0.820465
vt 0.536890 0.823486
f 102/103/102 127/143/127 128/144/128
f 128/144/128 103/104/103 102/103/102
f 128/144/128 125/140/125 103/104/103
vt 0.570990 0.818812
f 128/144/128 129/145/129 125/140/125
vt 0.074951 0.210205
vt 0.084520 0.210205
vt 0.080520 0.191044
f 127/146/127 130/147/130 128/148/128
f 125/140/125 106/142/106 103/104/103
vt 0.581496 0.810310
f 129/145/129 131/149/131 125/140/125
vt 0.577441 0.721872
vt 0.628882 0.771934
f 104/107/104 132/150/132 111/151/111
f 111/151/111 105/108/105 104/107/104
vt 0.577598 0.716228
f 104/107/104 133/152/133 132/150/132
vt 0.044266 0.197684
vt 0.055714 0.195017
vt 0.053992 0.191809
f 134/153/134 135/154/135 136/155/136
vt 0.044677 0.190734
f 136/155/136 101/156/101 134/153/134
vt 0.049305 0.184220
f 136/155/136 97/157/97 101/156/101
vt 0.046394 0.186487
f 97/157/97 99/158/99 101/156/101
vt 0.511325 0.816540
f 127/143/127 102/103/102 100/159/100
vt 0.053188 0.182866
vt 0.059954 0.189399
f 100/160/100 136/155/136 127/161/127
f 100/160/100 97/157/97 136/155/136
vt 0.602226 0.767501
f 137/162/137 111/151/111 132/150/132
vt 0.617262 0.782207
vt 0.630590 0.784424
f 138/163/138 139/164/139 111/151/111
vt 0.914795 0.706139
f 140/165/140 112/116/112 111/115/111
vt 0.918420 0.710205
f 140/165/140 121/166/121 112/116/112
vt 0.041592 0.193579
vt 0.039795 0.198486
f 134/153/134 93/167/93 91/168/91
f 134/153/134 101/156/101 93/167/93
vt 0.071886 0.185071
vt 0.064239 0.185118
f 98/120/98 141/169/141 63/170/63
f 98/120/98 115/123/115 141/169/141
vt 0.013107 0.485359
vt 0.012667 0.489608
f 118/133/118 120/171/120 142/172/142
f 118/133/118 117/132/117 120/171/120
vt 0.597130 0.670839
vt 0.571907 0.694796
vt 0.605283 0.671955
f 67/173/67 143/174/143 59/175/59
vt 0.570824 0.693556
f 67/173/67 68/176/68 143/174/143
vt 0.602595 0.669216
f 59/175/59 56/177/56 67/173/67
vt 0.565469 0.698960
f 143/174/143 68/176/68 69/178/69
vt 0.566547 0.700208
f 69/178/69 144/179/144 143/174/143
vt 0.573333 0.717469
vt 0.586704 0.703889
f 146/180/146 147/181/147 144/179/144
f 147/181/147 143/174/143 144/179/144
vt 0.602757 0.679957
f 147/181/147 148/182/148 143/174/143
f 148/182/148 59/175/59 143/174/143
f 146/180/146 133/152/133 147/181/147
f 133/152/133 104/107/104 147/181/147
vt 0.604768 0.726835
f 104/107/104 126/183/126 147/181/147
f 104/107/104 110/114/110 126/183/126
vt 0.612777 0.679262
f 148/182/148 57/184/57 59/175/59
vt 0.593599 0.700096
vt 0.599323 0.690069
f 147/181/147 150/185/150 151/186/151
vt 0.660159 0.588317
vt 0.668005 0.580824
vt 0.641357 0.589111
f 151/187/151 148/188/148 147/189/147
vt 0.671204 0.585775
f 151/187/151 152/190/152 148/188/148
vt 0.590885 0.702843
f 147/181/147 153/191/153 150/185/150
vt 0.593551 0.705601
f 153/191/153 154/192/154 150/185/150
vt 0.616317 0.731528
vt 0.596489 0.713472
f 126/183/126 125/193/125 131/194/131
f 131/194/131 147/181/147 126/183/126
f 131/194/131 153/191/153 147/181/147
vt 0.574933 0.724794
f 132/150/132 146/180/146 155/195/155
f 132/150/132 133/152/133 146/180/146
vt 0.540651 0.749485
vt 0.558699 0.740771
f 146/180/146 8/196/8 156/197/156
vt 0.531883 0.756942
f 146/180/146 145/198/145 8/196/8
vt 0.569902 0.730658
f 156/197/156 157/199/157 146/180/146
vt 0.553291 0.746243
f 8/196/8 7/200/7 156/197/156
vt 0.569236 0.735630
f 156/197/156 158/201/158 157/199/157
f 157/199/157 155/195/155 146/180/146
vt 0.542570 0.751633
f 145/198/145 159/202/159 8/196/8
vt 0.676735 0.583293
vt 0.675931 0.587906
f 57/203/57 152/190/152 160/204/160
f 57/203/57 148/188/148 152/190/152
vt 0.679186 0.589111
f 160/204/160 60/205/60 57/203/57
vt 0.439593 0.977784
f 60/206/60 58/55/58 57/54/57
vt 0.583368 0.823486
vt 0.586652 0.819838
f 131/149/131 161/207/161 162/208/162
f 131/149/131 129/145/129 161/207/161
vt 0.641357 0.659242
vt 0.643571 0.659312
vt 0.646697 0.646637
f 129/209/129 163/210/163 161/211/161
vt 0.589659 0.814060
f 162/208/162 154/212/154 131/149/131
vt 0.593324 0.812803
f 154/212/154 153/213/153 131/149/131
vt 0.789350 0.702392
vt 0.824285 0.699091
vt 0.822545 0.696864
f 137/214/137 164/215/164 165/216/165
vt 0.574742 0.746382
f 137/162/137 157/199/157 164/217/164
f 157/199/157 158/201/158 164/217/164
vt 0.818029 0.692742
vt 0.763336 0.697408
f 137/214/137 166/218/166 167/219/167
f 137/214/137 165/216/165 166/218/166
vt 0.747348 0.702393
f 167/219/167 140/220/140 137/214/137
vt 0.747668 0.699624
f 167/219/167 168/221/168 140/220/140
vt 0.976854 0.870611
vt 0.977077 0.856760
vt 0.988300 0.865862
f 91/222/91 64/223/64 114/224/114
vt 0.973389 0.857079
f 91/222/91 65/225/65 64/223/64
vt 0.978586 0.874211
f 114/224/114 169/226/169 91/222/91
vt 0.990667 0.880984
f 114/224/114 113/227/113 169/226/169
vt 0.987009 0.885034
f 113/227/113 170/228/170 169/226/169
vt 0.068858 0.077393
vt 0.065451 0.074198
vt 0.063232 0.077393
f 4/229/4 3/230/3 5/231/5
vt 0.071754 0.074724
f 4/229/4 1/232/1 3/230/3
vt 0.991087 0.884855
vt 0.991054 0.880973
f 4/233/4 113/227/113 1/234/1
f 4/233/4 170/228/170 113/227/113
vt 0.047261 0.488759
vt 0.052293 0.490177
vt 0.055757 0.486063
f 171/235/171 172/236/172 169/237/169
vt 0.042278 0.486591
f 169/237/169 170/238/170 171/235/171
vt 0.037380 0.489025
f 170/238/170 173/239/173 171/235/171
vt 0.074951 0.053955
vt 0.076959 0.048504
f 170/240/170 4/4/4 173/241/173
f 4/4/4 6/6/6 173/241/173
f 116/125/116 11/11/11 10/10/10
f 10/10/10 5/126/5 116/125/116
vt 0.083239 0.116455
vt 0.077985 0.113730
vt 0.074951 0.116455
f 10/242/10 6/243/6 5/244/5
vt 0.639463 0.581299
vt 0.639248 0.580179
vt 0.633545 0.581299
f 10/245/10 173/246/173 6/247/6
vt 0.012698 0.562458
vt 0.026144 0.565803
f 174/248/174 175/249/175 12/12/12
f 12/12/12 142/172/142 174/248/174
f 12/12/12 118/133/118 142/172/142
vt 0.017642 0.573712
f 174/248/174 176/250/176 175/249/175
f 12/12/12 11/11/11 118/133/118
f 11/11/11 116/125/116 118/133/118
vt 0.818410 0.582420
vt 0.817139 0.585152
f 168/251/168 121/137/121 140/252/140
vt 0.825968 0.587789
f 168/251/168 177/253/177 121/137/121
f 177/253/177 119/135/119 121/137/121
vt 0.002509 0.520166
f 178/254/178 174/248/174 142/172/142
vt 0.009061 0.562468
f 178/254/178 179/255/179 174/248/174
vt 0.002203 0.485712
f 142/172/142 177/256/177 178/254/178
f 142/172/142 120/171/120 177/256/177
vt 0.002408 0.484664
f 120/171/120 119/257/119 177/256/177
vt 0.512746 0.770910
vt 0.521016 0.773409
vt 0.521151 0.767766
f 180/258/180 181/259/181 149/260/149
vt 0.679955 0.827393
vt 0.657013 0.826358
vt 0.656982 0.827393
f 20/261/20 24/262/24 182/263/182
vt 0.910570 0.997930
vt 0.983288 0.999268
vt 0.956456 0.996074
f 183/264/183 122/265/122 20/266/20
vt 0.983235 0.995697
f 122/265/122 124/267/124 20/266/20
vt 0.668495 0.826484
f 20/261/20 21/268/21 24/262/24
vt 0.039795 0.120361
vt 0.051952 0.120361
vt 0.048082 0.117655
f 151/269/151 150/270/150 14/271/14
vt 0.042659 0.113602
f 14/271/14 13/272/13 151/269/151
vt 0.051428 0.117122
f 150/270/150 184/273/184 14/271/14
vt 0.545216 0.754416
vt 0.545118 0.749081
f 159/202/159 185/274/185 9/275/9
f 9/275/9 8/196/8 159/202/159
vt 0.558011 0.761780
f 145/198/145 186/276/186 185/274/185
vt 0.523764 0.781518
f 145/198/145 187/277/187 186/276/186
f 145/198/145 149/260/149 187/277/187
vt 0.558760 0.757031
f 186/276/186 188/278/188 185/274/185
vt 0.996826 0.899080
vt 0.998957 0.905036
vt 0.996826 0.913330
f 149/279/149 181/280/181 187/281/187
f 185/274/185 159/202/159 145/198/145
vt 0.512810 0.776279
f 181/259/181 189/282/189 187/277/187
f 181/259/181 180/258/180 189/282/189
vt 0.594303 0.819752
f 154/212/154 162/208/162 190/283/190
vt 0.050482 0.113923
vt 0.056291 0.116986
f 190/284/190 184/273/184 154/285/154
f 184/273/184 150/270/150 154/285/154
vt 0.569570 0.751559
vt 0.573101 0.748016
f 156/197/156 191/286/191 192/287/192
f 192/287/192 158/201/158 156/197/156
f 192/287/192 164/217/164 158/201/158
f 188/278/188 156/197/156 7/200/7
f 188/278/188 191/286/191 156/197/156
f 7/200/7 185/274/185 188/278/188
f 7/200/7 9/275/9 185/274/185
vt 0.832764 0.657926
vt 0.834173 0.642808
vt 0.837398 0.662447
f 191/288/191 186/289/186 193/290/193
f 191/286/191 188/278/188 186/276/186
vt 0.574735 0.751852
f 193/291/193 192/287/192 191/286/191
vt 0.973389 0.874721
vt 0.975248 0.883959
vt 0.973517 0.885986
f 134/292/134 194/293/194 135/294/135
vt 0.978401 0.877820
f 134/292/134 172/295/172 194/293/194
f 134/292/134 169/226/169 172/295/172
vt 0.978326 0.879631
f 172/295/172 195/296/195 194/293/194
f 134/292/134 91/222/91 169/226/169
vt 0.764290 0.627845
vt 0.817621 0.685029
vt 0.813844 0.627267
f 196/297/196 197/298/197 198/299/198
f 196/297/196 167/219/167 197/298/197
f 167/219/167 166/218/166 197/298/197
vt 0.813946 0.624876
f 198/299/198 199/300/199 196/297/196
vt 0.749070 0.623006
f 168/221/168 196/297/196 200/301/200
f 168/221/168 167/219/167 196/297/196
vt 0.760611 0.623764
f 196/297/196 201/302/201 200/301/200
vt 0.743638 0.622660
vt 0.739896 0.664615
f 200/301/200 202/303/202 178/304/178
f 178/304/178 168/221/168 200/301/200
vt 0.739014 0.699070
f 178/304/178 177/305/177 168/221/168
vt 0.749287 0.615358
f 200/301/200 34/306/34 202/303/202
vt 0.495679 0.660211
f 34/30/34 33/29/33 202/307/202
vt 0.753343 0.615615
f 200/301/200 203/308/203 34/306/34
vt 0.520955 0.784424
f 204/309/204 187/277/187 189/282/189
vt 0.968544 0.837027
vt 0.962538 0.838773
vt 0.967710 0.847889
f 189/310/189 205/311/205 204/312/204
vt 0.506094 0.781101
vt 0.511873 0.782784
f 189/282/189 123/313/123 205/314/205
vt 0.078937 0.546143
vt 0.073914 0.544128
vt 0.063232 0.546143
f 151/315/151 206/316/206 207/317/207
vt 0.919136 0.802692
vt 0.921482 0.822340
vt 0.931198 0.812440
f 207/318/207 208/319/208 151/320/151
vt 0.929652 0.823486
f 208/319/208 152/321/152 151/320/151
vt 0.466785 0.992447
f 209/322/209 82/64/82 61/63/61
vt 0.516612 0.994994
f 209/322/209 210/323/210 82/64/82
vt 0.439681 0.980691
f 61/63/61 160/324/160 209/322/209
f 61/63/61 60/206/60 160/324/160
vt 0.524240 0.993939
f 210/323/210 211/325/211 82/64/82
vt 0.909350 0.820484
vt 0.901593 0.823486
f 208/319/208 212/326/212 209/327/209
vt 0.447561 0.988542
f 209/322/209 160/324/160 208/328/208
vt 0.439828 0.985521
f 160/324/160 152/329/152 208/328/208
vt 0.901175 0.819577
f 212/326/212 213/330/213 209/327/209
f 206/316/206 13/13/13 15/15/15
f 206/316/206 151/315/151 13/13/13
f 207/317/207 206/316/206 15/15/15
vt 0.065827 0.535138
f 15/15/15 214/331/214 207/317/207
vt 0.071688 0.535284
f 15/15/15 190/332/190 214/331/214
f 15/15/15 14/14/14 190/332/190
vt 0.075238 0.534618
f 14/14/14 184/333/184 190/332/190
vt 0.066434 0.531776
f 190/332/190 215/334/215 214/331/214
vt 0.909216 0.593808
vt 0.905887 0.599152
vt 0.845643 0.599977
f 216/335/216 217/336/217 218/337/218
vt 0.956755 0.850830
vt 0.893047 0.845404
f 218/338/218 205/311/205 216/339/216
f 218/338/218 204/312/204 205/311/205
vt 0.917308 0.598697
f 216/335/216 219/340/219 217/336/217
vt 0.844820 0.608209
vt 0.845904 0.639817
f 186/289/186 220/341/220 221/342/221
vt 0.832764 0.603162
f 186/289/186 187/343/187 220/341/220
vt 0.838692 0.662622
f 221/342/221 222/344/222 186/289/186
f 222/344/222 193/290/193 186/289/186
f 187/343/187 218/337/218 220/341/220
vt 0.834629 0.599349
f 187/343/187 204/345/204 218/337/218
vt 0.073264 0.066568
vt 0.069339 0.069580
vt 0.072154 0.069380
f 192/346/192 165/347/165 164/348/164
vt 0.068651 0.065150
f 192/346/192 193/349/193 165/347/165
vt 0.067190 0.065328
f 193/349/193 222/350/222 165/347/165
vt 0.063232 0.069580
f 222/350/222 166/351/166 165/347/165
vt 0.050736 0.499720
vt 0.050557 0.492083
f 171/235/171 223/352/223 195/353/195
f 195/353/195 172/236/172 171/235/171
vt 0.050516 0.549613
vt 0.044476 0.519320
f 30/26/30 224/354/224 225/355/225
f 225/355/225 173/239/173 30/26/30
vt 0.045620 0.499972
f 225/355/225 226/356/226 173/239/173
vt 0.049949 0.526705
f 224/354/224 227/357/227 225/355/225
vt 0.086670 0.577393
vt 0.089653 0.569382
vt 0.088846 0.558104
f 225/358/225 228/359/228 226/360/226
vt 0.052644 0.564889
f 30/26/30 229/361/229 224/354/224
f 226/356/226 171/235/171 173/239/173
vt 0.091986 0.577393
f 225/358/225 230/362/230 228/359/228
f 30/26/30 12/12/12 175/249/175
f 30/26/30 173/239/173 12/12/12
f 175/249/175 31/27/31 30/26/30
f 173/239/173 10/10/10 12/12/12
vt 0.589853 0.803955
vt 0.521216 0.796871
f 123/363/123 183/364/183 39/35/39
vt 0.593875 0.800355
f 123/363/123 122/365/122 183/364/183
f 183/364/183 40/36/40 39/35/39
vt 0.074771 0.529556
vt 0.069175 0.531194
f 190/332/190 162/366/162 231/367/231
f 231/367/231 215/334/215 190/332/190
vt 0.071332 0.528927
f 162/366/162 232/368/232 231/367/231
vt 0.074112 0.528028
f 162/366/162 161/369/161 232/368/232
vt 0.861865 0.662694
vt 0.850439 0.665936
f 222/344/222 233/370/233 197/371/197
vt 0.842728 0.666787
f 197/371/197 166/372/166 222/344/222
vt 0.892359 0.650974
vt 0.892608 0.662358
f 233/370/233 234/373/234 235/374/235
f 233/370/233 221/342/221 234/373/234
f 233/370/233 222/344/222 221/342/221
vt 0.897998 0.807448
f 212/326/212 207/318/207 236/375/236
f 212/326/212 208/319/208 207/318/207
vt 0.893290 0.814565
f 236/375/236 237/376/237 212/326/212
vt 0.020856 0.166603
vt 0.007397 0.175049
vt 0.029274 0.175049
f 238/377/238 236/378/236 207/379/207
vt 0.028340 0.169067
f 207/379/207 239/380/239 238/377/238
vt 0.037770 0.167793
f 207/379/207 214/381/214 239/380/239
vt 0.030171 0.165584
f 214/381/214 240/382/240 239/380/239
vt 0.008194 0.165816
f 18/18/18 241/383/241 236/378/236
vt 0.000732 0.171364
f 241/383/241 242/384/242 236/378/236
vt 0.894146 0.828705
f 39/385/39 216/339/216 205/311/205
vt 0.962897 0.832851
f 205/311/205 123/386/123 39/385/39
vt 0.885944 0.837321
f 39/385/39 243/387/243 216/339/216
vt 0.886169 0.833650
f 39/385/39 244/388/244 243/387/243
vt 0.889933 0.825913
f 39/385/39 38/389/38 244/388/244
vt 0.035482 0.163617
vt 0.031450 0.162703
f 240/382/240 245/390/245 246/391/246
f 240/382/240 214/381/214 245/390/245
vt 0.649271 0.638691
vt 0.647216 0.643842
vt 0.649622 0.642086
f 247/392/247 232/393/232 248/394/248
vt 0.646939 0.640274
f 247/392/247 231/395/231 232/393/232
vt 0.649888 0.635965
f 247/392/247 245/396/245 231/395/231
vt 0.906230 0.603759
f 220/341/220 249/397/249 234/373/234
f 234/373/234 221/342/221 220/341/220
vt 0.902967 0.623279
f 249/397/249 250/398/250 234/373/234
vt 0.907352 0.639038
f 250/398/250 251/399/251 234/373/234
f 249/397/249 218/337/218 217/336/217
f 249/397/249 220/341/220 218/337/218
vt 0.029216 0.162655
vt 0.023467 0.160770
f 252/400/252 253/401/253 238/377/238
f 238/377/238 239/380/239 252/400/252
f 197/371/197 233/370/233 235/374/235
vt 0.908256 0.665328
f 235/374/235 198/402/198 197/371/197
vt 0.817401 0.642826
vt 0.819426 0.623787
f 235/403/235 254/404/254 198/299/198
vt 0.881752 0.817508
f 213/330/213 237/376/237 255/405/255
f 213/330/213 212/326/212 237/376/237
vt 0.852830 0.820037
vt 0.863396 0.816296
f 210/406/210 255/405/255 256/407/256
vt 0.486121 0.999268
f 210/323/210 209/322/209 255/408/255
f 209/327/209 213/330/213 255/405/255
vt 0.852295 0.815497
f 256/407/256 257/409/257 210/406/210
vt 0.890687 0.806989
vt 0.879139 0.809923
f 242/410/242 258/411/258 255/405/255
f 255/405/255 237/376/237 242/410/242
f 237/376/237 236/375/236 242/410/242
f 258/411/258 256/407/256 255/405/255
vt 0.492920 0.702393
vt 0.503039 0.669091
f 178/412/178 202/307/202 259/413/259
vt 0.005639 0.554770
f 259/414/259 179/255/179 178/254/178
vt 0.002360 0.566217
f 259/414/259 260/415/260 179/255/179
vt 0.933491 0.996285
vt 0.944966 0.996101
vt 0.942176 0.992663
f 24/416/24 21/417/21 23/418/23
vt 0.929633 0.992610
f 183/264/183 24/416/24 25/419/25
vt 0.910442 0.988757
vt 0.906675 0.992881
f 37/420/37 36/421/36 183/264/183
vt 0.906756 0.999268
f 36/421/36 40/422/40 183/264/183
vt 0.921192 0.602390
vt 0.921868 0.629220
f 250/398/250 261/423/261 262/424/262
f 250/398/250 249/397/249 261/423/261
f 249/397/249 219/340/219 261/423/261
f 249/397/249 217/336/217 219/340/219
vt 0.911602 0.661496
vt 0.919062 0.653641
f 254/425/254 251/399/251 263/426/263
f 254/425/254 234/373/234 251/399/251
f 254/425/254 235/374/235 234/373/234
vt 0.919297 0.660593
f 263/426/263 49/427/49 254/425/254
vt 0.915555 0.665333
f 49/427/49 264/428/264 254/425/254
vt 0.924326 0.656716
f 263/426/263 265/429/265 49/427/49
vt 0.922808 0.659091
f 265/429/265 50/430/50 49/427/49
vt 0.814133 0.619622
vt 0.783825 0.611864
f 199/300/199 266/431/266 267/432/267
f 267/432/267 196/297/196 199/300/199
vt 0.772217 0.616854
f 267/432/267 268/433/268 196/297/196
vt 0.761045 0.616131
f 268/433/268 269/434/269 196/297/196
f 269/434/269 201/302/201 196/297/196
vt 0.514002 0.952944
f 28/24/28 88/74/88 270/435/270
f 28/24/28 27/23/27 88/74/88
vt 0.063232 0.030518
vt 0.070306 0.030518
vt 0.069779 0.026093
f 270/436/270 271/437/271 28/438/28
f 259/413/259 202/307/202 33/29/33
vt 0.501676 0.657182
f 33/29/33 260/439/260 259/413/259
f 33/29/33 32/28/32 260/439/260
vt 0.000732 0.569929
vt 0.002821 0.569966
f 32/440/32 272/441/272 260/415/260
f 262/424/262 263/426/263 251/399/251
f 251/399/251 250/398/250 262/424/262
vt 0.041355 0.567100
f 229/361/229 29/25/29 273/442/273
vt 0.057702 0.568990
f 273/442/273 274/443/274 229/361/229
f 229/361/229 30/26/30 29/25/29
vt 0.055638 0.557000
f 274/443/274 275/444/275 229/361/229
f 201/302/201 269/434/269 203/308/203
f 203/308/203 200/301/200 201/302/201
vt 0.387451 0.581299
vt 0.398050 0.581299
vt 0.392870 0.579703
f 72/445/72 43/446/43 42/447/42
vt 0.068391 0.358643
vt 0.063475 0.347835
vt 0.063232 0.358643
f 42/448/42 70/449/70 72/450/72
vt 0.086670 0.487549
vt 0.092898 0.487549
vt 0.090922 0.482399
f 199/451/199 254/452/254 264/453/264
vt 0.818278 0.619889
f 264/454/264 266/431/266 199/300/199
f 199/300/199 198/299/198 254/404/254
vt 0.818082 0.616048
f 264/454/264 276/455/276 266/431/266
vt 0.919197 0.664695
vt 0.919416 0.667236
f 264/428/264 277/456/277 276/457/276
vt 0.998173 0.764754
vt 0.988674 0.752792
vt 0.994678 0.768160
f 269/458/269 278/459/278 279/460/279
vt 0.995653 0.753407
f 269/458/269 268/461/268 278/459/278
vt 0.757243 0.612036
f 279/462/279 203/308/203 269/434/269
vt 0.061554 0.577393
vt 0.061423 0.571843
f 176/250/176 280/463/280 281/464/281
vt 0.014930 0.577392
f 176/250/176 282/465/282 280/463/280
vt 0.010201 0.573856
f 176/250/176 283/466/283 282/465/282
f 176/250/176 174/248/174 283/466/283
f 174/248/174 179/255/179 283/466/283
f 179/255/179 260/415/260 283/466/283
f 260/415/260 272/441/272 283/466/283
vt 0.885072 0.850830
vt 0.885908 0.837899
vt 0.879639 0.842251
f 219/467/219 47/468/47 284/469/284
f 219/467/219 216/339/216 47/468/47
f 216/339/216 243/387/243 47/468/47
vt 0.649437 0.752017
vt 0.653371 0.744404
vt 0.649154 0.742193
f 284/470/284 285/471/285 219/472/219
vt 0.882088 0.837902
f 47/468/47 46/473/46 284/469/284
vt 0.653308 0.742837
f 285/471/285 261/474/261 219/472/219
vt 0.075172 0.440311
vt 0.071091 0.442547
vt 0.075400 0.444580
f 286/475/286 287/476/287 274/477/274
vt 0.071392 0.440108
f 286/475/286 288/478/288 287/476/287
vt 0.079041 0.444177
f 274/477/274 289/479/289 286/475/286
vt 0.019585 0.179913
vt 0.023930 0.195040
vt 0.023802 0.180839
f 274/480/274 290/481/290 291/482/291
vt 0.008410 0.195716
f 274/480/274 273/483/273 290/481/290
vt 0.022433 0.179757
f 291/482/291 289/484/289 274/480/274
vt 0.070584 0.353416
vt 0.069510 0.349233
f 292/485/292 281/486/281 70/449/70
f 70/449/70 42/448/42 292/485/292
vt 0.067719 0.342344
f 281/486/281 71/487/71 70/449/70
vt 0.072579 0.345243
f 281/486/281 280/488/280 71/487/71
vt 0.074694 0.356252
f 42/448/42 41/489/41 292/485/292
vt 0.000732 0.198486
vt 0.031847 0.198486
f 31/490/31 281/491/281 290/481/290
f 31/27/31 176/250/176 281/464/281
f 290/481/290 273/483/273 31/490/31
f 31/27/31 175/249/175 176/250/176
vt 0.031104 0.194920
f 281/491/281 292/492/292 290/481/290
f 273/442/273 29/25/29 31/27/31
vt 0.084951 0.218018
vt 0.084718 0.212613
vt 0.081323 0.215153
f 44/493/44 36/494/36 35/495/35
vt 0.902801 0.989048
vt 0.891950 0.993291
f 44/496/44 293/497/293 40/422/40
f 40/422/40 36/421/36 44/496/44
vt 0.083514 0.182861
vt 0.079561 0.175890
vt 0.077270 0.179178
f 38/498/38 294/499/294 295/500/295
vt 0.074951 0.182861
f 295/500/295 244/501/244 38/498/38
vt 0.063232 0.421143
vt 0.079258 0.421143
vt 0.072157 0.417152
f 40/502/40 293/503/293 296/504/296
vt 0.508545 0.800073
f 296/505/296 38/34/38 40/36/40
vt 0.509373 0.803955
f 296/505/296 294/506/294 38/34/38
vt 0.710542 0.732516
vt 0.710703 0.737053
vt 0.714506 0.737037
f 49/507/49 48/508/48 297/509/297
vt 0.714376 0.730968
f 297/509/297 277/510/277 49/507/49
f 277/456/277 264/428/264 49/427/49
vt 0.715129 0.724178
vt 0.716460 0.728777
vt 0.722313 0.729634
f 266/511/266 276/512/276 298/513/298
vt 0.817806 0.612400
f 298/514/298 267/432/267 266/431/266
vt 0.988994 0.749163
f 268/461/268 55/515/55 278/459/278
vt 0.992610 0.741374
f 268/461/268 267/516/267 55/515/55
vt 0.719155 0.695665
vt 0.727002 0.692260
vt 0.723117 0.688033
f 267/517/267 53/518/53 55/519/55
vt 0.084408 0.264892
f 53/520/53 52/51/52 55/50/55
vt 0.014647 0.111788
vt 0.013011 0.107382
vt 0.011964 0.112831
f 299/521/299 286/522/286 289/523/289
vt 0.521812 0.899630
vt 0.525545 0.895257
vt 0.521711 0.895342
f 77/524/77 300/525/300 301/526/301
vt 0.074951 0.124268
vt 0.084022 0.124268
vt 0.081044 0.121663
f 77/527/77 302/528/302 300/529/300
vt 0.529365 0.895148
vt 0.529264 0.891332
f 302/530/302 303/531/303 300/525/300
f 301/526/301 76/60/76 77/524/77
vt 0.033661 0.179224
vt 0.027737 0.191194
vt 0.035510 0.187520
f 301/532/301 41/533/41 43/534/43
f 301/532/301 291/482/291 41/533/41
f 291/482/291 290/481/290 41/533/41
f 43/61/43 76/60/76 301/526/301
f 290/481/290 292/492/292 41/533/41
vt 0.981590 0.783630
vt 0.989869 0.784424
vt 0.994670 0.776254
f 283/535/283 272/536/272 34/537/34
f 34/537/34 279/460/279 283/535/283
vt 0.992259 0.783876
f 272/536/272 32/538/32 34/537/34
vt 0.997438 0.772398
f 34/537/34 203/539/203 279/460/279
vt 0.652811 0.775471
vt 0.664565 0.771777
vt 0.649102 0.758992
f 305/540/305 306/541/306 45/542/45
vt 0.645035 0.762185
f 45/542/45 295/543/295 305/540/305
vt 0.643403 0.758090
f 45/542/45 244/544/244 295/543/295
vt 0.645114 0.766029
vt 0.641357 0.766624
f 305/540/305 294/545/294 296/546/296
f 305/540/305 295/543/295 294/545/294
vt 0.680105 0.739436
f 285/471/285 262/547/262 261/474/261
vt 0.687841 0.741023
f 285/471/285 307/548/307 262/547/262
vt 0.702931 0.730704
f 307/548/307 263/549/263 262/547/262
vt 0.703120 0.734930
f 307/548/307 308/550/308 263/549/263
vt 0.707087 0.733645
f 308/550/308 265/551/265 263/549/263
vt 0.718295 0.740981
vt 0.699285 0.757160
vt 0.733505 0.760996
f 309/552/309 310/553/310 311/554/311
f 309/552/309 308/550/308 310/553/310
vt 0.733629 0.745353
f 311/554/311 312/555/312 309/552/309
f 308/550/308 307/548/307 310/553/310
f 309/552/309 48/508/48 308/550/308
f 309/552/309 297/509/297 48/508/48
f 298/513/298 276/512/276 297/509/297
f 297/509/297 309/552/309 298/513/298
f 276/512/276 277/510/277 297/509/297
vt 0.977102 0.771878
vt 0.984909 0.752861
f 313/556/313 279/460/279 54/557/54
vt 0.973350 0.756727
f 54/557/54 314/558/314 313/556/313
vt 0.981098 0.749096
f 54/557/54 51/559/51 314/558/314
vt 0.977202 0.741477
f 51/559/51 315/560/315 314/558/314
vt 0.730893 0.688525
vt 0.734588 0.696205
f 51/561/51 53/518/53 315/562/315
f 53/518/53 267/517/267 315/562/315
vt 0.728802 0.711079
f 267/517/267 316/563/316 315/562/315
f 267/517/267 298/513/298 316/563/316
vt 0.730264 0.718648
f 298/513/298 317/564/317 316/563/316
f 298/513/298 312/555/312 317/564/317
f 298/513/298 309/552/309 312/555/312
f 279/460/279 278/459/278 54/557/54
f 313/556/313 283/535/283 279/460/279
vt 0.969274 0.771849
f 314/558/314 318/565/318 313/556/313
f 278/459/278 55/515/55 54/557/54
vt 0.961752 0.749150
f 315/560/315 319/566/319 314/558/314
vt 0.964949 0.741142
f 315/560/315 320/567/320 319/566/319
vt 0.961873 0.756835
f 319/566/319 321/568/321 314/558/314
vt 0.961604 0.745259
f 320/567/320 322/569/322 319/566/319
vt 0.066189 0.280699
vt 0.073761 0.284424
vt 0.074322 0.276838
f 323/570/323 321/571/321 319/572/319
vt 0.070012 0.275612
f 319/572/319 324/573/324 323/570/323
vt 0.068502 0.284424
f 323/570/323 325/574/325 321/571/321
vt 0.063232 0.276372
f 324/573/324 326/575/326 323/570/323
vt 0.014171 0.117287
vt 0.001671 0.120362
vt 0.029225 0.120362
f 327/576/327 303/577/303 328/578/328
vt 0.018456 0.112060
f 328/578/328 329/579/329 327/576/327
vt 0.029665 0.115378
f 328/578/328 330/580/330 329/579/329
vt 0.002038 0.115027
f 327/576/327 300/581/300 303/577/303
f 329/579/329 299/521/299 327/576/327
vt 0.033855 0.113332
vt 0.037599 0.116529
f 325/582/325 328/578/328 321/583/321
f 325/582/325 330/580/330 328/578/328
vt 0.010520 0.113391
f 291/584/291 300/581/300 327/576/327
vt 0.000732 0.111845
f 291/584/291 301/585/301 300/581/300
vt 0.972338 0.775184
vt 0.977070 0.780381
f 313/556/313 331/586/331 282/587/282
f 282/587/282 283/535/283 313/556/313
vt 0.950040 0.775773
f 282/587/282 331/586/331 332/588/332
vt 0.928389 0.780536
f 332/588/332 280/589/280 282/587/282
vt 0.927767 0.776370
f 332/588/332 333/590/333 280/589/280
vt 0.664846 0.760631
f 45/542/45 334/591/334 284/470/284
f 45/542/45 306/541/306 334/591/334
vt 0.646507 0.755243
f 284/470/284 46/592/46 45/542/45
f 307/548/307 285/471/285 334/591/334
f 334/591/334 310/553/310 307/548/307
f 285/471/285 284/470/284 334/591/334
vt 0.709370 0.733303
f 48/508/48 50/593/50 265/551/265
f 265/551/265 308/550/308 48/508/48
vt 0.926810 0.764908
vt 0.927492 0.768602
f 303/594/303 304/595/304 332/588/332
vt 0.954387 0.764611
f 332/588/332 328/596/328 303/594/303
f 304/595/304 333/590/333 332/588/332
f 332/588/332 318/565/318 328/596/328
f 318/565/318 321/568/321 328/596/328
f 318/565/318 314/558/314 321/568/321
vt 0.924064 0.784424
f 71/597/71 280/589/280 333/590/333
vt 0.071060 0.132080
vt 0.067991 0.126515
vt 0.063232 0.132080
f 318/598/318 331/599/331 313/600/313
f 318/565/318 332/588/332 331/586/331
vt 0.733290 0.784424
vt 0.737119 0.772439
vt 0.733234 0.772188
f 337/601/337 338/602/338 335/603/335
vt 0.702636 0.779801
f 336/604/336 310/553/310 306/541/306
f 310/553/310 334/591/334 306/541/306
f 336/604/336 311/554/311 310/553/310
f 336/604/336 335/603/335 311/554/311
vt 0.645469 0.754378
vt 0.645187 0.754883
f 45/542/45 47/605/47 243/606/243
f 45/542/45 243/606/243 244/544/244
vt 0.938073 0.707763
f 94/86/94 108/112/108 117/607/117
f 94/86/94 117/607/117 95/87/95
f 238/377/238 16/16/16 236/378/236
f 16/16/16 18/18/18 236/378/236
vt 0.989721 0.861876
vt 0.991848 0.855913
f 115/608/115 64/223/64 141/609/141
f 114/224/114 64/223/64 115/608/115
f 132/150/132 155/195/155 137/162/137
f 155/195/155 157/199/157 137/162/137
vt 0.818470 0.608643
vt 0.817805 0.604918
f 120/136/120 117/610/117 108/611/108
f 120/136/120 108/611/108 109/138/109
f 299/521/299 289/523/289 327/576/327
f 289/523/289 291/584/291 327/576/327
vt 0.933513 0.997002
f 182/612/182 24/416/24 183/264/183
f 137/162/137 138/163/138 111/151/111
vt 0.949167 0.681555
f 105/111/105 94/86/94 107/613/107
vt 0.039795 0.135986
vt 0.060885 0.135986
vt 0.050938 0.128238
f 138/614/138 140/615/140 139/616/139
f 161/211/161 248/394/248 232/393/232
vt 0.882263 0.678847
vt 0.880698 0.675326
vt 0.877114 0.677141
f 339/617/339 223/618/223 340/619/340
vt 0.660589 0.626528
vt 0.656099 0.623700
vt 0.656805 0.630489
f 341/620/341 238/621/238 253/622/253
vt 0.860093 0.685616
vt 0.868542 0.677102
vt 0.861899 0.680457
f 342/623/342 228/624/228 230/625/230
vt 0.680583 0.652356
vt 0.676546 0.652995
vt 0.676763 0.662602
f 343/626/343 344/627/344 345/628/345
vt 0.072086 0.022705
vt 0.067637 0.019129
vt 0.063232 0.022705
f 342/629/342 230/630/230 225/631/225
vt 0.859994 0.677136
vt 0.855056 0.683857
f 225/632/225 227/633/227 342/623/342
vt 0.039795 0.227793
vt 0.046044 0.238220
vt 0.039795 0.251278
f 73/634/73 346/635/346 74/636/74
vt 0.087907 0.444231
vt 0.086670 0.448486
vt 0.091600 0.448486
f 347/637/347 348/638/348 349/639/349
vt 0.697923 0.811519
vt 0.692789 0.808391
vt 0.690876 0.816703
f 350/640/350 351/641/351 352/642/352
vt 0.828857 0.651611
vt 0.828857 0.645681
vt 0.830831 0.649759
f 288/643/288 353/644/353 287/645/287
vt 0.089573 0.519212
vt 0.086670 0.526611
vt 0.091737 0.526611
f 354/646/354 84/647/84 89/648/89
vt 0.086670 0.553955
vt 0.092753 0.553955
vt 0.087031 0.550842
f 87/649/87 355/650/355 85/651/85
vt 0.002382 0.100580
vt 0.007362 0.094154
vt 0.000732 0.094591
f 324/652/324 356/653/356 326/654/326
f 127/161/127 136/155/136 135/154/135
vt 0.058235 0.198486
f 135/154/135 130/655/130 127/161/127
vt 0.053501 0.195404
f 135/154/135 194/656/194 130/655/130
vt 0.660496 0.641281
f 163/210/163 344/627/344 357/657/357
f 357/657/357 161/211/161 163/210/163
vt 0.682721 0.640959
f 344/627/344 358/658/358 357/657/357
f 357/657/357 248/394/248 161/211/161
f 357/657/357 247/392/247 248/394/248
vt 0.677608 0.675797
f 163/210/163 359/659/359 345/628/345
vt 0.643988 0.674509
vt 0.652498 0.678629
vt 0.660590 0.667554
f 360/660/360 361/661/361 362/662/362
f 163/210/163 129/209/129 360/660/360
f 345/628/345 344/627/344 163/210/163
vt 0.902574 0.694407
vt 0.895739 0.689265
vt 0.879745 0.710167
f 128/663/128 363/664/363 364/665/364
vt 0.891108 0.706597
f 364/665/364 365/666/365 128/663/128
vt 0.673772 0.682861
vt 0.677233 0.681831
f 364/667/364 366/668/366 359/659/359
vt 0.890699 0.678937
vt 0.888579 0.684267
f 363/664/363 130/669/130 367/670/367
f 363/664/363 128/663/128 130/669/130
vt 0.885627 0.685727
f 130/669/130 368/671/368 367/670/367
vt 0.878833 0.680558
f 130/669/130 369/672/369 368/671/368
vt 0.892493 0.673749
vt 0.887537 0.671915
f 130/669/130 194/673/194 195/674/195
f 195/674/195 339/617/339 130/669/130
f 195/674/195 223/618/223 339/617/339
f 339/617/339 369/672/369 130/669/130
vt 0.992920 0.996075
vt 0.998131 0.994197
vt 0.996859 0.999268
f 223/675/223 226/676/226 340/677/340
vt 0.992920 0.984148
f 223/675/223 171/678/171 226/676/226
vt 0.751905 0.822350
vt 0.757055 0.808181
vt 0.749862 0.818368
f 364/679/364 370/680/370 371/681/371
vt 0.766472 0.803828
f 364/679/364 363/682/363 370/680/370
vt 0.762327 0.800879
f 363/682/363 372/683/372 370/680/370
vt 0.083560 0.293526
vt 0.078857 0.287180
vt 0.084165 0.288909
f 372/684/372 367/685/367 373/686/373
vt 0.078857 0.296143
f 372/684/372 363/687/363 367/685/367
vt 0.647582 0.637789
f 245/396/245 215/688/215 231/395/231
vt 0.646323 0.634357
f 245/396/245 214/689/214 215/688/215
vt 0.758855 0.799152
vt 0.751620 0.801378
f 370/680/370 373/690/373 374/691/374
f 370/680/370 372/683/372 373/690/373
vt 0.889159 0.688227
vt 0.880761 0.692390
vt 0.882465 0.696208
f 373/692/373 375/693/375 374/694/374
vt 0.748608 0.802251
f 374/691/374 376/695/376 370/680/370
vt 0.872880 0.685565
f 375/693/375 368/671/368 377/696/377
f 375/693/375 373/692/373 368/671/368
f 373/692/373 367/670/367 368/671/368
vt 0.652794 0.632917
f 357/657/357 253/622/253 252/697/252
f 252/697/252 247/392/247 357/657/357
vt 0.652154 0.634112
f 252/697/252 246/698/246 247/392/247
f 246/698/246 245/396/245 247/392/247
vt 0.837881 0.692413
vt 0.839647 0.695800
vt 0.855107 0.700906
f 378/699/378 349/700/349 379/701/379
f 379/701/379 342/623/342 378/699/378
f 379/701/379 377/696/377 342/623/342
vt 0.837975 0.700904
f 349/700/349 348/702/348 379/701/379
f 377/696/377 228/624/228 342/623/342
f 377/696/377 340/619/340 228/624/228
f 377/696/377 369/672/369 340/619/340
vt 0.878803 0.672005
f 340/619/340 226/703/226 228/624/228
f 377/696/377 368/671/368 369/672/369
f 369/672/369 339/617/339 340/619/340
vt 0.651841 0.630745
f 240/704/240 246/698/246 252/697/252
vt 0.650550 0.627015
f 252/697/252 239/705/239 240/704/240
vt 0.745312 0.803070
vt 0.728204 0.819329
f 380/706/380 381/707/381 371/681/371
f 371/681/371 370/680/370 380/706/380
f 370/680/370 376/695/376 380/706/380
vt 0.086670 0.495361
vt 0.090922 0.489278
vt 0.087267 0.489501
f 374/708/374 382/709/382 383/710/383
vt 0.092015 0.495361
f 374/708/374 375/711/375 382/709/382
vt 0.685086 0.636020
vt 0.666171 0.629170
f 358/658/358 384/712/384 385/713/385
f 385/713/385 357/657/357 358/658/358
f 385/713/385 253/622/253 357/657/357
f 385/713/385 341/620/341 253/622/253
vt 0.748329 0.798573
f 383/714/383 380/706/380 376/695/376
f 376/695/376 374/691/374 383/714/383
vt 0.873991 0.695754
f 377/696/377 379/701/379 386/715/386
f 386/715/386 375/693/375 377/696/377
vt 0.879184 0.697431
f 386/715/386 382/716/382 375/693/375
vt 0.083467 0.327517
vt 0.083241 0.334081
vt 0.078857 0.330968
f 16/717/16 341/718/341 387/719/387
vt 0.658212 0.620206
f 16/720/16 238/621/238 341/620/341
vt 0.078857 0.327754
f 387/719/387 17/721/17 16/717/16
vt 0.080433 0.339112
f 341/718/341 385/722/385 387/719/387
vt 0.875634 0.699223
f 382/716/382 386/715/386 388/723/388
vt 0.743913 0.799534
vt 0.746932 0.795937
f 388/724/388 383/714/383 382/725/382
f 388/724/388 380/706/380 383/714/383
vt 0.719541 0.808325
f 380/706/380 389/726/389 381/707/381
f 380/706/380 388/724/388 389/726/389
vt 0.718576 0.817033
f 389/726/389 390/727/390 381/707/381
vt 0.692020 0.617691
vt 0.676596 0.602806
vt 0.667137 0.623131
f 391/728/391 392/729/392 393/730/393
f 393/730/393 384/712/384 391/728/391
vt 0.686893 0.601741
f 391/728/391 394/731/394 392/729/392
f 393/730/393 385/713/385 384/712/384
vt 0.688109 0.634682
f 384/712/384 395/732/395 391/728/391
vt 0.661926 0.623065
f 393/730/393 387/733/387 385/713/385
vt 0.737399 0.822620
f 371/681/371 381/707/381 396/734/396
vt 0.748465 0.823486
f 396/734/396 366/735/366 371/681/371
vt 0.717552 0.820879
f 381/707/381 397/736/397 396/734/396
vt 0.689906 0.676646
vt 0.695409 0.676190
vt 0.699329 0.672884
f 381/737/381 390/738/390 397/739/397
f 366/735/366 364/679/364 371/681/371
f 388/723/388 386/715/386 379/701/379
vt 0.851012 0.710205
f 379/701/379 389/740/389 388/723/388
f 379/701/379 348/702/348 389/740/389
vt 0.832764 0.707791
f 348/702/348 398/741/398 389/740/389
vt 0.832854 0.699182
f 348/702/348 399/742/399 398/741/398
vt 0.836413 0.697379
f 348/702/348 347/743/347 399/742/399
vt 0.660711 0.620050
f 393/730/393 17/744/17 387/733/387
vt 0.663642 0.615504
f 393/730/393 241/745/241 17/744/17
vt 0.660358 0.616655
f 241/745/241 18/746/18 17/744/17
vt 0.686631 0.643390
f 358/658/358 343/626/343 400/747/400
f 358/658/358 344/627/344 343/626/343
vt 0.688835 0.638341
f 400/747/400 401/748/401 358/658/358
f 401/748/401 384/712/384 358/658/358
f 401/748/401 395/732/395 384/712/384
vt 0.685398 0.677211
vt 0.690399 0.654912
f 359/659/359 396/749/396 402/750/402
f 402/750/402 345/628/345 359/659/359
vt 0.690216 0.651656
f 402/750/402 403/751/403 345/628/345
f 403/751/403 343/626/343 345/628/345
f 403/751/403 400/747/400 343/626/343
f 359/659/359 366/668/366 396/749/396
vt 0.663417 0.606764
f 242/752/242 393/730/393 392/729/392
f 242/752/242 241/745/241 393/730/393
vt 0.078551 0.397705
vt 0.074679 0.393764
vt 0.063232 0.397705
f 392/753/392 258/754/258 242/755/242
vt 0.047276 0.226182
vt 0.057966 0.239546
f 75/756/75 83/757/83 346/635/346
f 346/635/346 73/634/73 75/756/75
vt 0.834527 0.694055
f 227/633/227 224/758/224 378/699/378
f 378/699/378 342/623/342 227/633/227
vt 0.703184 0.636928
vt 0.706859 0.622882
f 403/751/403 404/759/404 405/760/405
f 405/760/405 401/748/401 403/751/403
f 401/748/401 400/747/400 403/751/403
vt 0.709740 0.653786
f 402/750/402 397/739/397 406/761/406
f 402/750/402 396/749/396 397/739/397
vt 0.705322 0.673345
f 397/739/397 407/762/407 406/761/406
vt 0.707445 0.601333
vt 0.697026 0.599112
f 408/763/408 409/764/409 391/728/391
f 391/728/391 395/732/395 408/763/408
vt 0.700280 0.597765
f 408/763/408 410/765/410 409/764/409
f 395/732/395 401/748/401 405/760/405
f 405/760/405 408/763/408 395/732/395
vt 0.711805 0.600857
f 405/760/405 411/766/411 408/763/408
vt 0.714375 0.624694
f 405/760/405 412/767/412 411/766/411
vt 0.019884 0.253174
vt 0.031619 0.237854
vt 0.014652 0.237751
f 256/768/256 394/769/394 413/770/413
vt 0.036914 0.253174
f 256/768/256 258/771/258 394/769/394
vt 0.031882 0.233672
f 394/769/394 414/772/414 413/770/413
vt 0.009601 0.248081
f 413/770/413 257/773/257 256/768/256
vt 0.671274 0.601642
f 258/774/258 392/729/392 394/731/394
f 404/759/404 402/750/402 406/761/406
f 404/759/404 403/751/403 402/750/402
vt 0.714801 0.631314
f 406/761/406 415/775/415 404/759/404
vt 0.720544 0.646794
f 406/761/406 416/776/416 415/775/415
vt 0.718024 0.632485
f 416/776/416 417/777/417 415/775/415
vt 0.722600 0.642458
f 416/776/416 418/778/418 417/777/417
vt 0.715883 0.626194
f 417/777/417 419/779/419 415/775/415
vt 0.049173 0.253174
f 346/635/346 83/757/83 80/780/80
f 80/780/80 74/636/74 346/635/346
vt 0.690165 0.602121
f 391/728/391 409/764/409 414/781/414
f 414/781/414 394/731/394 391/728/391
vt 0.708850 0.820449
f 389/726/389 407/782/407 390/727/390
vt 0.701648 0.810149
f 389/726/389 398/783/398 407/782/407
vt 0.692457 0.820194
f 398/783/398 420/784/420 407/782/407
f 407/762/407 397/739/397 390/738/390
vt 0.981201 0.678955
vt 0.990269 0.678811
vt 0.985949 0.676635
f 224/785/224 275/786/275 399/787/399
vt 0.063232 0.460205
vt 0.078658 0.460205
vt 0.071301 0.455435
f 224/788/224 229/789/229 275/790/275
f 399/742/399 347/743/347 224/758/224
vt 0.092717 0.443738
f 347/637/347 349/639/349 224/791/224
f 349/700/349 378/699/378 224/758/224
vt 0.028311 0.227263
vt 0.019840 0.227184
f 414/772/414 409/792/409 421/793/421
f 421/793/421 413/770/413 414/772/414
vt 0.024888 0.225559
f 409/792/409 410/794/410 421/793/421
vt 0.074933 0.323486
vt 0.075260 0.314648
vt 0.070162 0.316458
f 26/795/26 28/796/28 422/797/422
vt 0.066662 0.323486
f 422/797/422 86/798/86 26/795/26
vt 0.072598 0.312542
f 28/796/28 271/799/271 422/797/422
vt 0.991047 0.669692
vt 0.996579 0.674970
f 398/800/398 275/786/275 353/801/353
f 398/800/398 399/787/399 275/786/275
vt 0.998384 0.678955
f 275/786/275 287/802/287 353/801/353
vt 0.063232 0.444580
f 275/803/275 274/477/274 287/476/287
vt 0.694073 0.808072
f 353/804/353 350/640/350 398/783/398
f 353/804/353 351/641/351 350/640/350
vt 0.716867 0.667632
vt 0.721607 0.651466
f 406/761/406 423/805/423 424/806/424
f 406/761/406 407/762/407 423/805/423
f 424/806/424 416/776/416 406/761/406
vt 0.718506 0.671916
f 407/762/407 356/807/356 423/805/423
vt 0.715728 0.682861
f 407/762/407 420/808/420 356/807/356
vt 0.717959 0.677837
f 420/808/420 326/809/326 356/807/356
vt 0.086670 0.362549
vt 0.091273 0.362549
vt 0.089076 0.357517
f 420/810/420 323/811/323 326/812/326
f 420/784/420 350/640/350 352/642/352
f 420/784/420 398/783/398 350/640/350
vt 0.689390 0.823486
f 352/642/352 323/813/323 420/784/420
vt 0.686273 0.817293
f 352/642/352 425/814/425 323/813/323
vt 0.005914 0.229459
vt 0.000732 0.248705
f 413/770/413 426/815/426 211/816/211
f 211/816/211 257/773/257 413/770/413
f 413/770/413 421/793/421 426/815/426
vt 0.007667 0.251961
f 211/816/211 210/817/210 257/773/257
vt 0.707885 0.592238
f 408/763/408 411/766/411 426/818/426
vt 0.701546 0.594579
f 426/818/426 421/819/421 408/763/408
vt 0.712412 0.597261
f 411/766/411 427/820/427 426/818/426
f 421/819/421 410/765/410 408/763/408
f 404/759/404 415/775/415 412/767/412
f 412/767/412 405/760/405 404/759/404
vt 0.883595 0.956409
vt 0.873368 0.951238
vt 0.876816 0.958710
f 88/821/88 355/822/355 428/823/428
vt 0.092571 0.542488
f 88/824/88 85/651/85 355/650/355
vt 0.865780 0.955913
vt 0.859522 0.961879
vt 0.868114 0.975785
f 429/825/429 430/826/430 431/827/431
vt 0.876617 0.962299
f 431/827/431 432/828/432 429/825/429
f 432/828/432 428/823/428 429/825/429
vt 0.857402 0.840943
vt 0.864050 0.845030
vt 0.866216 0.845041
f 429/829/429 433/830/433 430/831/430
vt 0.882288 0.959886
f 432/828/432 270/832/270 428/823/428
f 270/832/270 88/821/88 428/823/428
vt 0.884297 0.967943
f 270/832/270 432/828/432 422/833/422
vt 0.063661 0.056783
vt 0.063232 0.061768
vt 0.070306 0.061768
f 422/834/422 271/835/271 270/836/270
vt 0.879455 0.985457
vt 0.883848 0.974704
f 431/827/431 81/837/81 86/838/86
f 86/838/86 432/828/432 431/827/431
vt 0.875449 0.988985
f 431/827/431 78/839/78 81/837/81
vt 0.063232 0.310677
f 86/798/86 422/797/422 432/840/432
vt 0.684973 0.809814
f 329/841/329 352/642/352 351/641/351
f 329/841/329 425/814/425 352/642/352
vt 0.688245 0.803553
f 351/641/351 286/842/286 329/841/329
vt 0.684326 0.806076
f 286/842/286 299/843/299 329/841/329
vt 0.691748 0.802770
f 351/641/351 288/844/288 286/842/286
f 351/641/351 353/804/353 288/844/288
vt 0.813233 0.854510
vt 0.820971 0.854736
vt 0.820474 0.851070
f 426/845/426 427/846/427 434/847/434
vt 0.814505 0.834680
f 434/847/434 211/848/211 426/845/426
vt 0.586500 0.792236
vt 0.574230 0.787612
vt 0.567139 0.792236
f 84/849/84 435/850/435 87/851/87
vt 0.824416 0.831329
vt 0.825912 0.837631
vt 0.836698 0.832139
f 84/852/84 354/853/354 435/854/435
vt 0.840394 0.831398
vt 0.843505 0.828337
f 435/854/435 436/855/436 87/856/87
vt 0.869361 0.949742
f 428/823/428 437/857/437 429/825/429
vt 0.854827 0.829994
vt 0.847896 0.832507
vt 0.849018 0.837993
f 428/858/428 355/859/355 437/860/437
vt 0.849779 0.841949
f 437/860/437 438/861/438 429/829/429
f 434/847/434 435/854/435 354/853/354
f 354/853/354 211/848/211 434/847/434
vt 0.820948 0.831810
f 354/853/354 89/862/89 211/848/211
vt 0.817185 0.832374
f 89/862/89 82/863/82 211/848/211
vt 0.714301 0.621230
f 411/766/411 440/864/440 427/820/427
f 411/766/411 412/767/412 440/864/440
f 412/767/412 419/779/419 440/864/440
f 412/767/412 415/775/415 419/779/419
vt 0.847165 0.850204
f 434/847/434 427/846/427 440/865/440
f 440/865/440 435/854/435 434/847/434
f 440/865/440 437/860/437 435/854/435
f 437/860/437 436/855/436 435/854/435
f 440/865/440 438/861/438 437/860/437
f 436/855/436 355/859/355 87/856/87
f 436/855/436 437/860/437 355/859/355
vt 0.889830 0.972974
vt 0.899785 0.956174
vt 0.891302 0.960587
f 315/866/315 441/867/441 320/868/320
vt 0.904587 0.979736
f 315/866/315 316/869/316 441/867/441
vt 0.028227 0.093480
vt 0.011198 0.091745
vt 0.019235 0.104736
f 424/870/424 423/871/423 442/872/442
vt 0.005561 0.104403
f 423/871/423 356/653/356 322/873/322
f 322/873/322 442/872/442 423/871/423
f 356/653/356 324/652/324 322/873/322
vt 0.001773 0.104736
f 324/652/324 319/874/319 322/873/322
vt 0.074951 0.046142
vt 0.083251 0.046143
vt 0.081809 0.041769
f 323/875/323 425/876/425 330/877/330
vt 0.076398 0.041883
f 330/877/330 325/878/325 323/875/323
vt 0.684632 0.821266
f 425/814/425 329/841/329 330/879/330
vt 0.921467 0.964423
vt 0.912301 0.979045
vt 0.939347 0.977841
f 444/880/444 317/881/317 312/882/312
vt 0.943994 0.967552
f 312/882/312 445/883/445 444/880/444
vt 0.954943 0.978328
f 312/882/312 311/884/311 445/883/445
vt 0.966655 0.975888
f 311/884/311 338/885/338 445/883/445
vt 0.966264 0.979736
f 311/884/311 335/886/335 338/885/338
vt 0.851263 0.852880
vt 0.859021 0.852178
f 419/887/419 417/888/417 429/829/429
f 429/829/429 438/861/438 419/887/419
f 417/888/417 433/830/433 429/829/429
f 438/861/438 440/865/440 419/887/419
vt 0.862787 0.848969
f 417/888/417 446/889/446 433/830/433
f 444/880/444 441/867/441 316/869/316
f 316/869/316 317/881/317 444/880/444
vt 0.900083 0.952577
f 320/868/320 441/867/441 442/890/442
vt 0.887451 0.957552
f 442/890/442 322/891/322 320/868/320
vt 0.904079 0.952542
f 441/867/441 448/892/448 442/890/442
vt 0.979068 0.970381
vt 0.949406 0.957712
f 338/885/338 449/893/449 447/894/447
f 447/894/447 445/883/445 338/885/338
vt 0.978311 0.979155
f 338/885/338 337/895/337 449/893/449
vt 0.978980 0.978994
f 337/895/337 450/896/450 449/893/449
f 430/831/430 433/830/433 446/889/446
vt 0.723969 0.646825
f 443/897/443 418/778/418 416/776/416
f 416/776/416 424/806/424 443/897/443
vt 0.023218 0.104709
f 424/870/424 442/872/442 448/898/448
vt 0.661007 0.682751
f 362/662/362 365/899/365 359/659/359
vt 0.900301 0.708401
f 361/900/361 128/663/128 365/666/365
f 364/667/364 359/659/359 365/899/365
f 163/210/163 360/660/360 362/662/362
vt 0.909493 0.710205
vt 0.910258 0.709819
f 360/901/360 451/902/451 128/663/128
vt 0.642882 0.674473
f 360/660/360 129/209/129 451/903/451
f 360/901/360 128/663/128 361/900/361
f 362/662/362 361/661/361 365/899/365
l 430 439
l 19 20
# 822 faces, 903 coords texture

# End of File
