####
#
# OBJ File Generated by Meshlab
#
####
# Object office_table_4_.obj
#
# Vertices: 298
# Faces: 500
#
####
mtllib ./office_table_4_.obj.mtl

vn -0.790872 0.064976 -0.608523
v 27.389511 -5.783553 0.280038
vn -0.980588 -0.140164 0.137118
v 27.383072 -5.783554 0.287677
vn -0.695429 0.708729 0.118665
v 27.391193 -5.775752 0.287677
vn -0.382215 0.721872 0.576899
v 27.765800 -5.836743 0.825486
vn -0.115114 0.161849 0.980079
v 27.765640 -5.830542 0.819928
vn -0.548391 -0.181610 0.816263
v 27.752831 -5.807114 0.825073
vn 0.441318 0.874033 -0.203236
v 27.413025 -5.654926 0.546313
vn 0.044903 0.998521 -0.030663
v 27.423717 -5.665939 0.264163
vn -0.683130 0.706142 -0.186272
v 27.379551 -5.665935 0.358212
vn -0.135315 0.961484 -0.239247
v 27.389511 -5.655771 0.522801
vn -0.778995 0.565049 -0.271821
v 27.365963 -5.665936 0.381724
vn -0.657437 0.753496 0.004625
v 27.365993 -5.662524 0.546311
vn -0.940017 0.340636 0.018289
v 27.362576 -5.665858 0.569821
vn -0.658502 0.750550 -0.055223
v 27.389503 -5.665978 0.235536
vn 0.343392 0.931836 -0.117317
v 27.413021 -5.672167 0.170112
vn -0.777488 0.619659 -0.107401
v 27.389500 -5.676648 0.193623
vn -0.581536 0.719390 0.379861
v 27.389507 -5.655932 0.569825
vn -0.474516 0.121869 -0.871770
v 27.389561 -5.501406 0.708676
vn -0.355039 0.080890 -0.931345
v 27.372440 -5.618969 0.711040
vn -0.805984 0.245891 -0.538449
v 27.366005 -5.642480 0.711024
vn 0.617792 -0.120536 0.777049
v 27.413033 -5.783554 0.123097
vn 0.348262 -0.778416 0.522286
v 27.413013 -5.807062 0.139967
vn -0.119483 0.077068 0.989841
v 27.389530 -5.830578 0.137766
vn -0.832263 -0.000045 0.554381
v 27.394825 -5.760025 0.640364
vn -0.973786 -0.227005 -0.014460
v 27.389374 -5.759974 0.616849
vn -0.285350 0.705725 0.648482
v 27.389244 -5.764710 0.663868
vn 0.658257 0.749870 0.066280
v 27.413021 -5.674343 0.146600
vn -0.677070 0.284181 0.678835
v 27.389519 -5.652522 0.123067
vn -0.697695 0.710756 0.089703
v 27.389511 -5.676548 0.170115
vn -0.129791 0.382156 0.914938
v 27.389534 -5.642472 0.119630
vn -0.054691 0.998501 -0.002172
v 27.389511 -5.631991 0.546314
vn -0.311859 0.668886 0.674785
v 27.389511 -5.642476 0.556799
vn -0.244012 -0.347121 0.905519
v 27.483559 -5.595451 0.828463
vn -0.486087 0.001247 0.873909
v 27.455872 -5.571937 0.828460
vn -0.199248 -0.022434 0.979692
v 27.436657 -5.571995 0.812096
vn -0.252630 0.116959 0.960468
v 27.483559 -5.548426 0.828464
vn -0.346482 0.893100 -0.286919
v 27.695171 -5.924619 0.875487
vn 0.290608 -0.845710 -0.447574
v 27.703552 -5.924626 0.875487
vn -0.250302 0.960185 0.124069
v 27.695175 -5.932929 0.851975
vn -0.001023 0.000265 -0.999999
v 27.515888 -5.604568 2.499767
vn -0.001023 0.000266 -0.999999
v 27.425514 -5.583774 2.499865
vn -0.001022 0.000271 -0.999999
v 27.388775 -5.637115 2.499888
vn -0.001024 0.000259 -0.999999
v 27.443886 -5.557103 2.499853
vn 0.029404 -0.978624 -0.203546
v 27.413025 -5.798133 0.264165
vn -0.864175 -0.275026 -0.421382
v 27.400154 -5.783553 0.264165
vn -0.003745 -0.196887 0.980419
v 27.436539 -5.501401 0.074949
vn -0.037102 0.239971 0.970071
v 27.365971 -5.571925 0.074881
vn -0.299379 -0.047098 0.952971
v 27.460049 -5.571941 0.060873
vn -0.518364 -0.175955 0.836863
v 27.341190 -5.760237 0.074775
vn -0.146900 0.176887 0.973207
v 27.483559 -5.595458 0.074877
vn 0.385821 0.062644 0.920444
v 27.483555 -5.665988 0.074819
vn 0.753119 -0.220794 0.619727
v 27.460056 -5.760036 0.074737
vn 0.666071 -0.437650 0.603996
v 27.435116 -5.924846 0.074661
vn 0.483813 -0.011017 0.875102
v 27.436535 -5.901103 0.074617
vn -0.582513 0.201062 0.787561
v 27.342503 -5.807058 0.077603
vn -0.757092 -0.385572 0.527396
v 27.366020 -5.924614 0.077584
vn -0.070499 -0.774711 0.628374
v 27.389549 -5.948128 0.077651
vn -0.561780 0.047424 0.825926
v 27.366020 -5.783543 0.077775
vn -0.839281 -0.127884 0.528445
v 27.365993 -5.736526 0.103533
vn -0.884390 -0.414920 -0.213765
v 27.365982 -5.713000 0.398768
vn -0.916681 -0.388470 -0.093743
v 27.389919 -5.728978 0.381738
vn -0.888736 -0.372656 -0.266975
v 27.362385 -5.736514 0.710901
vn -0.999814 -0.006984 -0.017985
v 27.364269 -5.665896 0.475773
vn -0.868623 -0.387669 -0.308556
v 27.376266 -5.713014 0.381727
vn -0.974987 -0.202794 0.090963
v 27.389500 -5.720243 0.240652
vn -0.997056 -0.030017 0.070552
v 27.382092 -5.713017 0.193626
vn -0.712659 -0.700589 0.035967
v 27.389500 -5.751488 0.217139
vn -0.880495 -0.474054 -0.001035
v 27.389503 -5.729832 0.193628
vn -0.945457 -0.312125 -0.093219
v 27.393642 -5.736566 0.334708
vn 0.427796 0.321675 0.844698
v 27.436535 -5.642481 0.087817
vn 0.143558 0.502315 0.852684
v 27.389519 -5.595447 0.082315
vn -0.747288 0.301819 0.592001
v 27.365997 -5.618965 0.094528
vn -0.876597 -0.468730 -0.108945
v 27.389168 -5.818748 0.381717
vn -0.311458 -0.674452 0.669409
v 27.389080 -5.830499 0.374303
vn 0.622496 -0.775519 0.105213
v 27.399441 -5.830606 0.358212
vn -0.197084 -0.864919 0.461598
v 27.646919 -5.971648 0.757925
vn -0.406939 0.913080 -0.026178
v 27.646980 -5.948215 0.851981
vn -0.465113 0.655869 0.594563
v 27.646900 -5.948151 0.804952
vn -0.186741 -0.128351 0.973989
v 27.646877 -5.942579 0.804962
vn -0.353906 -0.729990 0.584692
v 27.646896 -5.948147 0.801951
vn -0.761321 0.616371 0.201187
v 27.695175 -5.890944 1.087099
vn -0.052976 0.874511 0.482104
v 27.695148 -5.916869 1.134122
vn -0.349355 0.692747 0.630914
v 27.718689 -5.924625 1.131629
vn -0.564142 0.196002 0.802077
v 27.721119 -5.924624 1.134135
vn -0.993544 0.080403 -0.080038
v 28.261955 -5.289788 0.522861
vn -0.947133 0.143312 0.287056
v 28.263901 -5.172217 0.616818
vn -0.977464 0.124788 0.170270
v 28.259399 -5.219250 0.625447
vn -0.999627 -0.023857 -0.013330
v 27.364182 -5.724757 0.554834
vn -0.999759 -0.015407 -0.015659
v 27.364281 -5.689429 0.484294
vn -0.986244 0.141671 -0.085163
v 27.782352 -5.830568 0.851975
vn -0.133339 -0.370475 0.919222
v 27.342457 -5.931290 0.804922
vn -0.542959 -0.838212 -0.050950
v 27.360420 -5.948145 0.781401
vn -0.195260 -0.816941 0.542661
v 27.365997 -5.948136 0.800365
vn 0.070187 -0.926347 -0.370075
v 27.389515 -5.863166 0.428753
vn -0.883448 -0.457751 -0.099916
v 27.370785 -5.854108 0.452269
vn -0.140375 -0.694527 0.705639
v 27.624634 -5.928988 0.804962
vn -0.016840 -0.757795 0.652276
v 27.389511 -5.948127 0.801473
vn -0.091021 -0.851963 0.515631
v 27.601120 -5.961203 0.757943
vn 0.307281 -0.951465 -0.017097
v 27.389557 -5.862168 0.546313
vn 0.637381 -0.673827 -0.373768
v 27.396481 -5.854106 0.616851
vn 0.177595 -0.979627 -0.093756
v 27.389503 -5.860987 0.616853
vn -0.627865 0.248308 -0.737651
v 27.436535 -5.548426 0.654528
vn -0.361570 0.336095 -0.869659
v 27.436531 -5.501402 0.689149
vn 0.185568 -0.977686 0.098463
v 27.436539 -5.794636 0.593337
vn 0.367691 -0.784794 -0.498900
v 27.436539 -5.843547 0.640365
vn 0.730271 -0.667665 -0.144665
v 27.413025 -5.830585 0.593337
vn 0.913120 -0.385204 -0.133525
v 27.422592 -5.807055 0.452264
vn 0.953330 -0.297934 -0.048965
v 27.447678 -5.807063 0.499289
vn 0.801969 -0.594678 0.056608
v 27.413033 -5.824973 0.522801
vn 0.357542 -0.866592 -0.348111
v 27.436501 -5.771185 0.217141
vn 0.669990 -0.742370 0.000395
v 27.436516 -5.771783 0.264166
vn -0.697854 -0.667918 0.258622
v 27.413025 -5.769250 0.193628
vn 0.704779 -0.669878 -0.233561
v 27.447056 -5.759994 0.217143
vn 0.657623 0.726519 -0.199254
v 27.421104 -5.783551 0.499289
vn 0.908183 -0.223098 -0.354162
v 27.443909 -5.760038 0.546314
vn 0.990046 0.094463 -0.104331
v 27.444153 -5.783551 0.522801
vn -0.697162 -0.015176 -0.716753
v 27.436539 -5.242766 0.677392
vn -0.519950 -0.079862 -0.850455
v 27.436504 -5.289788 0.699835
vn -0.647791 0.088800 -0.756625
v 27.413128 -5.242773 0.701620
vn 0.627235 -0.757474 -0.181134
v 27.436539 -5.820385 0.569826
vn 0.098214 -0.991365 -0.086888
v 27.460052 -5.818036 0.593341
vn 0.155130 -0.168596 0.973401
v 27.554096 -5.595454 0.835665
vn 0.011531 -0.130509 0.991380
v 27.554142 -5.642498 0.814321
vn 0.140102 -0.069856 0.987670
v 27.601112 -5.595447 0.813409
vn -0.056896 -0.319054 0.946027
v 27.742191 -5.595458 0.845762
vn -0.141842 0.012630 0.989809
v 27.624741 -5.524964 0.819313
vn -0.021039 -0.119268 0.992639
v 27.742126 -5.642436 0.816864
vn -0.283228 0.501737 0.817339
v 27.695030 -5.924551 0.816570
vn -0.118628 0.034955 0.992323
v 27.883190 -5.618925 0.820091
vn -0.066505 -0.017797 0.997627
v 27.930153 -5.736456 0.821125
vn -0.334551 -0.028324 0.941952
v 27.930298 -5.642475 0.836114
vn -0.261044 0.150061 0.953592
v 27.953941 -5.548489 0.828375
vn 0.163653 -0.243230 0.956063
v 27.883286 -5.477902 0.849888
vn 0.372576 -0.446009 0.813796
v 27.906799 -5.454399 0.852004
vn -0.033453 0.073925 0.996703
v 27.904369 -5.454380 0.851938
vn -0.943763 -0.040326 -0.328153
v 27.334087 -5.595448 0.757859
vn -0.587044 0.120549 -0.800529
v 27.342529 -5.242768 0.749715
vn -0.894847 0.399592 0.198937
v 27.316826 -5.148721 0.781525
vn -0.016676 0.615950 -0.787609
v 27.342602 -5.125208 0.748864
vn -0.975257 0.036270 -0.218080
v 27.360920 -5.665989 0.710863
vn -0.010922 0.885930 0.463690
v 27.342331 -5.116416 0.781318
vn -0.798730 0.119384 0.589727
v 27.318993 -5.172228 0.793882
vn -0.797679 -0.049763 0.601026
v 27.332203 -5.642476 0.804951
vn -0.074857 0.996558 0.035604
v 27.365993 -5.139830 0.781277
vn -0.253933 0.282626 0.925009
v 27.342484 -5.172226 0.806366
vn -0.156313 0.415584 0.896022
v 27.389507 -5.147118 0.805332
vn -0.318097 0.932374 -0.171737
v 27.389511 -5.117002 0.781455
vn -0.711722 -0.142434 0.687869
v 27.342411 -5.901112 0.809996
vn -0.931081 -0.048631 -0.361557
v 27.355980 -5.783555 0.757902
vn -0.773034 -0.132458 -0.620382
v 27.365963 -5.877603 0.737822
vn -0.940124 -0.041419 -0.338307
v 27.338146 -5.783553 0.807460
vn -0.916980 -0.059975 0.394399
v 27.333878 -5.665995 0.804924
vn -0.488778 -0.662760 -0.567315
v 27.365952 -5.948145 0.754102
vn -0.282995 0.008557 0.959083
v 27.342670 -5.407255 0.809830
vn -0.066164 -0.963759 -0.258439
v 27.530586 -5.955686 0.757925
vn -0.380478 -0.191152 0.904819
v 27.389515 -5.901112 0.125854
vn -0.173539 -0.086895 0.980986
v 27.530609 -5.783570 0.815079
vn -0.179251 0.088549 0.979810
v 27.530621 -5.713030 0.814336
vn 0.029019 -0.361953 0.931745
v 27.624592 -5.807047 0.816112
vn -0.152169 0.049197 0.987129
v 27.460224 -5.501318 0.814440
vn -0.487831 0.214946 0.846061
v 27.713875 -5.854154 0.824824
vn 0.427235 -0.323502 0.844285
v 27.636936 -5.783631 0.823139
vn -0.469767 0.310587 0.826350
v 27.754330 -5.783595 0.824923
vn -0.193125 0.312183 0.930185
v 27.812828 -5.750914 0.825575
vn 0.155790 -0.238340 0.958605
v 27.977222 -5.454327 0.819802
vn 0.366743 0.104694 0.924413
v 27.648277 -5.713078 0.821436
vn -0.120337 -0.221094 0.967800
v 27.483643 -5.619005 0.813125
vn 0.044133 0.440694 0.896572
v 27.624676 -5.689517 0.817229
vn -0.152669 0.472729 0.867882
v 27.577621 -5.689505 0.814640
vn 0.040705 0.033516 0.998609
v 27.601166 -5.548252 0.815754
vn -0.702501 0.506095 0.500359
v 27.718765 -5.924668 0.825413
vn 0.866191 0.067028 0.495197
v 27.637474 -5.736610 0.822803
vn -0.031780 0.022716 0.999237
v 27.601181 -5.501263 0.815084
vn -0.102515 0.104468 0.989231
v 27.624657 -5.501379 0.816787
vn -0.114155 0.120834 0.986087
v 27.671719 -5.454317 0.816171
vn -0.932444 -0.357879 -0.049710
v 27.363686 -5.854127 0.687394
vn -0.085901 -0.986035 -0.142677
v 27.389515 -5.867558 0.734407
vn -0.992112 -0.052308 -0.113920
v 27.365967 -5.872902 0.735634
vn -0.722288 0.045396 -0.690101
v 27.365990 -5.783551 0.744689
vn -0.875336 0.329639 -0.353731
v 27.365997 -5.819750 0.710899
vn -0.854312 0.514983 -0.070314
v 27.373116 -5.830576 0.687387
vn -0.844065 0.428497 0.322405
v 27.376598 -5.807059 0.663876
vn -0.973246 0.066453 -0.219946
v 27.394997 -5.783504 0.334695
vn -0.327973 -0.935273 -0.133038
v 27.389126 -5.841777 0.334685
vn -0.769484 0.207785 -0.603921
v 27.389351 -5.807034 0.316784
vn -0.323809 -0.542058 -0.775449
v 27.389301 -5.830593 0.311175
vn -0.527807 -0.074004 0.846134
v 27.389511 -5.783551 0.130356
vn -0.628450 -0.429929 0.648237
v 27.389507 -5.760039 0.125264
vn -0.953670 -0.235867 0.186761
v 27.376141 -5.736524 0.146601
vn -0.006928 0.508904 0.860795
v 27.389523 -5.618962 0.115675
vn -0.988644 0.120073 -0.090366
v 27.362083 -5.665990 0.687387
vn -0.774026 0.255587 -0.579274
v 27.391754 -5.618964 0.687389
vn 0.014107 0.172759 0.984863
v 27.601124 -5.242784 0.810823
vn 0.373341 0.615313 0.694267
v 28.024338 -5.145043 0.806828
vn -0.003000 0.170427 0.985366
v 27.953808 -5.242813 0.813745
vn 0.231030 0.063558 0.970868
v 27.624660 -5.289964 0.816828
vn -0.146756 0.209534 0.966725
v 27.554108 -5.266333 0.812469
vn -0.234839 -0.049895 0.970753
v 27.530582 -5.336801 0.813076
vn -0.040939 0.068148 0.996835
v 27.483555 -5.477808 0.816392
vn -0.007906 -0.082324 0.996574
v 27.577625 -5.383879 0.816455
vn 0.282400 0.321493 0.903821
v 28.047848 -5.167849 0.807342
vn 0.079930 0.193447 0.977849
v 28.000839 -5.266343 0.814935
vn -0.472553 0.372049 -0.798920
v 27.365997 -5.219252 0.753195
vn -0.376300 0.590850 -0.713649
v 27.413025 -5.219253 0.716442
vn 0.078002 0.257470 -0.963133
v 27.365997 -5.172196 0.772033
vn -0.040378 -0.624782 -0.779754
v 27.436535 -5.871611 0.734416
vn -0.269790 -0.513695 0.814451
v 27.389511 -5.911358 0.123091
vn -0.084847 0.853738 -0.513744
v 27.389511 -5.797944 0.710900
vn -0.548884 -0.832502 0.075280
v 27.413025 -5.760037 0.212021
vn -0.751032 -0.653448 0.094639
v 27.389511 -5.748888 0.170115
vn -0.768272 -0.625372 -0.136631
v 27.413025 -5.777775 0.170115
vn -0.175930 0.347635 -0.920977
v 27.389507 -5.148718 0.772713
vn -0.471696 0.375051 -0.798022
v 27.389511 -5.190725 0.734414
vn 0.163324 0.420516 -0.892464
v 28.000832 -5.148698 0.770032
vn -0.005621 0.997670 0.067986
v 28.000832 -5.114678 0.781291
vn 0.454058 0.362762 -0.813778
v 27.365997 -5.148721 0.772612
vn 0.773870 -0.608777 -0.174692
v 27.413006 -5.822714 0.405240
vn 0.773413 -0.623558 -0.114052
v 27.427925 -5.783562 0.334701
vn 0.960300 0.226868 -0.162342
v 27.431156 -5.783572 0.475775
vn 0.818458 -0.554051 -0.152164
v 27.413029 -5.826468 0.546315
vn 0.675215 -0.417035 -0.608413
v 27.413063 -5.807084 0.318683
vn 0.852339 -0.455474 -0.257024
v 27.421314 -5.807077 0.546313
vn 0.242474 -0.939408 -0.242320
v 27.436543 -5.854076 0.660874
vn 0.097127 -0.809312 -0.579293
v 27.483559 -5.818847 0.616849
vn -0.029083 0.138922 0.989876
v 27.507072 -5.548425 0.833995
vn -0.809002 0.496058 0.315345
v 27.554100 -5.713010 0.828463
vn -0.577957 -0.719451 0.385170
v 27.551811 -5.783558 0.828466
vn 0.049797 0.010836 0.998701
v 27.577606 -5.313304 0.849139
vn -0.537042 0.025019 0.843184
v 27.554100 -5.313303 0.839554
vn 0.242364 0.395157 0.886065
v 27.601124 -5.276763 0.828473
vn -0.936515 0.316838 -0.150181
v 27.689968 -5.924564 1.063584
vn -0.857653 0.513669 -0.023974
v 27.714176 -5.901170 0.969539
vn -0.999554 -0.022021 -0.020176
v 27.718651 -5.914668 0.851973
vn -0.094137 0.301748 0.948729
v 27.930275 -5.313279 0.842342
vn 0.054302 0.160456 0.985548
v 27.953793 -5.336802 0.844876
vn -0.864841 0.459816 0.201540
v 27.718674 -5.926325 0.851975
vn -0.824652 0.542819 -0.159049
v 27.712971 -5.901103 1.040074
vn -0.941067 0.326573 0.087993
v 27.717388 -5.877605 0.993049
vn -0.866353 0.386564 -0.316229
v 27.690411 -5.901114 1.063586
vn -0.875725 0.481462 0.036057
v 27.714718 -5.877602 1.087099
vn -0.822429 0.567315 0.041992
v 27.722347 -5.854083 0.969537
vn -0.922792 0.371039 -0.103851
v 27.723721 -5.854091 1.087099
vn -0.876440 0.461561 0.137165
v 27.763882 -5.807057 0.993049
vn -0.800970 0.571927 -0.177049
v 27.746304 -5.830591 0.993050
vn -0.987878 -0.143856 -0.058339
v 27.758102 -5.807061 0.969537
vn -0.900346 0.435086 0.008813
v 27.765709 -5.830581 0.899001
vn -0.929889 0.208980 -0.302711
v 27.776016 -5.830565 0.969537
vn -0.799747 0.072171 0.595983
v 27.720154 -5.854089 1.134121
vn -0.249955 -0.032884 0.967699
v 27.953819 -5.924689 1.166302
vn -0.168936 0.145332 0.974853
v 27.789227 -5.948141 1.156376
vn -0.285983 0.605802 0.742440
v 28.000832 -5.854088 1.171868
vn -0.812172 0.179572 0.555096
v 28.290844 -5.195744 0.663850
vn 0.783049 0.551334 0.287863
v 27.410599 -5.783551 0.663877
vn 0.406763 -0.909743 0.083136
v 27.409500 -5.736526 0.146603
vn 0.324651 0.741802 -0.586798
v 27.413025 -5.195739 0.746167
vn 0.063134 -0.561997 0.824726
v 27.601120 -5.783549 0.878453
vn 0.621088 0.027127 0.783271
v 27.648148 -5.736526 0.861779
vn 0.009890 0.392497 0.919700
v 27.601116 -5.713014 0.876804
vn 0.978443 0.107685 0.176219
v 27.659081 -5.736526 0.851975
vn -0.943296 0.221817 0.246960
v 27.718674 -5.951571 0.875487
vn -0.928180 0.371842 -0.014650
v 27.756306 -5.783535 0.875486
vn -0.998780 0.031202 0.038271
v 27.757149 -5.783551 0.969537
vn -0.798827 0.599290 -0.052216
v 27.770855 -5.760044 0.922512
vn -0.174334 0.110516 0.978465
v 27.914063 -5.877604 1.157633
vn -0.333756 0.371170 0.866510
v 28.000832 -5.877599 1.191052
vn -0.046474 0.942433 0.331151
v 27.413025 -5.795817 0.687388
vn -0.395948 -0.685464 -0.611036
v 27.389507 -5.755352 0.710900
vn -0.386958 0.064896 -0.919811
v 27.389511 -5.783552 0.728900
vn -0.122168 -0.990860 0.057202
v 27.389496 -5.749475 0.687387
vn -0.523249 -0.845473 -0.106701
v 27.413025 -5.760037 0.217140
vn 0.638933 -0.260468 0.723824
v 27.413010 -5.901109 0.119120
vn 0.759853 -0.328623 0.560919
v 27.436546 -5.760039 0.099585
vn 0.056003 -0.455285 0.888583
v 27.413025 -5.760038 0.140118
vn -0.182900 0.846207 0.500481
v 27.413025 -5.807063 0.698633
vn -0.258323 0.965766 0.023782
v 27.413025 -5.824334 0.710900
vn 0.313178 0.756336 0.574348
v 27.413025 -5.799185 0.663876
vn 0.107273 -0.435589 0.893731
v 27.413025 -5.736526 0.142497
vn 0.534305 -0.569778 0.624397
v 27.436539 -5.736526 0.141453
vn -0.996079 0.069848 -0.054297
v 27.452148 -5.783551 0.687389
vn -0.540678 -0.511054 0.668200
v 27.413025 -5.760038 0.655022
vn -0.524357 0.850019 -0.050168
v 27.436539 -5.796515 0.687388
vn -0.289888 -0.953502 -0.082461
v 27.413025 -5.742414 0.687389
vn 0.847235 0.480481 0.226565
v 27.422585 -5.689504 0.146600
vn 0.864434 -0.173353 0.471913
v 27.451279 -5.736521 0.099581
vn 0.924843 -0.242476 0.293037
v 27.446827 -5.736524 0.123092
vn -0.375372 0.442653 -0.814343
v 27.413025 -5.807063 0.724946
vn -0.688216 -0.096149 -0.719107
v 27.424980 -5.783552 0.710899
vn -0.662648 0.032132 -0.748241
v 27.436539 -5.783551 0.699346
vn -0.734546 -0.580308 0.351689
v 27.546684 -5.783549 0.851977
vn -0.789828 0.452463 0.414064
v 27.548874 -5.713016 0.851977
vn 0.029688 0.794734 0.606231
v 27.601120 -5.711702 0.875490
vn 0.391011 0.786141 0.478637
v 27.624634 -5.702963 0.851976
vn 0.705218 0.567261 0.425302
v 27.634010 -5.713014 0.851975
vn -0.868938 -0.494243 -0.025888
v 27.721512 -5.924624 0.946025
vn -0.161955 0.110208 0.980625
v 27.789227 -5.877603 1.145500
vn -0.117464 -0.877113 -0.465699
v 27.413025 -5.783551 0.311190
vn -0.878902 -0.445723 0.169888
v 27.399105 -5.736525 0.240652
vn -0.999899 0.000851 0.014171
v 27.407543 -5.760038 0.287677
# 298 vertices, 0 vertices normals


usemtl material_0
vt 0.052591 0.389167
vt 0.053347 0.389893
vt 0.051514 0.389893
f 1/1/1 2/2/2 3/3/3
vt 0.908341 0.925049
vt 0.907394 0.924078
vt 0.903076 0.925049
f 4/4/4 5/5/5 6/6/6
vt 0.989014 0.467843
vt 0.989014 0.421859
vt 0.995645 0.437413
f 7/7/7 8/8/8 9/9/9
vt 0.992964 0.464155
f 9/9/9 10/10/10 7/7/7
vt 0.997715 0.441316
f 9/9/9 11/11/11 10/10/10
vt 0.996748 0.468093
f 11/11/11 12/12/12 10/10/10
vt 0.997226 0.471924
f 11/11/11 13/13/13 12/12/12
vt 0.994712 0.417405
f 8/8/8 14/14/14 9/9/9
vt 0.991362 0.406606
f 8/8/8 15/15/15 14/14/14
vt 0.995113 0.410552
f 15/15/15 16/16/16 14/14/14
vt 0.992707 0.471801
f 13/13/13 17/17/17 12/12/12
vt 0.938077 0.956299
vt 0.918741 0.955890
vt 0.914795 0.956298
f 18/18/18 19/19/19 20/20/20
vt 0.736178 0.874267
vt 0.732142 0.871840
vt 0.727295 0.874268
f 21/21/21 22/22/22 23/23/23
vt 0.902976 0.873294
vt 0.899170 0.874268
vt 0.906861 0.874268
f 24/24/24 25/25/25 26/26/26
vt 0.991526 0.402775
vt 0.995114 0.399163
vt 0.995239 0.406729
f 27/27/27 28/28/28 29/29/29
vt 0.930420 0.874267
vt 0.938217 0.874268
vt 0.936815 0.873256
f 27/30/27 30/31/30 28/32/28
f 29/29/29 15/15/15 27/27/27
f 29/29/29 16/16/16 15/15/15
vt 0.985108 0.396265
vt 0.987206 0.397456
vt 0.985107 0.401611
f 31/33/31 32/34/32 7/35/7
vt 0.829986 0.874268
vt 0.824504 0.872053
vt 0.821045 0.874268
f 33/36/33 34/37/34 35/38/35
vt 0.814369 0.874268
vt 0.810904 0.872060
vt 0.805420 0.874268
f 35/39/35 34/40/34 36/41/36
vt 0.411041 0.940674
vt 0.411041 0.939310
vt 0.406982 0.940674
f 37/42/37 38/43/38 39/44/39
vt 0.858931 0.874268
vt 0.857445 0.873613
vt 0.852295 0.874268
f 2/45/2 1/46/1 44/47/44
vt 0.854681 0.872190
f 1/46/1 45/48/45 44/47/44
vt 0.162759 0.345897
vt 0.174331 0.357287
vt 0.174211 0.341992
f 46/49/46 47/50/47 48/51/48
vt 0.204822 0.341724
vt 0.227812 0.345365
vt 0.231678 0.345564
f 52/52/52 54/53/54 53/54/53
vt 0.212631 0.360790
vt 0.208772 0.356993
vt 0.205012 0.361069
f 55/55/55 58/56/58 49/57/49
vt 0.201115 0.357031
f 59/58/59 49/57/49 58/56/58
vt 0.387431 0.051751
vt 0.383574 0.054637
vt 0.379639 0.016251
f 60/59/60 61/60/61 25/61/25
vt 0.385058 0.000887
f 25/61/25 62/62/62 60/59/60
vt 0.394953 0.039571
vt 0.394548 0.054852
f 60/59/60 63/63/63 11/64/11
vt 0.393697 0.058802
vt 0.386786 0.054618
f 11/64/11 9/65/9 64/66/64
f 64/66/64 60/59/60 11/64/11
f 64/66/64 61/60/61 60/59/60
vt 0.384475 0.077594
vt 0.392726 0.078811
f 65/67/65 9/65/9 14/68/14
f 65/67/65 64/66/64 9/65/9
vt 0.385848 0.085205
f 14/68/14 66/69/66 65/67/65
vt 0.379639 0.081188
f 66/69/66 67/70/67 65/67/65
vt 0.382863 0.085158
f 66/69/66 68/71/68 67/70/67
vt 0.382054 0.062253
f 69/72/69 61/60/61 64/66/64
f 64/66/64 65/67/65 69/72/69
vt 0.185718 0.345694
vt 0.178004 0.338118
f 70/73/70 50/74/50 48/51/48
vt 0.178126 0.353415
f 48/51/48 71/75/71 70/73/70
f 48/51/48 47/50/47 71/75/71
vt 0.189483 0.338025
f 70/73/70 51/76/51 50/74/50
vt 0.181983 0.357197
f 47/50/47 72/77/72 71/75/71
vt 0.747519 0.003174
vt 0.745719 0.001806
vt 0.742920 0.003174
f 73/78/73 74/79/74 75/80/75
vt 0.834643 0.198486
vt 0.835456 0.191946
vt 0.839478 0.192368
f 81/81/81 82/82/82 83/83/83
vt 0.297427 0.014833
vt 0.282612 0.001024
vt 0.275421 0.004080
f 85/84/85 87/85/87 86/86/86
vt 0.004435 0.889967
vt 0.010522 0.903779
vt 0.011838 0.882463
f 41/87/41 40/88/40 42/89/42
vt 0.386244 0.026319
vt 0.391395 0.038021
f 60/59/60 88/90/88 89/91/89
vt 0.000732 0.893719
f 41/87/41 43/92/43 40/88/40
f 60/59/60 89/91/89 63/63/63
vt 0.664795 0.003174
vt 0.670678 0.003174
vt 0.669863 0.002090
f 90/93/90 5/94/5 4/95/4
vt 0.474230 0.077393
vt 0.469749 0.074339
vt 0.472672 0.073424
f 91/96/91 92/97/92 93/98/93
vt 0.754082 0.512507
vt 0.762363 0.518799
vt 0.766344 0.517227
f 73/99/73 94/100/94 95/101/95
vt 0.475057 0.031549
vt 0.472901 0.069602
vt 0.466034 0.035114
f 96/102/96 97/103/97 98/104/98
vt 0.596554 0.506899
vt 0.585265 0.505278
vt 0.585402 0.506765
f 99/105/99 100/106/100 101/107/101
vt 0.413875 0.621711
vt 0.421556 0.633202
vt 0.421671 0.626382
f 102/108/102 18/109/18 103/110/103
vt 0.587431 0.495464
vt 0.581858 0.498591
vt 0.588371 0.501305
f 104/111/104 105/112/105 106/113/106
vt 0.609868 0.498483
vt 0.602896 0.494694
vt 0.599267 0.501006
f 107/114/107 108/115/108 109/116/109
vt 0.638985 0.499508
vt 0.645785 0.494300
vt 0.638403 0.494293
f 44/117/44 110/118/110 111/119/111
vt 0.649010 0.497701
vt 0.645548 0.491999
f 110/118/110 112/120/112 113/121/113
vt 0.601558 0.497137
vt 0.593666 0.492165
vt 0.598253 0.493674
f 114/122/114 115/123/115 116/124/116
vt 0.463688 0.624439
vt 0.456135 0.627571
vt 0.463692 0.629820
f 117/125/117 118/126/118 119/127/119
vt 0.592097 0.497155
vt 0.588712 0.493470
f 104/111/104 120/128/120 121/129/121
vt 0.080138 0.122860
vt 0.087470 0.123290
vt 0.080052 0.115411
f 122/130/122 123/131/123 124/132/124
vt 0.081168 0.092219
vt 0.068820 0.111138
vt 0.088383 0.092732
f 125/133/125 126/134/126 127/135/127
vt 0.641357 0.010986
vt 0.649009 0.007154
vt 0.648950 0.006300
f 128/136/128 79/137/79 78/138/78
vt 0.166105 0.218576
vt 0.172043 0.198884
vt 0.162426 0.210912
f 129/139/129 130/140/130 131/141/131
vt 0.149923 0.220399
f 132/142/132 129/139/129 131/141/131
vt 0.406236 0.644948
vt 0.463600 0.642632
vt 0.398521 0.635787
f 136/143/136 137/144/137 20/145/20
vt 0.478925 0.649130
f 136/143/136 138/146/138 137/144/137
vt 0.482718 0.642358
f 138/146/138 139/147/139 137/144/137
vt 0.394675 0.636245
f 20/145/20 140/148/140 136/143/136
vt 0.484285 0.646806
f 138/146/138 141/149/141 139/147/139
vt 0.475163 0.650658
f 142/150/142 138/146/138 136/143/136
vt 0.398780 0.651611
f 136/143/136 143/151/143 142/150/142
vt 0.005851 0.159424
vt 0.004639 0.151391
vt 0.000732 0.155106
f 138/152/138 144/153/144 141/154/141
vt 0.010126 0.155173
f 138/152/138 145/155/145 144/153/144
vt 0.009843 0.159095
f 138/152/138 142/156/142 145/155/145
vt 0.006264 0.147406
vt 0.001052 0.147444
f 146/157/146 147/158/147 144/153/144
vt 0.825188 0.518799
vt 0.814655 0.500600
vt 0.812762 0.515929
f 148/159/148 149/160/149 150/161/150
vt 0.375869 0.651611
vt 0.394961 0.651490
vt 0.375732 0.643263
f 151/162/151 152/163/152 149/164/149
vt 0.115117 0.033830
vt 0.126270 0.030027
vt 0.117515 0.021120
f 150/165/150 153/166/153 148/167/148
vt 0.125812 0.025572
f 153/166/153 92/168/92 148/167/148
vt 0.048274 0.156397
vt 0.086287 0.159424
vt 0.090107 0.159280
f 154/169/154 143/170/143 152/171/152
vt 0.128331 0.159135
f 152/171/152 148/172/148 154/169/154
f 154/169/154 142/156/142 143/170/143
f 154/169/154 145/155/145 142/156/142
vt 0.383210 0.636212
f 152/163/152 140/148/140 62/173/62
f 62/173/62 149/164/149 152/163/152
f 152/163/152 136/143/136 140/148/140
f 152/163/152 143/151/143 136/143/136
vt 0.466158 0.046625
f 155/174/155 98/104/98 97/103/97
vt 0.465576 0.073451
f 97/103/97 153/175/153 155/174/155
f 97/103/97 92/97/92 153/175/153
f 97/103/97 93/98/93 92/97/92
vt 0.652760 0.009033
vt 0.698881 0.010986
f 96/176/96 128/136/128 148/177/148
vt 0.690763 0.003753
f 148/177/148 97/178/97 96/176/96
f 96/176/96 79/137/79 128/136/128
vt 0.698574 0.006088
f 148/177/148 91/179/91 97/178/97
vt 0.694584 0.003476
f 91/179/91 93/180/93 97/178/97
vt 0.897784 0.264808
vt 0.881814 0.255349
vt 0.878677 0.267815
f 56/181/56 23/182/23 55/183/55
vt 0.893407 0.256334
f 56/181/56 156/184/156 23/182/23
vt 0.075455 0.142010
f 148/172/148 35/185/35 154/169/154
vt 0.110237 0.127878
f 148/172/148 157/186/157 35/185/35
vt 0.098792 0.127497
f 157/186/157 158/187/158 35/185/35
vt 0.263568 0.237549
vt 0.221052 0.198822
vt 0.227682 0.233413
f 148/188/148 128/189/128 157/190/157
vt 0.218100 0.220897
f 128/189/128 159/191/159 157/190/157
vt 0.064141 0.137776
f 35/185/35 160/192/160 154/169/154
vt 0.211478 0.205910
f 128/189/128 161/193/161 159/191/159
vt 0.214123 0.222668
f 161/193/161 162/194/162 159/191/159
vt 0.199176 0.210769
f 161/193/161 163/195/163 162/194/162
vt 0.186451 0.229885
f 163/195/163 127/196/127 162/194/162
vt 0.188416 0.208987
f 163/195/163 164/197/164 127/196/127
f 164/197/164 129/139/129 127/196/127
vt 0.137451 0.229939
f 129/139/129 165/198/165 127/196/127
f 129/139/129 132/142/132 165/198/165
vt 0.205533 0.230468
f 127/196/127 166/199/166 162/194/162
vt 0.083311 0.134625
f 158/187/158 167/200/167 35/185/35
f 164/197/164 130/140/130 129/139/129
vt 0.099454 0.108324
f 127/135/127 124/132/124 166/201/166
f 127/135/127 126/134/126 124/132/124
vt 0.095465 0.112065
f 124/132/124 168/202/168 166/201/166
f 158/187/158 123/131/123 167/200/167
f 124/132/124 123/131/123 168/202/168
vt 0.095205 0.119730
f 123/131/123 169/203/169 168/202/168
vt 0.201751 0.207934
f 161/193/161 6/204/6 163/195/163
f 158/187/158 169/203/169 123/131/123
vt 0.072434 0.115126
f 126/134/126 170/205/170 124/132/124
vt 0.218003 0.196459
f 128/189/128 171/206/171 161/193/161
vt 0.209288 0.228585
f 166/199/166 172/207/172 162/194/162
vt 0.203104 0.202856
f 161/193/161 4/208/4 6/204/6
vt 0.064808 0.114872
f 126/134/126 173/209/173 170/205/170
vt 0.064961 0.111045
f 126/134/126 174/210/174 173/209/173
vt 0.057546 0.103148
f 174/210/174 175/211/175 173/209/173
vt 0.952918 0.604002
vt 0.929996 0.608513
vt 0.941456 0.608392
f 176/212/176 99/213/99 101/214/101
vt 0.914676 0.605268
f 176/212/176 95/215/95 99/213/99
vt 0.910889 0.608643
f 95/215/95 94/216/94 99/213/99
vt 0.960617 0.608643
f 101/214/101 177/217/177 176/212/176
vt 0.812345 0.500672
vt 0.807493 0.507107
f 149/160/149 179/218/179 180/219/180
vt 0.804309 0.513101
vt 0.812334 0.515213
f 180/219/180 176/220/176 178/221/178
vt 0.803755 0.509155
f 180/219/180 181/222/181 176/220/176
vt 0.790964 0.498800
vt 0.752619 0.498050
f 95/101/95 25/223/25 61/224/61
f 95/101/95 176/220/176 25/223/25
f 61/224/61 73/99/73 95/101/95
vt 0.799527 0.505738
f 176/220/176 182/225/182 25/223/25
vt 0.745839 0.507589
f 61/224/61 183/226/183 73/99/73
vt 0.745106 0.500059
f 61/224/61 69/227/69 183/226/183
vt 0.798609 0.498715
f 182/225/182 26/228/26 25/223/25
vt 0.746887 0.517063
f 183/226/183 184/229/184 73/99/73
vt 0.743440 0.511792
f 183/226/183 185/230/185 184/229/184
vt 0.753081 0.514533
f 184/229/184 74/231/74 73/99/73
vt 0.742920 0.515685
f 185/230/185 186/232/186 184/229/184
f 182/225/182 176/220/176 181/222/181
vt 0.874886 0.266220
vt 0.877999 0.253467
f 58/233/58 23/182/23 22/234/22
f 58/233/58 55/183/55 23/182/23
vt 0.874273 0.256891
vt 0.870519 0.257860
f 58/233/58 187/235/187 188/236/188
vt 0.866940 0.263018
f 188/236/188 59/237/59 58/233/58
f 58/233/58 22/234/22 187/235/187
vt 0.866426 0.256076
f 188/236/188 189/238/189 59/237/59
vt 0.806213 0.493773
f 179/218/179 149/160/149 62/239/62
vt 0.871111 0.268799
vt 0.847971 0.265506
vt 0.840576 0.268799
f 49/240/49 72/241/72 47/242/47
f 49/240/49 59/237/59 72/241/72
vt 0.853096 0.259270
f 59/237/59 28/243/28 72/241/72
vt 0.851507 0.259863
f 28/243/28 30/244/30 72/241/72
vt 0.847740 0.260670
f 30/244/30 190/245/190 72/241/72
vt 0.384466 0.614709
vt 0.394103 0.616823
f 88/246/88 62/173/62 13/247/13
vt 0.394580 0.632934
f 62/173/62 191/248/191 13/247/13
f 62/173/62 140/148/140 191/248/191
vt 0.856421 0.252296
f 28/243/28 189/238/189 29/249/29
f 28/243/28 59/237/59 189/238/189
vt 0.862043 0.249131
f 189/238/189 66/250/66 29/249/29
vt 0.402354 0.630251
vt 0.402372 0.635190
f 192/251/192 20/145/20 19/252/19
f 192/251/192 191/248/191 20/145/20
f 191/248/191 140/148/140 20/145/20
f 137/144/137 118/126/118 18/109/18
f 18/109/18 20/145/20 137/144/137
f 118/126/118 103/110/103 18/109/18
f 137/144/137 119/127/119 118/126/118
vt 0.022848 0.113506
vt 0.008949 0.044256
f 193/253/193 194/254/194 146/157/146
vt 0.024561 0.056189
f 193/253/193 195/255/195 194/254/194
vt 0.030691 0.109889
f 193/253/193 196/256/196 195/255/195
f 196/256/196 175/211/175 195/255/195
vt 0.026466 0.121258
f 146/157/146 197/257/197 193/253/193
f 146/157/146 145/155/145 197/257/197
vt 0.037786 0.125459
f 145/155/145 198/258/198 197/257/197
f 145/155/145 154/169/154 198/258/198
vt 0.060468 0.133840
f 154/169/154 199/259/199 198/258/198
vt 0.045687 0.118046
f 196/256/196 200/260/200 175/211/175
f 154/169/154 160/192/160 199/259/199
f 199/259/199 200/260/200 198/258/198
f 199/259/199 173/209/173 200/260/200
vt 0.012765 0.040557
f 195/255/195 201/261/201 194/254/194
vt 0.028614 0.048667
f 195/255/195 202/262/202 201/261/201
f 199/259/199 170/205/170 173/209/173
f 173/209/173 175/211/175 200/260/200
vt 0.467539 0.641004
vt 0.467580 0.631824
f 119/127/119 203/263/203 204/264/204
f 119/127/119 137/144/137 203/263/203
f 204/264/204 117/125/117 119/127/119
vt 0.475273 0.643517
f 205/265/205 203/263/203 137/144/137
vt 0.115605 0.038330
f 206/266/206 153/166/153 150/165/150
vt 0.130722 0.038330
f 206/266/206 155/267/155 153/166/153
vt 0.895104 0.256626
f 207/268/207 156/184/156 56/181/56
vt 0.901627 0.262747
f 56/181/56 57/269/57 207/268/207
vt 0.806710 0.503208
f 181/222/181 180/219/180 208/270/208
vt 0.871206 0.246176
vt 0.869486 0.243639
vt 0.864781 0.248389
f 112/271/112 209/272/209 68/273/68
vt 0.868161 0.251557
f 68/273/68 210/274/210 112/271/112
f 68/273/68 66/250/66 210/274/210
f 66/250/66 189/238/189 210/274/210
vt 0.872877 0.249452
f 210/274/210 211/275/211 112/271/112
f 189/238/189 188/236/188 210/274/210
f 19/252/19 18/109/18 102/108/102
f 102/108/102 192/251/192 19/252/19
vt 0.479193 0.641502
vt 0.472198 0.636321
f 205/265/205 212/276/212 213/277/213
f 213/277/213 203/263/203 205/265/205
f 213/277/213 204/264/204 203/263/203
vt 0.351830 0.002083
vt 0.252579 0.010986
vt 0.352016 0.007433
f 147/278/147 214/279/214 212/280/212
vt 0.252379 0.005159
f 147/278/147 215/281/215 214/279/214
vt 0.355784 0.005512
f 212/280/212 144/282/144 147/278/147
vt 0.355841 0.007306
f 212/280/212 216/283/216 144/282/144
vt 0.355972 0.010986
f 212/280/212 205/284/205 216/283/216
vt 0.620837 0.504296
vt 0.625159 0.503553
vt 0.617692 0.500973
f 73/285/73 75/286/75 217/287/217
vt 0.615100 0.507080
f 217/287/217 94/288/94 73/285/73
vt 0.627590 0.496273
vt 0.605434 0.495660
f 218/289/218 113/121/113 219/290/219
f 219/290/219 217/287/217 218/289/218
f 218/289/218 111/119/111 113/121/113
f 219/290/219 107/114/107 217/287/217
f 107/114/107 94/288/94 217/287/217
f 107/114/107 109/116/109 94/288/94
f 109/116/109 99/105/99 94/288/94
f 217/287/217 75/286/75 218/289/218
vt 0.595621 0.501081
f 109/116/109 220/291/220 99/105/99
f 220/291/220 106/113/106 99/105/99
f 106/113/106 100/106/100 99/105/99
vt 0.630737 0.500031
f 75/286/75 221/292/221 218/289/218
f 111/119/111 110/118/110 113/121/113
vt 0.629104 0.505839
f 75/286/75 184/293/184 221/292/221
vt 0.632390 0.505110
f 184/293/184 186/294/186 221/292/221
vt 0.595038 0.498587
f 109/116/109 222/295/222 220/291/220
vt 0.567139 0.507080
vt 0.579023 0.499254
vt 0.568100 0.500323
f 177/296/177 223/297/223 206/298/206
f 177/296/177 101/107/101 223/297/223
f 101/107/101 105/112/105 223/297/223
f 101/107/101 100/106/100 105/112/105
f 100/106/100 106/113/106 105/112/105
vt 0.003563 0.048125
f 146/157/146 194/254/194 215/299/215
f 215/299/215 147/158/147 146/157/146
f 109/116/109 108/115/108 116/124/116
f 116/124/116 222/295/222 109/116/109
f 116/124/116 115/123/115 222/295/222
f 115/123/115 121/129/121 222/295/222
vt 0.585446 0.489992
f 115/123/115 224/300/224 121/129/121
f 121/129/121 120/128/120 222/295/222
f 120/128/120 220/291/220 222/295/222
f 120/128/120 104/111/104 106/113/106
f 106/113/106 220/291/220 120/128/120
f 108/115/108 219/290/219 114/122/114
f 108/115/108 107/114/107 219/290/219
f 114/122/114 116/124/116 108/115/108
f 104/111/104 121/129/121 224/300/224
f 224/300/224 105/112/105 104/111/104
f 224/300/224 223/297/223 105/112/105
vt 0.079705 0.134380
f 33/301/33 35/185/35 167/200/167
vt 0.072269 0.130257
f 225/302/225 199/259/199 160/192/160
vt 0.072082 0.134123
f 160/192/160 36/303/36 225/302/225
f 160/192/160 35/185/35 36/303/36
f 33/301/33 225/302/225 36/303/36
f 33/301/33 122/130/122 225/302/225
f 225/302/225 122/130/122 170/205/170
f 170/205/170 199/259/199 225/302/225
f 122/130/122 124/132/124 170/205/170
vt 0.099095 0.123563
f 157/186/157 226/304/226 158/187/158
vt 0.110520 0.124320
f 157/186/157 227/305/227 226/304/226
vt 0.034698 0.117385
f 198/258/198 200/260/200 228/306/228
vt 0.034455 0.121286
f 228/306/228 229/307/229 198/258/198
vt 0.028600 0.113541
f 229/307/229 228/306/228 230/308/230
f 230/308/230 197/257/197 229/307/229
f 230/308/230 193/253/193 197/257/197
f 228/306/228 196/256/196 230/308/230
vt 0.465576 0.027581
vt 0.473607 0.027767
f 98/104/98 76/309/76 80/310/80
f 80/310/80 96/102/96 98/104/98
vt 0.723230 0.440674
vt 0.757657 0.432990
vt 0.742354 0.427501
f 77/311/77 231/312/231 232/313/232
vt 0.727038 0.432369
f 232/313/232 37/314/37 77/311/77
vt 0.723201 0.428494
f 232/313/232 233/315/233 37/314/37
vt 0.062836 0.068621
vt 0.036267 0.060154
f 133/316/133 234/317/234 174/210/174
f 174/210/174 125/133/125 133/316/133
f 174/210/174 126/134/126 125/133/125
vt 0.059150 0.065051
vt 0.040227 0.056440
f 135/318/135 235/319/235 234/317/234
f 234/317/234 195/255/195 175/211/175
f 175/211/175 174/210/174 234/317/234
vt 0.717450 0.432372
vt 0.723203 0.433306
f 128/320/128 77/311/77 39/321/39
vt 0.715576 0.440672
f 128/320/128 78/322/78 77/311/77
f 77/311/77 37/314/37 39/321/39
vt 0.718868 0.429610
f 39/321/39 171/323/171 128/320/128
vt 0.723189 0.429811
f 39/321/39 236/324/236 171/323/171
vt 0.753835 0.427642
vt 0.746202 0.424461
f 232/313/232 237/325/237 238/326/238
f 232/313/232 231/312/231 237/325/237
vt 0.757682 0.430284
vt 0.761515 0.428578
vt 0.761512 0.424782
f 239/327/239 81/328/81 240/329/240
f 240/329/240 237/325/237 239/327/239
vt 0.769141 0.431520
f 231/312/231 82/330/82 81/328/81
vt 0.742396 0.421216
vt 0.718851 0.422201
f 233/315/233 241/331/241 161/332/161
f 233/315/233 232/313/232 241/331/241
f 161/332/161 171/323/171 233/315/233
f 232/313/232 238/326/238 241/331/241
f 171/323/171 236/324/236 233/315/233
vt 0.761529 0.421068
vt 0.746236 0.411038
vt 0.746227 0.415758
f 242/333/242 243/334/243 244/335/244
f 244/335/244 237/325/237 242/333/242
f 244/335/244 238/326/238 237/325/237
f 237/325/237 240/329/240 242/333/242
f 244/335/244 241/331/241 238/326/238
vt 0.742414 0.411712
f 243/334/243 245/336/245 244/335/244
vt 0.730902 0.413477
vt 0.718931 0.414157
f 161/332/161 246/337/246 4/338/4
f 161/332/161 241/331/241 246/337/246
vt 0.742373 0.412277
f 241/331/241 247/339/247 246/337/246
vt 0.723234 0.411525
f 246/337/246 90/340/90 4/338/4
f 241/331/241 244/335/244 247/339/247
vt 0.768706 0.429644
f 83/341/83 240/329/240 81/328/81
vt 0.769112 0.429360
f 240/329/240 83/341/83 84/342/84
vt 0.769185 0.421490
f 248/343/248 242/333/242 240/329/240
vt 0.151656 0.236687
f 127/196/127 165/198/165 133/344/133
vt 0.181547 0.236046
f 133/344/133 125/345/125 127/196/127
vt 0.146271 0.237300
f 165/198/165 134/346/134 133/344/133
f 234/317/234 202/262/202 195/255/195
f 234/317/234 235/319/235 202/262/202
vt 0.649838 0.160373
vt 0.642194 0.160527
vt 0.646282 0.167599
f 86/347/86 87/348/87 252/349/252
f 178/221/178 149/160/149 180/219/180
f 150/161/150 149/160/149 178/221/178
vt 0.822956 0.500000
f 148/159/148 151/350/151 149/160/149
vt 0.389912 0.605014
vt 0.393703 0.603820
f 89/351/89 13/247/13 63/352/63
f 89/351/89 88/246/88 13/247/13
vt 0.622443 0.505078
f 74/353/74 184/293/184 75/286/75
vt 0.313961 0.327393
vt 0.310945 0.320862
vt 0.309326 0.327393
f 26/354/26 182/355/182 253/356/253
vt 0.660889 0.698486
vt 0.666375 0.698486
vt 0.662870 0.694323
f 12/357/12 31/358/31 10/359/10
vt 0.322906 0.089111
vt 0.321550 0.084145
vt 0.317139 0.089111
f 72/360/72 190/361/190 71/362/71
vt 0.313567 0.136401
vt 0.311220 0.131691
vt 0.310359 0.135534
f 221/363/221 186/364/186 185/365/185
vt 0.604665 0.709120
vt 0.602295 0.714111
vt 0.605826 0.712591
f 187/366/187 22/367/22 21/368/21
vt 0.322549 0.206299
vt 0.317691 0.200262
vt 0.317139 0.206299
f 254/369/254 211/370/211 210/371/210
vt 0.275910 0.749236
vt 0.270655 0.752467
vt 0.277164 0.753174
f 255/372/255 204/373/204 213/374/213
vt 0.965576 0.827393
vt 0.982691 0.827393
vt 0.970709 0.824540
f 50/375/50 46/376/46 48/377/48
vt 0.954231 0.745361
vt 0.949426 0.740385
vt 0.942139 0.745361
f 198/378/198 229/379/229 197/380/197
vt 0.330649 0.780518
vt 0.337443 0.772698
vt 0.330513 0.769035
f 256/381/256 257/382/257 258/383/258
vt 0.950231 0.748643
vt 0.946045 0.753081
vt 0.952522 0.752856
f 259/384/259 162/385/162 172/386/172
vt 0.324951 0.151611
vt 0.328924 0.151611
vt 0.326063 0.146107
f 236/387/236 39/388/39 260/389/260
vt 0.532886 0.667236
vt 0.529958 0.661809
vt 0.528076 0.667236
f 247/390/247 244/391/244 245/392/245
vt 0.895686 0.866556
vt 0.910982 0.866391
vt 0.903418 0.862850
f 261/393/261 262/394/262 263/395/263
vt 0.001242 0.327393
vt 0.015578 0.323695
vt 0.000732 0.323088
f 251/396/251 264/397/264 265/398/265
vt 0.313571 0.202637
vt 0.309326 0.210205
vt 0.314928 0.210205
f 145/399/145 146/400/146 144/401/144
vt 0.274374 0.025445
vt 0.281449 0.025919
vt 0.280107 0.021965
f 182/402/182 266/403/266 253/404/253
vt 0.274170 0.030518
f 182/402/182 181/405/181 266/403/266
vt 0.696045 0.682861
vt 0.705486 0.682861
vt 0.702732 0.678253
f 179/406/179 62/407/62 267/408/267
vt 0.697297 0.678431
f 267/408/267 268/409/268 179/406/179
vt 0.774922 0.792236
vt 0.763798 0.788931
vt 0.758545 0.792236
f 25/410/25 269/411/269 62/412/62
vt 0.771585 0.790201
f 25/410/25 24/413/24 269/411/269
vt 0.760446 0.787522
f 269/411/269 267/414/267 62/412/62
vt 0.262451 0.753174
f 204/373/204 255/372/255 117/415/117
vt 0.317139 0.803955
vt 0.335997 0.803955
vt 0.328344 0.798658
f 137/416/137 139/417/139 205/418/205
vt 0.332122 0.798567
f 139/417/139 216/419/216 205/418/205
vt 0.337951 0.799925
f 216/419/216 139/417/139 141/420/141
vt 0.333693 0.797478
f 141/420/141 144/421/144 216/419/216
vt 0.280569 0.030518
f 208/422/208 266/403/266 181/405/181
vt 0.320487 0.604736
vt 0.317206 0.600426
vt 0.317139 0.604736
f 112/423/112 110/424/110 209/425/209
vt 0.848454 0.690674
vt 0.849094 0.686534
vt 0.848389 0.686486
f 110/426/110 270/427/270 209/428/209
vt 0.321612 0.476873
vt 0.320760 0.474615
vt 0.317139 0.479736
f 32/429/32 31/430/31 12/431/12
vt 0.322656 0.479736
f 12/431/12 17/432/17 32/429/32
vt 0.102295 0.162456
vt 0.107741 0.167236
vt 0.111205 0.159053
f 57/433/57 53/434/53 271/435/271
vt 0.108706 0.156260
f 271/435/271 207/436/207 57/433/57
vt 0.111528 0.167015
f 53/434/53 54/437/54 271/435/271
vt 0.121603 0.153174
vt 0.110355 0.155758
f 271/435/271 23/438/23 156/439/156
f 156/439/156 207/436/207 271/435/271
vt 0.134636 0.167236
vt 0.129730 0.156706
f 23/438/23 52/440/52 21/441/21
f 23/438/23 54/437/54 52/440/52
f 23/438/23 271/435/271 54/437/54
vt 0.134039 0.161703
f 52/440/52 272/442/272 21/441/21
vt 0.133662 0.154232
f 272/442/272 273/443/273 21/441/21
vt 0.298070 0.091271
vt 0.300503 0.095079
vt 0.302774 0.093846
f 208/444/208 274/445/274 266/446/266
vt 0.297607 0.096924
f 208/444/208 275/447/275 274/445/274
vt 0.857835 0.687581
f 110/426/110 45/448/45 270/427/270
vt 0.858028 0.690674
f 110/426/110 44/449/44 45/448/45
vt 0.936254 0.723467
vt 0.930420 0.722549
vt 0.932281 0.725830
f 253/450/253 24/451/24 26/452/26
vt 0.938018 0.722335
f 253/450/253 276/453/276 24/451/24
vt 0.939656 0.725830
f 253/450/253 266/454/266 276/453/276
vt 0.608265 0.707814
f 21/368/21 188/455/188 187/366/187
vt 0.609557 0.711693
f 21/368/21 273/456/273 188/455/188
vt 0.613201 0.710526
f 273/456/273 277/457/277 188/455/188
vt 0.614398 0.714111
f 273/456/273 278/458/278 277/457/277
vt 0.811022 0.708611
vt 0.805420 0.714111
vt 0.814496 0.714111
f 276/459/276 279/460/279 280/461/280
vt 0.806235 0.711051
f 276/459/276 281/462/281 279/460/279
vt 0.817966 0.712555
f 280/461/280 24/463/24 276/459/276
vt 0.323186 0.213261
vt 0.321632 0.208083
vt 0.317139 0.214111
f 254/464/254 210/465/210 188/466/188
vt 0.323231 0.214111
f 188/466/188 277/467/277 254/464/254
vt 0.770150 0.786701
vt 0.764555 0.785617
f 269/411/269 280/468/280 282/469/282
f 269/411/269 24/413/24 280/468/280
vt 0.667348 0.694197
f 7/470/7 10/359/10 31/358/31
vt 0.145387 0.364610
vt 0.157835 0.364487
vt 0.155549 0.353444
f 70/471/70 283/472/283 284/473/284
vt 0.150682 0.371386
f 70/471/70 30/474/30 283/472/283
vt 0.158696 0.355357
f 283/472/283 285/475/285 284/473/284
vt 0.156624 0.367139
f 30/474/30 27/476/27 283/472/283
vt 0.147918 0.373739
f 70/471/70 190/477/190 30/474/30
vt 0.141357 0.374268
f 70/471/70 71/478/71 190/477/190
vt 0.304398 0.296519
vt 0.302074 0.299881
vt 0.304963 0.300049
f 286/479/286 274/480/274 275/481/275
vt 0.299646 0.295846
f 286/479/286 287/482/287 274/480/274
vt 0.297906 0.300049
f 274/480/274 287/482/287 281/483/281
vt 0.304458 0.096924
f 281/484/281 266/446/266 274/445/274
vt 0.297607 0.297219
f 287/482/287 288/485/288 281/483/281
vt 0.942080 0.724509
f 281/486/281 276/453/276 266/454/266
vt 0.138476 0.159507
f 273/443/273 272/442/272 285/487/285
vt 0.138319 0.156161
f 285/487/285 278/488/278 273/443/273
vt 0.138326 0.162876
f 272/442/272 284/489/284 285/487/285
vt 0.159449 0.368838
f 283/472/283 27/476/27 15/490/15
vt 0.170719 0.374268
f 15/490/15 8/491/8 283/472/283
vt 0.242920 0.237549
vt 0.254404 0.237549
vt 0.249875 0.227060
f 159/492/159 256/493/256 227/494/227
vt 0.249107 0.223056
f 227/494/227 157/495/157 159/492/159
vt 0.253583 0.227767
f 256/493/256 289/496/289 227/494/227
vt 0.302730 0.242513
vt 0.297607 0.245361
vt 0.306163 0.245361
f 226/497/226 169/498/169 158/499/158
vt 0.317490 0.745361
vt 0.307043 0.739379
vt 0.306280 0.743225
f 227/500/227 290/501/290 226/502/226
vt 0.318248 0.741519
f 227/500/227 289/503/289 290/501/290
vt 0.321317 0.769038
f 290/504/290 256/381/256 258/383/258
vt 0.321045 0.780518
f 290/504/290 289/505/289 256/381/256
vt 0.330464 0.768816
f 258/383/258 291/506/291 290/504/290
vt 0.994399 0.780518
vt 0.996402 0.775316
vt 0.986905 0.772174
f 291/507/291 292/508/292 169/509/169
vt 0.985107 0.780518
f 169/509/169 290/510/290 291/507/291
vt 0.994139 0.769691
f 292/508/292 168/511/168 169/509/169
vt 0.301514 0.745361
f 169/512/169 226/502/226 290/501/290
vt 0.741489 0.773142
vt 0.731201 0.780518
vt 0.748297 0.780517
f 228/513/228 200/514/200 196/515/196
vt 0.258545 0.550049
vt 0.270041 0.550049
vt 0.268429 0.545896
f 256/516/256 159/517/159 162/518/162
vt 0.260935 0.539151
f 162/518/162 257/519/257 256/516/256
vt 0.262940 0.537934
f 162/518/162 259/520/259 257/519/257
vt 0.680420 0.714111
vt 0.686134 0.710599
vt 0.684115 0.709644
f 258/521/258 293/522/293 292/523/292
vt 0.689319 0.714111
f 258/521/258 257/524/257 293/522/293
vt 0.333319 0.767244
f 292/525/292 291/506/291 258/383/258
vt 0.691290 0.712768
f 257/524/257 259/526/259 293/522/293
vt 0.794093 0.670297
vt 0.793362 0.674044
vt 0.798144 0.675049
f 231/527/231 239/528/239 237/529/237
vt 0.789795 0.675049
f 231/527/231 81/530/81 239/528/239
vt 0.531558 0.751288
vt 0.527322 0.747602
vt 0.531758 0.753174
f 236/531/236 260/532/260 233/533/233
vt 0.516357 0.753174
f 260/532/260 294/534/294 233/533/233
vt 0.684323 0.961268
vt 0.680420 0.964111
vt 0.695812 0.964111
f 38/535/38 233/536/233 294/537/294
vt 0.684264 0.960009
f 38/535/38 37/538/37 233/536/233
vt 0.266213 0.089213
vt 0.258545 0.096924
vt 0.270026 0.096924
f 240/539/240 84/540/84 248/541/248
vt 0.047223 0.316089
vt 0.035933 0.323565
vt 0.047301 0.327393
f 84/542/84 295/543/295 248/544/248
vt 0.035708 0.311954
f 84/542/84 250/545/250 295/543/295
vt 0.296383 0.694052
vt 0.302480 0.698486
vt 0.302006 0.694422
f 90/546/90 6/547/6 5/548/5
vt 0.289795 0.698486
f 90/546/90 246/549/246 6/547/6
vt 0.899643 0.874268
f 246/550/246 262/394/262 261/393/261
vt 0.911019 0.870217
f 246/550/246 245/551/245 262/394/262
vt 0.911192 0.874268
f 246/550/246 247/552/247 245/551/245
vt 0.887493 0.870431
f 261/393/261 6/553/6 246/550/246
vt 0.887451 0.866636
f 261/393/261 163/554/163 6/553/6
vt 0.914887 0.870249
f 245/551/245 243/555/243 262/394/262
vt 0.253507 0.346568
vt 0.249388 0.338769
vt 0.242920 0.354736
f 261/556/261 263/557/263 164/558/164
vt 0.253779 0.354736
f 164/558/164 163/559/163 261/556/261
vt 0.009013 0.316054
f 250/545/250 249/560/249 264/397/264
f 264/397/264 295/543/295 250/545/250
f 265/398/265 264/397/264 249/560/249
vt 0.309225 0.710686
vt 0.305420 0.714111
vt 0.315444 0.714111
f 194/561/194 201/562/201 214/563/214
vt 0.309326 0.139893
vt 0.313719 0.139893
f 185/365/185 183/564/183 296/565/296
vt 0.664404 0.678249
vt 0.664544 0.682397
vt 0.668776 0.682861
f 209/566/209 67/567/67 68/568/68
vt 0.322946 0.448486
vt 0.320079 0.445777
vt 0.317139 0.448486
f 267/569/267 269/570/269 282/571/282
vt 0.269418 0.216789
vt 0.267523 0.225830
vt 0.271309 0.224601
f 279/572/279 282/573/282 280/574/280
vt 0.318322 0.156809
vt 0.317139 0.159424
vt 0.320339 0.159424
f 281/575/281 288/576/288 279/577/279
vt 0.317139 0.175049
vt 0.323051 0.175049
vt 0.318096 0.169215
f 34/578/34 33/579/33 36/580/36
vt 0.997650 0.745361
vt 0.992408 0.741991
vt 0.989013 0.745361
f 193/581/193 230/582/230 196/583/196
vt 0.954904 0.753174
vt 0.955586 0.747933
f 172/386/172 166/584/166 293/585/293
f 293/585/293 259/384/259 172/386/172
vt 0.266490 0.217976
f 282/573/282 279/572/279 288/586/288
vt 0.263957 0.218773
f 288/586/288 287/587/287 282/573/282
vt 0.261932 0.225830
f 287/587/287 267/588/267 282/573/282
vt 0.258545 0.221748
f 287/587/287 268/589/268 267/588/267
vt 0.260260 0.216586
f 287/587/287 286/590/286 268/589/268
vt 0.610348 0.675049
vt 0.608605 0.670792
vt 0.604878 0.670525
f 179/591/179 268/592/268 208/593/208
vt 0.602295 0.675049
f 208/593/208 180/594/180 179/591/179
vt 0.297608 0.385986
vt 0.303048 0.385986
vt 0.299583 0.382813
f 268/595/268 286/596/286 208/597/208
vt 0.305315 0.383178
f 286/596/286 275/598/275 208/597/208
vt 0.985361 0.734648
vt 0.977295 0.737549
vt 0.988591 0.737549
f 296/599/296 111/600/111 218/601/218
vt 0.977684 0.732619
f 296/599/296 44/602/44 111/600/111
vt 0.982633 0.729459
f 296/599/296 2/603/2 44/602/44
vt 0.993062 0.949718
vt 0.985107 0.956299
vt 0.992119 0.955685
f 66/604/66 14/605/14 16/606/16
vt 0.995893 0.956299
f 16/606/16 29/607/29 66/604/66
vt 0.478614 0.667236
vt 0.476419 0.663869
vt 0.473389 0.667236
f 221/608/221 296/609/296 218/610/218
f 221/363/221 185/365/185 296/565/296
vt 0.281535 0.782724
vt 0.286810 0.789285
vt 0.289911 0.784347
f 45/611/45 297/612/297 270/613/270
vt 0.278634 0.786632
f 45/611/45 298/614/298 297/612/297
vt 0.322682 0.487549
vt 0.319481 0.484697
vt 0.317139 0.487549
f 45/615/45 3/616/3 298/617/298
vt 0.321276 0.484776
f 45/615/45 1/618/1 3/616/3
vt 0.287254 0.792236
f 298/614/298 65/619/65 297/612/297
vt 0.271789 0.792236
f 298/614/298 69/620/69 65/619/65
vt 0.270264 0.785000
f 298/614/298 183/621/183 69/620/69
vt 0.274172 0.783449
f 298/614/298 296/622/296 183/621/183
vt 0.289971 0.786790
f 67/623/67 297/612/297 65/619/65
vt 0.663596 0.678447
vt 0.660889 0.682861
f 67/567/67 270/624/270 297/625/297
f 67/567/67 209/566/209 270/624/270
vt 0.519783 0.790537
vt 0.523458 0.786766
vt 0.507939 0.784609
f 284/626/284 52/627/52 51/628/51
vt 0.504639 0.792236
f 51/628/51 70/629/70 284/626/284
vt 0.523756 0.792236
f 284/626/284 272/630/272 52/627/52
vt 0.277563 0.280635
vt 0.282566 0.292236
vt 0.282116 0.280714
f 167/631/167 122/632/122 33/633/33
vt 0.274170 0.292236
f 167/631/167 123/634/123 122/632/122
vt 0.957763 0.747659
f 292/635/292 293/585/293 166/584/166
vt 0.960215 0.753174
f 166/584/166 168/636/168 292/635/292
vt 0.794741 0.665727
vt 0.799899 0.667236
vt 0.796834 0.662687
f 3/637/3 296/638/296 298/639/298
vt 0.793701 0.667236
f 2/640/2 296/638/296 3/637/3
# 500 faces, 640 coords texture

# End of File
