####
#
# OBJ File Generated by Meshlab
#
####
# Object piano_seat.obj
#
# Vertices: 256
# Faces: 504
#
####
mtllib ./piano_seat.obj.mtl

vn -0.165593 0.380654 -0.909770
v 11.970151 -7.357878 0.022630
vn -0.739764 -0.529936 -0.414628
v 11.944440 -7.381390 0.048241
vn -0.588983 0.754627 -0.289200
v 11.946633 -7.379375 0.048245
vn -0.838577 -0.151807 -0.523205
v 11.953198 -7.146256 0.330401
vn -0.664399 0.230283 -0.711016
v 11.923125 -7.075721 0.340239
vn -0.894483 0.200040 -0.399855
v 11.958892 -7.052191 0.330365
vn 0.460296 0.454793 -0.762424
v 11.993657 -7.357849 0.043672
vn -0.038973 -0.999227 -0.005083
v 12.017171 -7.384404 0.142294
vn 0.127087 -0.991891 -0.001422
v 12.040685 -7.364539 0.142293
vn -0.226586 -0.495396 0.838595
v 12.017175 -7.362944 0.165805
vn 0.481710 0.436232 -0.760037
v 12.023381 -7.357840 0.071760
vn -0.268864 0.948672 0.166534
v 12.040685 -7.350982 0.118782
vn -0.040084 0.988551 -0.145466
v 12.040685 -7.323282 0.095270
vn 0.712813 0.013634 -0.701222
v 12.064191 -7.357831 0.108669
vn -0.320889 0.945334 0.058088
v 12.040685 -7.351206 0.142294
vn -0.238962 0.954117 -0.180439
v 12.064198 -7.324939 0.142292
vn 0.150644 0.771845 -0.617706
v 12.064193 -7.347849 0.118874
vn -0.656748 0.516244 -0.549704
v 12.087712 -6.907627 0.236357
vn -0.784827 0.121056 -0.607776
v 12.080764 -6.934649 0.259858
vn -0.580523 0.721166 -0.378038
v 12.087707 -6.906593 0.283352
vn -0.278195 -0.211741 -0.936895
v 12.111222 -7.287332 0.274107
vn -0.568528 0.544462 -0.616715
v 12.158246 -7.310846 0.253587
vn -0.558534 0.364154 -0.745273
v 12.134732 -7.310846 0.281439
vn 0.679075 0.063357 -0.731330
v 12.169202 -7.334357 0.212832
vn 0.217093 0.963639 -0.155791
v 12.158242 -7.323397 0.212835
vn -0.619574 0.696103 -0.362723
v 12.158246 -7.325428 0.236342
vn 0.707017 0.097297 0.700472
v 12.170049 -7.240297 0.353936
vn 0.420924 0.149956 0.894615
v 12.158231 -7.263831 0.389152
vn 0.588828 -0.134876 0.796925
v 12.168674 -7.263820 0.353900
vn -0.022173 -0.237685 0.971089
v 12.205268 -7.287341 0.350677
vn -0.079239 0.476016 0.875860
v 12.228782 -7.287346 0.353924
vn 0.213665 -0.247838 0.944946
v 12.299317 -7.287327 0.351933
vn 0.792551 -0.098297 0.601831
v 12.379436 -7.263824 0.330391
vn 0.295778 0.223109 0.928837
v 12.322831 -7.216798 0.353907
vn 0.527044 -0.038017 0.848987
v 12.369859 -7.263822 0.339974
vn 0.949239 -0.058173 -0.309131
v 12.357411 -6.911134 0.306882
vn 0.308810 0.369982 -0.876213
v 12.322831 -6.911137 0.284672
vn 0.686135 0.644162 -0.338045
v 12.346345 -6.875041 0.306880
vn 0.644632 -0.327586 0.690751
v 12.393369 -7.252732 0.306881
vn 0.810335 -0.063727 0.582491
v 12.405147 -7.240306 0.306865
vn 0.886042 0.052649 0.460607
v 12.405927 -7.216796 0.306881
vn -0.961270 -0.142340 -0.236007
v 11.864034 -7.169761 0.541985
vn -0.671191 -0.571467 -0.472153
v 11.960114 -7.287366 0.400900
vn -0.790172 -0.609503 -0.064305
v 11.884408 -7.263830 0.612540
vn -0.895316 -0.222867 -0.385669
v 11.896312 -7.169687 0.401027
vn -0.715603 -0.447828 -0.536062
v 11.943065 -7.240323 0.377425
vn -0.843744 -0.118913 0.523407
v 11.837230 -7.169805 0.659479
vn -0.642973 -0.405308 0.649855
v 11.871963 -7.240412 0.659515
vn -0.597239 0.497059 0.629474
v 11.852307 -7.052181 0.659498
vn -0.775556 0.503309 0.381043
v 11.875863 -6.981630 0.588973
vn -0.973643 0.113523 -0.197819
v 11.880700 -7.122733 0.494951
vn -0.865198 0.479393 -0.147020
v 11.913938 -6.981605 0.447877
vn 0.312886 0.230802 0.921321
v 11.876103 -7.075720 0.665840
vn 0.346826 0.005481 0.937914
v 11.899598 -7.169771 0.667008
vn -0.105125 -0.620138 0.777418
v 11.876090 -7.244550 0.659577
vn -0.375180 -0.926587 -0.026004
v 11.970082 -7.337091 0.541988
vn -0.107754 -0.897256 0.428159
v 11.970155 -7.334374 0.565532
vn -0.114787 -0.609554 0.784390
v 11.923118 -7.287332 0.638376
vn -0.408134 -0.701288 0.584485
v 11.887971 -7.263825 0.636063
vn -0.900939 0.286585 -0.325851
v 11.899627 -7.028703 0.400934
vn -0.820579 0.148840 -0.551813
v 11.914014 -7.075718 0.353895
vn -0.802530 0.548249 -0.235304
v 11.916215 -6.981636 0.424421
vn 0.592354 0.275288 0.757187
v 11.910527 -7.028693 0.612554
vn 0.570068 0.172172 0.803355
v 11.923127 -7.005184 0.598482
vn 0.103811 0.964017 0.244734
v 11.970096 -6.911073 0.494960
vn -0.047435 0.895502 -0.442522
v 11.970082 -6.931408 0.400907
vn -0.333520 0.936340 0.109693
v 11.923139 -6.934656 0.533018
vn -0.322068 0.513748 0.795195
v 11.899575 -6.958127 0.593972
vn -0.362021 -0.882223 -0.301036
v 11.993657 -7.333051 0.424440
vn -0.343249 -0.708423 -0.616698
v 11.993581 -7.314644 0.400899
vn 0.645768 -0.027769 0.763029
v 11.970134 -7.263824 0.622786
vn 0.578112 0.039233 0.815014
v 11.932876 -7.216808 0.636014
vn 0.710965 0.006537 0.703197
v 11.923045 -7.193296 0.646964
vn 0.761865 0.177800 0.622855
v 11.906995 -7.169780 0.659524
vn -0.770947 -0.413468 -0.484442
v 11.970166 -7.169769 0.306895
vn -0.694552 -0.598433 -0.399343
v 12.002660 -7.240331 0.330350
vn -0.726332 -0.637792 -0.256249
v 12.017163 -7.263820 0.306881
vn 0.838729 0.052892 0.541974
v 11.909562 -7.052207 0.612559
vn 0.404967 0.500785 0.764994
v 11.923135 -6.958159 0.591319
vn 0.802292 0.196506 0.563660
v 11.960671 -7.099139 0.542257
vn 0.767082 0.274596 0.579812
v 11.984569 -7.193206 0.542202
vn 0.835144 0.002989 0.550024
v 11.956340 -7.028783 0.541800
vn 0.579614 0.244269 0.777419
v 11.979403 -7.122756 0.541966
vn -0.246322 0.715449 -0.653803
v 11.970176 -6.973209 0.353917
vn -0.670520 0.614921 0.415061
v 11.993661 -6.978487 0.330396
vn 0.574036 0.381898 0.724318
v 11.970172 -6.950057 0.518514
vn 0.653383 -0.004919 0.757011
v 11.981595 -6.981671 0.518503
vn 0.140078 -0.984091 0.109288
v 11.993653 -7.385959 0.095272
vn 0.457242 -0.749236 -0.479140
v 11.993657 -7.362126 0.048247
vn -0.265985 -0.917611 0.295368
v 12.017171 -7.357904 0.095272
vn -0.852856 0.487274 0.187617
v 11.946635 -7.357878 0.071756
vn -0.781236 0.379930 0.495301
v 11.991588 -7.357877 0.142293
vn -0.594682 -0.701312 0.393083
v 11.993657 -7.360207 0.142293
vn -0.459613 0.484145 0.744553
v 12.015456 -7.357871 0.165807
vn 0.987628 -0.083899 0.132487
v 12.051513 -7.310853 0.541990
vn 0.425756 -0.806222 0.410776
v 12.024487 -7.334369 0.542007
vn -0.251442 -0.797243 -0.548799
v 12.040677 -7.290159 0.353894
vn -0.395049 -0.913075 0.101143
v 12.064193 -7.284600 0.330387
vn 0.810745 0.478396 0.337387
v 12.027425 -7.287500 0.541572
vn 0.732638 0.275389 0.622417
v 11.993667 -6.958159 0.504882
vn 0.828009 0.555505 0.076258
v 12.000566 -6.934650 0.471470
vn -0.876731 -0.356778 0.322570
v 12.111218 -7.357857 0.259857
vn -0.534300 0.844804 -0.028802
v 12.134730 -7.352177 0.236346
vn -0.229129 -0.258706 -0.938387
v 12.040673 -7.216805 0.273967
vn -0.007242 -0.326266 -0.945250
v 12.017179 -7.169769 0.249961
vn -0.754249 -0.256722 -0.604320
v 11.970157 -7.146254 0.272698
vn -0.323410 -0.405881 -0.854790
v 12.064198 -7.276917 0.283369
vn -0.624542 -0.778134 -0.066746
v 12.040694 -7.287323 0.306890
vn -0.797612 0.125269 -0.590019
v 11.970906 -7.052206 0.277659
vn -0.901032 -0.420469 -0.106521
v 11.946637 -7.052203 0.306876
vn -0.704037 0.679051 -0.207896
v 11.993663 -6.958163 0.306888
vn -0.358391 0.457260 -0.813922
v 12.017179 -6.981678 0.275173
vn -0.505748 0.775445 -0.378026
v 12.017169 -6.948324 0.306881
vn -0.414219 0.370705 -0.831264
v 12.040681 -6.961403 0.283363
vn -0.448659 0.576267 0.683098
v 12.017118 -6.948553 0.331121
vn 0.431466 0.443805 0.785413
v 11.993609 -6.981615 0.332529
vn 0.433735 -0.868801 -0.238870
v 12.111218 -7.368764 0.165809
vn 0.709695 -0.081063 -0.699830
v 12.111222 -7.357868 0.154915
vn 0.428435 -0.829004 -0.359440
v 12.064197 -7.334377 0.414148
vn 0.723522 -0.629993 0.282179
v 12.074071 -7.334424 0.471340
vn 0.445105 -0.829623 0.337057
v 12.041165 -7.334252 0.503345
vn -0.194607 -0.026935 -0.980511
v 12.017175 -7.075723 0.248304
vn 0.118981 -0.079811 -0.989684
v 12.017175 -7.122746 0.248690
vn -0.517053 -0.016083 -0.855802
v 11.993665 -7.052209 0.250261
vn 0.874611 0.450771 -0.178494
v 12.010772 -7.028699 0.377417
vn 0.508927 0.472538 0.719515
v 12.054132 -7.075768 0.353354
vn 0.885530 0.461048 0.057199
v 12.022384 -7.052210 0.377418
vn 0.704592 0.706625 -0.065046
v 11.981591 -6.981665 0.353902
vn 0.810966 0.368252 -0.454670
v 12.005921 -6.981674 0.377420
vn 0.877948 0.430897 -0.208651
v 12.017173 -7.010439 0.400931
vn 0.260258 -0.949818 -0.173529
v 12.017171 -7.362383 0.118782
vn 0.299404 -0.949167 -0.097155
v 12.134732 -7.366318 0.212832
vn -0.039289 -0.791575 0.609808
v 12.134732 -7.357877 0.270641
vn 0.086135 -0.901537 -0.424042
v 12.064197 -7.301662 0.377418
vn 0.768331 -0.594119 -0.238095
v 12.069310 -7.310850 0.400928
vn -0.404816 -0.908471 0.103945
v 12.134732 -7.337005 0.306890
vn -0.092394 -0.961174 0.260015
v 12.111222 -7.293931 0.353898
vn 0.155308 0.015709 -0.987741
v 12.040687 -7.052210 0.249758
vn 0.136714 0.059399 0.988828
v 12.299260 -7.052139 0.358499
vn 0.088297 0.268641 0.959185
v 12.275851 -6.887673 0.353300
vn -0.235469 0.699606 0.674615
v 12.111157 -6.887544 0.331294
vn 0.205190 0.319883 0.924971
v 12.087712 -7.099235 0.353891
vn 0.231865 0.065348 0.970551
v 12.158128 -7.169677 0.355206
vn -0.071549 0.991322 0.110275
v 12.228673 -6.856675 0.331985
vn -0.347092 0.917124 -0.195988
v 12.087707 -6.887607 0.304830
vn -0.103296 0.967527 -0.230699
v 12.111217 -6.887596 0.306870
vn 0.048030 0.048988 -0.997644
v 12.064195 -7.193285 0.272117
vn -0.060625 0.120679 -0.990839
v 12.134734 -7.263819 0.271850
vn -0.587708 -0.413054 -0.695691
v 12.127404 -7.310849 0.283364
vn 0.455328 0.077636 -0.886932
v 12.040683 -7.169773 0.272817
vn -0.570748 -0.051803 -0.819490
v 12.084922 -6.958160 0.259858
vn -0.278428 -0.939045 0.201675
v 12.158246 -7.342267 0.283371
vn -0.121925 -0.825236 0.551471
v 12.181758 -7.346543 0.306886
vn -0.302141 -0.947168 0.107625
v 12.181758 -7.359512 0.283371
vn 0.206275 -0.971448 0.117214
v 12.111222 -7.291652 0.377419
vn 0.175496 -0.765407 0.619156
v 12.134732 -7.294827 0.353882
vn -0.577425 0.140383 -0.804284
v 12.111222 -6.934642 0.222863
vn -0.727393 -0.197141 -0.657293
v 12.087712 -6.958163 0.257077
vn -0.391798 -0.430836 -0.812942
v 12.111222 -6.958160 0.224783
vn 0.036131 0.780643 -0.623932
v 12.111222 -6.903869 0.236360
vn 0.120920 0.361887 -0.924346
v 12.205268 -6.911115 0.249427
vn 0.148917 0.599998 -0.786019
v 12.181756 -6.911116 0.248657
vn 0.009210 0.991804 0.127438
v 12.252294 -6.858827 0.330390
vn 0.017266 0.744205 -0.667728
v 12.275809 -6.871849 0.306849
vn 0.587751 0.767363 0.256328
v 12.322831 -6.855886 0.330384
vn 0.138613 0.762899 -0.631483
v 12.322831 -6.868409 0.306880
vn 0.233373 -0.931356 -0.279487
v 12.181756 -7.344674 0.236344
vn 0.535259 -0.208930 -0.818441
v 12.181756 -7.334357 0.226026
vn 0.222551 0.941085 -0.254616
v 12.181758 -7.300933 0.236344
vn 0.208105 0.708313 -0.674526
v 12.158240 -7.304585 0.259903
vn 0.207007 -0.799465 0.563919
v 12.275807 -7.334341 0.330402
vn 0.432883 -0.880673 0.192424
v 12.128591 -7.287332 0.377419
vn 0.117180 -0.501367 -0.857263
v 12.134732 -6.945933 0.212832
vn -0.584459 0.000074 -0.811423
v 12.119472 -6.934645 0.212831
vn 0.075481 0.675918 -0.733102
v 12.134732 -6.923365 0.212835
vn 0.648054 0.078926 -0.757494
v 12.146018 -6.934647 0.212832
vn 0.265376 -0.531433 -0.804459
v 12.205268 -7.345548 0.236344
vn -0.072754 0.075644 0.994477
v 12.266999 -7.240309 0.353889
vn 0.294290 0.059089 0.953888
v 12.181762 -7.240320 0.341695
vn -0.075338 -0.946400 -0.314087
v 12.205268 -7.366151 0.259853
vn 0.423383 0.456282 -0.782658
v 12.205270 -7.323164 0.236346
vn 0.460881 -0.104872 -0.881244
v 12.228784 -7.334358 0.249540
vn 0.521951 0.803349 -0.286701
v 12.164512 -7.310853 0.259901
vn 0.275139 0.340587 -0.899054
v 12.252294 -7.310850 0.272100
vn 0.564118 -0.108555 -0.818527
v 12.263305 -7.334356 0.259857
vn 0.663364 -0.580600 -0.472072
v 12.286321 -7.334359 0.283369
vn 0.488760 -0.853265 -0.181802
v 12.299323 -7.323514 0.306880
vn 0.182045 -0.661779 0.727260
v 12.322835 -7.310853 0.332572
vn 0.314801 -0.933009 -0.174340
v 12.346343 -7.320723 0.306879
vn 0.268115 -0.624721 0.733375
v 12.346345 -7.310840 0.333928
vn 0.648871 0.290133 0.703413
v 12.322835 -6.864109 0.332141
vn -0.064239 0.156913 0.985521
v 12.299325 -7.213979 0.353905
vn 0.437607 0.085424 0.895099
v 12.322835 -7.081628 0.353969
vn 0.685649 -0.105802 0.720202
v 12.334573 -6.934646 0.330418
vn 0.753115 -0.129413 0.645035
v 12.355096 -6.911135 0.330397
vn 0.496343 -0.481704 -0.722222
v 12.299317 -7.310847 0.296638
vn 0.048515 -0.318626 -0.946638
v 12.346347 -7.287332 0.272881
vn 0.367755 -0.736428 -0.567830
v 12.369857 -7.287332 0.286868
vn 0.833294 -0.517926 0.193324
v 12.383588 -7.287334 0.306879
vn 0.823995 0.557910 0.098839
v 12.381593 -6.981675 0.306893
vn 0.654067 0.292096 0.697766
v 12.342898 -6.981670 0.330399
vn 0.986968 0.142026 0.075650
v 12.393380 -7.118005 0.306884
vn 0.870813 -0.365449 0.328833
v 12.382205 -7.263822 0.306882
vn 0.615275 -0.748346 -0.247822
v 12.393386 -7.281139 0.283358
vn 0.956941 -0.236736 -0.167988
v 12.406476 -7.263828 0.283415
vn 0.835698 0.217669 0.504212
v 12.000434 -7.122714 0.495062
vn 0.894618 -0.032552 0.445644
v 11.998458 -7.028751 0.471333
vn 0.960748 0.233306 0.150108
v 12.014703 -7.005139 0.424557
vn 0.887043 -0.083176 0.454133
v 12.004731 -6.981669 0.494978
vn 0.884360 -0.290654 0.365276
v 12.037385 -7.310880 0.518405
vn -0.293891 -0.279020 -0.914208
v 12.111236 -6.981654 0.241450
vn 0.545212 -0.503699 0.670098
v 12.127723 -7.287319 0.400959
vn 0.026437 0.354705 -0.934605
v 12.134732 -7.028697 0.224588
vn -0.582313 -0.187697 -0.791000
v 12.111228 -7.028687 0.250876
vn -0.083442 0.028399 -0.996108
v 12.134742 -7.005171 0.244691
vn -0.205223 -0.318704 -0.925371
v 12.134730 -7.075725 0.259828
vn -0.124815 -0.444712 -0.886934
v 12.134732 -7.052209 0.224588
vn 0.186684 -0.226805 -0.955881
v 12.158261 -7.052183 0.245109
vn 0.218825 0.265227 -0.939026
v 12.228780 -6.934661 0.257627
vn 0.781219 0.076609 -0.619539
v 12.362805 -7.005185 0.283369
vn 0.359486 0.179019 -0.915818
v 12.322864 -7.005171 0.239780
vn 0.826921 0.225759 -0.515010
v 12.358106 -6.981646 0.259810
vn 0.701206 0.710567 -0.058352
v 12.346406 -6.971570 0.283324
vn 0.297545 0.802666 -0.516908
v 12.346347 -6.965665 0.259848
vn 0.245461 0.514286 -0.821741
v 12.322835 -6.969696 0.259826
vn -0.379061 0.231936 -0.895834
v 12.369861 -7.263822 0.266892
vn 0.502496 0.252661 -0.826837
v 12.393357 -7.237631 0.283364
vn 0.417526 -0.077452 -0.905358
v 12.393331 -7.263826 0.271643
vn 0.919176 0.371891 -0.129663
v 12.032029 -7.028610 0.401156
vn 0.360923 -0.039159 -0.931773
v 12.322890 -7.075713 0.236283
vn 0.664011 -0.010836 -0.747644
v 12.379983 -7.146262 0.283352
vn 0.863368 -0.026719 0.503867
v 12.393437 -7.146251 0.318588
vn 0.825375 -0.293722 0.482165
v 12.087831 -7.287294 0.422136
vn 0.647684 0.400046 0.648435
v 12.076365 -7.122744 0.377424
vn 0.878885 0.379729 0.288732
v 12.041173 -7.075601 0.401238
vn 0.858318 0.512033 0.033349
v 12.087731 -7.287330 0.424457
vn 0.420478 -0.019149 -0.907101
v 12.040687 -7.146262 0.277422
vn -0.240493 -0.001990 -0.970649
v 12.087701 -7.005187 0.254689
vn 0.039935 0.043671 -0.998248
v 12.158252 -7.240265 0.277266
vn 0.017788 -0.046706 -0.998750
v 12.299317 -7.240336 0.288232
vn 0.067439 -0.106085 -0.992068
v 12.299321 -7.287330 0.286257
vn -0.118766 -0.180298 -0.976416
v 12.205285 -7.099214 0.247845
vn -0.020746 0.004339 -0.999775
v 12.181760 -7.005182 0.243450
vn 0.287874 -0.347828 -0.892269
v 12.145637 -6.958145 0.236454
vn 0.155924 -0.660110 -0.734807
v 12.134748 -6.958138 0.235275
vn 0.220862 0.179860 -0.958577
v 12.134732 -6.911135 0.242719
vn 0.681634 0.046104 -0.730240
v 12.156304 -6.934649 0.236352
vn -0.014090 0.156947 -0.987507
v 12.252295 -7.005178 0.231490
vn 0.082142 -0.230193 -0.969672
v 12.299321 -7.099188 0.236514
vn 0.199918 -0.221805 -0.954377
v 12.322835 -7.193335 0.280697
vn 0.146814 0.078048 0.986080
v 12.299323 -7.193285 0.348547
vn 0.238716 -0.071383 0.968462
v 12.322839 -7.122746 0.357939
vn 0.299178 -0.054005 0.952668
v 12.369857 -7.190132 0.306884
vn 0.881512 0.276347 -0.382843
v 12.337817 -6.958160 0.283369
vn 0.000000 0.000000 0.000000
v 12.393380 -7.118005 0.306884
vn 0.000000 0.000000 0.000000
v 12.393437 -7.146251 0.318588
# 256 vertices, 0 vertices normals


usemtl material_0
vt 0.835853 0.155348
vt 0.829055 0.155518
vt 0.829394 0.155249
f 1/1/1 2/2/2 3/3/3
vt 0.992920 0.300336
vt 0.998726 0.311499
vt 0.992920 0.315674
f 4/4/4 5/5/5 6/6/6
vt 0.836080 0.150231
f 7/7/7 1/1/1 3/3/3
vt 0.922346 0.382080
vt 0.926076 0.382080
vt 0.923396 0.377511
f 8/8/8 9/9/9 10/10/10
vt 0.879834 0.031194
vt 0.875732 0.038330
vt 0.881646 0.038330
f 11/11/11 12/12/12 13/13/13
vt 0.708371 0.091026
vt 0.713970 0.093018
vt 0.717182 0.090483
f 11/14/11 13/15/13 14/16/14
vt 0.875732 0.057861
vt 0.882875 0.057861
vt 0.878157 0.054296
f 14/17/14 13/18/13 12/19/12
vt 0.918701 0.155518
vt 0.924439 0.155518
vt 0.921660 0.150967
f 15/20/15 16/21/16 17/22/17
vt 0.746871 0.069024
vt 0.750714 0.073308
vt 0.752842 0.068699
f 18/23/18 19/24/19 20/25/20
vt 0.984543 0.287201
vt 0.991949 0.292114
vt 0.990027 0.287430
f 21/26/21 22/27/22 23/28/23
vt 0.866511 0.120885
vt 0.865240 0.123064
vt 0.867720 0.124268
f 24/29/24 25/30/25 26/31/26
vt 0.976044 0.174271
vt 0.971687 0.169225
vt 0.973001 0.175049
f 27/32/27 28/33/28 29/34/29
vt 0.637135 0.604736
vt 0.633301 0.604259
vt 0.621826 0.604736
f 30/35/30 31/36/31 32/37/32
vt 0.848274 0.033324
vt 0.859809 0.038330
vt 0.850354 0.032592
f 33/38/33 34/39/34 35/40/35
vt 0.881877 0.050049
vt 0.880227 0.043566
vt 0.875732 0.050049
f 36/41/36 37/42/37 38/43/38
vt 0.620209 0.604736
vt 0.617668 0.603594
vt 0.614014 0.604736
f 39/44/39 40/45/40 41/46/41
vt 0.859915 0.407676
vt 0.886537 0.387236
vt 0.850117 0.391891
f 42/47/42 43/48/43 44/49/44
vt 0.883123 0.407466
f 42/47/42 45/50/45 43/48/43
vt 0.889235 0.395228
f 45/50/45 46/51/46 43/48/43
vt 0.840576 0.407852
f 44/49/44 47/52/47 42/47/42
vt 0.842388 0.395782
f 44/49/44 48/53/48 47/52/47
vt 0.842056 0.426578
vt 0.854456 0.437729
vt 0.868244 0.415092
f 49/54/49 50/55/50 51/56/51
f 51/56/51 42/47/42 49/54/49
vt 0.878043 0.437402
f 50/55/50 52/57/52 51/56/51
f 42/47/42 47/52/47 49/54/49
vt 0.989014 0.249512
vt 0.993445 0.265510
vt 0.989014 0.268799
f 47/58/47 53/59/53 49/60/49
vt 0.999154 0.250800
f 47/58/47 54/61/54 53/59/53
vt 0.996013 0.238802
f 47/58/47 48/62/48 54/61/54
vt 0.996759 0.238216
f 48/62/48 55/63/55 54/61/54
vt 0.863879 0.073486
vt 0.861610 0.070369
vt 0.846170 0.065969
f 56/64/56 57/65/57 58/66/58
vt 0.842234 0.073486
f 58/66/58 44/67/44 56/64/56
vt 0.840576 0.069989
f 58/66/58 59/68/59 44/67/44
vt 0.846798 0.391759
f 59/69/59 48/53/48 44/49/44
vt 0.647347 0.604736
vt 0.642072 0.604108
vt 0.641357 0.604736
f 59/70/59 55/71/55 48/72/48
vt 0.884002 0.430191
vt 0.891750 0.422449
f 45/50/45 60/73/60 61/74/61
f 45/50/45 51/56/51 60/73/60
f 45/50/45 42/47/42 51/56/51
vt 0.881713 0.437418
f 52/57/52 62/75/62 60/73/60
f 60/73/60 51/56/51 52/57/52
vt 0.885387 0.340028
vt 0.888203 0.351933
vt 0.897306 0.351648
f 49/76/49 63/77/63 50/78/50
vt 0.880740 0.341515
f 49/76/49 53/79/53 63/77/63
vt 0.875732 0.192545
vt 0.880182 0.194580
vt 0.884284 0.186879
f 63/80/63 64/81/64 50/82/50
vt 0.898795 0.168891
vt 0.910704 0.180390
vt 0.895264 0.182861
f 52/83/52 65/84/65 66/85/66
vt 0.914532 0.170630
f 52/83/52 67/86/67 65/84/65
vt 0.866019 0.444580
f 52/57/52 50/55/50 67/87/67
vt 0.895264 0.170287
f 66/85/66 62/88/62 52/83/52
vt 0.928958 0.202393
vt 0.925320 0.198275
vt 0.914795 0.202393
f 50/89/50 68/90/68 67/91/67
vt 0.884854 0.379151
vt 0.865689 0.378620
f 43/48/43 69/92/69 56/93/56
f 56/93/56 44/49/44 43/48/43
vt 0.888479 0.382193
f 43/48/43 70/94/70 69/92/69
vt 0.846405 0.349142
vt 0.848899 0.355895
vt 0.857260 0.350614
f 58/95/58 71/96/71 72/97/72
vt 0.952773 0.179573
vt 0.962832 0.182861
vt 0.963779 0.176153
f 72/98/72 59/99/59 58/100/58
vt 0.949951 0.182861
f 72/98/72 73/101/73 59/99/59
vt 0.861052 0.348291
vt 0.865096 0.343442
vt 0.854246 0.341849
f 73/102/73 54/103/54 55/104/55
vt 0.851334 0.346005
f 55/104/55 59/105/59 73/102/73
vt 0.865015 0.345142
f 73/102/73 74/106/74 54/103/54
vt 0.897378 0.410370
vt 0.901855 0.406313
f 46/51/46 4/107/4 75/108/75
f 46/51/46 45/50/45 4/107/4
vt 0.900004 0.394227
f 75/108/75 76/109/76 46/51/46
f 45/50/45 61/74/61 4/107/4
vt 0.894369 0.422313
f 61/74/61 5/110/5 4/107/4
vt 0.904323 0.390220
f 75/108/75 77/111/77 76/109/76
vt 0.884526 0.351771
f 53/79/53 74/106/74 78/112/78
f 53/79/53 54/103/54 74/106/74
f 78/112/78 63/77/63 53/79/53
vt 0.887570 0.194580
f 50/82/50 64/81/64 79/113/79
vt 0.887374 0.190749
f 79/113/79 68/114/68 50/82/50
vt 0.876990 0.365778
f 74/106/74 80/115/80 78/112/78
vt 0.861357 0.367902
f 74/106/74 81/116/81 80/115/80
f 74/106/74 73/102/73 81/116/81
f 73/102/73 72/97/72 81/116/81
vt 0.888244 0.365602
f 80/115/80 82/117/82 78/112/78
vt 0.664967 0.604736
vt 0.653646 0.602727
vt 0.649170 0.604736
f 81/118/81 83/119/83 80/120/80
vt 0.895699 0.437952
vt 0.898176 0.425466
f 60/73/60 84/121/84 6/122/6
f 60/73/60 62/75/62 84/121/84
f 6/122/6 61/74/61 60/73/60
vt 0.888818 0.444580
f 62/75/62 66/123/66 84/121/84
vt 0.900666 0.436719
f 84/121/84 85/124/85 6/122/6
vt 0.399170 0.119081
vt 0.400787 0.126047
vt 0.399170 0.128174
f 6/125/6 5/126/5 61/127/61
vt 0.899385 0.356118
vt 0.891807 0.355065
f 82/117/82 79/128/79 64/129/64
vt 0.900723 0.370196
f 82/117/82 86/130/86 79/128/79
vt 0.895356 0.371247
f 82/117/82 87/131/87 86/130/86
f 64/129/64 78/112/78 82/117/82
f 64/129/64 63/77/63 78/112/78
vt 0.904393 0.363689
f 67/132/67 79/128/79 86/130/86
vt 0.895174 0.194502
f 67/133/67 68/114/68 79/113/79
vt 0.706825 0.083506
vt 0.702211 0.090680
vt 0.710305 0.087971
f 88/134/88 89/135/89 90/136/90
vt 0.696045 0.084840
f 88/134/88 2/137/2 89/135/89
vt 0.696766 0.091839
f 2/137/2 1/138/1 89/135/89
vt 0.701817 0.091551
f 1/138/1 7/139/7 89/135/89
vt 0.827875 0.152333
f 3/3/3 91/140/91 7/7/7
f 3/3/3 2/2/2 91/140/91
vt 0.834814 0.065674
vt 0.827458 0.059349
vt 0.821224 0.065674
f 91/141/91 88/142/88 92/143/92
vt 0.838292 0.061607
f 91/141/91 2/144/2 88/142/88
vt 0.821045 0.065200
f 88/142/88 93/145/93 92/143/92
vt 0.825067 0.138821
vt 0.824951 0.133592
vt 0.824959 0.139037
f 93/146/93 94/147/94 92/148/92
vt 0.399170 0.260986
vt 0.399252 0.256462
vt 0.400058 0.256795
f 93/149/93 10/150/10 94/151/94
vt 0.918701 0.379918
f 93/152/93 8/8/8 10/10/10
vt 0.824951 0.072847
vt 0.835420 0.083287
vt 0.824951 0.093018
f 71/153/71 57/154/57 95/155/95
vt 0.832136 0.067607
f 71/153/71 58/156/58 57/154/57
vt 0.830593 0.091575
f 57/154/57 96/157/96 95/155/95
vt 0.965576 0.293871
vt 0.972986 0.298917
vt 0.966627 0.308273
f 76/158/76 97/159/97 70/160/70
f 70/94/70 46/51/46 76/109/76
f 70/94/70 43/48/43 46/51/46
vt 0.976282 0.294531
f 76/158/76 98/161/98 97/159/97
vt 0.845070 0.371988
f 71/96/71 99/162/99 81/116/81
f 81/116/81 72/97/72 71/96/71
vt 0.840576 0.374268
f 71/96/71 95/163/95 99/162/99
vt 0.865604 0.004433
vt 0.864014 0.010986
vt 0.871358 0.010986
f 100/164/100 101/165/101 65/166/65
vt 0.907401 0.373329
vt 0.898968 0.374268
f 65/167/65 86/130/86 100/168/100
f 65/167/65 67/132/67 86/130/86
f 86/130/86 87/131/87 100/168/100
vt 0.824951 0.111782
vt 0.830384 0.111778
vt 0.830620 0.133384
f 102/169/102 103/170/103 15/171/15
f 15/171/15 94/147/94 102/169/102
f 15/171/15 92/148/92 94/147/94
vt 0.836203 0.143589
f 15/171/15 11/172/11 92/148/92
f 11/172/11 91/140/91 92/148/92
f 11/172/11 7/7/7 91/140/91
vt 0.833229 0.136107
f 15/171/15 12/173/12 11/172/11
vt 0.835926 0.133391
f 15/171/15 17/174/17 12/173/12
vt 0.843506 0.119664
vt 0.842350 0.117659
vt 0.840576 0.120696
f 17/175/17 14/176/14 12/177/12
vt 0.910950 0.397465
f 75/108/75 104/178/104 77/111/77
vt 0.913329 0.405579
f 75/108/75 105/179/105 104/178/104
vt 0.907110 0.410208
f 75/108/75 106/180/106 105/179/105
vt 0.910708 0.387277
f 104/178/104 107/181/107 77/111/77
vt 0.905666 0.385975
f 107/181/107 108/182/108 77/111/77
vt 0.906850 0.425381
f 4/107/4 6/122/6 109/183/109
f 109/183/109 106/180/106 4/107/4
f 106/180/106 75/108/75 4/107/4
vt 0.993906 0.163330
vt 0.990622 0.160536
vt 0.985107 0.163330
f 6/184/6 110/185/110 109/186/109
vt 0.900953 0.425761
vt 0.904299 0.440069
vt 0.910415 0.435910
f 110/187/110 111/188/111 112/189/112
vt 0.840576 0.289081
vt 0.844651 0.288738
vt 0.842394 0.282071
f 111/190/111 113/191/113 112/192/112
vt 0.847133 0.283564
f 113/191/113 114/193/114 112/192/112
vt 0.485395 0.026611
vt 0.481659 0.012367
vt 0.485830 0.009509
f 110/194/110 85/195/85 111/196/111
vt 0.481201 0.025609
f 110/194/110 6/197/6 85/195/85
vt 0.481201 0.006263
f 85/195/85 115/198/115 111/196/111
vt 0.481241 0.012813
f 85/195/85 116/199/116 115/198/115
vt 0.728669 0.087314
f 89/135/89 14/16/14 117/200/117
f 89/135/89 11/14/11 14/16/14
vt 0.727752 0.089453
f 14/16/14 118/201/118 117/200/117
f 89/135/89 7/139/7 11/14/11
vt 0.978565 0.309724
vt 0.981097 0.318407
vt 0.976326 0.324058
f 119/202/119 120/203/120 121/204/121
vt 0.967361 0.312735
f 121/204/121 69/205/69 119/202/119
vt 0.965576 0.331667
f 121/204/121 56/206/56 69/205/69
vt 0.974281 0.330417
f 121/204/121 96/207/96 56/206/56
vt 0.965926 0.335205
f 96/207/96 57/208/57 56/206/56
vt 0.914019 0.420784
vt 0.913741 0.413183
f 106/180/106 122/209/122 123/210/123
f 106/180/106 109/183/109 122/209/122
vt 0.912381 0.425025
f 109/183/109 124/211/124 122/209/122
f 123/210/123 105/179/105 106/180/106
vt 0.969589 0.229582
vt 0.979900 0.233643
vt 0.968304 0.219539
f 125/212/125 126/213/126 116/214/116
vt 0.399170 0.179546
vt 0.401047 0.183379
vt 0.399170 0.190674
f 125/215/125 127/216/127 126/217/126
vt 0.965257 0.221057
f 116/214/116 128/218/128 125/212/125
vt 0.968206 0.219077
f 116/214/116 85/219/85 128/218/128
vt 0.963625 0.219495
f 85/219/85 84/220/84 128/218/128
vt 0.964347 0.225997
vt 0.965598 0.231731
f 125/212/125 129/221/129 130/222/130
f 125/212/125 128/218/128 129/221/129
vt 0.954253 0.222309
vt 0.949088 0.233643
f 66/223/66 101/224/101 129/221/129
vt 0.942139 0.232217
f 66/223/66 65/225/65 101/224/101
f 129/221/129 84/220/84 66/223/66
f 129/221/129 128/218/128 84/220/84
vt 0.712822 0.085045
vt 0.712844 0.080736
f 88/134/88 131/226/131 93/227/93
f 88/134/88 90/136/90 131/226/131
vt 0.714843 0.080561
vt 0.718090 0.084298
f 8/228/8 131/226/131 9/229/9
vt 0.916132 0.155518
vt 0.913440 0.150731
vt 0.910889 0.155518
f 8/230/8 93/231/93 131/232/131
vt 0.594482 0.604736
vt 0.611601 0.604736
vt 0.603022 0.603853
f 89/233/89 9/234/9 90/235/90
vt 0.664795 0.007080
vt 0.691877 0.007080
vt 0.681034 0.001663
f 89/236/89 117/237/117 9/238/9
vt 0.938150 0.381695
f 117/239/117 10/10/10 9/9/9
vt 0.399170 0.241423
f 117/240/117 94/151/94 10/150/10
vt 0.852733 0.151611
vt 0.862161 0.139424
vt 0.840576 0.141908
f 117/241/117 102/242/102 94/243/94
vt 0.860427 0.147905
f 117/241/117 132/244/132 102/242/102
vt 0.866248 0.140388
f 132/244/132 133/245/133 102/242/102
f 9/229/9 131/226/131 90/136/90
vt 0.977367 0.302586
f 70/160/70 97/159/97 134/246/134
f 134/246/134 119/202/119 70/160/70
f 119/202/119 69/205/69 70/160/70
vt 0.684519 0.604736
vt 0.680667 0.603083
vt 0.676514 0.604736
f 134/247/134 135/248/135 119/249/119
vt 0.816385 0.085494
vt 0.800382 0.081043
vt 0.804697 0.091226
f 108/250/108 136/251/136 137/252/137
vt 0.812540 0.088896
f 137/252/137 98/253/98 108/250/108
vt 0.820562 0.087749
f 98/253/98 77/254/77 108/250/108
vt 0.823194 0.093018
f 98/253/98 76/255/76 77/254/77
vt 0.941859 0.383754
vt 0.931025 0.389116
vt 0.942825 0.391341
f 124/256/124 112/257/112 138/258/138
vt 0.946133 0.387055
f 138/258/138 122/259/122 124/256/124
vt 0.951415 0.465490
vt 0.978306 0.463092
vt 0.984836 0.488916
f 139/260/139 140/261/140 141/262/141
vt 0.952007 0.500645
f 141/262/141 142/263/142 139/260/139
vt 0.938232 0.492108
f 142/263/142 143/264/143 139/260/139
vt 0.978753 0.506037
f 141/262/141 115/265/115 142/263/142
vt 0.956979 0.505089
f 115/265/115 126/266/126 142/263/142
vt 0.985276 0.469196
f 140/261/140 144/267/144 141/262/141
vt 0.974402 0.510986
f 115/265/115 116/268/116 126/266/126
vt 0.845218 0.292236
vt 0.858224 0.289352
f 115/269/115 145/270/145 113/191/113
vt 0.965576 0.382080
vt 0.983821 0.382080
vt 0.980607 0.377306
f 115/271/115 141/272/141 145/273/145
vt 0.862491 0.292236
vt 0.861909 0.288693
f 141/274/141 146/275/146 145/270/145
f 113/191/113 111/190/111 115/269/115
vt 0.978576 0.281900
vt 0.967920 0.290027
vt 0.983978 0.292221
f 107/276/107 147/277/147 148/278/148
vt 0.968478 0.285034
f 107/276/107 104/279/104 147/277/147
f 148/278/148 21/26/21 107/276/107
vt 0.989309 0.286427
f 21/26/21 149/280/149 107/276/107
f 21/26/21 23/28/23 149/280/149
vt 0.962578 0.289254
vt 0.959760 0.288010
f 150/281/150 104/279/104 105/282/105
f 150/281/150 147/277/147 104/279/104
vt 0.953857 0.292236
f 105/282/105 123/283/123 150/281/150
vt 0.763220 0.075076
vt 0.757917 0.077393
f 113/284/113 19/24/19 114/285/114
vt 0.853960 0.280195
f 113/191/113 145/270/145 19/286/19
vt 0.856856 0.285061
f 145/270/145 20/287/20 19/286/19
vt 0.750422 0.077152
f 19/24/19 151/288/151 114/285/114
vt 0.834488 0.130472
f 16/289/16 15/171/15 103/170/103
vt 0.836976 0.111569
f 103/170/103 25/290/25 16/289/16
vt 0.834277 0.108862
f 103/170/103 26/291/26 25/290/25
vt 0.977879 0.276594
vt 0.993748 0.283400
f 108/292/108 149/280/149 136/293/136
f 108/292/108 107/276/107 149/280/149
vt 0.996405 0.287327
f 149/280/149 152/294/152 136/293/136
vt 0.796573 0.077715
vt 0.792617 0.080398
f 152/295/152 153/296/153 136/251/136
vt 0.792497 0.076105
f 152/295/152 154/297/154 153/296/153
vt 0.984406 0.297613
f 134/246/134 98/161/98 137/298/137
vt 0.984751 0.301168
f 137/298/137 155/299/155 134/246/134
f 134/246/134 97/159/97 98/161/98
vt 0.988205 0.297160
f 137/298/137 156/300/156 155/299/155
vt 0.853051 0.117638
f 118/301/118 25/30/25 24/29/24
vt 0.846157 0.124268
f 118/301/118 16/302/16 25/30/25
vt 0.742920 0.073574
f 19/24/19 18/23/18 157/303/157
vt 0.749786 0.077175
f 157/303/157 158/304/158 19/24/19
vt 0.743294 0.077393
f 157/303/157 159/305/159 158/304/158
vt 0.855676 0.278190
vt 0.859479 0.277469
vt 0.857777 0.273601
f 18/306/18 160/307/160 157/308/157
f 158/304/158 151/288/151 19/24/19
vt 0.874012 0.275093
vt 0.870358 0.275936
f 146/275/146 161/309/161 162/310/162
vt 0.885577 0.288160
f 146/275/146 163/311/163 161/309/161
vt 0.888062 0.282987
f 163/311/163 164/312/164 161/309/161
f 162/310/162 160/307/160 146/275/146
f 160/307/160 20/287/20 146/275/146
vt 0.896614 0.285479
f 163/311/163 165/313/165 164/312/164
vt 0.895487 0.281296
f 165/313/165 166/314/166 164/312/164
f 160/307/160 18/306/18 20/287/20
f 20/287/20 145/270/145 146/275/146
vt 0.736712 0.084447
vt 0.741553 0.090177
f 132/315/132 118/201/118 24/316/24
f 132/315/132 117/200/117 118/201/118
vt 0.745339 0.087786
f 24/316/24 167/317/167 132/315/132
vt 0.744471 0.089812
f 24/316/24 168/318/168 167/317/167
vt 0.994022 0.199899
vt 0.993130 0.206815
vt 0.985107 0.204968
f 149/319/149 22/320/22 103/321/103
vt 0.985107 0.199494
f 103/321/103 102/322/102 149/319/149
vt 0.989802 0.208360
f 22/320/22 26/323/26 103/321/103
vt 0.695210 0.604736
vt 0.694134 0.604133
vt 0.688232 0.604736
f 149/324/149 23/325/23 22/326/22
vt 0.994200 0.211706
f 22/320/22 169/327/169 26/323/26
vt 0.987252 0.212015
f 169/327/169 24/328/24 26/323/26
vt 0.994470 0.206268
f 22/320/22 170/329/170 169/327/169
vt 0.882812 0.073627
vt 0.878621 0.070839
vt 0.875732 0.077393
f 133/330/133 152/331/152 149/332/149
vt 0.884680 0.077393
f 149/332/149 102/333/102 133/330/133
vt 0.777491 0.085290
vt 0.785756 0.092757
vt 0.789576 0.092180
f 171/334/171 31/335/31 30/336/30
f 30/336/30 153/296/153 171/334/171
vt 0.800875 0.091301
f 30/336/30 156/337/156 153/296/153
f 156/337/156 136/251/136 153/296/153
f 156/337/156 137/252/137 136/251/136
vt 0.965711 0.170926
f 172/338/172 29/34/29 28/33/28
vt 0.965576 0.175049
f 172/338/172 156/339/156 29/34/29
vt 0.987468 0.300617
f 172/340/172 155/299/155 156/300/156
vt 0.991277 0.292236
f 21/26/21 148/278/148 170/341/170
vt 0.995548 0.199396
f 170/329/170 22/320/22 21/342/21
vt 0.867920 0.071411
vt 0.870699 0.070272
vt 0.871175 0.072828
f 173/343/173 174/344/174 175/345/175
vt 0.868696 0.073486
f 175/345/175 176/346/176 173/343/173
vt 0.882059 0.289484
f 146/275/146 141/274/141 144/347/144
f 144/347/144 163/311/163 146/275/146
vt 0.869125 0.149256
vt 0.870767 0.140867
f 133/245/133 167/348/167 152/349/152
f 133/245/133 132/244/132 167/348/167
vt 0.872137 0.151611
f 167/348/167 177/350/177 152/349/152
vt 0.906602 0.219704
vt 0.915883 0.211163
vt 0.902255 0.212496
f 30/351/30 178/352/178 179/353/179
vt 0.921792 0.218320
f 30/351/30 32/354/32 178/352/178
vt 0.900315 0.216406
f 179/353/179 29/355/29 30/351/30
vt 0.895264 0.221924
f 29/355/29 156/356/156 30/351/30
vt 0.900207 0.212577
f 179/353/179 27/357/27 29/355/29
vt 0.984032 0.179069
vt 0.992032 0.182861
vt 0.989505 0.178460
f 154/358/154 177/359/177 180/360/180
vt 0.981201 0.182861
f 154/358/154 152/361/152 177/359/177
vt 0.746579 0.091669
vt 0.748633 0.091669
f 169/362/169 181/363/181 168/318/168
f 168/318/168 24/316/24 169/362/169
vt 0.752485 0.091230
f 181/363/181 182/364/182 168/318/168
vt 0.993959 0.206903
f 183/365/183 169/327/169 170/329/170
vt 0.992452 0.214111
f 183/365/183 181/366/181 169/327/169
vt 0.989914 0.412251
vt 0.988991 0.420253
vt 0.992240 0.415874
f 181/367/181 184/368/184 182/369/182
vt 0.987153 0.406032
f 181/367/181 183/370/183 184/368/184
vt 0.992978 0.421491
f 184/368/184 185/371/185 182/369/182
vt 0.788667 0.072634
vt 0.775949 0.079455
f 180/372/180 186/373/186 171/334/171
f 171/334/171 153/296/153 180/372/180
f 153/296/153 154/297/154 180/372/180
vt 0.773931 0.083622
f 186/373/186 187/374/187 171/334/171
vt 0.770230 0.088326
f 187/374/187 188/375/188 171/334/171
vt 0.766357 0.084249
f 187/374/187 189/376/189 188/375/188
vt 0.766417 0.088668
f 189/376/189 190/377/190 188/375/188
vt 0.757587 0.093018
vt 0.762859 0.092421
vt 0.750059 0.085325
f 185/378/185 186/379/186 180/380/180
f 180/380/180 182/364/182 185/378/185
vt 0.747999 0.089682
f 180/380/180 177/381/177 182/364/182
f 177/381/177 168/318/168 182/364/182
f 177/381/177 167/317/167 168/318/168
vt 0.981883 0.454253
vt 0.984071 0.465521
f 140/261/140 165/382/165 163/383/163
vt 0.980561 0.454573
f 140/261/140 191/384/191 165/382/165
f 163/383/163 144/267/144 140/261/140
vt 0.924579 0.206540
f 32/354/32 34/385/34 178/352/178
vt 0.926166 0.221924
f 32/354/32 188/386/188 34/385/34
vt 0.920739 0.206427
f 34/385/34 192/387/192 178/352/178
vt 0.774337 0.093018
f 32/388/32 171/334/171 188/375/188
f 32/388/32 31/335/31 171/334/171
vt 0.945943 0.462798
vt 0.969020 0.455292
f 139/260/139 193/389/193 194/390/194
f 194/390/194 140/261/140 139/260/139
f 194/390/194 191/384/191 140/261/140
vt 0.971957 0.451180
f 194/390/194 195/391/195 191/384/191
vt 0.990025 0.427952
vt 0.992615 0.435382
vt 0.992098 0.427737
f 196/392/196 189/393/189 187/394/187
vt 0.987131 0.435921
f 196/392/196 197/395/197 189/393/189
vt 0.987653 0.439778
f 197/395/197 198/396/198 189/393/189
vt 0.987990 0.442082
f 198/396/198 199/397/199 189/393/189
vt 0.929949 0.221569
vt 0.933016 0.213568
f 188/386/188 190/398/190 35/399/35
f 35/399/35 34/385/34 188/386/188
vt 0.960175 0.449339
vt 0.961292 0.455704
f 193/389/193 200/400/200 201/401/201
vt 0.938232 0.452487
f 193/389/193 202/402/202 200/400/200
f 201/401/201 194/390/194 193/389/193
vt 0.991581 0.175049
vt 0.991909 0.171270
vt 0.986053 0.170645
f 195/403/195 36/404/36 38/405/38
vt 0.982294 0.175049
f 38/405/38 191/406/191 195/403/195
vt 0.982993 0.171180
f 38/405/38 166/407/166 191/406/191
vt 0.981201 0.174553
f 166/407/166 165/408/165 191/406/191
vt 0.850480 0.026894
vt 0.844463 0.032086
f 190/409/190 199/410/199 35/40/35
vt 0.847525 0.027877
f 190/409/190 189/411/189 199/410/199
f 199/410/199 33/38/33 35/40/35
vt 0.845773 0.035331
f 199/410/199 203/412/203 33/38/33
vt 0.841378 0.034873
f 204/413/204 203/412/203 199/410/199
vt 0.840576 0.037114
f 204/413/204 205/414/205 203/412/203
vt 0.987127 0.443687
f 199/397/199 198/396/198 204/415/204
f 109/183/109 112/189/112 124/211/124
f 110/187/110 112/189/112 109/183/109
f 118/301/118 14/176/14 17/175/17
f 118/301/118 17/175/17 16/302/16
vt 0.874952 0.306750
vt 0.881942 0.298581
vt 0.877303 0.298849
f 206/416/206 80/417/80 83/418/83
vt 0.866432 0.295596
f 83/418/83 81/419/81 206/416/206
vt 0.888599 0.314601
vt 0.890067 0.323327
vt 0.895876 0.314338
f 207/420/207 208/421/208 209/422/209
vt 0.956560 0.159490
vt 0.952407 0.159406
vt 0.954557 0.163330
f 99/423/99 95/424/95 210/425/210
vt 0.855365 0.335205
vt 0.844041 0.332666
vt 0.843061 0.335205
f 143/426/143 27/427/27 179/428/179
vt 0.935619 0.151011
vt 0.934326 0.155518
vt 0.940305 0.155518
f 159/429/159 211/430/211 158/431/158
vt 0.938738 0.166923
vt 0.934326 0.171143
vt 0.940405 0.170365
f 172/432/172 28/433/28 212/434/212
vt 0.914425 0.157716
vt 0.915077 0.163330
vt 0.918286 0.160141
f 213/435/213 214/436/214 215/437/215
vt 0.948583 0.406078
vt 0.944690 0.406407
vt 0.945226 0.410296
f 216/438/216 217/439/217 218/440/218
vt 0.927739 0.424157
vt 0.923431 0.420812
vt 0.918701 0.433262
f 219/441/219 161/442/161 164/443/164
vt 0.904915 0.286978
vt 0.903911 0.277424
vt 0.900896 0.283912
f 220/444/220 221/445/221 222/446/222
vt 0.875732 0.026611
vt 0.879672 0.026611
vt 0.879525 0.022732
f 223/447/223 224/448/224 225/449/225
vt 0.970532 0.181396
vt 0.976683 0.182861
vt 0.973600 0.179899
f 226/450/226 227/451/227 228/452/228
vt 0.902607 0.319579
f 101/453/101 209/422/209 208/421/208
vt 0.892957 0.330166
f 208/421/208 129/454/129 101/453/101
vt 0.888556 0.326407
f 208/421/208 130/455/130 129/454/129
vt 0.900288 0.313368
f 101/453/101 100/456/100 209/422/209
vt 0.884971 0.326588
f 208/421/208 229/457/229 130/455/130
vt 0.901605 0.292236
vt 0.923853 0.291214
f 220/444/220 200/458/200 202/459/202
vt 0.915288 0.275838
f 202/459/202 230/460/230 220/444/220
vt 0.928034 0.286424
f 202/459/202 231/461/231 230/460/230
f 230/460/230 221/445/221 220/444/220
vt 0.928480 0.292236
f 202/459/202 232/462/232 231/461/231
vt 0.940052 0.290879
f 232/462/232 41/463/41 231/461/231
vt 0.943050 0.286297
f 41/463/41 227/464/227 231/461/231
vt 0.899170 0.285855
f 220/444/220 223/465/223 200/458/200
vt 0.943835 0.290415
f 41/463/41 40/466/40 227/464/227
vt 0.947534 0.287209
f 40/466/40 205/467/205 227/464/227
vt 0.947218 0.284389
f 205/467/205 228/468/228 227/464/227
vt 0.950078 0.285591
f 205/467/205 204/469/204 228/468/228
vt 0.843407 0.314789
vt 0.867692 0.328344
f 206/416/206 233/470/233 234/471/234
vt 0.849775 0.294138
f 206/416/206 99/472/99 233/470/233
f 206/416/206 81/419/81 99/472/99
vt 0.877388 0.324867
f 234/471/234 235/473/235 206/416/206
vt 0.399170 0.289983
vt 0.399326 0.311423
vt 0.399170 0.311768
f 99/474/99 236/475/236 233/476/233
vt 0.996580 0.510828
vt 0.989848 0.497425
vt 0.997337 0.489564
f 99/477/99 120/478/120 236/479/236
f 235/473/235 207/420/207 206/416/206
f 207/420/207 80/417/80 206/416/206
vt 0.892745 0.301922
f 207/420/207 82/480/82 80/417/80
vt 0.992933 0.506696
f 99/477/99 210/481/210 120/478/120
f 235/473/235 229/457/229 207/420/207
f 229/457/229 208/421/208 207/420/207
vt 0.989175 0.504146
f 210/481/210 121/482/121 120/478/120
vt 0.897788 0.309407
f 207/420/207 209/422/209 87/483/87
f 87/483/87 82/480/82 207/420/207
f 209/422/209 100/456/100 87/483/87
vt 0.954796 0.171143
vt 0.957563 0.166197
vt 0.949951 0.167351
f 127/484/127 229/485/229 235/486/235
vt 0.959055 0.171143
f 127/484/127 125/487/125 229/485/229
vt 0.961232 0.166714
f 125/487/125 130/488/130 229/485/229
vt 0.949951 0.163330
f 210/425/210 95/424/95 96/489/96
vt 0.989014 0.510986
f 96/490/96 121/482/121 210/481/210
vt 0.958084 0.389523
vt 0.936214 0.399921
f 237/491/237 138/258/138 238/492/238
vt 0.953725 0.386086
f 237/491/237 123/493/123 138/258/138
f 123/493/123 122/259/122 138/258/138
vt 0.961866 0.389017
f 237/491/237 150/494/150 123/493/123
vt 0.869993 0.333576
vt 0.875451 0.332267
f 234/471/234 142/495/142 126/496/126
f 126/496/126 235/473/235 234/471/234
vt 0.881412 0.327810
f 126/496/126 127/497/127 235/473/235
vt 0.928258 0.393363
f 112/257/112 114/498/114 238/492/238
f 238/492/238 138/258/138 112/257/112
vt 0.928580 0.400466
f 114/498/114 151/499/151 238/492/238
vt 0.932863 0.404146
f 151/499/151 211/500/211 238/492/238
vt 0.928630 0.400903
f 151/499/151 158/501/158 211/500/211
vt 0.975676 0.406556
f 239/502/239 184/368/184 183/370/183
vt 0.978619 0.429369
f 239/502/239 240/503/240 184/368/184
vt 0.978980 0.402250
f 183/370/183 148/504/148 239/502/239
vt 0.966144 0.392323
f 148/504/148 147/505/147 239/502/239
f 147/505/147 237/491/237 239/502/239
vt 0.986200 0.428391
f 240/503/240 241/506/241 184/368/184
vt 0.986012 0.405150
f 183/370/183 170/507/170 148/504/148
f 147/505/147 150/494/150 237/491/237
vt 0.953793 0.416926
f 239/502/239 216/438/216 242/508/242
f 239/502/239 237/491/237 216/438/216
f 237/491/237 238/492/238 216/438/216
vt 0.940481 0.403216
f 238/492/238 214/509/214 216/438/216
f 216/438/216 218/440/218 242/508/242
vt 0.938117 0.415050
f 218/440/218 243/510/243 242/508/242
vt 0.937152 0.407468
f 218/440/218 215/511/215 243/510/243
vt 0.929761 0.410161
f 215/511/215 244/512/244 243/510/243
f 215/511/215 211/500/211 244/512/244
f 215/511/215 238/492/238 211/500/211
f 215/511/215 214/509/214 238/492/238
vt 0.929533 0.408398
f 211/500/211 245/513/245 244/512/244
vt 0.989014 0.489220
f 119/514/119 236/479/236 120/478/120
vt 0.992800 0.486949
f 119/514/119 135/515/135 236/479/236
vt 0.996919 0.481058
vt 0.997324 0.489204
f 135/515/135 155/516/155 233/517/233
vt 0.884155 0.065674
vt 0.882536 0.061807
vt 0.875732 0.065674
f 135/518/135 134/519/134 155/520/155
vt 0.941404 0.165760
vt 0.947526 0.171143
f 155/521/155 212/434/212 233/522/233
f 233/517/233 236/479/236 135/515/135
f 155/521/155 172/432/172 212/434/212
f 233/470/233 27/427/27 143/426/143
f 143/426/143 234/471/234 233/470/233
vt 0.840576 0.320695
f 233/470/233 212/523/212 27/427/27
f 143/426/143 142/495/142 234/471/234
vt 0.399170 0.162219
vt 0.401586 0.168312
vt 0.399170 0.175049
f 212/524/212 28/525/28 27/526/27
vt 0.910639 0.158078
f 214/436/214 213/435/213 217/527/217
vt 0.906982 0.163330
f 217/527/217 216/528/216 214/436/214
vt 0.867920 0.066735
vt 0.871313 0.068382
f 159/529/159 157/530/157 173/343/173
vt 0.867920 0.057303
vt 0.871341 0.059626
vt 0.867920 0.061768
f 173/531/173 245/532/245 159/533/159
vt 0.929024 0.404554
f 245/513/245 211/500/211 159/534/159
f 157/530/157 174/344/174 173/343/173
vt 0.887476 0.155518
vt 0.893778 0.155518
vt 0.890078 0.151788
f 157/535/157 246/536/246 175/537/175
vt 0.925222 0.405031
vt 0.920292 0.405726
vt 0.921966 0.409399
f 157/538/157 160/539/160 246/540/246
vt 0.887451 0.153408
f 175/537/175 174/541/174 157/535/157
vt 0.922946 0.417014
f 160/539/160 162/542/162 246/540/246
vt 0.940894 0.406892
f 218/440/218 213/543/213 215/511/215
f 218/440/218 217/439/217 213/543/213
vt 0.868516 0.054796
vt 0.872562 0.054665
vt 0.872430 0.058480
f 176/544/176 247/545/247 244/546/244
f 244/546/244 173/531/173 176/544/176
f 244/546/244 245/532/245 173/531/173
f 219/441/219 243/510/243 244/512/244
f 244/512/244 162/542/162 219/441/219
vt 0.939534 0.426381
f 219/441/219 248/547/248 243/510/243
vt 0.926187 0.412367
f 244/512/244 247/548/247 162/542/162
f 162/542/162 161/442/161 219/441/219
f 247/548/247 246/540/246 162/542/162
vt 0.900560 0.155518
vt 0.897654 0.150837
vt 0.895264 0.155518
f 247/549/247 175/550/175 246/551/246
vt 0.900199 0.151355
f 247/549/247 176/552/176 175/550/175
vt 0.955691 0.432052
f 240/503/240 242/508/242 249/553/249
f 240/503/240 239/502/239 242/508/242
vt 0.971495 0.434101
f 249/553/249 250/554/250 240/503/240
vt 0.942139 0.257839
vt 0.965161 0.258942
vt 0.962165 0.236133
f 143/555/143 251/556/251 139/557/139
vt 0.947653 0.268799
f 143/555/143 179/558/179 251/556/251
vt 0.967249 0.247092
f 251/556/251 252/559/252 139/557/139
vt 0.960756 0.267164
f 179/558/179 178/560/178 251/556/251
vt 0.966601 0.240446
f 252/559/252 193/561/193 139/557/139
vt 0.965378 0.262288
f 178/560/178 192/562/192 251/556/251
f 242/508/242 248/547/248 249/553/249
f 242/508/242 243/510/243 248/547/248
vt 0.941007 0.437806
f 248/547/248 221/563/221 249/553/249
vt 0.952386 0.436340
f 221/563/221 230/564/230 249/553/249
vt 0.925950 0.439942
vt 0.935335 0.438623
f 219/441/219 37/565/37 225/566/225
f 219/441/219 164/443/164 37/565/37
f 225/566/225 248/547/248 219/441/219
f 225/566/225 221/563/221 248/547/248
vt 0.919113 0.440922
f 164/443/164 166/567/166 37/565/37
vt 0.920667 0.444580
f 166/567/166 38/568/38 37/565/37
vt 0.937989 0.444069
f 225/566/225 222/569/222 221/563/221
vt 0.935168 0.442501
f 225/566/225 224/570/224 222/569/222
vt 0.993517 0.425310
f 241/506/241 196/392/196 186/571/186
f 186/571/186 184/368/184 241/506/241
f 186/571/186 185/371/185 184/368/184
f 196/392/196 187/394/187 186/571/186
vt 0.980103 0.444580
f 240/503/240 250/554/250 227/572/227
f 227/572/227 197/395/197 240/503/240
vt 0.965078 0.444307
f 250/554/250 231/573/231 227/572/227
vt 0.965576 0.182861
f 227/451/227 226/450/226 197/574/197
f 197/395/197 241/506/241 240/503/240
f 197/395/197 196/392/196 241/506/241
vt 0.979769 0.268799
vt 0.982530 0.266732
vt 0.977625 0.257066
f 33/575/33 39/576/39 253/577/253
vt 0.969154 0.262292
f 253/577/253 34/578/34 33/575/33
f 253/577/253 251/556/251 34/578/34
f 251/556/251 192/562/192 34/578/34
f 249/553/249 230/564/230 231/573/231
f 231/573/231 250/554/250 249/553/249
vt 0.980151 0.249524
f 252/559/252 253/577/253 232/579/232
f 252/559/252 251/556/251 253/577/253
vt 0.979989 0.244957
f 252/559/252 202/580/202 193/561/193
f 252/559/252 232/579/232 202/580/202
vt 0.944663 0.182861
vt 0.946132 0.176405
vt 0.937513 0.179200
f 37/581/37 36/582/36 254/583/254
vt 0.934326 0.182861
f 254/583/254 225/584/225 37/581/37
vt 0.935517 0.177584
f 254/583/254 223/585/223 225/584/225
vt 0.988922 0.194580
vt 0.987580 0.186878
vt 0.985595 0.187038
f 201/586/201 223/587/223 254/588/254
vt 0.875732 0.089111
vt 0.883101 0.089111
vt 0.880198 0.082647
f 201/589/201 200/590/200 223/591/223
vt 0.981511 0.194580
vt 0.977426 0.190126
f 194/592/194 254/588/254 36/593/36
f 194/592/194 201/586/201 254/588/254
vt 0.977295 0.193965
f 36/593/36 195/594/195 194/592/194
vt 0.983803 0.440174
vt 0.984299 0.443983
f 226/595/226 228/596/228 204/415/204
f 204/415/204 198/396/198 226/595/226
f 198/396/198 197/395/197 226/595/226
vt 0.964875 0.159376
vt 0.961670 0.159511
vt 0.962566 0.163330
f 222/597/222 224/598/224 223/599/223
vt 0.968643 0.163330
f 223/599/223 220/600/220 222/597/222
vt 0.844028 0.038330
vt 0.844907 0.036741
f 205/414/205 40/601/40 39/602/39
f 39/602/39 203/412/203 205/414/205
f 39/602/39 33/38/33 203/412/203
vt 0.983841 0.260683
f 41/603/41 232/579/232 253/577/253
f 253/577/253 39/576/39 41/603/41
l 255 256
# 504 faces, 603 coords texture

# End of File
