####
#
# OBJ File Generated by Meshlab
#
####
# Object scale_2.obj
#
# Vertices: 54
# Faces: 85
#
####
mtllib ./scale_2.obj.mtl

vn 0.341755 -0.760147 0.552612
v 34.937664 -9.697656 0.018741
vn 0.788906 -0.377970 0.484526
v 34.999779 -9.603566 0.018455
vn 0.446592 0.725551 0.523576
v 34.867115 -9.180341 0.017177
vn 0.492531 0.645589 0.583633
v 34.914131 -9.209343 0.017264
vn 0.911044 -0.059674 0.407968
v 35.008202 -9.522301 0.018209
vn 0.703024 0.539861 0.462933
v 34.979485 -9.274398 0.017460
vn 0.000010 0.003013 0.999995
v 34.655499 -9.203885 0.017256
vn 0.728665 0.676371 -0.107565
v 34.937653 -9.247271 0.066108
vn 0.681970 0.684437 0.257806
v 34.937656 -9.250875 0.042597
vn 0.551400 0.772652 0.314590
v 34.914139 -9.235332 0.042597
vn 0.884718 0.396056 0.245793
v 34.964809 -9.297908 0.066105
vn 0.504630 0.518674 0.690163
v 34.937653 -9.250875 0.117091
vn 0.687231 0.190491 0.701019
v 34.961163 -9.297899 0.116581
vn 0.460264 0.887780 0.002119
v 34.937645 -9.227368 0.089621
vn 0.917940 0.165882 0.360373
v 34.973221 -9.344931 0.089619
vn 0.799744 -0.003090 0.600334
v 34.984711 -9.368453 0.077677
vn 0.554751 -0.189512 0.810146
v 34.961163 -9.365334 0.113025
vn 0.362068 -0.462235 0.809473
v 34.937649 -9.650628 0.082903
vn 0.707453 -0.152595 0.690090
v 34.984692 -9.556546 0.066115
vn 0.561338 -0.036611 0.826777
v 34.984684 -9.438981 0.082914
vn 0.887132 -0.007569 0.461453
v 35.008205 -9.391954 0.038466
vn -0.353784 -0.723825 0.592380
v 34.749554 -9.694945 0.018737
vn -0.000006 0.002993 0.999996
v 34.631985 -9.227385 0.017326
vn -0.505307 0.647980 0.569901
v 34.773064 -9.216747 0.089617
vn -0.671709 0.686814 0.277656
v 34.773056 -9.208615 0.042600
vn -0.829401 0.516276 0.213431
v 34.735027 -9.250877 0.042595
vn -0.643169 0.375724 0.667207
v 34.749599 -9.250880 0.099377
vn -0.939733 0.261830 0.219878
v 34.715088 -9.274396 0.066167
vn -0.264523 -0.432576 0.861920
v 34.772995 -9.650635 0.082300
vn 0.289523 -0.424753 0.857765
v 34.941055 -9.391952 0.112973
vn 0.164431 0.377099 0.911460
v 34.914139 -9.250868 0.119675
vn -0.112323 0.468957 0.876050
v 34.820091 -9.227360 0.118226
vn -0.351417 0.056620 0.934505
v 34.773132 -9.274376 0.117279
vn 0.291530 0.591182 0.752006
v 34.890621 -9.227365 0.117550
vn -0.109496 0.983511 0.143934
v 34.796574 -9.191936 0.066115
vn 0.379592 0.885550 0.267788
v 34.867111 -9.191726 0.066106
vn 0.348193 0.920871 0.175379
v 34.914135 -9.235573 0.089621
vn -0.380700 0.909648 0.166158
v 34.780804 -9.203853 0.042597
vn 0.460827 0.843941 0.274594
v 34.867115 -9.198684 0.042596
vn -0.125774 0.670895 0.730808
v 34.820087 -9.168802 0.017144
vn -0.391644 0.784857 0.480223
v 34.773056 -9.203850 0.036068
vn -0.775410 0.203190 0.597874
v 34.691536 -9.368446 0.042674
vn -0.671819 0.181600 0.718109
v 34.684086 -9.344935 0.017679
vn -0.877429 -0.293315 0.379584
v 34.702518 -9.627089 0.018533
vn -0.757937 -0.282579 0.587946
v 34.713146 -9.627083 0.042670
vn 0.197853 -0.383212 0.902221
v 34.941967 -9.415468 0.089238
vn -0.455857 0.465672 0.758515
v 34.749554 -9.203844 0.017250
vn -0.523537 0.227087 0.821182
v 34.726032 -9.250909 0.017397
vn -0.656371 0.104016 0.747234
v 34.725971 -9.368446 0.066202
vn -0.955909 0.188450 0.225222
v 34.719013 -9.297906 0.042594
vn -0.566292 -0.094394 0.818781
v 34.749554 -9.391957 0.087144
vn -0.398199 -0.267180 0.877526
v 34.773094 -9.391950 0.107080
vn -0.041974 -0.270196 0.961890
v 34.796581 -9.438993 0.083327
vn -0.188740 -0.468048 0.863312
v 34.796574 -9.415472 0.105209
# 54 vertices, 0 vertices normals


usemtl material_0
vt 0.951135 0.295982
vt 0.947597 0.296465
vt 0.948447 0.292571
f 8/1/8 9/2/9 10/3/10
vt 0.944023 0.288671
vt 0.942139 0.302726
f 4/4/4 9/2/9 6/5/6
f 4/4/4 10/3/10 9/2/9
vt 0.950824 0.305315
f 9/2/9 11/6/11 6/5/6
vt 0.959041 0.296626
vt 0.958758 0.305176
f 11/6/11 12/7/12 13/8/13
f 11/6/11 8/1/8 12/7/12
f 11/6/11 9/2/9 8/1/8
vt 0.954339 0.293088
f 8/1/8 14/9/14 12/7/12
vt 0.954983 0.312894
f 13/8/13 15/10/15 11/6/11
vt 0.953060 0.317127
f 16/11/16 6/5/6 11/6/11
f 11/6/11 15/10/15 16/11/16
vt 0.959596 0.315146
f 17/12/17 15/10/15 13/8/13
f 17/12/17 16/11/16 15/10/15
vt 0.805028 0.596924
vt 0.788467 0.592183
vt 0.769743 0.596466
f 18/13/18 19/14/19 20/15/20
vt 0.853278 0.167353
vt 0.852295 0.175049
vt 0.861549 0.175049
f 24/16/24 25/17/25 26/18/26
vt 0.859962 0.165644
f 26/18/26 27/19/27 24/16/24
vt 0.866565 0.171238
f 26/18/26 28/20/28 27/19/27
vt 0.767511 0.101375
vt 0.754639 0.128174
vt 0.767586 0.128174
f 29/21/29 1/22/1 18/23/18
vt 0.481164 0.725830
vt 0.466732 0.719746
vt 0.457764 0.725830
f 30/24/30 13/25/13 31/26/31
vt 0.625500 0.034424
vt 0.610804 0.029217
vt 0.602295 0.034424
f 31/27/31 32/28/32 33/29/33
vt 0.622190 0.030613
f 31/27/31 34/30/34 32/28/32
vt 0.458498 0.722061
f 13/25/13 12/31/12 31/26/31
vt 0.608101 0.019260
vt 0.603639 0.024223
f 32/28/32 35/32/35 24/33/24
vt 0.619488 0.020688
f 32/28/32 34/30/34 36/34/36
f 36/34/36 35/32/35 32/28/32
vt 0.830913 0.050049
vt 0.827586 0.039741
vt 0.822392 0.042900
f 36/35/36 34/36/34 37/37/37
vt 0.819962 0.050049
f 37/37/37 10/38/10 36/35/36
vt 0.817139 0.045208
f 37/37/37 8/39/8 10/38/10
vt 0.822692 0.037546
f 34/36/34 31/40/31 37/37/37
vt 0.819496 0.037284
f 12/41/12 37/37/37 31/40/31
vt 0.795522 0.583548
f 18/13/18 2/42/2 19/14/19
vt 0.812649 0.587300
f 18/13/18 1/43/1 2/42/2
vt 0.782312 0.584158
f 5/44/5 20/15/20 19/14/19
vt 0.761548 0.589131
f 5/44/5 21/45/21 20/15/20
vt 0.758545 0.596924
f 21/45/21 16/46/16 20/15/20
vt 0.871107 0.315674
vt 0.867410 0.311100
vt 0.869817 0.315415
f 25/47/25 35/48/35 38/49/38
vt 0.635968 0.295600
vt 0.630839 0.303272
vt 0.644370 0.300915
f 40/50/40 38/51/38 39/52/39
vt 0.629639 0.302658
f 40/50/40 41/53/41 38/51/38
vt 0.855772 0.314521
f 39/54/39 38/49/38 35/48/35
vt 0.855959 0.310537
vt 0.848389 0.315674
f 39/54/39 36/55/36 10/56/10
vt 0.653126 0.303955
vt 0.652329 0.298104
f 10/57/10 4/58/4 39/52/39
vt 0.643844 0.295892
f 4/58/4 3/59/3 39/52/39
vt 0.637416 0.002931
vt 0.633545 0.007080
vt 0.679447 0.007080
f 42/60/42 43/61/43 44/62/44
vt 0.679596 0.002805
f 44/62/44 45/63/45 42/60/42
vt 0.691409 0.004843
f 45/63/45 44/62/44 22/64/22
vt 0.014725 0.096510
vt 0.012451 0.091579
vt 0.014404 0.081033
f 30/65/30 17/66/17 13/67/13
vt 0.012451 0.100830
f 46/68/46 17/66/17 30/65/30
vt 0.000732 0.206299
vt 0.013551 0.206299
vt 0.010130 0.202791
f 40/69/40 47/70/47 41/71/41
vt 0.256032 0.995381
vt 0.254886 0.999268
vt 0.258655 0.999267
f 37/72/37 14/73/14 8/74/8
vt 0.250732 0.996730
f 12/75/12 14/73/14 37/72/37
vt 0.000732 0.417236
vt 0.011244 0.417236
vt 0.008047 0.411086
f 46/76/46 16/77/16 17/78/17
vt 0.257406 0.378803
vt 0.272506 0.386070
vt 0.276775 0.370880
f 43/79/43 48/80/48 23/81/23
vt 0.280488 0.374816
f 48/80/48 7/82/7 23/81/23
vt 0.280052 0.390119
f 7/82/7 48/80/48 47/83/47
vt 0.797452 0.664465
vt 0.782273 0.663102
vt 0.785834 0.667236
f 49/84/49 28/85/28 50/86/50
vt 0.778076 0.667236
f 26/87/26 50/86/50 28/85/28
vt 0.065919 0.108643
vt 0.070721 0.098250
vt 0.028488 0.096752
f 45/88/45 29/89/29 51/90/51
vt 0.023765 0.107030
f 51/90/51 42/91/42 45/88/45
vt 0.024339 0.100761
f 51/90/51 49/92/49 42/91/42
vt 0.028853 0.092328
f 51/90/51 52/93/52 49/92/49
vt 0.009830 0.089676
f 52/93/52 33/94/33 49/92/49
vt 0.008946 0.100653
f 33/94/33 28/95/28 49/92/49
vt 0.005663 0.093569
f 33/94/33 27/96/27 28/95/28
vt 0.019990 0.108643
vt 0.012984 0.101334
f 43/97/43 49/92/49 50/98/50
f 43/97/43 42/91/42 49/92/49
vt 0.932144 0.764893
vt 0.939313 0.759883
vt 0.922607 0.760873
f 50/99/50 48/100/48 43/101/43
vt 0.940118 0.764104
f 50/99/50 26/102/26 48/100/48
vt 0.077805 0.105079
f 45/88/45 22/103/22 29/89/29
vt 0.949103 0.764893
vt 0.947869 0.759546
f 25/104/25 47/105/47 26/102/26
f 47/105/47 48/100/48 26/102/26
vt 0.037104 0.090390
vt 0.033161 0.089152
f 51/90/51 53/106/53 54/107/54
f 54/107/54 52/93/52 51/90/51
vt 0.921087 0.760986
vt 0.919070 0.747966
vt 0.891357 0.760986
f 29/108/29 22/109/22 1/110/1
vt 0.074244 0.072281
vt 0.041136 0.060762
f 18/111/18 20/112/20 53/106/53
f 53/106/53 29/89/29 18/111/18
f 53/106/53 51/90/51 29/89/29
vt 0.036387 0.066811
f 20/112/20 46/113/46 53/106/53
vt 0.029805 0.059577
f 20/112/20 16/114/16 46/113/46
vt 0.032411 0.065650
vt 0.009046 0.066913
f 54/107/54 30/115/30 31/116/31
f 31/116/31 33/94/33 54/107/54
f 33/94/33 52/93/52 54/107/54
vt 0.003251 0.081330
vt 0.000732 0.089559
f 33/94/33 32/117/32 24/118/24
f 24/118/24 27/96/27 33/94/33
f 54/107/54 46/113/46 30/115/30
f 54/107/54 53/106/53 46/113/46
# 85 faces, 118 coords texture

# End of File
