####
#
# OBJ File Generated by Meshlab
#
####
# Object sink_1.obj
#
# Vertices: 294
# Faces: 574
#
####
mtllib ./sink_1.obj.mtl

vn 0.815554 0.578667 -0.003924
v 35.316422 -7.003634 0.121790
vn 0.821726 0.258281 -0.507994
v 35.361305 -7.050667 0.168803
vn -0.025174 -0.259697 -0.965362
v 35.425323 -7.097713 0.535865
vn -0.112818 -0.444579 -0.888606
v 35.425323 -7.074198 0.510147
vn 0.066681 -0.377118 -0.923762
v 35.448830 -7.074216 0.537343
vn 0.359311 -0.435328 -0.825460
v 35.566410 -7.074199 0.526427
vn 0.819795 -0.465193 -0.333964
v 35.542885 -7.027164 0.474479
vn 0.774263 -0.077551 -0.628095
v 35.577972 -7.027173 0.521493
vn 0.377486 0.844255 -0.380443
v 35.313938 -6.792066 0.450926
vn 0.365015 -0.921335 -0.133816
v 35.317669 -7.074246 0.145238
vn 0.684858 -0.367050 -0.629479
v 35.319351 -7.215314 0.522021
vn 0.028284 -0.993502 -0.110247
v 35.315960 -7.074232 0.380394
vn 0.886413 0.447129 -0.119778
v 35.314766 -6.909600 0.333404
vn 0.289716 0.865895 0.407789
v 35.311874 -6.721498 0.662579
vn 0.981960 0.115091 0.150030
v 35.310707 -6.766804 0.733867
vn 0.751001 -0.312896 -0.581459
v 35.315063 -7.097711 0.497971
vn 0.892268 0.320198 -0.318325
v 35.314934 -6.886129 0.380389
vn 0.884874 0.399287 -0.239933
v 35.315922 -6.980143 0.215832
vn 0.887101 0.442458 -0.131464
v 35.316788 -7.003673 0.192276
vn 0.772205 0.323318 0.546959
v 35.314941 -6.768552 0.710064
vn 0.291395 0.314265 0.903508
v 35.317471 -6.886098 0.897693
vn 0.453620 -0.305280 0.837277
v 35.317524 -6.909608 0.897700
vn 0.085382 -0.378787 0.921537
v 35.323097 -7.262330 0.712595
vn -0.017687 -0.941680 0.336046
v 35.322529 -7.285817 0.686105
vn 0.514311 -0.828051 0.223194
v 35.317856 -6.933113 0.874207
vn 0.877562 -0.291583 0.380611
v 35.320240 -6.956628 0.733126
vn -0.041521 0.962988 -0.266328
v 35.318031 -6.862583 0.850679
vn 0.768111 0.275323 0.578102
v 35.319695 -6.886098 0.756619
vn 0.850787 -0.285871 -0.440952
v 35.318855 -6.909617 0.827134
vn 0.107457 -0.953361 -0.282056
v 35.323105 -7.285791 0.639088
vn 0.108648 -0.972818 -0.204500
v 35.325283 -7.215288 0.544912
vn 0.610753 0.425468 0.667801
v 35.321522 -6.862630 0.709442
vn 0.874785 -0.281066 0.394656
v 35.321098 -6.933172 0.759524
vn 0.805284 0.241100 -0.541653
v 35.318798 -6.886106 0.827127
vn 0.511890 0.098455 0.853390
v 35.321144 -6.909656 0.749620
vn 0.214933 -0.563178 -0.797894
v 35.354774 -7.215280 0.560543
vn -0.077228 -0.844189 -0.530453
v 35.401810 -7.272760 0.615533
vn 0.018633 -0.573809 -0.818777
v 35.425316 -7.238763 0.565667
vn 0.093034 -0.791780 -0.603680
v 35.448856 -7.256001 0.591968
vn -0.088236 -0.961919 0.258700
v 35.448837 -7.316395 0.686064
vn -0.015246 -0.065525 0.997734
v 35.425320 -7.262351 0.708143
vn 0.104739 -0.225237 0.968658
v 35.519371 -7.285800 0.709625
vn 0.201560 -0.969830 0.137124
v 35.519371 -7.311844 0.686089
vn 0.132372 -0.123327 0.983498
v 35.331264 -7.027177 0.709501
vn 0.547318 -0.262364 0.794738
v 35.331276 -6.956636 0.711468
vn 0.293486 -0.175526 -0.939711
v 35.378284 -7.074195 0.533250
vn 0.442905 -0.351548 -0.824772
v 35.365871 -7.050686 0.521492
vn 0.905957 -0.413173 -0.092355
v 35.331245 -7.035456 0.474501
vn 0.753794 -0.340222 -0.562177
v 35.350914 -7.003660 0.497968
vn 0.804972 0.589691 -0.065452
v 35.344635 -7.003670 0.262857
vn 0.818899 0.424070 -0.386741
v 35.331284 -6.987315 0.333392
vn 0.772223 0.624451 -0.117186
v 35.350891 -7.027170 0.309880
vn 0.926983 0.329899 -0.178520
v 35.314056 -6.956635 0.309880
vn 0.984713 -0.168030 0.045885
v 35.333683 -6.933124 0.333394
vn 0.136861 0.328976 0.934368
v 35.378292 -6.839111 0.699789
vn 0.109390 0.125522 0.986042
v 35.354786 -6.792039 0.707803
vn 0.259424 -0.249840 0.932888
v 35.448803 -6.815564 0.693054
vn 0.342860 0.344482 0.873945
v 35.401817 -6.862587 0.702670
vn -0.373214 0.753269 0.541570
v 35.354786 -6.868358 0.709587
vn 0.143905 0.529177 0.836219
v 35.354790 -6.768527 0.697466
vn 0.018366 0.991163 0.131368
v 35.378300 -6.732826 0.662567
vn -0.230933 0.733441 0.639324
v 35.378300 -6.745013 0.683914
vn 0.322629 0.237683 0.916197
v 35.448837 -7.215270 0.693222
vn 0.196517 -0.038931 0.979727
v 35.401817 -7.050689 0.703100
vn 0.163956 -0.086620 0.982657
v 35.354786 -7.027175 0.702839
vn 0.133624 0.424057 0.895723
v 35.472343 -7.238803 0.697588
vn 0.271391 -0.961608 0.040704
v 35.401810 -7.028372 0.403932
vn -0.096577 -0.799026 0.593490
v 35.401810 -7.027172 0.406648
vn 0.730193 -0.398783 0.554788
v 35.362568 -7.003660 0.450955
vn 0.237403 0.023325 -0.971131
v 35.401806 -7.003660 0.509767
vn 0.077646 -0.277553 -0.957567
v 35.401810 -7.027171 0.509758
vn 0.648447 -0.316462 -0.692365
v 35.354786 -6.996405 0.497975
vn 0.457831 0.276576 0.844924
v 35.396599 -7.003662 0.709599
vn 0.575015 -0.156211 0.803091
v 35.425312 -6.909612 0.701645
vn 0.304434 -0.556886 0.772785
v 35.367290 -6.933126 0.709590
vn 0.080685 0.296429 0.951640
v 35.365540 -6.980149 0.709588
vn -0.292390 -0.199200 0.935322
v 35.354782 -7.003662 0.719512
vn -0.108647 -0.248969 -0.962398
v 35.472351 -7.121223 0.536148
vn 0.120478 -0.399743 -0.908675
v 35.495865 -7.121231 0.535618
vn -0.202335 -0.436107 -0.876853
v 35.401806 -7.050703 0.534791
vn 0.504731 -0.240044 0.829232
v 35.401817 -7.019367 0.709603
vn 0.800695 0.311467 0.511738
v 35.418747 -6.886065 0.709552
vn 0.659421 0.508747 0.553480
v 35.457787 -7.215281 0.686048
vn 0.783768 -0.062360 0.617915
v 35.448452 -6.886104 0.686006
vn 0.692314 -0.553876 0.462517
v 35.417393 -6.909613 0.709553
vn 0.573873 -0.814432 0.085849
v 35.401817 -6.909622 0.756616
vn 0.900154 0.376761 0.218570
v 35.422276 -6.886107 0.850665
vn 0.715788 -0.661440 0.223930
v 35.418850 -6.909613 0.850666
vn -0.125404 0.549787 0.825838
v 35.378300 -6.869259 0.897691
vn 0.542574 -0.530651 0.651170
v 35.401810 -6.901732 0.874179
vn -0.115810 -0.277947 0.953590
v 35.378300 -6.891844 0.897691
vn 0.304520 -0.635925 -0.709131
v 35.542881 -7.262257 0.611088
vn 0.328053 -0.447054 -0.832181
v 35.542900 -7.238842 0.600015
vn 0.358398 -0.924416 0.130410
v 35.566410 -7.291826 0.686022
vn 0.426314 -0.421578 0.800330
v 35.613419 -7.262268 0.702643
vn -0.411021 0.390477 0.823766
v 35.636940 -7.175307 0.686097
vn -0.161174 0.658816 0.734836
v 35.542877 -7.232945 0.686182
vn 0.474972 -0.411563 0.777829
v 35.660454 -7.215275 0.703734
vn -0.328466 0.188281 0.925560
v 35.683979 -7.144762 0.693401
vn 0.391718 -0.173468 0.903585
v 35.707489 -7.144770 0.698689
vn 0.388249 0.796079 0.464242
v 35.472343 -7.224786 0.686093
vn -0.606022 0.437419 0.664381
v 35.660454 -7.121222 0.672671
vn 0.538795 -0.052086 -0.840825
v 35.636898 -7.097688 0.558597
vn 0.250260 -0.318511 -0.914287
v 35.589912 -7.097706 0.549094
vn 0.389592 0.611026 0.689104
v 35.472347 -7.168257 0.598908
vn -0.408851 0.648011 0.642591
v 35.566399 -7.191765 0.632943
vn -0.137120 0.351333 0.926155
v 35.519360 -7.144733 0.577316
vn 0.199010 0.925404 0.322526
v 35.495857 -7.233866 0.662562
vn -0.178925 0.848152 0.498622
v 35.519379 -7.230730 0.662559
vn 0.760174 0.215900 0.612799
v 35.460281 -7.144739 0.592018
vn -0.155336 0.111942 0.981499
v 35.519363 -7.121218 0.575395
vn -0.202956 -0.539227 -0.817339
v 35.495865 -7.050692 0.500448
vn 0.545640 -0.023203 -0.837699
v 35.603104 -7.074214 0.545042
vn 0.056091 -0.440627 0.895936
v 35.566406 -6.933099 0.576066
vn 0.498757 -0.818052 0.286413
v 35.589912 -6.912110 0.592019
vn -0.399567 -0.653902 0.642462
v 35.613430 -6.891845 0.615535
vn 0.804026 -0.593572 0.034850
v 35.613426 -7.268500 0.686079
vn -0.694787 0.266471 0.668030
v 35.660393 -7.097683 0.652558
vn -0.509631 0.318293 0.799353
v 35.566391 -7.144729 0.605196
vn -0.636092 0.141526 0.758523
v 35.676949 -7.121216 0.686096
vn 0.871251 0.287338 -0.397943
v 35.542892 -7.003662 0.469715
vn 0.578359 -0.712055 -0.398093
v 35.613461 -7.262338 0.662501
vn 0.655644 -0.526921 -0.540820
v 35.683998 -7.168283 0.639005
vn 0.626360 -0.065563 -0.776772
v 35.646946 -7.097722 0.568526
vn 0.833573 -0.530291 0.154753
v 35.707474 -7.164089 0.686077
vn 0.657035 0.661167 -0.362165
v 35.670231 -6.815636 0.662630
vn 0.351663 0.455467 0.817853
v 35.613422 -6.768530 0.699708
vn 0.265902 0.155154 0.951432
v 35.660446 -6.839076 0.706058
vn 0.419352 0.897422 -0.137029
v 35.613380 -6.758877 0.686181
vn 0.852364 -0.034850 -0.521786
v 35.693676 -6.839096 0.662609
vn 0.832798 0.547829 -0.079571
v 35.692982 -6.862570 0.686047
vn 0.313221 0.210231 0.926119
v 35.683968 -6.862587 0.705403
vn 0.507628 0.224002 0.831948
v 35.707470 -6.886099 0.695248
vn 0.845087 0.528473 -0.080903
v 35.714291 -6.886101 0.686084
vn 0.671152 -0.130854 -0.729680
v 35.719002 -7.050688 0.615557
vn 0.366262 -0.924800 -0.102944
v 35.699757 -7.168254 0.662553
vn 0.966290 -0.220433 0.133012
v 35.742573 -7.074199 0.686081
vn 0.370072 -0.084438 0.925158
v 35.730988 -7.074198 0.702276
vn -0.567624 0.012520 0.823192
v 35.707470 -7.003662 0.692850
vn -0.828948 -0.034873 0.558238
v 35.684013 -6.980172 0.662507
vn 0.802617 -0.369712 -0.468101
v 35.730995 -7.050682 0.629729
vn 0.919500 0.196692 0.340341
v 35.747654 -6.980148 0.686074
vn 0.723347 0.359056 -0.589786
v 35.730968 -6.980155 0.628292
vn -0.007249 0.036431 0.999310
v 35.719231 -6.980149 0.698762
vn 0.714858 0.304302 -0.629586
v 35.653881 -6.886100 0.615544
vn 0.639381 0.473724 -0.605621
v 35.710884 -6.956633 0.639035
vn 0.434475 0.531140 -0.727408
v 35.637001 -6.815516 0.652515
vn 0.560970 0.355193 -0.747763
v 35.589905 -6.862587 0.557554
vn 0.493743 -0.224337 -0.840173
v 35.613449 -6.886088 0.584431
vn 0.940844 0.013959 -0.338554
v 35.652615 -6.909626 0.592056
vn 0.281151 0.210572 -0.936276
v 35.636921 -6.909617 0.580287
vn 0.924865 0.349951 -0.148856
v 35.354786 -6.839078 0.497984
vn 0.065292 -0.259762 -0.963463
v 35.448837 -7.050686 0.522971
vn 0.972564 -0.206942 0.106271
v 35.634563 -6.956648 0.592048
vn 0.372945 0.158075 -0.914289
v 35.613403 -6.956645 0.569947
vn 0.993130 -0.076450 -0.088590
v 35.374283 -7.050671 0.309880
vn 0.759899 0.324934 -0.563002
v 35.344460 -6.839075 0.427446
vn 0.490599 0.824331 -0.282474
v 35.331276 -6.798298 0.450954
vn 0.696311 0.657412 0.288029
v 35.350052 -6.815566 0.474468
vn 0.773385 0.304942 -0.555775
v 35.366066 -7.003662 0.356911
vn 0.869136 -0.416361 -0.266919
v 35.377098 -7.050686 0.380414
vn 0.074524 -0.058051 0.995528
v 35.378300 -7.003659 0.747174
vn 0.826865 0.429474 0.363106
v 35.380890 -6.956635 0.427442
vn 0.777165 -0.045184 0.627673
v 35.367798 -6.980155 0.450962
vn 0.871473 0.365627 0.326883
v 35.415649 -6.980155 0.427447
vn 0.057794 0.992101 -0.111337
v 35.519375 -6.990490 0.356906
vn -0.353673 0.929808 0.101841
v 35.472347 -7.008224 0.403931
vn 0.056753 0.990536 0.124970
v 35.519371 -6.980148 0.427443
vn -0.406070 0.167807 0.898303
v 35.542885 -7.074198 0.583000
vn -0.034649 0.061139 0.997528
v 35.519367 -7.003661 0.564034
vn -0.753216 0.647262 -0.117123
v 35.495865 -7.003662 0.472322
vn -0.307930 0.084274 -0.947669
v 35.495865 -6.980148 0.461861
vn 0.216097 0.456544 -0.863058
v 35.519382 -6.980145 0.462616
vn -0.562076 -0.392916 0.727796
v 35.545193 -6.980149 0.568516
vn -0.113300 -0.193544 0.974527
v 35.542885 -6.947448 0.568515
vn 0.315802 -0.947530 0.049551
v 35.331268 -7.078020 0.403933
vn 0.830191 -0.453335 0.324453
v 35.331268 -7.065076 0.427439
vn 0.544458 -0.723848 -0.423804
v 35.354790 -7.062963 0.168806
vn 0.950601 -0.200228 -0.237205
v 35.378296 -7.054374 0.192319
vn 0.450274 -0.888101 0.092363
v 35.358471 -7.074188 0.380427
vn 0.983865 -0.110120 0.141005
v 35.357834 -6.980150 0.474468
vn 0.733550 -0.119520 -0.669044
v 35.361343 -6.980146 0.497980
vn 0.304651 -0.892341 0.333041
v 35.378300 -6.919045 0.756614
vn -0.749875 -0.645342 0.145677
v 35.345646 -6.909613 0.780130
vn -0.255117 -0.963985 -0.075160
v 35.354782 -6.914474 0.780128
vn -0.298014 -0.898465 -0.322410
v 35.348259 -6.909621 0.827154
vn 0.145156 -0.983630 0.106775
v 35.378300 -6.914594 0.850666
vn 0.240674 -0.616367 0.749778
v 35.360939 -6.909611 0.874178
vn -0.485462 0.486672 -0.726276
v 35.335957 -6.886102 0.827153
vn 0.108511 0.798838 0.591678
v 35.354790 -6.857248 0.874179
vn 0.092696 0.839843 0.534857
v 35.369953 -6.862588 0.874178
vn -0.031337 0.969161 -0.244429
v 35.354794 -6.856665 0.850667
vn 0.085733 0.994490 -0.060323
v 35.377026 -6.862586 0.827153
vn 0.179200 0.280877 0.942866
v 35.425320 -7.003655 0.422236
vn 0.660750 0.262181 -0.703329
v 35.354786 -6.980149 0.356906
vn 0.903076 0.306540 0.300809
v 35.367752 -6.909613 0.427446
vn 0.932062 0.290219 -0.216870
v 35.384163 -6.956634 0.403926
vn 0.559775 0.761900 -0.325821
v 35.378311 -6.899002 0.403928
vn -0.847001 0.165599 0.505140
v 35.346622 -6.909611 0.756616
vn -0.632027 0.519169 0.575331
v 35.335445 -6.886098 0.756616
vn 0.923399 0.335738 -0.186050
v 35.352219 -6.886096 0.450952
vn 0.856384 0.092812 -0.507930
v 35.365864 -6.909612 0.497988
vn 0.557037 0.815762 -0.155700
v 35.354782 -6.891539 0.427444
vn 0.025914 0.139555 0.989875
v 35.495861 -6.768548 0.709551
vn 0.393252 0.906245 0.155157
v 35.495861 -6.724077 0.686059
vn 0.185221 0.948192 0.258119
v 35.519371 -6.752115 0.686108
vn 0.209633 0.970987 0.115053
v 35.566460 -6.749029 0.686027
vn 0.359502 0.270696 -0.893018
v 35.401802 -7.003661 0.394040
vn 0.716198 0.341581 -0.608591
v 35.368759 -6.933123 0.380419
vn 0.410538 0.673647 -0.614539
v 35.354782 -6.933125 0.362221
vn 0.681482 0.564242 -0.466062
v 35.396347 -6.980149 0.403931
vn 0.396374 -0.741283 0.541653
v 35.472294 -6.804211 0.686061
vn -0.162047 -0.596555 0.786042
v 35.495861 -6.792050 0.701220
vn 0.663368 -0.331397 0.670910
v 35.462944 -6.815557 0.686017
vn 0.265086 0.960735 0.081960
v 35.448837 -7.005367 0.403928
vn -0.321802 0.003766 -0.946800
v 35.425323 -7.027173 0.370155
vn -0.295610 0.850632 -0.434787
v 35.448833 -7.016674 0.380419
vn -0.457176 -0.000099 -0.889376
v 35.448833 -7.027174 0.369924
vn -0.387685 0.381116 0.839316
v 35.448833 -7.027173 0.421681
vn 0.159494 0.831245 -0.532534
v 35.472347 -6.733644 0.662567
vn 0.043661 0.998704 -0.026140
v 35.401810 -6.733251 0.662554
vn -0.054669 -0.062917 -0.996520
v 35.425323 -7.050685 0.510139
vn -0.399044 -0.784310 -0.474997
v 35.425323 -7.037436 0.380418
vn -0.513718 -0.631205 0.581098
v 35.448837 -7.050701 0.424899
vn -0.386766 -0.921566 -0.033585
v 35.448837 -7.056149 0.403931
vn -0.361944 -0.686419 -0.630734
v 35.448833 -7.037670 0.380418
vn -0.927064 -0.227161 -0.298244
v 35.495865 -7.003662 0.474464
vn -0.014425 -0.807063 0.590289
v 35.519371 -7.050689 0.463927
vn -0.138621 -0.960358 0.241860
v 35.519371 -7.037555 0.474478
vn 0.691387 0.018740 0.722242
v 35.463181 -7.003659 0.568474
vn -0.471251 -0.011845 -0.881919
v 35.486397 -7.027174 0.333387
vn 0.622818 -0.359175 0.695048
v 35.472343 -6.886094 0.595130
vn 0.484995 -0.203352 0.850546
v 35.472313 -6.956626 0.568478
vn 0.589403 -0.652165 0.476744
v 35.472313 -6.815548 0.662552
vn -0.069113 -0.662821 -0.745581
v 35.495865 -7.055556 0.333391
vn 0.676113 -0.607010 -0.417625
v 35.542892 -7.050694 0.356901
vn 0.650591 -0.728741 0.213700
v 35.538876 -7.050688 0.450955
vn -0.155647 0.667936 -0.727761
v 35.495865 -6.993336 0.333391
vn 0.857511 0.475758 0.195778
v 35.542889 -6.995600 0.356901
vn 0.023410 0.984793 0.172146
v 35.519371 -6.997179 0.450957
vn -0.428956 -0.417705 -0.800949
v 35.472351 -7.050683 0.509741
vn -0.781989 0.031014 -0.622520
v 35.460594 -6.980149 0.497981
vn 0.075939 -0.766109 0.638209
v 35.495865 -6.825651 0.639049
vn 0.101966 -0.595213 0.797073
v 35.495861 -6.862585 0.601573
vn 0.718171 0.354388 -0.598866
v 35.549152 -7.003660 0.356902
vn -0.062125 -0.430057 0.900662
v 35.542885 -6.792058 0.705314
vn -0.364776 -0.745153 0.558288
v 35.589912 -6.852635 0.639050
vn -0.042662 0.846597 -0.530522
v 35.495888 -6.757007 0.615532
vn 0.165288 0.934171 -0.316236
v 35.472351 -6.757973 0.639030
vn -0.603255 -0.690291 0.399478
v 35.613422 -6.862580 0.644844
vn 0.508679 -0.859164 0.055525
v 35.598000 -6.909609 0.592026
vn 0.881785 0.360534 -0.304088
v 35.581562 -6.933110 0.568499
vn -0.755152 -0.417374 -0.505514
v 35.613419 -6.907588 0.592037
vn 0.169955 0.753317 -0.635318
v 35.495895 -6.768503 0.603978
vn 0.296585 0.375213 -0.878210
v 35.542938 -6.862489 0.533302
vn -0.413146 -0.604580 0.681024
v 35.589912 -6.839070 0.692547
vn 0.758028 0.261011 -0.597718
v 35.578140 -6.980153 0.521502
vn -0.458131 -0.579119 0.674343
v 35.630787 -6.862591 0.686087
vn -0.709644 -0.536959 0.456159
v 35.656212 -6.933125 0.662574
vn -0.529516 -0.212356 0.821290
v 35.683960 -6.933121 0.686087
vn -0.833465 -0.304854 0.460869
v 35.680637 -6.956637 0.662575
vn -0.262213 -0.860910 0.435979
v 35.636932 -6.917061 0.615541
vn -0.883307 -0.435007 0.174748
v 35.651314 -6.933123 0.639054
vn 0.165770 0.568294 -0.805954
v 35.378307 -6.815495 0.547987
vn 0.535891 0.114771 -0.836450
v 35.636909 -7.003672 0.574019
vn 0.596665 0.170552 -0.784158
v 35.613422 -7.050684 0.568511
vn 0.646981 0.183255 -0.740158
v 35.613419 -6.980149 0.568522
vn -0.260964 0.105893 -0.959523
v 35.660446 -6.933123 0.620055
vn -0.599592 0.171388 0.781739
v 35.632530 -7.027173 0.615540
vn -0.941306 0.337419 0.009586
v 35.651665 -6.980146 0.615546
vn -0.528234 0.051373 0.847543
v 35.613461 -7.003675 0.603743
vn 0.698121 0.713196 -0.063069
v 35.636894 -6.980136 0.592072
vn -0.854485 0.486889 0.181093
v 35.593781 -6.933123 0.592029
vn -0.534907 0.014747 0.844782
v 35.589909 -7.003661 0.577978
vn -0.333794 0.032902 0.942072
v 35.613422 -6.933125 0.607952
vn -0.473458 0.266295 0.839598
v 35.589905 -7.027168 0.578965
vn 0.531416 0.346580 -0.772968
v 35.683975 -6.956628 0.621816
vn 0.642416 -0.165983 -0.748165
v 35.589928 -6.886090 0.556747
vn 0.321753 0.266578 -0.908521
v 35.683960 -6.980150 0.607350
vn -0.060377 0.203584 -0.977194
v 35.660465 -6.956626 0.598564
vn 0.729866 0.399220 -0.554904
v 35.332588 -6.933120 0.356904
vn 0.187053 0.836433 -0.515162
v 35.354786 -6.745034 0.628723
vn 0.472191 0.482651 -0.737620
v 35.369343 -6.815523 0.544972
vn 0.723546 0.305145 -0.619167
v 35.378307 -6.860146 0.521513
vn 0.903082 0.138686 -0.406459
v 35.360550 -6.862581 0.497982
vn 0.221967 0.185776 -0.957193
v 35.401810 -6.909595 0.519722
vn -0.286636 0.338795 -0.896135
v 35.472351 -6.933125 0.501757
vn 0.367509 0.237364 -0.899219
v 35.519382 -6.893410 0.521472
vn -0.187149 -0.071351 -0.979737
v 35.448833 -7.027173 0.521488
vn -0.412895 0.025834 -0.910412
v 35.448833 -6.980150 0.520092
vn -0.323906 -0.160340 0.932403
v 35.542885 -6.980149 0.564289
vn -0.240260 0.751964 -0.613861
v 35.589905 -6.934834 0.568524
vn 0.453498 0.322534 -0.830850
v 35.657829 -7.003671 0.592058
vn -0.988480 0.007925 -0.151145
v 35.640030 -6.956635 0.615542
# 294 vertices, 0 vertices normals


usemtl material_0
vt 0.944169 0.187075
vt 0.938645 0.187151
vt 0.941376 0.182575
f 3/1/3 4/2/4 5/3/5
vt 0.941394 0.164646
vt 0.930093 0.168476
vt 0.934761 0.161429
f 6/4/6 7/5/7 8/6/8
vt 0.476644 0.147933
vt 0.465545 0.132344
vt 0.457996 0.128336
f 9/7/9 17/8/17 13/9/13
vt 0.439151 0.116384
vt 0.435411 0.112460
vt 0.423945 0.112183
f 18/10/18 19/11/19 1/12/1
vt 0.522581 0.153185
vt 0.518704 0.152801
vt 0.510797 0.160268
f 15/13/15 20/14/20 14/15/14
vt 0.523201 0.122287
vt 0.538308 0.130315
vt 0.546064 0.126683
f 26/16/26 29/17/29 25/18/25
vt 0.526739 0.133858
vt 0.518964 0.137485
f 28/19/28 32/20/32 15/13/15
vt 0.527398 0.126209
f 26/16/26 33/21/33 29/17/29
f 32/20/32 20/14/20 15/13/15
vt 0.541951 0.138064
vt 0.538213 0.134141
f 27/22/27 34/23/34 28/19/28
f 33/21/33 28/19/28 29/17/29
f 28/19/28 34/23/34 29/17/29
vt 0.525692 0.129995
f 33/21/33 35/24/35 28/19/28
vt 0.961529 0.201181
vt 0.977946 0.205833
vt 0.959822 0.206299
f 36/25/36 30/26/30 31/27/31
vt 0.974714 0.193942
f 36/25/36 37/28/37 30/26/30
vt 0.965758 0.190823
f 36/25/36 38/29/38 37/28/37
vt 0.970705 0.186852
f 38/29/38 39/30/39 37/28/37
vt 0.982304 0.204336
vt 0.987491 0.185713
f 24/31/24 37/28/37 40/32/40
vt 0.791878 0.057314
vt 0.797248 0.037105
vt 0.788460 0.041328
f 24/33/24 40/34/40 41/35/41
vt 0.792574 0.026322
f 40/34/40 42/36/42 41/35/41
vt 0.796728 0.025767
f 40/34/40 43/37/43 42/36/42
vt 0.519611 0.110703
vt 0.519646 0.122188
f 26/16/26 44/38/44 45/39/45
vt 0.939686 0.205512
vt 0.940374 0.193690
f 16/40/16 46/41/46 36/25/36
vt 0.496072 0.079476
vt 0.489903 0.079348
vt 0.485528 0.098391
f 36/42/36 11/43/11 16/44/16
vt 0.936037 0.195227
f 16/40/16 47/45/47 46/41/46
vt 0.929343 0.201688
f 16/40/16 48/46/48 47/45/47
vt 0.927447 0.196764
f 48/46/48 49/47/49 47/45/47
vt 0.431658 0.104678
f 2/48/2 1/12/1 19/11/19
vt 0.446816 0.112719
vt 0.458262 0.115676
vt 0.454544 0.109079
f 50/49/50 51/50/51 52/51/52
vt 0.454361 0.120589
f 50/49/50 53/52/53 51/50/51
f 50/49/50 18/10/18 53/52/53
f 50/49/50 19/11/19 18/10/18
f 33/21/33 26/16/26 45/39/45
vt 0.723108 0.057025
vt 0.719425 0.047595
vt 0.711722 0.051462
f 32/53/32 55/54/55 56/55/56
vt 0.707784 0.057861
f 56/55/56 20/56/20 32/53/32
vt 0.715791 0.036034
f 55/54/55 57/57/57 56/55/56
vt 0.723328 0.043951
f 55/54/55 58/58/58 57/57/57
vt 0.724145 0.051701
f 32/53/32 59/59/59 55/54/55
vt 0.707860 0.051130
f 56/55/56 60/60/60 20/56/20
vt 0.699951 0.056985
vt 0.702002 0.046345
f 14/61/14 60/60/60 61/62/61
f 14/61/14 20/56/20 60/60/60
vt 0.704060 0.046938
f 60/60/60 62/63/62 61/62/61
vt 0.780821 0.037039
vt 0.753933 0.044437
vt 0.749909 0.055877
f 63/64/63 64/65/64 44/66/44
vt 0.788152 0.057861
f 44/66/44 23/67/23 63/64/63
f 23/67/23 41/35/41 63/64/63
vt 0.749959 0.051924
f 64/65/64 65/68/65 44/66/44
vt 0.784739 0.033439
f 41/35/41 66/69/66 63/64/63
vt 0.996826 0.558831
vt 0.997115 0.559218
vt 0.996826 0.569580
f 67/70/67 68/71/68 69/72/69
vt 0.928988 0.188446
vt 0.932126 0.189238
f 49/47/49 70/73/70 71/74/71
f 71/74/71 47/45/47 49/47/49
vt 0.926514 0.195917
f 49/47/49 72/75/72 70/73/70
vt 0.746288 0.045327
vt 0.731049 0.040270
vt 0.734721 0.049857
f 73/76/73 74/77/74 75/78/75
vt 0.742366 0.050256
f 75/78/75 76/79/76 73/76/73
vt 0.738440 0.055749
f 75/78/75 45/80/45 76/79/76
vt 0.746193 0.052304
f 45/80/45 77/81/77 76/79/76
f 45/80/45 44/66/44 77/81/77
f 44/66/44 65/68/65 77/81/77
f 62/63/62 60/60/60 56/55/56
vt 0.947746 0.180540
f 38/29/38 3/1/3 78/82/78
f 38/29/38 36/25/36 3/1/3
f 36/25/36 46/41/46 3/1/3
vt 0.947904 0.176898
f 78/82/78 79/83/79 38/29/38
vt 0.937588 0.189186
f 46/41/46 80/84/80 3/1/3
f 3/1/3 5/3/5 78/82/78
vt 0.748860 0.044529
f 77/81/77 65/68/65 81/85/81
f 65/68/65 64/65/64 81/85/81
vt 0.727226 0.041473
f 82/86/82 58/58/58 55/54/55
vt 0.780825 0.035413
vt 0.727242 0.036083
f 64/65/64 83/87/83 84/88/84
f 64/65/64 63/64/63 83/87/83
f 84/88/84 74/77/74 64/65/64
f 74/77/74 81/85/81 64/65/64
f 74/77/74 73/76/73 81/85/81
f 84/88/84 82/86/82 74/77/74
f 84/88/84 58/58/58 82/86/82
f 84/88/84 57/57/57 58/58/58
vt 0.731052 0.041750
f 82/86/82 85/89/85 74/77/74
vt 0.997555 0.456142
vt 0.993112 0.441443
vt 0.996915 0.441639
f 86/90/86 87/91/87 88/92/88
vt 0.992920 0.463854
f 86/90/86 82/93/82 87/91/87
vt 0.996622 0.464111
f 86/90/86 85/94/85 82/93/82
vt 0.992920 0.432428
vt 0.996646 0.437284
f 89/95/89 90/96/90 87/91/87
vt 0.996403 0.432713
f 89/95/89 91/97/91 90/96/90
f 90/96/90 88/92/88 87/91/87
vt 0.974139 0.171786
vt 0.987505 0.174583
f 39/30/39 92/98/92 43/99/43
f 43/99/43 40/32/40 39/30/39
f 40/32/40 37/28/37 39/30/39
vt 0.969987 0.171368
f 39/30/39 93/100/93 92/98/92
vt 0.985241 0.166591
f 92/98/92 94/101/94 43/99/43
vt 0.991940 0.305509
vt 0.981145 0.315513
vt 0.982670 0.297682
f 95/102/95 96/103/96 97/104/97
vt 0.989030 0.315912
f 95/102/95 98/105/98 96/103/96
vt 0.989854 0.290556
f 97/104/97 42/106/42 95/102/95
vt 0.980812 0.324705
f 98/105/98 99/107/99 96/103/96
vt 0.982677 0.328097
f 98/105/98 100/108/100 99/107/99
vt 0.783966 0.021796
f 97/109/97 66/69/66 42/36/42
vt 0.782417 0.033100
f 97/109/97 101/110/101 66/69/66
f 66/69/66 41/35/41 42/36/42
vt 0.974685 0.322923
f 99/107/99 102/111/102 96/103/96
vt 0.948131 0.153383
f 79/83/79 103/112/103 93/100/93
vt 0.946840 0.161016
f 79/83/79 104/113/104 103/112/103
f 93/100/93 38/29/38 79/83/79
f 93/100/93 39/30/39 38/29/38
f 63/64/63 66/69/66 101/110/101
vt 0.962833 0.291403
vt 0.974324 0.303319
vt 0.960839 0.299493
f 105/114/105 106/115/106 107/116/107
vt 0.977915 0.290581
f 105/114/105 108/117/108 106/115/106
vt 0.978929 0.294131
f 108/117/108 109/118/109 106/115/106
vt 0.958604 0.291481
vt 0.957764 0.301354
f 110/119/110 107/116/107 111/120/111
f 110/119/110 105/114/105 107/116/107
f 79/83/79 6/4/6 104/113/104
vt 0.935228 0.175709
f 79/83/79 112/121/112 6/4/6
f 112/121/112 7/5/7 6/4/6
f 79/83/79 78/82/78 112/121/112
vt 0.943444 0.158308
f 6/4/6 113/122/113 104/113/104
vt 0.809646 0.003174
vt 0.803923 0.002631
vt 0.797607 0.003174
f 114/123/114 115/124/115 116/125/116
vt 0.934326 0.564317
vt 0.940920 0.563578
vt 0.941638 0.560841
f 94/126/94 117/127/117 95/128/95
f 106/115/106 97/104/97 96/103/96
f 106/115/106 109/118/109 97/104/97
vt 0.970012 0.324442
vt 0.966081 0.306599
f 96/103/96 118/129/118 119/130/119
f 119/130/119 106/115/106 96/103/96
f 96/103/96 102/111/102 118/129/118
f 119/130/119 107/116/107 106/115/106
vt 0.976843 0.325483
f 102/111/102 120/131/120 118/129/118
vt 0.926514 0.167844
f 8/6/8 7/5/7 121/132/121
vt 0.979537 0.159070
vt 0.982545 0.158487
f 94/101/94 122/133/122 117/134/117
f 94/101/94 92/98/92 122/133/122
vt 0.965424 0.145717
f 93/100/93 103/112/103 123/135/123
f 123/135/123 122/133/122 93/100/93
vt 0.949145 0.151485
f 103/112/103 124/136/124 123/135/123
f 122/133/122 92/98/92 93/100/93
vt 0.961035 0.569580
vt 0.962650 0.561644
vt 0.951720 0.559740
f 123/137/123 125/138/125 98/139/98
vt 0.942121 0.567350
f 98/139/98 122/140/122 123/137/123
f 98/139/98 95/128/95 122/140/122
f 95/128/95 117/127/117 122/140/122
vt 0.989014 0.259815
vt 0.994875 0.247722
vt 0.997050 0.261386
f 126/141/126 127/142/127 128/143/128
vt 0.992411 0.246621
f 126/141/126 129/144/129 127/142/127
vt 0.989014 0.265172
f 128/143/128 130/145/130 126/141/126
vt 0.993684 0.267859
f 128/143/128 131/146/131 130/145/130
vt 0.996957 0.266763
f 128/143/128 132/147/132 131/146/131
vt 0.995494 0.272227
f 132/147/132 133/148/133 131/146/131
vt 0.993809 0.273007
f 133/148/133 134/149/134 131/146/131
vt 0.947861 0.137099
vt 0.967742 0.142469
f 123/135/123 135/150/135 136/151/136
f 123/135/123 124/136/124 135/150/135
vt 0.978291 0.560503
vt 0.977318 0.558010
vt 0.965354 0.559440
f 137/152/137 138/153/138 100/154/100
f 100/154/100 125/138/125 137/152/137
f 100/154/100 98/139/98 125/138/125
vt 0.964721 0.339364
vt 0.957764 0.337411
f 139/155/139 140/156/140 120/131/120
f 120/131/120 99/107/99 139/155/139
f 120/131/120 102/111/102 99/107/99
vt 0.957746 0.131842
f 136/151/136 135/150/135 137/157/137
vt 0.961806 0.565581
f 137/152/137 125/138/125 136/158/136
vt 0.949280 0.134754
f 135/150/135 141/159/141 137/157/137
vt 0.975667 0.337148
f 139/155/139 99/107/99 138/160/138
f 99/107/99 100/108/100 138/160/138
vt 0.997045 0.288330
f 142/161/142 134/149/134 133/148/133
vt 0.992539 0.559674
f 138/153/138 137/152/137 142/162/142
vt 0.981682 0.569580
vt 0.992127 0.569234
f 141/163/141 143/164/143 142/162/142
f 142/162/142 137/152/137 141/163/141
vt 0.963032 0.343018
f 139/155/139 138/160/138 144/165/144
vt 0.962329 0.019049
vt 0.949951 0.013341
vt 0.952281 0.030518
f 145/166/145 131/167/131 146/168/146
vt 0.960757 0.005950
f 145/166/145 147/169/147 131/167/131
vt 0.976602 0.016151
f 145/166/145 148/170/148 147/169/147
vt 0.970481 0.019171
f 145/166/145 149/171/149 148/170/148
vt 0.964942 0.023733
f 145/166/145 150/172/150 149/171/149
vt 0.968070 0.023764
f 150/172/150 151/173/151 149/171/149
vt 0.010316 0.002957
vt 0.008545 0.007080
vt 0.014396 0.007080
f 153/174/153 5/175/5 4/176/4
vt 0.966267 0.030158
vt 0.971227 0.030518
f 154/177/154 155/178/155 151/173/151
f 151/173/151 150/172/150 154/177/154
vt 0.299398 0.910331
vt 0.292141 0.913390
vt 0.291484 0.918698
f 50/179/50 52/180/52 156/181/156
vt 0.106201 0.268992
vt 0.107736 0.261248
vt 0.112732 0.263412
f 157/182/157 158/183/158 159/184/159
vt 0.283783 0.911093
vt 0.280348 0.918020
f 156/181/156 160/185/160 161/186/161
vt 0.137451 0.280822
vt 0.140998 0.283604
vt 0.137451 0.288330
f 76/187/76 77/188/77 162/189/162
vt 0.951709 0.899606
vt 0.946938 0.902828
vt 0.953605 0.901592
f 163/190/163 164/191/164 165/192/165
vt 0.094898 0.376183
vt 0.092332 0.376514
vt 0.100820 0.372162
f 166/193/166 167/194/167 168/195/168
vt 0.882767 0.891985
vt 0.875209 0.888448
vt 0.863551 0.892445
f 111/196/111 169/197/169 170/198/170
vt 0.052204 0.933358
vt 0.049834 0.934947
vt 0.052859 0.936948
f 171/199/171 172/200/172 173/201/173
vt 0.011754 0.257080
vt 0.016360 0.250552
vt 0.012091 0.252341
f 174/202/174 114/203/114 175/204/175
vt 0.117920 0.688893
vt 0.123608 0.694013
vt 0.117920 0.706299
f 24/205/24 30/206/30 37/207/37
vt 0.595509 0.873990
vt 0.578857 0.874268
vt 0.578857 0.868505
f 41/208/41 23/209/23 24/210/24
vt 0.606907 0.975830
vt 0.601785 0.974019
vt 0.598389 0.975830
f 36/211/36 31/212/31 11/213/11
vt 0.934326 0.921143
vt 0.949615 0.921143
vt 0.946393 0.918257
f 16/214/16 176/215/176 177/216/177
vt 0.871826 0.999267
vt 0.891117 0.998553
vt 0.887296 0.996235
f 16/217/16 12/218/12 176/219/176
vt 0.940009 0.911919
f 177/216/177 48/220/48 16/214/16
vt 0.620510 0.923472
vt 0.627566 0.928955
vt 0.627036 0.926845
f 10/221/10 2/222/2 178/223/178
vt 0.632306 0.928682
f 2/222/2 179/224/179 178/223/178
vt 0.925685 0.992857
vt 0.891205 0.991908
f 12/218/12 178/225/178 180/226/180
vt 0.929352 0.999268
f 12/218/12 10/227/10 178/225/178
f 180/226/180 176/219/176 12/218/12
vt 0.946157 0.906621
vt 0.938456 0.905293
f 48/220/48 69/228/69 49/229/49
f 48/220/48 177/216/177 69/228/69
vt 0.942811 0.902351
f 69/228/69 181/230/181 49/229/49
vt 0.938848 0.904020
f 181/230/181 72/231/72 49/229/49
vt 0.939585 0.901263
f 181/230/181 182/232/182 72/231/72
vt 0.309723 0.921143
f 50/179/50 156/181/156 179/233/179
vt 0.311627 0.908647
f 179/233/179 19/234/19 50/179/50
vt 0.314075 0.919364
f 179/233/179 2/235/2 19/234/19
vt 0.084172 0.649421
vt 0.091928 0.652008
vt 0.092769 0.642447
f 75/236/75 183/237/183 33/238/33
vt 0.084321 0.642863
f 33/238/33 45/239/45 75/236/75
vt 0.096370 0.647345
f 183/237/183 184/240/184 33/238/33
vt 0.569959 0.975830
vt 0.564588 0.974830
vt 0.563232 0.975830
f 183/241/183 185/242/185 184/243/184
vt 0.103862 0.648082
vt 0.107098 0.652818
vt 0.111167 0.642724
f 186/244/186 187/245/187 25/246/25
vt 0.104244 0.643425
f 25/246/25 29/247/29 186/244/186
vt 0.111221 0.650413
vt 0.115556 0.643699
f 25/246/25 188/248/188 22/249/22
f 25/246/25 187/245/187 188/248/188
vt 0.110894 0.657177
f 187/245/187 90/250/90 188/248/188
vt 0.115228 0.653980
f 90/250/90 91/251/91 188/248/188
vt 0.730700 0.871265
vt 0.727295 0.873177
vt 0.727295 0.868397
f 189/252/189 186/253/186 29/254/29
vt 0.730698 0.868475
f 29/254/29 34/255/34 189/252/189
vt 0.172813 0.897705
vt 0.171922 0.889171
vt 0.164796 0.893881
f 188/256/188 190/257/190 21/258/21
vt 0.164795 0.897705
f 21/258/21 22/259/22 188/256/188
vt 0.174165 0.890080
f 188/256/188 191/260/191 190/257/190
vt 0.082764 0.302199
vt 0.086824 0.303955
vt 0.085903 0.296395
f 192/261/192 193/262/193 189/263/189
vt 0.735856 0.868269
vt 0.736710 0.874268
f 189/252/189 27/264/27 192/265/192
f 189/252/189 34/255/34 27/264/27
vt 0.134311 0.124268
vt 0.131306 0.117775
vt 0.125732 0.124268
f 190/266/190 27/267/27 21/268/21
vt 0.111533 0.634615
vt 0.107833 0.635580
vt 0.109164 0.639893
f 190/269/190 192/270/192 27/271/27
vt 0.955254 0.910440
f 177/216/177 67/272/67 69/228/69
vt 0.954968 0.920260
f 177/216/177 180/273/180 67/272/67
vt 0.954876 0.910152
f 68/274/68 165/192/165 69/228/69
f 165/192/165 164/191/164 69/228/69
vt 0.134398 0.010986
vt 0.129032 0.008353
vt 0.125732 0.010986
f 68/275/68 194/276/194 165/277/165
f 177/216/177 176/215/176 180/273/180
vt 0.288715 0.905967
f 52/180/52 51/278/51 160/185/160
f 160/185/160 156/181/156 52/180/52
vt 0.283916 0.906927
f 51/278/51 195/279/195 160/185/160
vt 0.951692 0.893087
f 181/230/181 163/190/163 196/280/196
f 181/230/181 164/191/164 163/190/163
vt 0.955389 0.900387
f 163/190/163 197/281/197 196/280/196
vt 0.956056 0.891933
f 197/281/197 198/282/198 196/280/196
f 181/230/181 69/228/69 164/191/164
vt 0.228178 0.863414
vt 0.223389 0.866455
vt 0.229593 0.866455
f 199/283/199 33/284/33 184/285/184
vt 0.224336 0.862860
f 199/283/199 35/286/35 33/284/33
vt 0.125749 0.464111
vt 0.137229 0.464111
vt 0.133391 0.459953
f 189/287/189 200/288/200 184/289/184
vt 0.125732 0.459796
f 184/289/184 186/290/186 189/287/189
vt 0.096121 0.648613
f 184/240/184 185/291/185 186/244/186
vt 0.137216 0.459874
f 200/288/200 199/292/199 184/289/184
vt 0.111903 0.275327
vt 0.120545 0.277183
f 201/293/201 159/184/159 202/294/202
f 201/293/201 157/182/157 159/184/159
vt 0.109801 0.280518
f 202/294/202 196/295/196 201/293/201
vt 0.941182 0.890388
f 202/296/202 181/230/181 196/280/196
f 202/296/202 182/232/182 181/230/181
vt 0.108606 0.277332
f 196/295/196 203/297/203 201/293/201
vt 0.097291 0.294938
vt 0.107718 0.303955
f 200/298/200 193/262/193 55/299/55
f 200/298/200 189/263/189 193/262/193
vt 0.105407 0.298237
f 55/299/55 59/300/59 200/298/200
vt 0.242723 0.893581
vt 0.241444 0.901611
vt 0.260821 0.901611
f 204/301/204 205/302/205 62/303/62
vt 0.265944 0.893778
f 62/303/62 56/304/56 204/301/204
vt 0.238336 0.896806
f 204/301/204 206/305/206 205/302/205
vt 0.230693 0.896066
f 204/301/204 207/306/207 206/305/206
vt 0.223736 0.891145
f 204/301/204 127/307/127 207/306/207
vt 0.223389 0.893380
f 127/307/127 129/308/129 207/306/207
vt 0.091869 0.656080
vt 0.106698 0.659424
f 185/291/185 86/309/86 88/310/88
f 88/310/88 187/245/187 185/291/185
f 187/245/187 186/244/186 185/291/185
f 185/291/185 183/237/183 86/309/86
f 88/310/88 90/250/90 187/245/187
vt 0.902883 0.988665
f 178/225/178 156/311/156 180/226/180
vt 0.921978 0.988696
f 178/225/178 179/312/179 156/311/156
vt 0.966843 0.918772
vt 0.956649 0.915862
f 156/313/156 161/314/161 180/273/180
f 161/314/161 67/272/67 180/273/180
vt 0.274944 0.905970
vt 0.276437 0.913970
f 195/279/195 197/315/197 208/316/208
f 208/316/208 160/185/160 195/279/195
vt 0.250288 0.877686
vt 0.257638 0.882588
vt 0.260025 0.877386
f 195/317/195 209/318/209 197/319/197
vt 0.254291 0.884186
f 195/317/195 210/320/210 209/318/209
vt 0.130639 0.140249
vt 0.125732 0.147705
vt 0.134471 0.147705
f 208/321/208 161/322/161 160/323/160
vt 0.126402 0.141110
f 208/321/208 67/324/67 161/322/161
vt 0.274772 0.910222
f 197/315/197 211/325/211 208/316/208
vt 0.263657 0.885986
f 209/318/209 198/326/198 197/319/197
vt 0.137451 0.112549
vt 0.137451 0.104895
vt 0.143116 0.106579
f 81/327/81 162/328/162 77/329/77
vt 0.125732 0.112549
vt 0.133314 0.112549
vt 0.132169 0.110347
f 162/330/162 81/331/81 73/332/73
vt 0.128183 0.105529
f 73/332/73 76/333/76 162/330/162
vt 0.084133 0.658224
f 183/237/183 85/334/85 86/309/86
f 183/237/183 75/236/75 85/334/85
vt 0.082764 0.659424
f 75/236/75 74/335/74 85/334/85
vt 0.004028 0.221533
vt 0.007763 0.221203
vt 0.013007 0.215247
f 57/336/57 212/337/212 204/338/204
vt 0.251260 0.888704
f 204/301/204 56/304/56 57/339/57
vt 0.012236 0.219188
f 212/337/212 213/340/213 204/338/204
vt 0.006039 0.222508
f 57/336/57 214/341/214 212/337/212
vt 0.407503 0.869844
vt 0.403865 0.870160
vt 0.403076 0.874268
f 91/342/91 89/343/89 191/344/191
vt 0.410858 0.874268
f 191/344/191 188/345/188 91/342/91
vt 0.082764 0.630075
vt 0.083361 0.639893
vt 0.103200 0.633051
f 82/346/82 55/347/55 193/348/193
vt 0.104883 0.624125
f 193/348/193 87/349/87 82/346/82
vt 0.110887 0.632154
f 193/348/193 191/350/191 87/349/87
vt 0.114192 0.629557
f 191/350/191 89/351/89 87/349/87
f 193/348/193 192/270/192 191/350/191
f 192/270/192 190/269/190 191/350/191
vt 0.002232 0.232077
f 84/352/84 214/341/214 57/336/57
vt 0.272880 0.918506
vt 0.279503 0.919613
f 208/316/208 215/353/215 216/354/216
f 208/316/208 211/325/211 215/353/215
vt 0.089052 0.375622
vt 0.087090 0.378205
vt 0.082967 0.379771
f 215/355/215 217/356/217 216/357/216
vt 0.130439 0.668245
vt 0.131104 0.669616
vt 0.129159 0.667302
f 217/358/217 218/359/218 216/360/216
f 215/355/215 167/194/167 217/356/217
vt 0.271015 0.915813
f 194/361/194 215/353/215 211/325/211
vt 0.270264 0.911731
f 211/325/211 165/362/165 194/361/194
vt 0.271414 0.905346
f 211/325/211 163/363/163 165/362/165
f 211/325/211 197/315/197 163/363/163
vt 0.270439 0.921143
f 194/361/194 219/364/219 215/353/215
vt 0.126427 0.919149
vt 0.116228 0.910491
vt 0.123560 0.918488
f 62/365/62 220/366/220 221/367/221
vt 0.116535 0.904879
f 62/365/62 205/368/205 220/366/220
vt 0.126034 0.921143
f 221/367/221 61/369/61 62/365/62
vt 0.312727 0.869856
vt 0.317817 0.874268
vt 0.316310 0.869038
f 4/370/4 80/371/80 222/372/222
vt 0.309326 0.874268
f 4/370/4 3/373/3 80/371/80
vt 0.129442 0.660607
vt 0.125732 0.661898
f 216/360/216 67/374/67 208/375/208
vt 0.131081 0.665962
f 216/360/216 223/376/223 67/374/67
vt 0.137460 0.662436
vt 0.129461 0.660252
f 223/376/223 224/377/224 68/378/68
vt 0.136843 0.665175
f 223/376/223 225/379/225 224/377/224
vt 0.133070 0.668245
f 223/376/223 226/380/226 225/379/225
f 68/378/68 67/374/67 223/376/223
vt 0.090886 0.382080
vt 0.101539 0.373848
vt 0.090579 0.378469
f 224/381/224 227/382/227 219/383/219
vt 0.103996 0.382080
f 224/381/224 228/384/228 227/382/227
vt 0.104864 0.379647
f 228/384/228 229/385/229 227/382/227
vt 0.082764 0.378096
f 219/383/219 68/386/68 224/381/224
vt 0.087315 0.374292
f 219/383/219 194/387/194 68/386/68
vt 0.477830 0.999268
vt 0.466460 0.984023
vt 0.443524 0.980071
f 83/388/83 110/389/110 230/390/230
vt 0.424308 0.999268
f 230/390/230 84/391/84 83/388/83
f 218/359/218 226/380/226 223/376/223
f 223/376/223 216/360/216 218/359/218
vt 0.131971 0.678036
f 218/359/218 231/392/231 226/380/226
vt 0.424325 0.984066
vt 0.435835 0.979822
f 232/393/232 230/390/230 233/394/233
f 232/393/232 84/391/84 230/390/230
vt 0.412763 0.994876
f 232/393/232 234/395/234 84/391/84
vt 0.412772 0.998877
f 234/395/234 214/396/214 84/391/84
vt 0.410889 0.998654
f 234/395/234 212/397/212 214/396/214
vt 0.122438 0.255811
vt 0.119063 0.248686
vt 0.106201 0.257080
f 83/398/83 108/399/108 105/400/105
vt 0.470230 0.984860
f 105/401/105 110/389/110 83/388/83
vt 0.122616 0.253011
f 83/398/83 101/402/101 108/399/108
vt 0.123762 0.257080
f 83/398/83 63/403/63 101/402/101
vt 0.863843 0.901611
f 111/196/111 170/198/170 230/404/230
vt 0.887091 0.901611
f 230/404/230 110/405/110 111/196/111
vt 0.856201 0.900349
f 170/198/170 233/406/233 230/404/230
vt 0.136316 0.678955
f 235/407/235 226/380/226 231/392/231
f 235/407/235 225/379/225 226/380/226
vt 0.142285 0.773611
vt 0.132546 0.759518
vt 0.125732 0.773228
f 225/408/225 236/409/236 237/410/237
vt 0.141128 0.759863
f 225/408/225 235/411/235 236/409/236
vt 0.127487 0.776611
f 237/410/237 228/412/228 225/408/225
vt 0.140586 0.776611
f 228/412/228 224/413/224 225/408/225
vt 0.128521 0.678955
f 231/392/231 217/358/217 238/414/238
f 231/392/231 218/359/218 217/358/217
vt 0.089648 0.376987
f 167/194/167 238/415/238 217/356/217
f 167/194/167 166/193/166 238/415/238
vt 0.098181 0.377431
f 166/193/166 239/416/239 238/415/238
vt 0.101358 0.373921
f 219/383/219 171/417/171 167/194/167
f 219/383/219 227/382/227 171/417/171
f 171/417/171 168/195/168 167/194/167
vt 0.102824 0.374059
f 171/417/171 240/418/240 168/195/168
vt 0.271904 0.921103
f 167/419/167 215/353/215 219/364/219
vt 0.054533 0.934060
f 171/199/171 173/201/173 240/420/240
vt 0.125732 0.276608
vt 0.132633 0.284244
vt 0.129658 0.276041
f 241/421/241 227/422/227 112/423/112
vt 0.125930 0.288330
f 241/421/241 242/424/242 227/422/227
vt 0.135374 0.278128
f 227/422/227 229/425/229 112/423/112
vt 0.134081 0.288330
f 242/424/242 172/426/172 227/422/227
vt 0.100442 0.370557
f 172/427/172 171/417/171 227/382/227
vt 0.009526 0.228389
vt 0.006771 0.224488
vt 0.003105 0.239329
f 243/428/243 234/429/234 232/430/232
vt 0.007534 0.236313
f 232/430/232 244/431/244 243/428/243
vt 0.129664 0.436731
vt 0.137267 0.440674
vt 0.133458 0.436862
f 108/432/108 97/433/97 109/434/109
vt 0.125732 0.440674
f 108/432/108 101/435/101 97/433/97
vt 0.619484 0.869197
vt 0.613912 0.870692
vt 0.610107 0.868959
f 112/436/112 229/437/229 7/438/7
vt 0.074141 0.059294
vt 0.070633 0.060691
vt 0.070636 0.069580
f 238/439/238 239/440/239 236/441/236
vt 0.074144 0.069333
f 236/441/236 235/442/235 238/439/238
vt 0.074080 0.064550
f 235/442/235 231/443/231 238/439/238
vt 0.070675 0.062126
f 239/440/239 245/444/245 236/441/236
f 244/431/244 175/204/175 114/203/114
f 244/431/244 232/430/232 175/204/175
vt 0.000732 0.251273
f 232/430/232 233/445/233 175/204/175
vt 0.019802 0.220484
f 243/428/243 246/446/246 213/340/213
vt 0.023819 0.235406
f 243/428/243 247/447/247 246/446/246
f 213/340/213 234/429/234 243/428/243
f 213/340/213 212/337/212 234/429/234
vt 0.107890 0.913845
vt 0.111294 0.903116
vt 0.106729 0.897678
f 248/448/248 206/449/206 207/450/207
vt 0.112005 0.913917
f 248/448/248 249/451/249 206/449/206
f 220/366/220 205/368/205 206/449/206
f 206/449/206 249/451/249 220/366/220
vt 0.025944 0.243456
f 114/203/114 116/452/116 247/447/247
f 247/447/247 244/431/244 114/203/114
f 247/447/247 243/428/243 244/431/244
vt 0.027509 0.237205
f 116/452/116 250/453/250 247/447/247
vt 0.143789 0.065674
vt 0.142783 0.064740
vt 0.137451 0.065674
f 115/454/115 251/455/251 116/456/116
vt 0.143200 0.018799
vt 0.142116 0.016264
vt 0.137451 0.018799
f 114/457/114 252/458/252 115/459/115
vt 0.141093 0.062861
f 251/455/251 253/460/253 116/456/116
vt 0.105860 0.915512
vt 0.090226 0.895584
vt 0.083185 0.913097
f 254/461/254 147/462/147 148/463/148
f 254/461/254 207/450/207 147/462/147
vt 0.086215 0.921143
f 148/463/148 255/464/255 254/461/254
f 254/461/254 248/448/248 207/450/207
vt 0.100901 0.892654
f 207/450/207 129/465/129 147/462/147
vt 0.087544 0.890682
f 129/465/129 126/466/126 147/462/147
vt 0.025822 0.229676
vt 0.031283 0.219905
f 246/446/246 256/467/256 127/468/127
f 127/468/127 204/338/204 246/446/246
vt 0.037407 0.231096
f 256/467/256 128/469/128 127/468/127
f 204/338/204 213/340/213 246/446/246
vt 0.493474 0.881644
vt 0.485107 0.885986
vt 0.500923 0.885986
f 94/470/94 95/471/95 42/472/42
vt 0.501683 0.880336
f 42/472/42 43/473/43 94/470/94
vt 0.055313 0.069580
vt 0.052287 0.062097
f 237/474/237 245/444/245 121/475/121
f 237/474/237 236/441/236 245/444/245
vt 0.051514 0.065893
f 121/475/121 7/476/7 237/474/237
vt 0.610107 0.874268
f 229/437/229 237/477/237 7/438/7
vt 0.613753 0.873232
f 229/437/229 228/478/228 237/477/237
vt 0.339592 0.885722
vt 0.331120 0.878879
vt 0.328858 0.885986
f 121/479/121 257/480/257 8/481/8
vt 0.344039 0.882710
f 121/479/121 173/482/173 257/480/257
vt 0.344533 0.885986
f 121/479/121 240/483/240 173/482/173
vt 0.059003 0.057759
f 168/484/168 121/475/121 245/444/245
vt 0.070475 0.059362
f 245/444/245 166/485/166 168/484/168
vt 0.107689 0.374890
f 168/195/168 240/418/240 121/486/121
vt 0.099066 0.378823
f 245/487/245 239/416/239 166/193/166
vt 0.147851 0.895315
vt 0.147559 0.888053
vt 0.140499 0.889783
f 250/488/250 258/489/258 256/490/256
vt 0.144680 0.897705
f 256/490/256 247/491/247 250/488/250
vt 0.129639 0.891202
f 256/490/256 246/492/246 247/491/247
vt 0.033327 0.247445
vt 0.038467 0.246712
vt 0.040601 0.235287
f 259/493/259 260/494/260 132/495/132
vt 0.031573 0.234865
f 132/495/132 258/496/258 259/493/259
f 132/495/132 128/469/128 258/496/258
f 128/469/128 256/467/256 258/496/258
vt 0.036685 0.251620
f 259/493/259 261/497/261 260/494/260
vt 0.778852 0.975830
vt 0.774292 0.975144
vt 0.770264 0.975830
f 123/498/123 136/499/136 125/500/125
vt 0.159834 0.889266
f 259/501/259 258/489/258 250/488/250
vt 0.158213 0.897705
f 250/488/250 262/502/262 259/501/259
vt 0.029120 0.247842
f 250/453/250 116/452/116 262/503/262
vt 0.160469 0.893110
f 262/502/262 263/504/263 259/501/259
vt 0.130986 0.537151
vt 0.125732 0.542236
vt 0.137879 0.542236
f 140/505/140 139/506/139 260/507/260
vt 0.134789 0.537774
f 260/507/260 261/508/261 140/505/140
vt 0.043488 0.240151
vt 0.040887 0.257080
f 133/509/133 260/494/260 139/510/139
vt 0.043441 0.253705
f 139/510/139 144/511/144 133/509/133
f 133/509/133 132/495/132 260/494/260
vt 0.134825 0.326260
vt 0.126591 0.315265
vt 0.125732 0.331299
f 146/512/146 134/513/134 142/514/142
vt 0.127878 0.310355
f 146/512/146 131/515/131 134/513/134
vt 0.135136 0.331299
f 142/514/142 143/516/143 146/512/146
vt 0.387948 0.880944
vt 0.387451 0.885986
vt 0.402889 0.885986
f 142/517/142 144/518/144 138/519/138
vt 0.047530 0.255563
f 142/520/142 133/509/133 144/511/144
vt 0.106201 0.280341
f 196/295/196 198/521/198 203/297/203
vt 0.056901 0.100590
vt 0.067285 0.101894
vt 0.063106 0.100154
f 209/522/209 203/523/203 198/524/198
vt 0.044294 0.957934
vt 0.018472 0.950797
vt 0.029017 0.970571
f 255/525/255 264/526/264 254/527/254
vt 0.070552 0.954118
vt 0.072214 0.946628
vt 0.065173 0.954226
f 265/528/265 266/529/266 267/530/267
vt 0.162208 0.895437
f 268/531/268 263/504/263 262/502/262
vt 0.082764 0.888786
f 147/462/147 126/466/126 130/532/130
vt 0.866730 0.910943
vt 0.864546 0.921143
vt 0.867623 0.914823
f 112/533/112 5/534/5 241/535/241
vt 0.856201 0.919250
f 112/533/112 78/536/78 5/534/5
vt 0.868449 0.919101
f 5/534/5 153/537/153 241/535/241
vt 0.111911 0.744265
vt 0.119026 0.726123
vt 0.106800 0.731559
f 118/538/118 140/539/140 269/540/269
vt 0.116402 0.749268
f 118/538/118 120/541/120 140/539/140
vt 0.093844 0.749268
f 269/540/269 119/542/119 118/538/118
vt 0.110634 0.724267
f 140/539/140 270/543/270 269/540/269
vt 0.103807 0.727244
f 270/543/270 271/544/271 269/540/269
vt 0.106630 0.723354
f 270/543/270 272/545/272 271/544/271
vt 0.101957 0.715435
vt 0.098409 0.726167
f 271/544/271 273/546/273 274/547/274
vt 0.105987 0.716151
f 271/544/271 275/548/275 273/546/273
vt 0.097883 0.729940
f 274/547/274 276/549/276 271/544/271
f 276/549/276 269/540/269 271/544/271
vt 0.075505 0.971127
vt 0.072009 0.967364
vt 0.061088 0.971924
f 146/550/146 277/551/277 145/552/145
vt 0.138827 0.550049
vt 0.129479 0.546159
vt 0.125732 0.550049
f 147/553/147 130/554/130 131/555/131
vt 0.055823 0.965797
vt 0.052741 0.961367
vt 0.050393 0.963969
f 149/556/149 278/557/278 148/558/148
vt 0.074324 0.963524
f 146/550/146 279/559/279 277/551/277
vt 0.068937 0.963335
f 279/559/279 280/560/280 277/551/277
vt 0.989014 0.979736
vt 0.998082 0.979736
vt 0.992173 0.977594
f 281/561/281 53/562/53 54/563/54
vt 0.251678 0.885986
vt 0.244955 0.879136
vt 0.242920 0.885489
f 281/564/281 51/565/51 53/566/53
f 281/564/281 210/320/210 195/317/195
f 195/317/195 51/565/51 281/564/281
vt 0.062515 0.110761
f 17/567/17 203/523/203 209/522/209
vt 0.054547 0.106853
f 209/522/209 281/568/281 17/567/17
vt 0.070881 0.100868
f 17/567/17 201/569/201 203/523/203
vt 0.054181 0.112549
f 281/568/281 13/570/13 17/567/17
vt 0.429629 0.975830
vt 0.426108 0.974587
vt 0.422607 0.975830
f 209/571/209 210/572/210 281/573/281
vt 0.051514 0.108461
f 281/568/281 54/574/54 13/570/13
vt 0.139999 0.150928
vt 0.142933 0.159184
vt 0.137451 0.159424
f 200/575/200 59/576/59 32/577/32
vt 0.137451 0.150847
f 32/577/32 28/578/28 200/575/200
vt 0.278116 0.862471
vt 0.278076 0.866455
vt 0.280641 0.862603
f 28/579/28 35/580/35 200/581/200
vt 0.282356 0.866455
f 35/580/35 199/582/199 200/581/200
vt 0.072650 0.107032
vt 0.080854 0.112549
f 157/583/157 17/567/17 9/584/9
f 157/583/157 201/569/201 17/567/17
vt 0.079927 0.109924
f 9/584/9 158/585/158 157/583/157
vt 0.117420 0.266063
vt 0.106818 0.259724
f 152/586/152 159/184/159 9/587/9
f 159/184/159 158/183/158 9/587/9
vt 0.017316 0.949786
vt 0.022873 0.943600
vt 0.017696 0.941814
f 283/588/283 284/589/284 152/590/152
vt 0.020783 0.939756
f 284/589/284 285/591/285 152/590/152
vt 0.008588 0.963739
vt 0.000795 0.965804
vt 0.010465 0.970039
f 282/592/282 14/593/14 61/594/61
vt 0.013529 0.971924
f 61/594/61 221/595/221 282/592/282
vt 0.118542 0.269838
f 159/184/159 152/586/152 285/596/285
f 285/596/285 202/294/202 159/184/159
vt 0.376487 0.869679
vt 0.369279 0.869591
vt 0.372429 0.874131
f 47/597/47 71/598/71 80/599/80
vt 0.377240 0.874268
f 80/599/80 46/600/46 47/597/47
vt 0.367920 0.874268
f 71/598/71 222/601/222 80/599/80
vt 0.032619 0.927156
vt 0.026160 0.935126
vt 0.030825 0.940041
f 182/602/182 202/603/202 286/604/286
vt 0.040192 0.929010
f 286/604/286 70/605/70 182/602/182
f 202/603/202 284/589/284 286/604/286
f 202/603/202 285/591/285 284/589/284
vt 0.033399 0.924866
f 70/605/70 72/606/72 182/602/182
f 221/595/221 254/527/254 264/526/264
f 264/526/264 282/592/282 221/595/221
f 221/367/221 249/451/249 254/461/254
f 221/367/221 220/366/220 249/451/249
f 249/451/249 248/448/248 254/461/254
vt 0.042204 0.941681
f 255/525/255 287/607/287 286/604/286
f 286/604/286 264/526/264 255/525/255
vt 0.044327 0.951601
f 255/525/255 288/608/288 287/607/287
f 286/604/286 284/589/284 264/526/264
f 284/589/284 283/588/283 264/526/264
vt 0.050960 0.928999
vt 0.050257 0.923378
vt 0.047910 0.925910
f 153/609/153 4/610/4 222/611/222
vt 0.048609 0.931398
f 222/611/222 289/612/289 153/609/153
vt 0.042540 0.926477
f 222/611/222 71/613/71 289/612/289
vt 0.892558 0.921142
vt 0.886054 0.911093
vt 0.879475 0.917057
f 286/614/286 287/615/287 290/616/290
vt 0.043913 0.936337
f 290/617/290 70/605/70 286/604/286
f 290/617/290 289/612/289 70/605/70
f 289/612/289 71/613/71 70/605/70
vt 0.872133 0.918367
vt 0.879323 0.913348
f 289/618/289 242/619/242 241/535/241
f 289/618/289 290/616/290 242/619/242
f 241/535/241 153/537/153 289/618/289
f 242/619/242 290/616/290 287/615/287
vt 0.878358 0.905282
f 287/615/287 172/620/172 242/619/242
vt 0.087595 0.725003
vt 0.091438 0.721506
vt 0.092643 0.716439
f 170/621/170 291/622/291 175/623/175
vt 0.082764 0.717187
f 175/623/175 233/624/233 170/621/170
vt 0.092111 0.721667
f 291/622/291 174/625/174 175/623/175
f 287/607/287 288/608/288 173/201/173
f 173/201/173 172/200/172 287/607/287
vt 0.090584 0.737083
f 269/540/269 276/549/276 169/626/169
f 169/626/169 119/542/119 269/540/269
vt 0.085508 0.744083
f 169/626/169 111/627/111 119/542/119
vt 0.085061 0.747889
f 111/627/111 107/628/107 119/542/119
f 170/621/170 276/549/276 291/622/291
f 170/621/170 169/626/169 276/549/276
f 276/549/276 274/547/274 291/622/291
vt 0.060538 0.947086
vt 0.056383 0.956675
f 257/629/257 288/608/288 252/630/252
f 257/629/257 173/201/173 288/608/288
f 252/630/252 267/530/267 257/629/257
vt 0.062829 0.956886
f 252/630/252 155/631/155 267/530/267
vt 0.065596 0.960617
f 155/631/155 154/632/154 267/530/267
vt 0.068240 0.958281
f 154/632/154 272/633/272 267/530/267
vt 0.057628 0.957177
f 252/630/252 292/634/292 155/631/155
f 272/633/272 265/528/265 267/530/267
vt 0.073280 0.957464
f 272/633/272 293/635/293 265/528/265
f 288/608/288 255/525/255 278/557/278
vt 0.185321 0.885986
vt 0.184161 0.878079
vt 0.172607 0.885986
f 278/636/278 252/637/252 288/638/288
f 255/525/255 148/558/148 278/557/278
vt 0.099393 0.714905
f 274/547/274 273/546/273 292/639/292
f 292/639/292 174/625/174 274/547/274
vt 0.913438 0.885986
vt 0.910953 0.882818
vt 0.903076 0.885986
f 292/640/292 114/641/114 174/642/174
vt 0.782481 0.975225
vt 0.781982 0.975830
vt 0.790825 0.975830
f 174/643/174 291/644/291 274/645/274
vt 0.054450 0.956114
f 292/634/292 252/630/252 114/646/114
vt 0.065210 0.942007
f 8/647/8 267/530/267 266/529/266
f 8/647/8 257/629/257 267/530/267
vt 0.073186 0.941128
f 266/529/266 113/648/113 8/647/8
vt 0.068428 0.936436
f 113/648/113 6/649/6 8/647/8
vt 0.189095 0.880445
vt 0.190989 0.884665
f 251/650/251 278/636/278 149/651/149
f 251/650/251 252/637/252 278/636/278
vt 0.616145 0.975830
vt 0.615303 0.974739
vt 0.610107 0.975830
f 251/652/251 115/653/115 252/654/252
vt 0.191164 0.880970
f 149/651/149 253/655/253 251/650/251
vt 0.085886 0.959544
vt 0.081218 0.944316
f 293/635/293 135/656/135 124/657/124
f 124/657/124 266/529/266 293/635/293
f 293/635/293 279/559/279 135/656/135
vt 0.080412 0.969274
f 279/559/279 143/658/143 135/656/135
vt 0.087458 0.961808
f 143/658/143 141/659/141 135/656/135
f 266/529/266 265/528/265 293/635/293
vt 0.079902 0.942598
f 124/657/124 103/660/103 266/529/266
f 103/660/103 113/648/113 266/529/266
f 279/559/279 146/550/146 143/658/143
vt 0.073843 0.937879
f 103/660/103 104/661/104 113/648/113
vt 0.117920 0.598922
vt 0.122699 0.592254
vt 0.123722 0.600830
f 273/662/273 151/663/151 155/664/155
vt 0.118682 0.593748
f 273/662/273 253/665/253 151/663/151
vt 0.887451 0.874268
vt 0.892674 0.874268
vt 0.892232 0.870406
f 155/666/155 292/667/292 273/668/273
vt 0.117920 0.590682
f 253/665/253 149/669/149 151/663/151
vt 0.080578 0.096924
vt 0.076850 0.092730
vt 0.074951 0.096924
f 262/670/262 116/671/116 253/672/253
vt 0.105301 0.711569
vt 0.110257 0.714077
f 253/673/253 275/548/275 262/674/262
f 253/673/253 273/546/273 275/548/275
vt 0.637451 0.925529
vt 0.642043 0.928955
vt 0.645558 0.928050
f 271/675/271 272/676/272 154/677/154
vt 0.648416 0.923188
f 154/677/154 275/678/275 271/675/271
vt 0.652163 0.924766
f 154/677/154 262/679/262 275/678/275
vt 0.653701 0.928955
f 154/677/154 150/680/150 262/679/262
vt 0.657771 0.925969
f 150/680/150 145/681/145 262/679/262
vt 0.070190 0.961611
f 293/635/293 270/682/270 279/559/279
f 293/635/293 272/633/272 270/682/270
vt 0.066347 0.963188
f 270/682/270 294/683/294 280/560/280
f 280/560/280 279/559/279 270/682/270
vt 0.119181 0.722345
f 270/543/270 140/539/140 261/684/261
vt 0.113794 0.717543
f 261/684/261 263/685/263 270/543/270
vt 0.109654 0.720407
f 263/685/263 294/686/294 270/543/270
vt 0.137451 0.117050
vt 0.140409 0.121710
vt 0.137451 0.124268
f 261/687/261 259/688/259 263/689/263
vt 0.065501 0.968768
vt 0.066635 0.967805
f 294/683/294 263/690/263 268/691/268
f 268/691/268 280/560/280 294/683/294
f 268/691/268 145/552/145 277/551/277
vt 0.062000 0.967196
f 268/691/268 262/692/262 145/552/145
f 277/551/277 280/560/280 268/691/268
# 574 faces, 692 coords texture

# End of File
