####
#
# OBJ File Generated by Meshlab
#
####
# Object table_2.obj
#
# Vertices: 469
# Faces: 869
#
####
mtllib ./table_2.obj.mtl

vn -0.003206 0.783638 0.621210
v 7.098927 0.634594 0.652298
vn -0.968315 -0.205195 -0.142342
v 7.051925 1.350603 0.605383
vn -0.798891 -0.241251 -0.550973
v 7.040130 1.374302 0.580350
vn -0.361440 -0.064685 -0.930149
v 7.075440 1.350591 0.570210
vn -0.716349 -0.120535 0.687252
v 7.051923 0.903835 0.626617
vn -0.096904 -0.141446 0.985192
v 7.075442 0.880340 0.629057
vn -0.510742 -0.139125 0.848402
v 7.063521 0.950888 0.652408
vn 0.022065 -0.111323 0.993539
v 7.122461 0.762773 0.625469
vn -0.441991 -0.111497 0.890063
v 7.075435 0.786272 0.624625
vn -0.661371 -0.200681 0.722714
v 7.075438 0.762794 0.637160
vn -0.021416 -0.061769 0.997861
v 7.216516 0.786306 0.627636
vn -0.131907 0.152599 0.979446
v 7.098947 0.668747 0.609962
vn -0.038751 -0.002530 0.999246
v 7.287053 0.739268 0.627013
vn -0.047746 0.375335 0.925659
v 7.169425 1.327055 -0.085292
vn 0.382922 0.389340 0.837726
v 7.287019 1.233029 -0.041101
vn 0.334705 0.117528 0.934965
v 7.193002 1.327090 0.652405
vn 0.105029 -0.010348 0.994415
v 7.240027 1.279963 0.630214
vn 0.154542 0.215543 0.964188
v 7.193012 1.397436 0.628212
vn -0.804287 0.331111 0.493445
v 7.305390 1.021379 -0.084615
vn -0.552579 0.270341 0.788399
v 7.239982 0.950891 -0.084176
vn -0.682326 0.130697 0.719270
v 7.310597 0.974395 -0.036568
vn 0.061492 0.018147 0.997943
v 7.287053 1.068459 0.646040
vn 0.014739 -0.027671 0.999508
v 7.357585 0.951130 0.634450
vn 0.015992 0.042311 0.998976
v 7.334083 1.185979 0.632095
vn 0.288798 0.661697 0.691920
v 7.310561 1.233044 -0.052949
vn -0.267130 0.281566 0.921609
v 7.287047 1.209527 -0.037371
vn 0.012612 0.680985 0.732188
v 7.310513 1.221159 -0.029394
vn 0.031957 0.417449 0.908138
v 7.357575 1.162502 -0.004337
vn 0.628941 0.691496 0.355341
v 7.345205 1.186003 -0.029459
vn -0.282920 0.027597 0.958746
v 7.357589 0.856843 -0.064648
vn -0.031625 -0.937340 0.346977
v 7.357589 0.845086 -0.076479
vn 0.908000 -0.197326 0.369592
v 7.369344 0.856843 -0.076479
vn -0.855779 0.005266 0.517314
v 7.346824 1.091969 0.417282
vn -0.977026 -0.112971 0.180717
v 7.357585 1.075191 0.417282
vn -0.649234 0.638256 0.413672
v 7.368346 1.115483 0.417282
vn -0.793294 0.528221 0.302766
v 7.366004 1.115495 0.017572
vn -0.474116 0.880327 -0.015421
v 7.381083 1.142123 0.088107
vn -0.020173 0.997938 -0.060926
v 7.404616 1.139055 0.017572
vn -0.452318 0.842733 -0.291908
v 7.381106 1.117578 0.346743
vn -0.368393 0.928971 -0.036050
v 7.381072 1.140910 0.393760
vn 0.043732 0.984759 -0.168337
v 7.404624 1.126806 0.370263
vn 0.119681 0.172105 -0.977781
v 7.428123 1.374117 0.595830
vn 0.045441 0.241500 -0.969336
v 7.428126 1.350604 0.570111
vn 0.216265 0.054852 -0.974793
v 7.404613 1.374115 0.570113
vn 0.275787 -0.918639 -0.282919
v 7.451634 0.962655 0.088108
vn 0.553424 -0.827801 -0.092024
v 7.475150 0.969251 0.111620
vn 0.003958 -0.999667 0.025513
v 7.451642 0.964517 0.135134
vn -0.113602 -0.886705 0.448161
v 7.451638 0.990533 0.252696
vn 0.163006 -0.975605 0.147049
v 7.451640 0.965278 0.229181
vn 0.147586 -0.977404 0.151326
v 7.475154 0.988060 0.276207
vn -0.080733 0.996424 0.024919
v 7.451634 1.127029 0.417281
vn 0.060240 0.994568 -0.084881
v 7.475152 1.140814 0.417282
vn 0.458354 0.855515 -0.240844
v 7.475163 1.121395 0.393772
vn 0.443175 0.832320 0.332924
v 7.475175 1.115778 0.464314
vn 0.877945 -0.362974 -0.312190
v 7.507346 0.997916 0.182158
vn 0.641120 -0.750879 0.158574
v 7.487771 0.997919 0.158644
vn 0.995384 0.079646 -0.053540
v 7.498748 1.021433 0.182155
vn 0.918487 0.390702 -0.061097
v 7.498698 1.115482 0.178028
vn 0.997235 0.057723 -0.046810
v 7.495372 1.091969 0.088107
vn 0.904035 0.352713 -0.241483
v 7.498655 1.115481 0.088108
vn 0.983516 0.173820 -0.049832
v 7.498715 1.101892 0.252695
vn 0.362256 0.932070 -0.004149
v 7.475118 1.138576 0.252684
vn 0.754760 0.645261 -0.118220
v 7.498681 1.132691 0.276199
vn -0.333058 0.832762 0.442243
v 7.499957 1.162486 -0.029461
vn 0.275857 0.055582 0.959590
v 7.522103 1.139041 -0.016046
vn -0.146483 0.298073 0.943237
v 7.545684 1.186025 -0.020419
vn 0.311064 0.321157 -0.894481
v 7.522328 1.374447 0.594751
vn 0.181341 0.007262 -0.983394
v 7.498533 1.373840 0.571677
vn -0.049510 0.013389 -0.998684
v 7.522172 1.397633 0.571744
vn -0.359217 -0.348510 0.865739
v 7.569243 0.739257 0.631503
vn -0.080248 -0.251985 0.964398
v 7.616227 0.692259 0.634204
vn -0.300913 -0.599016 0.742046
v 7.616227 0.715769 0.649642
vn 0.292055 -0.240715 -0.925613
v 7.733787 0.880355 0.594164
vn 0.337158 0.000848 -0.941448
v 7.710275 0.880355 0.570112
vn 0.119850 0.210759 -0.970163
v 7.710294 0.903866 0.595445
vn 0.091735 -0.338893 -0.936342
v 7.757297 0.903868 0.587107
vn -0.077977 -0.361914 -0.928945
v 7.757318 0.927380 0.571577
vn 0.491503 -0.040631 -0.869927
v 7.780820 0.950893 0.584750
vn 0.661659 -0.082060 -0.745301
v 7.827834 1.374116 0.601637
vn 0.110775 -0.083514 -0.990330
v 7.757298 1.350603 0.570336
vn 0.468187 -0.331163 -0.819227
v 7.804324 1.374115 0.570479
vn -0.026720 0.705226 -0.708479
v 7.780810 1.452789 0.581867
vn -0.229175 0.924639 0.304173
v 7.757297 1.448355 0.605381
vn 0.532387 0.767352 0.357401
v 7.804324 1.452651 0.605347
vn 0.488326 0.069769 -0.869868
v 7.804330 0.880356 0.598243
vn -0.321570 0.317347 -0.892123
v 7.780780 0.880354 0.572990
vn 0.058146 -0.051828 -0.996962
v 7.780807 0.903868 0.595578
vn 0.839526 -0.190276 -0.508912
v 7.801095 1.068454 0.605381
vn 0.906915 -0.419364 0.040487
v 7.827832 1.091968 0.605379
vn 0.723423 -0.229802 0.651038
v 7.799251 1.091966 0.628892
vn 0.715965 -0.515596 -0.470697
v 7.790206 1.209529 0.581869
vn 0.859258 -0.261551 -0.439620
v 7.815404 1.233041 0.581867
vn 0.975735 -0.200474 0.088039
v 7.804324 1.231592 0.605382
vn 0.721208 0.251540 -0.645436
v 7.815927 1.256554 0.581867
vn 0.246136 0.307620 -0.919123
v 7.780810 1.256554 0.584066
vn 0.985646 0.041991 -0.163519
v 7.814384 1.280066 0.605377
vn -0.014483 0.395473 0.918363
v 7.216504 1.333436 -0.085451
vn 0.081114 0.196069 0.977229
v 7.663201 1.322799 -0.086722
vn 0.002439 0.009078 0.999956
v 7.686522 1.326666 -0.086814
vn -0.001551 0.797854 0.602849
v 7.169484 0.635635 0.652534
vn 0.106280 0.746327 0.657040
v 7.451629 0.632887 0.652566
vn -0.023152 0.519395 0.854220
v 7.381124 0.629177 0.651902
vn -0.070937 -0.338965 0.938121
v 7.616235 0.762682 -0.084625
vn 0.050647 -0.352350 0.934497
v 7.686801 0.786112 -0.080408
vn -0.902463 -0.306527 0.302659
v 7.017455 1.091967 0.628882
vn -0.739716 0.203935 -0.641273
v 7.028535 1.115480 0.605492
vn -0.729623 -0.214368 -0.649381
v 7.043664 1.091967 0.605381
vn -0.835943 -0.209529 0.507245
v 7.048152 1.068453 0.628908
vn -0.068913 -0.251326 0.965446
v 7.098948 0.974411 0.661859
vn -0.282097 0.360569 0.889051
v 7.075438 1.138988 0.654630
vn -0.635904 0.331740 0.696832
v 7.051925 1.138994 0.639529
vn -0.926694 0.155157 -0.342294
v 7.039287 1.138991 0.605411
vn -0.977727 0.040579 0.205923
v 7.017938 1.397631 0.605387
vn -0.833107 -0.485914 0.264236
v 7.041387 1.374115 0.605381
vn -0.544866 -0.004120 0.838513
v 7.051923 1.374119 0.616382
vn -0.596402 0.199077 -0.777608
v 7.040114 1.397742 0.580938
vn -0.454743 0.857820 0.239486
v 7.051925 1.431723 0.605387
vn 0.211805 0.878888 -0.427427
v 7.098953 1.431051 0.581871
vn 0.137664 0.489256 -0.861207
v 7.098987 1.420973 0.573324
vn -0.060866 0.668657 0.741076
v 7.122461 1.415335 0.628912
vn -0.341977 0.165794 0.924967
v 7.098954 1.327088 0.655227
vn -0.097040 0.556958 0.824852
v 7.169930 0.654545 0.627497
vn -0.682861 -0.617133 0.390959
v 7.087201 0.668737 0.605376
vn -0.416314 -0.313262 -0.853551
v 7.075419 0.809817 0.570077
vn -0.482098 0.035612 -0.875393
v 7.075498 1.303717 0.569260
vn -0.938516 -0.337147 -0.074299
v 7.040183 0.809818 0.605386
vn -0.999271 -0.020330 -0.032311
v 7.051862 1.264478 0.605324
vn -0.943804 -0.011202 -0.330317
v 7.051902 1.303579 0.600526
vn -0.709974 -0.698821 -0.087102
v 7.051839 0.797985 0.605300
vn -0.983330 -0.175675 0.046913
v 7.087037 0.762793 0.605382
vn -0.343554 -0.205390 0.916398
v 7.098953 0.739278 0.617141
vn -0.542753 -0.270456 0.795156
v 7.051917 0.809746 0.621426
vn -0.915520 0.005222 0.402238
v 7.047793 0.997901 0.615999
vn -0.968638 -0.055611 0.242173
v 7.053594 1.021427 0.628895
vn -0.703314 0.303487 0.642842
v 7.051934 1.151151 0.628851
vn -0.332412 0.132109 0.933836
v 7.075440 1.256557 0.639553
vn -0.845000 -0.000142 0.534766
v 7.051929 1.280066 0.617129
vn -0.871884 -0.384805 0.302892
v 7.058198 0.692257 0.605380
vn -0.265220 -0.027419 0.963798
v 7.545690 0.762819 0.630149
vn -0.099819 -0.094548 0.990503
v 7.616212 0.997909 0.631329
vn -0.272623 -0.020651 0.961899
v 7.616214 1.050187 0.632768
vn 0.002628 0.270209 0.962798
v 7.381101 0.668741 0.627845
vn -0.046327 0.166385 0.984972
v 7.616233 0.856878 0.632392
vn 0.036199 -0.085773 0.995657
v 7.216519 0.927386 0.632079
vn 0.028068 0.488267 0.872243
v 7.498664 0.645254 0.625802
vn 0.036369 -0.145524 0.988686
v 7.710275 0.974403 0.631710
vn 0.507769 -0.000738 0.861493
v 7.804309 0.974323 0.625288
vn 0.000238 0.150459 0.988616
v 7.334075 0.668770 0.627852
vn -0.036708 -0.520418 0.853122
v 7.639739 0.997932 0.633570
vn 0.820149 -0.102663 0.562864
v 7.802140 1.044911 0.630560
vn 0.215783 -0.246342 0.944856
v 7.145982 0.974414 0.652222
vn 0.274946 -0.103237 0.955901
v 7.145970 1.021433 0.668073
vn -0.079527 0.286434 0.954794
v 7.075440 1.162557 0.630192
vn 0.012703 -0.046625 0.998832
v 7.145976 1.209507 0.630481
vn -0.100954 -0.350488 0.931110
v 7.098953 1.280065 0.633118
vn 0.109275 -0.346162 0.931789
v 7.169490 1.280066 0.643689
vn 0.201431 0.385718 0.900360
v 7.145978 1.138993 0.653692
vn 0.077963 0.182787 0.980057
v 7.169490 1.162501 0.631761
vn 0.527443 0.226932 0.818722
v 7.169496 1.138991 0.638201
vn -0.432139 0.120659 0.893699
v 7.075437 1.280065 0.626685
vn -0.894465 -0.023823 0.446503
v 7.051929 1.303579 0.614220
vn -0.400654 -0.225419 0.888067
v 7.098953 1.303582 0.659308
vn 0.209297 0.614114 0.760959
v 7.193006 1.421082 0.623600
vn 0.205900 0.973429 -0.100204
v 7.193002 1.432531 0.605380
vn 0.189977 0.972590 -0.134081
v 7.122464 1.421143 0.605383
vn -0.093559 0.552532 0.828224
v 7.216517 0.645224 0.639005
vn -0.021428 0.034471 0.999176
v 7.592727 1.233114 0.628342
vn -0.047954 0.428688 0.902179
v 7.451644 1.422976 0.625667
vn -0.005850 0.477397 0.878668
v 7.334075 1.421171 0.621354
vn 0.084924 0.133697 0.987377
v 7.733806 1.373966 0.629258
vn 0.002044 0.075531 0.997141
v 7.710298 1.256458 0.631964
vn 0.104494 0.300804 0.947944
v 7.216516 1.397574 0.624439
vn -0.021606 0.510714 0.859479
v 7.287050 1.421176 0.621169
vn 0.248412 -0.228701 0.941269
v 7.169488 1.303580 0.658430
vn 0.481754 -0.559200 0.674691
v 7.216510 0.809819 -0.080270
vn -0.004714 0.213644 -0.976900
v 7.145984 1.374078 0.570425
vn 0.138206 0.453577 -0.880436
v 7.193019 1.397548 0.570765
vn 0.184551 -0.458335 0.869408
v 7.240018 0.856847 -0.058078
vn -0.143906 -0.483129 0.863642
v 7.263526 0.864192 -0.052935
vn -0.206487 -0.137844 0.968691
v 7.315827 0.927376 -0.029499
vn 0.213950 -0.704687 0.676492
v 7.287019 0.865411 -0.052893
vn 0.193377 0.040183 0.980301
v 7.192998 1.068454 0.642820
vn 0.011479 0.796565 0.604444
v 7.216517 0.634977 0.652508
vn 0.101523 0.986962 -0.124896
v 7.216514 1.415188 0.605383
vn 0.017778 0.280928 -0.959564
v 7.216514 1.374122 0.570053
vn -0.081084 0.424946 -0.901580
v 7.263535 1.397651 0.572104
vn -0.325999 0.945349 -0.006375
v 7.240026 1.432237 0.605382
vn -0.007886 0.996674 -0.081113
v 7.287051 1.433282 0.605385
vn -0.839517 0.097740 0.534469
v 7.334107 1.091977 -0.025347
vn -0.515946 0.009440 0.856569
v 7.357575 1.138987 -0.009515
vn -0.150085 0.688047 0.709976
v 7.381101 1.139002 0.007549
vn 0.003198 0.996510 -0.083411
v 7.334075 1.433142 0.605387
vn -0.002364 0.404471 -0.914548
v 7.381080 1.397727 0.571705
vn 0.001626 0.985918 -0.167223
v 7.404613 1.432340 0.605389
vn 0.425822 0.159085 -0.890712
v 7.428126 1.397621 0.571206
vn -0.015713 0.397660 -0.917398
v 7.451642 1.397639 0.588847
vn -0.889545 -0.120408 0.440694
v 7.349931 1.021442 0.017560
vn -0.972865 0.100037 0.208628
v 7.346749 1.068472 0.017571
vn 0.276333 0.276461 0.920440
v 7.357591 0.809817 -0.088186
vn 0.069114 0.292843 0.953659
v 7.334077 0.833330 -0.088189
vn 0.052384 0.112370 0.992285
v 7.310563 0.833330 -0.088235
vn -0.769274 -0.381107 0.512810
v 7.369348 0.974406 0.017564
vn -0.017622 -0.718668 0.695130
v 7.357583 0.916202 -0.029447
vn -0.191231 -0.636685 0.747036
v 7.334075 0.914302 -0.029456
vn -0.837142 -0.541543 0.076970
v 7.370382 0.974438 0.229177
vn -0.967239 0.238458 0.087100
v 7.360719 1.091965 0.276213
vn -0.921194 -0.324599 0.214564
v 7.357560 1.021429 0.036505
vn -0.945383 -0.296737 0.134898
v 7.371282 0.997923 0.252693
vn -0.957937 0.271667 -0.092487
v 7.364705 1.091957 0.346748
vn -0.658665 -0.686445 0.308146
v 7.381045 0.981656 0.252700
vn -0.362128 -0.931701 -0.028214
v 7.381091 0.963579 0.229186
vn -0.525966 0.850273 0.019884
v 7.381112 1.143033 0.205661
vn -0.076836 0.991609 0.103965
v 7.428157 1.130570 -0.005933
vn -0.232046 0.950164 0.208189
v 7.445884 1.139010 -0.085440
vn 0.015891 0.987035 -0.159716
v 7.498664 1.447962 0.605441
vn -0.554208 -0.822047 -0.130739
v 7.381101 0.962941 0.323232
vn -0.969823 -0.237320 0.055876
v 7.371274 0.997917 0.370257
vn -0.851373 -0.524517 0.006843
v 7.369632 0.974405 0.323232
vn -0.578530 -0.788442 0.208954
v 7.381101 0.963476 0.393769
vn -0.941688 -0.335915 0.019618
v 7.370200 0.974413 0.393771
vn -0.873949 0.485986 0.005547
v 7.368020 1.091967 0.464307
vn -0.988825 -0.148976 -0.005570
v 7.360572 1.044940 0.417282
vn -0.997648 -0.035350 -0.058732
v 7.360429 1.044943 0.346744
vn -0.018433 0.992434 0.121385
v 7.428155 1.118261 0.464316
vn -0.302993 0.952676 0.024583
v 7.396247 1.115480 0.464307
vn -0.013205 0.767576 0.640822
v 7.616221 0.625059 0.652414
vn 0.048916 0.079701 0.995618
v 7.686757 0.645233 0.631221
vn 0.210831 -0.000625 0.977522
v 7.710271 0.643501 0.628863
vn 0.092201 -0.273972 0.957308
v 7.639739 0.692255 0.632478
vn 0.464803 0.883108 0.063869
v 7.480083 1.138575 0.229171
vn 0.221199 0.966561 0.129731
v 7.475166 1.126850 0.088116
vn 0.684356 0.719228 0.119867
v 7.498696 1.128382 0.323227
vn 0.002352 0.115354 -0.993322
v 7.381061 1.350790 0.568594
vn 0.056336 0.111523 -0.992164
v 7.451697 1.303704 0.569397
vn 0.047525 0.093268 -0.994506
v 7.404557 1.350784 0.568582
vn -0.311381 -0.544569 0.778772
v 7.428126 0.894167 -0.052973
vn -0.153307 -0.471292 0.868551
v 7.475150 0.880354 -0.064818
vn 0.087001 -0.528693 0.844343
v 7.451636 0.927381 -0.049304
vn 0.058654 -0.734054 0.676553
v 7.428130 0.927373 -0.044643
vn 0.017070 0.995785 0.090118
v 7.545690 1.444707 0.605403
vn 0.235231 0.952598 0.192934
v 7.477992 1.138995 0.041083
vn -0.154891 0.825575 0.542618
v 7.451564 1.139023 -0.085457
vn 0.026805 0.987574 0.154850
v 7.479703 1.138981 0.064595
vn -0.001649 0.600684 -0.799485
v 7.545688 1.421129 0.571388
vn 0.000000 0.000000 0.000000
v 7.639733 0.636518 0.699450
vn -0.177027 -0.374726 0.910078
v 7.522174 0.835277 -0.076508
vn -0.056893 -0.272565 0.960454
v 7.592702 0.880332 -0.054377
vn 0.308911 -0.499514 0.809358
v 7.498668 0.974426 -0.015173
vn -0.068905 -0.319484 0.945083
v 7.616235 0.786312 -0.076508
vn -0.128146 -0.306895 0.943077
v 7.639724 0.856834 -0.050367
vn 0.667355 -0.669914 -0.325349
v 7.485814 0.997910 0.088108
vn 0.906853 -0.406827 -0.110040
v 7.506980 0.997916 0.111620
vn 0.982629 -0.163297 -0.088176
v 7.503722 1.021429 0.088108
vn 0.076493 -0.877323 0.473765
v 7.451638 0.964915 0.158645
vn 0.046449 -0.996319 -0.072052
v 7.451642 0.991392 0.182157
vn -0.427650 -0.877123 -0.218566
v 7.451640 0.962649 0.205671
vn 0.766495 -0.641132 0.037880
v 7.498778 0.997916 0.299719
vn 0.367907 -0.919532 -0.138221
v 7.451642 0.991368 0.299718
vn 0.800932 0.591332 -0.093993
v 7.498694 1.124765 0.205670
vn -0.042363 0.390773 0.919512
v 7.592708 1.233047 -0.029441
vn 0.884808 0.416030 0.209841
v 7.834485 1.421159 0.605468
vn 0.654364 -0.680347 0.330054
v 7.484374 0.997906 0.017575
vn 0.710263 -0.035275 0.703053
v 7.522172 0.997914 -0.019991
vn 0.586040 -0.776416 0.231808
v 7.498641 1.021417 0.013058
vn 0.946667 0.293035 0.133985
v 7.503976 1.021422 -0.005948
vn 0.964840 0.147534 0.217525
v 7.494983 1.115482 0.017571
vn 0.978278 0.143580 0.149525
v 7.505128 1.091965 0.346745
vn 0.732366 -0.677552 0.067554
v 7.498775 0.997919 0.301760
vn 0.990671 -0.109339 0.081341
v 7.504964 1.068433 -0.052931
vn 0.984762 -0.083877 -0.152345
v 7.498704 1.044974 -0.052993
vn 0.998283 0.056093 -0.016866
v 7.503118 1.068454 0.370258
vn 0.973030 -0.225885 0.046775
v 7.494412 1.021427 0.346743
vn 0.756927 -0.638998 -0.136907
v 7.484416 0.997915 0.346744
vn 0.943016 -0.331356 0.030402
v 7.505952 1.044942 0.440794
vn 0.952962 0.298935 0.050013
v 7.498664 1.068454 0.487819
vn 0.729256 -0.677226 0.097726
v 7.503036 0.997910 0.487819
vn 0.792194 -0.610116 -0.013680
v 7.494172 0.997901 0.440795
vn 0.929747 0.114140 0.350060
v 7.502494 1.068454 0.464306
vn 0.913335 0.364966 0.180610
v 7.500413 1.091968 0.440793
vn 0.825369 0.540625 -0.162759
v 7.498660 1.122068 0.417282
vn 0.502204 0.128188 0.855195
v 7.575027 0.927381 -0.052962
vn 0.459474 0.031601 0.887629
v 7.686713 1.233100 -0.085965
vn 0.746217 0.260868 0.612461
v 7.505067 1.139031 -0.006020
vn 0.776551 0.623728 0.089063
v 7.475148 1.101620 0.487821
vn 0.848684 0.306593 0.430972
v 7.487962 1.138990 0.017573
vn 0.940931 -0.003957 -0.338575
v 7.513547 1.068454 0.417282
vn 0.995663 0.035056 0.086173
v 7.532729 1.068454 0.440794
vn -0.003074 -0.049052 -0.998792
v 7.569201 1.397664 0.571596
vn 0.041885 -0.152719 -0.987382
v 7.545820 1.374395 0.594942
vn -0.046366 0.019205 -0.998740
v 7.639741 1.374115 0.570134
vn 0.162147 0.488650 -0.857280
v 7.569201 0.671106 0.558353
vn 0.060446 0.628431 -0.775513
v 7.639735 0.645229 0.554777
vn 0.758611 0.611846 -0.223952
v 7.575288 0.621719 0.534841
vn 0.083725 0.273999 -0.958079
v 7.592710 0.692259 0.570111
vn 0.034709 0.443397 -0.895653
v 7.639726 0.668739 0.569065
vn 0.710857 0.640378 -0.290858
v 7.569200 0.639439 0.534841
vn -0.151450 0.650036 -0.744658
v 7.545688 0.668736 0.545266
vn -0.934733 -0.280611 0.218019
v 7.582814 0.762792 0.675918
vn -0.417023 -0.756623 0.503601
v 7.616227 0.718742 0.652405
vn -0.609450 -0.777896 0.153130
v 7.616231 0.728732 0.675920
vn -0.915545 -0.380190 -0.131278
v 7.579440 0.762798 0.699430
vn -0.701413 0.505019 0.502967
v 7.592708 0.807825 0.652405
vn -0.068189 0.536998 0.840823
v 7.616223 0.833332 0.643511
vn -0.229977 0.672019 0.703918
v 7.616227 0.824011 0.652411
vn -0.063473 0.239836 -0.968736
v 7.757298 1.397640 0.571537
vn -0.357948 -0.731447 -0.580395
v 7.639731 0.698576 0.699431
vn 0.069676 -0.462660 0.883794
v 7.663262 1.021429 0.659662
vn 0.140222 0.008960 -0.990080
v 7.733798 1.280071 0.571446
vn 0.033094 0.347298 -0.937171
v 7.780811 1.421140 0.573747
vn 0.126985 0.033182 -0.991350
v 7.650134 0.786304 0.582635
vn -0.294693 0.076943 -0.952489
v 7.757303 0.715769 0.595825
vn 0.137084 0.199974 -0.970164
v 7.663247 0.692255 0.577996
vn -0.051846 0.009374 -0.998611
v 7.733785 0.809816 0.593939
vn -0.247289 -0.022066 -0.968691
v 7.757295 0.786304 0.594274
vn 0.110873 -0.289905 -0.950612
v 7.686915 0.856847 0.594918
vn 0.225185 -0.296155 -0.928215
v 7.710277 0.856845 0.595673
vn -0.026107 0.009023 -0.999618
v 7.733800 0.856846 0.603940
vn 0.258258 0.049165 0.964824
v 7.780808 1.092001 0.642756
vn 0.164238 0.104273 0.980894
v 7.780811 1.209503 0.649842
vn 0.122876 -0.270143 0.954947
v 7.710271 1.044960 0.651365
vn 0.515148 -0.051332 0.855563
v 7.807388 1.138984 0.652314
vn 0.095702 0.362529 0.927046
v 7.733798 1.254908 0.629146
vn 0.091826 -0.147993 0.984716
v 7.757298 1.044943 0.657746
vn 0.714551 -0.384224 0.584627
v 7.804320 1.044955 0.655852
vn 0.111869 0.825408 -0.553341
v 7.733911 0.632002 0.558278
vn 0.786707 -0.091905 -0.610447
v 7.780738 0.644537 0.581911
vn -0.006123 0.496385 -0.868081
v 7.757253 0.644781 0.579916
vn 0.696166 -0.393037 0.600729
v 7.780759 0.644690 0.605443
vn 0.129497 0.559986 -0.818319
v 7.733766 0.645020 0.577304
vn 0.201116 0.944958 -0.258084
v 7.686765 0.820748 0.652407
vn 0.090411 0.819482 0.565928
v 7.710279 0.815575 0.652419
vn 0.604570 0.253738 0.755057
v 7.804328 0.823331 0.628896
vn 0.664339 0.656571 0.357167
v 7.804320 0.807703 0.652395
vn 0.527057 -0.552125 0.646041
v 7.804322 0.724715 0.628868
vn 0.129794 -0.563761 0.815676
v 7.710277 0.715766 0.628908
vn -0.093416 -0.885903 -0.454367
v 7.733787 0.703075 0.699434
vn 0.080381 -0.786195 -0.612729
v 7.780810 0.705473 0.675919
vn -0.259436 0.056479 -0.964107
v 7.686761 0.880355 0.570112
vn 0.407442 0.244622 0.879858
v 7.804332 1.280066 0.615366
vn 0.958294 0.059400 0.279543
v 7.831800 1.374117 0.605432
vn 0.995512 -0.041097 0.085242
v 7.836120 1.350605 0.605432
vn -0.007532 -0.997055 -0.076320
v 7.733787 0.727049 0.652405
vn 0.313322 -0.928149 -0.200922
v 7.780814 0.728878 0.652405
vn 0.032992 -0.999190 0.023043
v 7.710275 0.727817 0.652404
vn 0.576026 0.754550 0.314400
v 7.804345 0.786320 0.699434
vn 0.156183 -0.195530 -0.968181
v 7.710259 0.927378 0.594649
vn -0.216107 -0.012148 -0.976294
v 7.733638 0.950887 0.595053
vn 0.111876 0.287894 -0.951105
v 7.710273 0.950893 0.570121
vn 0.143395 0.034991 -0.989047
v 7.780778 0.856842 0.572415
vn 0.159415 -0.084011 -0.983631
v 7.780829 0.809818 0.585138
vn -0.197521 0.050344 -0.979005
v 7.733651 0.997904 0.595355
vn -0.086637 0.307561 -0.947576
v 7.757308 0.997916 0.570548
vn -0.092387 0.288257 -0.953086
v 7.757310 1.021418 0.595289
vn 0.253264 0.175243 -0.951392
v 7.780856 1.021430 0.595641
vn 0.182687 0.061308 -0.981258
v 7.757216 1.232902 0.571631
vn 0.235802 0.054399 -0.970277
v 7.757312 1.186047 0.570524
vn 0.602995 0.258351 0.754753
v 7.804320 1.256553 0.633459
vn 0.298356 0.167462 -0.939649
v 7.757169 1.256281 0.572183
vn 0.000428 0.039713 -0.999211
v 7.780787 0.715767 0.572347
vn 0.916490 0.000419 -0.400058
v 7.815125 1.021429 0.605383
vn 0.962055 -0.226897 -0.151553
v 7.826264 0.809816 0.605404
vn 0.907779 -0.007498 -0.419383
v 7.813838 0.786305 0.605359
vn 0.958397 0.042592 -0.282244
v 7.812472 0.715768 0.605347
vn 0.966669 -0.253649 0.034836
v 7.817124 0.692259 0.605361
vn 0.242133 -0.164035 -0.956276
v 7.780786 0.668743 0.571169
vn 0.363747 -0.266370 -0.892600
v 7.780831 1.068430 0.594749
vn 0.925082 0.165614 -0.341752
v 7.823291 1.044941 0.605376
vn 0.526490 0.220339 -0.821133
v 7.804334 1.162526 0.569985
vn 0.568327 0.735110 -0.369618
v 7.780814 1.174273 0.581867
vn 0.725508 0.534470 -0.433566
v 7.816079 1.162503 0.581869
vn 0.873179 -0.121579 -0.471992
v 7.802972 1.186016 0.605382
vn 0.996104 0.006072 0.087978
v 7.819764 0.762791 0.652405
vn 0.320566 -0.218710 -0.921631
v 7.804284 1.115523 0.570353
vn 0.994871 0.099985 0.015288
v 7.827836 1.138992 0.605381
vn 0.907493 0.341467 0.244658
v 7.810037 1.162503 0.628897
vn 0.989480 -0.000188 0.144671
v 7.827834 1.097743 0.605379
vn 0.081017 -0.086979 -0.992910
v 7.780902 1.139228 0.570883
vn 0.989471 -0.000052 0.144733
v 7.827834 1.115480 0.605380
vn 0.947523 -0.056735 0.314612
v 7.804322 1.241024 0.628892
vn 0.210348 -0.883057 0.419481
v 7.263537 0.856845 -0.070752
vn 0.624237 -0.772721 0.115025
v 7.349866 0.856845 -0.099992
vn -0.498655 -0.851090 0.164282
v 7.381101 0.962648 0.111620
vn -0.448293 -0.891762 -0.061593
v 7.381097 0.996244 0.135133
vn -0.780294 -0.616673 -0.104196
v 7.381099 0.997915 0.088108
vn -0.380915 -0.918040 -0.110031
v 7.404617 0.971757 0.487844
vn -0.627455 -0.516219 -0.582939
v 7.367745 0.997925 0.487841
vn -0.537282 -0.839770 0.078195
v 7.385972 0.974399 0.464305
vn -0.416510 -0.814877 0.403108
v 7.381101 0.939134 0.017572
vn 0.289986 -0.866386 0.406550
v 7.402305 0.950879 0.017572
vn -0.805248 -0.451996 0.383765
v 7.381099 0.974404 0.041083
vn -0.095449 -0.941574 0.323000
v 7.404611 0.940677 0.064596
vn -0.025725 -0.952972 -0.301965
v 7.381103 0.980723 0.205670
vn -0.606285 -0.768201 0.205635
v 7.404595 0.976753 0.135132
vn -0.258959 -0.219103 0.940709
v 7.428126 0.856843 -0.064723
vn -0.291787 -0.261339 0.920088
v 7.406669 0.856840 -0.099983
vn -0.084879 -0.298645 0.950582
v 7.429334 0.833330 -0.099991
vn 0.440356 -0.894842 0.073110
v 7.428132 0.964410 0.064595
vn -0.167085 -0.946729 0.275295
v 7.404611 0.972767 0.088109
vn 0.409204 -0.910261 -0.063057
v 7.451627 0.953659 0.370255
vn 0.880622 -0.456189 -0.128046
v 7.492215 0.997918 0.370257
vn 0.024787 0.146493 -0.988901
v 7.569179 1.280030 0.569042
vn 0.056316 -0.032601 -0.997881
v 7.663059 0.880352 0.583107
vn 0.077219 0.025967 -0.996676
v 7.686448 0.950887 0.583908
vn -0.106845 0.259397 -0.959842
v 7.334098 1.148604 0.535699
vn -0.251687 0.114086 -0.961061
v 7.286561 1.068222 0.522935
vn -0.011662 0.289579 -0.957083
v 7.357677 1.162591 0.537995
vn -0.037128 0.843031 -0.536582
v 7.404614 0.634642 0.511321
vn 0.317852 0.892348 0.320446
v 7.592729 0.622643 0.511192
vn -0.173173 0.399993 -0.900009
v 7.192998 0.641607 0.511351
vn -0.268607 0.955828 0.119348
v 7.616244 0.622587 0.511192
vn -0.742743 -0.650222 -0.159826
v 7.402299 0.974399 0.088108
vn -0.443166 -0.714356 0.541571
v 7.379531 0.950888 -0.005939
vn -0.518435 -0.819877 0.242957
v 7.381101 0.949330 -0.005943
vn -0.164788 -0.696440 0.698438
v 7.404613 0.897020 -0.076482
vn -0.414532 -0.297555 0.860014
v 7.439723 0.880357 -0.076486
vn -0.233712 -0.410968 0.881183
v 7.475150 0.814312 -0.099970
vn 0.120192 0.027449 -0.992371
v 7.616227 1.162466 0.553294
vn 0.143911 0.416866 -0.897503
v 7.465511 1.138936 0.535172
vn 0.312335 0.049292 -0.948692
v 7.545756 1.092054 0.538936
vn -0.201456 -0.951091 -0.234181
v 7.639733 0.715780 0.677748
vn 0.052779 -0.909306 0.412768
v 7.639739 0.715789 0.652411
vn 0.241005 -0.067089 -0.968202
v 7.616151 0.974395 0.578511
vn -0.619562 -0.211685 -0.755865
v 7.098916 0.668749 0.564141
vn -0.597458 -0.092483 -0.796550
v 7.075429 0.715768 0.570070
vn -0.921344 0.028473 -0.387705
v 7.063642 0.715768 0.581870
vn -0.717825 -0.168143 -0.675615
v 7.089528 0.786305 0.581865
vn -0.234554 -0.041812 -0.971204
v 7.122308 0.833331 0.560088
vn -0.476189 0.252679 -0.842257
v 7.190988 0.692259 0.535617
vn -0.263241 -0.054073 -0.963214
v 7.286653 0.974411 0.520514
vn -0.246257 0.175684 -0.953149
v 7.193181 0.696066 0.535519
vn -0.303294 -0.026567 -0.952527
v 7.354407 1.021433 0.489312
vn -0.399516 0.322079 -0.858285
v 7.333591 1.081670 0.509513
vn -0.923793 -0.072052 -0.376053
v 7.349734 1.044942 0.489540
vn -0.802730 0.386320 -0.454292
v 7.357940 1.076870 0.489142
vn -0.015654 0.036623 -0.999207
v 7.263825 0.715767 0.533002
vn 0.101208 0.145505 -0.984167
v 7.310470 0.668747 0.530847
vn 0.077083 -0.070563 -0.994525
v 7.286966 0.880356 0.528048
vn -0.024865 -0.184327 -0.982550
v 7.310578 0.927379 0.524401
vn -0.094355 -0.784946 0.612338
v 7.287050 0.846794 -0.099992
vn 0.183615 -0.071639 -0.980384
v 7.569182 0.880353 0.572165
vn 0.131268 0.126353 -0.983262
v 7.545890 0.715771 0.574216
vn 0.061688 0.424159 -0.903484
v 7.404202 0.648651 0.537515
vn 0.022354 0.538897 -0.842075
v 7.521811 0.668736 0.556777
vn -0.024213 -0.070504 0.997218
v 7.334071 0.856850 -0.099996
vn 0.272748 -0.765687 0.582522
v 7.334077 0.903862 -0.061454
vn 0.095126 -0.847600 0.522040
v 7.287051 0.856843 -0.085188
vn 0.039796 -0.305383 0.951398
v 7.357587 0.880359 -0.092115
vn 0.091451 -0.782119 0.616382
v 7.357593 0.898942 -0.076492
vn 0.139523 -0.393610 -0.908628
v 7.404592 0.927390 0.530516
vn 0.422180 -0.202787 -0.883539
v 7.522157 0.997934 0.533023
vn -0.020886 -0.665476 -0.746127
v 7.404611 0.959357 0.511315
vn -0.264061 0.712891 -0.649661
v 7.378188 1.115480 0.511333
vn 0.112832 -0.325061 0.938938
v 7.381101 0.864312 -0.099985
vn 0.061819 -0.540610 0.838999
v 7.451638 0.856843 -0.087956
vn -0.789575 -0.584833 0.185852
v 7.381097 0.981178 0.417282
vn 0.019842 0.913127 -0.407192
v 7.451642 1.117105 0.511328
vn -0.058945 -0.977057 0.204658
v 7.405255 0.973582 0.111678
vn -0.595212 -0.694088 0.404925
v 7.405898 0.974393 0.135132
vn -0.037547 -0.964098 -0.262879
v 7.404613 0.957667 0.299719
vn 0.047973 -0.984647 0.167835
v 7.404613 0.974404 0.252695
vn -0.216498 -0.959527 0.180104
v 7.404616 0.955036 0.393770
vn 0.066792 -0.990398 0.121041
v 7.428126 0.963043 0.440795
vn 0.293225 -0.916312 -0.272747
v 7.428128 0.956505 0.323232
vn 0.270493 -0.834744 -0.479621
v 7.428123 0.962588 0.511330
vn -0.078281 -0.637795 0.766218
v 7.451638 0.880354 -0.073729
vn 0.681061 -0.657564 -0.322128
v 7.492784 0.997921 0.511472
vn 0.793787 0.247822 -0.555416
v 7.501983 1.068468 0.511421
vn 0.184750 0.936362 -0.298486
v 7.592711 0.608000 0.534843
vn -0.093700 0.881513 -0.462769
v 7.639737 0.633476 0.534843
# 469 vertices, 0 vertices normals


usemtl material_0
vt 0.801543 0.949346
vt 0.797607 0.951139
vt 0.801525 0.956173
f 2/1/2 3/2/3 4/3/4
vt 0.793528 0.743800
vt 0.789758 0.739908
vt 0.791512 0.751306
f 5/4/5 6/5/6 7/6/7
vt 0.782402 0.720681
vt 0.789997 0.724626
vt 0.790050 0.720748
f 8/7/8 9/8/9 10/9/10
vt 0.767036 0.724265
vt 0.786472 0.705516
vt 0.755676 0.716440
f 11/10/11 12/11/12 13/12/13
vt 0.769496 0.812181
vt 0.761970 0.804500
vt 0.769328 0.823737
f 16/13/16 17/14/17 18/15/18
vt 0.761975 0.902789
vt 0.761115 0.889756
vt 0.752594 0.897111
f 19/16/19 20/17/20 21/18/21
vt 0.754841 0.769903
vt 0.743662 0.750694
vt 0.746899 0.788968
f 22/19/22 23/20/23 24/21/24
vt 0.876121 0.690674
vt 0.872126 0.686228
vt 0.871826 0.690674
f 25/22/25 26/23/26 27/24/27
vt 0.967615 0.899523
vt 0.955708 0.894947
vt 0.959679 0.899328
f 27/25/27 28/26/28 29/27/29
vt 0.814208 0.690674
vt 0.815599 0.690188
vt 0.813455 0.688660
f 30/28/30 31/29/31 32/30/32
vt 0.991200 0.957808
vt 0.989014 0.960205
vt 0.995801 0.960205
f 33/31/33 34/32/34 35/33/35
vt 0.573542 0.856543
vt 0.562290 0.858918
vt 0.573740 0.862747
f 36/34/36 37/35/37 38/36/38
vt 0.520051 0.859048
vt 0.512590 0.858971
vt 0.516307 0.862848
f 39/37/39 40/38/40 41/39/41
vt 0.952388 0.946093
vt 0.952182 0.940550
vt 0.948526 0.943818
f 42/40/42 43/41/43 44/42/44
vt 0.985654 0.750986
vt 0.986874 0.756367
vt 0.991891 0.755066
f 45/43/45 46/44/46 47/45/47
vt 0.635565 0.902555
vt 0.632132 0.901513
vt 0.639876 0.905639
f 48/46/48 49/47/49 50/48/50
vt 0.877719 0.706299
vt 0.876059 0.702722
vt 0.872619 0.706299
f 51/49/51 52/50/52 53/51/53
vt 0.500954 0.874381
vt 0.508797 0.874285
vt 0.508681 0.870505
f 54/52/54 52/53/52 51/54/51
vt 0.816185 0.936768
vt 0.819956 0.936433
vt 0.816162 0.932816
f 55/55/55 56/56/56 57/57/57
vt 0.816839 0.917588
vt 0.831462 0.921318
vt 0.831472 0.917567
f 58/58/58 59/59/59 60/60/60
vt 0.804687 0.919806
vt 0.804625 0.913471
vt 0.800864 0.914825
f 61/61/61 62/62/62 63/63/63
vt 0.290133 0.733898
vt 0.285948 0.730700
vt 0.283442 0.738894
f 64/64/64 65/65/65 66/66/66
vt 0.919841 0.752886
vt 0.919784 0.756791
vt 0.923466 0.752764
f 67/67/67 68/68/68 69/69/69
vt 0.949951 0.741455
vt 0.960776 0.741455
vt 0.958175 0.737689
f 70/70/70 71/71/71 72/72/72
vt 0.444809 0.889869
vt 0.442809 0.894269
vt 0.446966 0.894689
f 73/73/73 74/74/74 75/75/75
vt 0.449537 0.888304
vt 0.452660 0.890469
vt 0.457900 0.888041
f 76/76/76 77/77/77 78/78/78
vt 0.782034 0.848951
vt 0.786606 0.861020
vt 0.784221 0.853033
f 79/79/79 80/80/80 81/81/81
vt 0.975924 0.722675
vt 0.980380 0.725830
vt 0.978331 0.719275
f 82/82/82 83/83/83 84/84/84
vt 0.449087 0.879577
vt 0.447055 0.884034
vt 0.451143 0.884570
f 85/85/85 86/86/86 87/87/87
vt 0.953159 0.984532
vt 0.949432 0.982127
vt 0.949191 0.987800
f 88/88/88 89/89/89 90/90/90
vt 0.962250 0.753935
vt 0.957272 0.752905
vt 0.957923 0.757080
f 91/91/91 92/92/92 93/93/93
vt 0.769098 0.863449
vt 0.772999 0.867484
vt 0.772372 0.860183
f 94/94/94 95/95/95 96/96/96
vt 0.843602 0.942787
vt 0.839752 0.946836
vt 0.843612 0.948476
f 105/97/105 106/98/106 107/99/107
vt 0.847498 0.946083
f 107/99/107 108/100/108 105/97/105
vt 0.793727 0.770578
vt 0.785683 0.755000
vt 0.789099 0.781865
f 108/101/108 109/102/109 110/103/110
f 108/101/108 7/6/7 109/102/109
vt 0.792932 0.781995
f 110/103/110 111/104/111 108/101/108
vt 0.798664 0.774480
f 111/104/111 105/105/105 108/101/108
vt 0.586309 0.655518
vt 0.581938 0.649136
vt 0.582220 0.655001
f 106/106/106 111/107/111 112/108/112
vt 0.590481 0.652694
f 106/106/106 105/109/105 111/107/111
vt 0.934326 0.807281
vt 0.939089 0.808204
vt 0.940385 0.806289
f 113/110/113 114/111/114 115/112/115
vt 0.934356 0.809966
f 113/110/113 116/113/116 114/111/114
vt 0.937571 0.811768
f 116/113/116 3/114/3 114/111/114
vt 0.980835 0.805518
vt 0.973388 0.809664
vt 0.973825 0.811768
f 117/115/117 118/116/118 119/117/119
vt 0.984161 0.811768
f 119/117/119 116/118/116 117/115/117
vt 0.988088 0.808275
f 116/118/116 113/119/113 117/115/117
vt 0.792352 0.820351
vt 0.780764 0.826822
vt 0.792211 0.829772
f 115/120/115 120/121/120 117/122/117
vt 0.784800 0.812403
f 115/120/115 121/123/121 120/121/120
vt 0.797828 0.824311
f 117/122/117 113/124/113 115/120/115
vt 0.848964 0.843018
vt 0.860400 0.837581
vt 0.848867 0.834316
f 1/125/1 122/126/122 12/127/12
vt 0.860403 0.842629
f 1/125/1 100/128/100 122/126/122
vt 0.889525 0.956223
vt 0.809151 0.956299
f 124/129/124 107/99/107 125/130/125
vt 0.889519 0.948121
f 124/129/124 126/131/126 107/99/107
vt 0.835950 0.947999
f 107/99/107 112/132/112 125/130/125
vt 0.815558 0.949353
f 112/132/112 127/133/127 125/130/125
vt 0.809185 0.949941
f 127/133/127 128/134/128 125/130/125
vt 0.891471 0.949384
f 124/129/124 129/135/129 126/131/126
f 107/99/107 106/98/106 112/132/112
vt 0.911038 0.932958
vt 0.911219 0.936768
vt 0.915032 0.935180
f 130/136/130 10/137/10 9/138/9
vt 0.917427 0.930797
f 9/138/9 129/139/129 130/136/130
vt 0.906982 0.935282
f 130/136/130 131/140/131 10/137/10
vt 0.919300 0.933277
f 9/138/9 132/141/132 129/139/129
vt 0.919572 0.930100
f 132/141/132 126/142/126 129/139/129
vt 0.934488 0.935005
vt 0.965074 0.933257
f 5/143/5 107/144/107 126/142/126
vt 0.691385 0.663330
vt 0.684341 0.657853
vt 0.675965 0.663330
f 5/145/5 7/146/7 133/147/133
vt 0.664795 0.659970
vt 0.672443 0.660591
f 7/146/7 108/148/108 134/149/134
f 126/142/126 132/141/132 5/143/5
vt 0.579962 0.650816
vt 0.561782 0.655518
f 135/150/135 127/151/127 112/108/112
vt 0.562429 0.648734
f 135/150/135 136/152/136 127/151/127
vt 0.559326 0.653987
f 136/152/136 137/153/137 127/151/127
f 112/108/112 111/107/111 135/150/135
f 128/134/128 4/3/4 125/130/125
f 128/134/128 2/1/2 4/3/4
vt 0.793046 0.709464
vt 0.786291 0.716957
vt 0.788176 0.720866
f 138/154/138 131/155/131 130/156/130
f 138/154/138 12/11/12 131/155/131
vt 0.788385 0.705565
f 138/154/138 123/157/123 12/11/12
f 12/11/12 11/10/11 8/7/8
f 8/7/8 131/155/131 12/11/12
f 8/7/8 10/9/10 131/155/131
vt 0.713524 0.719611
vt 0.701457 0.757673
f 139/158/139 140/159/140 23/20/23
f 23/20/23 13/12/13 139/158/139
vt 0.701325 0.766171
f 140/159/140 141/160/141 23/20/23
vt 0.740547 0.704728
f 13/12/13 142/161/142 139/158/139
vt 0.701807 0.734726
f 139/158/139 143/162/143 140/159/140
vt 0.766680 0.747195
f 23/20/23 144/163/144 13/12/13
f 144/163/144 11/10/11 13/12/13
vt 0.721474 0.700623
f 142/161/142 145/164/145 139/158/139
f 144/163/144 6/5/6 11/10/11
f 6/5/6 8/7/8 11/10/11
vt 0.686208 0.753613
f 143/162/143 146/165/146 140/159/140
vt 0.670907 0.753394
f 143/162/143 147/166/147 146/165/146
vt 0.793767 0.728518
f 6/5/6 132/167/132 8/7/8
vt 0.748200 0.704850
f 13/12/13 148/168/148 142/161/142
vt 0.697627 0.757607
f 146/165/146 149/169/149 140/159/140
vt 0.671081 0.764858
f 147/166/147 150/170/150 146/165/146
f 132/167/132 9/8/9 8/7/8
f 6/5/6 5/4/5 132/167/132
vt 0.778033 0.754928
f 6/5/6 144/163/144 151/171/151
f 151/171/151 7/6/7 6/5/6
f 151/171/151 109/102/109 7/6/7
vt 0.777911 0.762504
f 151/171/151 152/172/152 109/102/109
vt 0.789050 0.785812
vt 0.777453 0.793272
vt 0.788810 0.801060
f 153/173/153 154/174/154 136/175/136
vt 0.792904 0.784022
f 136/175/136 135/176/135 153/173/153
vt 0.784927 0.804855
f 154/174/154 155/177/155 136/175/136
vt 0.773444 0.804631
f 154/174/154 156/178/156 155/177/155
vt 0.777620 0.781694
vt 0.773744 0.785561
f 153/173/153 157/179/157 158/180/158
f 153/173/153 110/103/110 157/179/157
vt 0.773799 0.781707
f 157/179/157 159/181/159 158/180/158
vt 0.864014 0.635986
vt 0.869641 0.635986
vt 0.867703 0.631872
f 153/182/153 111/183/111 110/184/110
f 153/173/153 135/176/135 111/104/111
vt 0.788757 0.804944
f 136/175/136 155/177/155 160/185/160
vt 0.792586 0.805047
f 160/185/160 137/186/137 136/175/136
vt 0.792529 0.808886
f 160/185/160 161/187/161 137/186/137
vt 0.943023 0.809567
vt 0.950035 0.811768
f 115/112/115 2/188/2 161/189/161
f 161/187/161 121/123/121 115/120/115
f 161/187/161 160/185/160 121/123/121
vt 0.834688 0.698486
vt 0.827642 0.695686
vt 0.824951 0.698486
f 160/190/160 162/191/162 121/192/121
f 115/112/115 114/111/114 2/188/2
vt 0.679844 0.877624
vt 0.676514 0.876767
vt 0.679695 0.866021
f 163/193/163 164/194/164 165/195/165
vt 0.683520 0.866847
f 165/195/165 120/196/120 163/193/163
vt 0.676514 0.861368
f 165/195/165 118/197/118 120/196/120
vt 0.681711 0.854591
f 118/197/118 117/198/117 120/196/120
f 110/103/110 152/172/152 157/179/157
f 110/103/110 109/102/109 152/172/152
vt 0.704690 0.796007
f 24/21/24 141/160/141 167/199/167
f 24/21/24 23/20/23 141/160/141
vt 0.727175 0.827258
f 167/199/167 168/200/168 24/21/24
vt 0.746314 0.827278
f 168/200/168 169/201/169 24/21/24
vt 0.681377 0.818564
f 167/199/167 170/202/170 168/200/168
f 169/201/169 17/14/17 24/21/24
vt 0.685497 0.799495
f 167/199/167 171/203/171 170/202/170
vt 0.765504 0.823718
f 169/201/169 172/204/172 17/14/17
f 17/14/17 158/180/158 24/21/24
f 17/14/17 154/174/154 158/180/158
f 172/204/172 18/15/18 17/14/17
vt 0.753968 0.827397
f 169/201/169 173/205/173 172/204/172
f 154/174/154 153/173/153 158/180/158
vt 0.769271 0.827605
f 172/204/172 163/206/163 18/15/18
vt 0.784857 0.808560
vt 0.773379 0.808388
f 162/207/162 156/178/156 174/208/174
vt 0.939038 0.813643
vt 0.938279 0.819322
vt 0.949883 0.819580
f 162/209/162 155/210/155 156/211/156
vt 0.934326 0.819580
f 162/209/162 160/212/160 155/210/155
f 16/13/16 120/121/120 121/123/121
f 16/13/16 18/15/18 120/121/120
f 121/123/121 174/208/174 16/13/16
f 121/123/121 162/207/162 174/208/174
f 18/15/18 163/206/163 120/121/120
vt 0.449951 0.682861
vt 0.456419 0.682861
vt 0.455293 0.681029
f 165/213/165 119/214/119 118/215/118
vt 0.903039 0.955265
vt 0.906474 0.945575
vt 0.899170 0.952368
f 165/216/165 176/217/176 119/218/119
vt 0.914589 0.956299
vt 0.914289 0.948397
f 165/216/165 164/219/164 177/220/177
f 177/220/177 176/217/176 165/216/165
vt 0.326047 0.693028
vt 0.323492 0.677864
vt 0.319924 0.679668
f 20/221/20 178/222/178 179/223/179
vt 0.313268 0.691160
f 179/223/179 180/224/180 20/221/20
vt 0.315385 0.698582
f 180/224/180 21/225/21 20/221/20
vt 0.316187 0.680504
f 179/223/179 181/226/181 180/224/180
vt 0.770150 0.770152
f 182/227/182 159/181/159 157/179/157
f 157/179/157 152/172/152 182/227/182
f 152/172/152 151/171/151 182/227/182
f 144/163/144 22/19/22 182/227/182
f 144/163/144 23/20/23 22/19/22
f 182/227/182 151/171/151 144/163/144
f 158/180/158 22/19/22 24/21/24
f 158/180/158 182/227/182 22/19/22
f 158/180/158 159/181/159 182/227/182
f 156/178/156 17/14/17 16/13/16
f 156/178/156 154/174/154 17/14/17
vt 0.821907 0.620361
vt 0.817002 0.617872
vt 0.813232 0.620361
f 16/228/16 174/229/174 156/230/156
vt 0.340244 0.753766
vt 0.326217 0.739448
vt 0.322433 0.740126
f 97/231/97 15/232/15 25/233/25
vt 0.347624 0.751459
f 97/231/97 14/234/14 15/232/15
vt 0.325574 0.735667
f 15/232/15 26/235/26 25/233/25
vt 0.867970 0.839723
vt 0.868010 0.842449
f 166/236/166 100/128/100 183/237/183
f 166/236/166 122/126/122 100/128/100
vt 0.918289 0.953847
f 184/238/184 177/220/177 164/219/164
vt 0.917941 0.945073
f 184/238/184 185/239/185 177/220/177
vt 0.676574 0.881008
f 164/194/164 163/193/163 184/240/184
vt 0.680357 0.882080
f 163/193/163 172/241/172 184/240/184
vt 0.968833 0.903620
f 25/242/25 27/25/27 29/27/29
vt 0.925757 0.948065
vt 0.922233 0.955945
f 186/243/186 184/238/184 187/244/187
f 186/243/186 185/239/185 184/238/184
vt 0.976499 0.839111
vt 0.968966 0.835707
vt 0.968848 0.838941
f 187/245/187 173/246/173 188/247/188
vt 0.761599 0.829386
f 187/248/187 172/204/172 173/205/173
vt 0.793701 0.628497
vt 0.796147 0.632542
vt 0.793701 0.635986
f 187/249/187 184/250/184 172/251/172
vt 0.711432 0.627138
vt 0.702026 0.635354
vt 0.710175 0.647705
f 189/252/189 28/253/28 26/254/26
vt 0.705755 0.647705
f 28/253/28 27/255/27 26/254/26
vt 0.704015 0.632073
f 189/252/189 190/256/190 28/253/28
vt 0.699797 0.630057
f 190/256/190 191/257/191 28/253/28
vt 0.937532 0.955435
vt 0.944870 0.947250
f 186/243/186 192/258/192 193/259/193
vt 0.929887 0.955768
f 186/243/186 188/260/188 192/258/192
vt 0.948995 0.954857
f 192/258/192 194/261/194 193/259/193
vt 0.952518 0.946874
f 194/261/194 195/262/195 193/259/193
vt 0.956369 0.948387
f 194/261/194 196/263/196 195/262/195
f 186/243/186 187/244/187 188/260/188
vt 0.740632 0.698181
f 148/168/148 102/264/102 142/161/142
vt 0.744797 0.907402
vt 0.754542 0.916609
f 19/16/19 197/265/197 189/266/189
f 19/16/19 21/18/21 197/265/197
vt 0.746623 0.914674
f 197/265/197 198/267/198 189/266/189
vt 0.961208 0.838658
vt 0.961325 0.835413
f 192/268/192 173/246/173 169/269/169
f 192/268/192 188/247/188 173/246/173
vt 0.742516 0.900627
f 202/270/202 197/265/197 21/18/21
vt 0.939698 0.757813
vt 0.934326 0.768799
vt 0.946653 0.768799
f 21/271/21 203/272/203 202/273/202
vt 0.306263 0.690505
f 21/225/21 180/224/180 203/274/203
vt 0.309983 0.689560
f 180/224/180 204/275/204 203/274/203
vt 0.709467 0.907373
vt 0.706745 0.926983
f 205/276/205 206/277/206 198/267/198
vt 0.741628 0.908234
f 198/267/198 207/278/207 205/276/205
vt 0.706642 0.911826
f 205/276/205 208/279/208 206/277/206
vt 0.695627 0.929340
f 208/279/208 209/280/209 206/277/206
f 198/267/198 197/265/197 207/278/207
vt 0.705767 0.909576
f 205/276/205 210/281/210 208/279/208
vt 0.708767 0.906000
f 205/276/205 211/282/211 210/281/210
vt 0.747828 0.922630
vt 0.753159 0.925195
f 36/283/36 190/284/190 189/266/189
f 189/266/189 198/267/198 36/283/36
vt 0.719078 0.933371
vt 0.737388 0.929501
f 206/277/206 212/285/212 37/286/37
f 37/286/37 198/267/198 206/277/206
f 37/286/37 36/283/36 198/267/198
vt 0.934981 0.725830
vt 0.941718 0.716707
vt 0.934326 0.720922
f 209/287/209 40/288/40 39/289/39
vt 0.946810 0.725830
f 209/287/209 33/290/33 40/288/40
vt 0.945994 0.720789
f 33/290/33 35/291/35 40/288/40
vt 0.950319 0.892967
vt 0.943380 0.896192
f 29/27/29 191/292/191 213/293/213
f 29/27/29 28/26/28 191/292/191
vt 0.947204 0.892118
f 191/292/191 38/294/38 213/293/213
vt 0.949752 0.838178
vt 0.942205 0.834340
f 194/295/194 169/269/169 168/296/168
f 194/295/194 192/268/192 169/269/169
vt 0.934326 0.839111
f 168/296/168 215/297/215 194/295/194
vt 0.894997 0.857400
vt 0.902744 0.851627
vt 0.895121 0.855341
f 216/298/216 217/299/217 218/300/218
vt 0.906453 0.857405
f 216/298/216 219/301/219 217/299/217
vt 0.906571 0.855441
f 219/301/219 220/302/220 217/299/217
vt 0.808301 0.647705
vt 0.805225 0.639994
vt 0.801514 0.647705
f 34/303/34 221/304/221 35/305/35
vt 0.774542 0.655517
vt 0.776508 0.650977
vt 0.766357 0.654753
f 34/306/34 222/307/222 221/308/221
vt 0.786989 0.655518
f 34/306/34 223/309/223 222/307/222
vt 0.531308 0.855805
f 206/310/206 39/37/39 41/39/41
vt 0.692139 0.936767
f 41/311/41 212/285/212 206/277/206
vt 0.696120 0.933856
f 206/277/206 209/280/209 39/312/39
vt 0.500958 0.866721
vt 0.508562 0.856991
vt 0.500927 0.861539
f 224/313/224 35/314/35 225/315/225
f 224/313/224 40/38/40 35/314/35
vt 0.500732 0.857025
f 35/314/35 221/316/221 225/315/225
vt 0.702756 0.627193
vt 0.696045 0.628284
f 191/257/191 36/317/36 38/318/38
f 191/257/191 190/256/190 36/317/36
vt 0.964993 0.998117
vt 0.945639 0.993642
vt 0.934444 0.998950
f 145/319/145 226/320/226 227/321/227
vt 0.972451 0.993075
f 145/319/145 101/322/101 226/320/226
vt 0.984341 0.999268
f 145/319/145 142/323/142 101/322/101
vt 0.729148 0.698605
f 142/161/142 102/264/102 101/324/101
vt 0.690861 0.700125
vt 0.702220 0.707937
f 145/164/145 227/325/227 71/326/71
vt 0.698395 0.707886
f 227/325/227 229/327/229 71/326/71
vt 0.543186 0.858940
vt 0.539362 0.875064
vt 0.562199 0.874280
f 212/328/212 230/329/230 231/330/231
f 231/330/231 37/35/37 212/328/212
vt 0.535538 0.874260
f 212/328/212 62/331/62 230/329/230
f 212/328/212 41/39/41 62/331/62
vt 0.523997 0.878142
f 41/39/41 232/332/232 62/331/62
vt 0.512466 0.874349
f 41/39/41 53/333/53 232/332/232
f 231/330/231 38/36/38 37/35/37
vt 0.577503 0.866602
f 231/330/231 213/334/213 38/36/38
f 41/39/41 51/54/51 53/333/53
f 41/39/41 40/38/40 51/54/51
f 40/38/40 224/313/224 51/54/51
vt 0.531676 0.878118
f 232/332/232 63/335/63 62/331/62
f 224/313/224 54/52/54 51/54/51
f 44/42/44 193/259/193 195/262/195
vt 0.944528 0.940746
f 44/42/44 233/336/233 193/259/193
vt 0.916544 0.768418
vt 0.908738 0.764948
f 43/337/43 68/68/68 234/338/234
vt 0.967811 0.946296
vt 0.963797 0.943300
f 43/41/43 69/339/69 68/340/68
vt 0.916747 0.772250
f 234/338/234 235/341/235 43/337/43
vt 0.948349 0.940587
f 235/342/235 44/42/44 43/41/43
f 235/342/235 233/336/233 44/42/44
vt 0.294329 0.688962
vt 0.286400 0.688063
vt 0.291464 0.694921
f 236/343/236 237/344/237 238/345/238
vt 0.295239 0.694265
f 238/345/238 239/346/239 236/343/236
f 42/40/42 195/262/195 196/263/196
f 42/40/42 44/42/44 195/262/195
vt 0.964399 0.956299
vt 0.972022 0.955549
f 196/263/196 215/347/215 240/348/240
f 196/263/196 194/261/194 215/347/215
vt 0.569942 0.874691
vt 0.581602 0.878174
f 213/334/213 241/349/241 64/350/64
vt 0.590500 0.869445
f 64/350/64 214/351/214 213/334/213
vt 0.590505 0.870369
f 64/350/64 242/352/242 214/351/214
f 213/334/213 231/330/231 241/349/241
vt 0.469589 0.682861
vt 0.465353 0.681787
vt 0.461670 0.682861
f 231/353/231 243/354/243 241/355/241
f 69/339/69 196/263/196 240/348/240
f 69/339/69 43/41/43 196/263/196
vt 0.971801 0.949213
f 240/348/240 244/356/244 69/339/69
f 43/41/43 42/40/42 196/263/196
vt 0.277618 0.682147
vt 0.267543 0.691232
f 237/344/237 246/357/246 247/358/247
vt 0.285221 0.703649
f 247/358/247 248/359/248 237/344/237
f 248/359/248 238/345/238 237/344/237
vt 0.261190 0.676854
f 246/357/246 249/360/249 247/358/247
vt 0.259360 0.688731
f 249/360/249 250/361/250 247/358/247
vt 0.981201 0.757080
f 46/44/46 45/43/45 251/362/251
vt 0.740356 0.616968
vt 0.736824 0.613726
vt 0.735107 0.620361
f 251/363/251 252/364/252 46/365/46
vt 0.741745 0.612362
f 251/363/251 253/366/253 252/364/252
vt 0.896676 0.917164
vt 0.899410 0.925110
vt 0.904546 0.920581
f 46/367/46 56/368/56 254/369/254
vt 0.892182 0.921098
f 46/367/46 252/370/252 56/368/56
vt 0.995043 0.757080
f 254/371/254 47/45/47 46/44/46
vt 0.899736 0.930351
f 252/370/252 57/372/57 56/368/56
vt 0.905441 0.926252
f 56/368/56 255/373/255 254/369/254
vt 0.700369 0.685929
vt 0.696045 0.691445
vt 0.699530 0.694580
f 255/374/255 56/375/56 55/376/55
vt 0.703900 0.684214
f 55/376/55 256/377/256 255/374/255
vt 0.718676 0.694580
vt 0.715164 0.690174
f 55/376/55 257/378/257 50/379/50
f 50/379/50 256/377/256 55/376/55
vt 0.707726 0.684647
f 50/379/50 49/380/49 256/377/256
vt 0.719376 0.687189
f 258/381/258 50/379/50 257/378/257
vt 0.711766 0.686627
f 258/381/258 48/382/48 50/379/50
vt 0.547501 0.878163
vt 0.562119 0.878141
f 231/330/231 58/383/58 60/384/60
f 231/330/231 230/329/230 58/383/58
vt 0.543080 0.878135
f 230/329/230 259/385/259 58/383/58
vt 0.566120 0.874973
f 60/384/60 243/386/243 231/330/231
vt 0.878378 0.854736
vt 0.869981 0.845327
vt 0.851035 0.844864
f 242/387/242 64/388/64 260/389/260
vt 0.832764 0.854736
f 260/389/260 98/390/98 242/387/242
vt 0.277174 0.747746
f 64/64/64 66/66/66 260/391/260
vt 0.677377 0.830717
vt 0.711824 0.830652
f 170/202/170 83/392/83 240/393/240
f 240/393/240 168/200/168 170/202/170
vt 0.719468 0.831299
f 240/393/240 215/394/215 168/200/168
vt 0.664884 0.826100
f 170/202/170 261/395/261 83/392/83
vt 0.669713 0.831299
f 261/395/261 84/396/84 83/392/83
vt 0.832362 0.654917
vt 0.824951 0.659424
vt 0.832568 0.659424
f 262/397/262 263/398/263 264/399/264
vt 0.825479 0.654005
f 262/397/262 248/400/248 263/398/263
vt 0.751096 0.620361
f 262/401/262 253/366/253 251/363/251
vt 0.753164 0.616336
f 262/401/262 264/402/264 253/366/253
vt 0.972578 0.928095
vt 0.969482 0.928955
vt 0.984791 0.928955
f 264/403/264 265/404/265 253/405/253
vt 0.797029 0.936651
f 257/406/257 57/57/57 61/61/61
f 257/406/257 55/55/55 57/57/57
f 57/57/57 58/58/58 61/61/61
f 57/57/57 59/59/59 58/58/58
vt 0.887701 0.922380
vt 0.882911 0.932198
f 57/372/57 253/407/253 59/408/59
vt 0.876006 0.914416
f 253/407/253 265/409/265 59/408/59
vt 0.872384 0.929495
f 265/409/265 266/410/266 59/408/59
vt 0.789400 0.921543
f 61/61/61 267/411/267 257/406/257
vt 0.796697 0.936651
f 267/411/267 268/412/268 257/406/257
vt 0.866507 0.916970
f 265/409/265 269/413/269 266/410/266
vt 0.793211 0.915534
f 61/61/61 232/414/232 267/411/267
f 57/372/57 252/370/252 253/407/253
vt 0.812341 0.916092
f 58/58/58 259/415/259 61/61/61
f 61/61/61 63/63/63 232/414/232
vt 0.868746 0.913715
f 265/409/265 270/416/270 269/413/269
vt 0.785566 0.925321
vt 0.789366 0.932783
f 267/411/267 271/417/271 272/418/272
f 272/418/272 268/412/268 267/411/267
vt 0.789336 0.936421
f 272/418/272 273/419/273 268/412/268
vt 0.774094 0.929191
vt 0.766422 0.925273
vt 0.766430 0.936767
f 274/420/274 275/421/275 276/422/276
vt 0.774058 0.936609
f 276/422/276 277/423/277 274/420/274
vt 0.770259 0.925332
f 274/420/274 278/424/278 275/421/275
vt 0.774081 0.921485
f 278/424/278 279/425/279 275/421/275
vt 0.777904 0.916577
f 279/425/279 280/426/280 275/421/275
vt 0.656172 0.643312
vt 0.647993 0.642324
vt 0.648452 0.637040
f 270/427/270 265/428/265 263/429/263
vt 0.645264 0.643799
f 265/428/265 264/430/264 263/429/263
vt 0.262058 0.750484
f 282/431/282 260/391/260 65/65/65
f 260/391/260 66/66/66 65/65/65
vt 0.864448 0.929880
vt 0.866925 0.930755
f 65/432/65 283/433/283 269/413/269
vt 0.770184 0.917212
f 275/421/275 280/426/280 54/434/54
vt 0.766357 0.919510
f 54/434/54 284/435/284 275/421/275
vt 0.508657 0.878174
f 280/436/280 52/53/52 54/52/54
vt 0.871095 0.932774
f 266/410/266 283/433/283 285/437/285
f 266/410/266 269/413/269 283/433/283
vt 0.957764 0.889893
vt 0.966691 0.889893
vt 0.960891 0.887623
f 59/438/59 243/439/243 60/440/60
vt 0.877531 0.936768
f 59/408/59 266/410/266 243/441/243
vt 0.978393 0.889893
vt 0.972691 0.887789
vt 0.969482 0.889893
f 266/442/266 241/443/241 243/444/243
vt 0.874734 0.934782
f 266/410/266 285/437/285 241/445/241
vt 0.808465 0.913549
f 61/61/61 259/415/259 230/446/230
f 230/446/230 62/62/62 61/61/61
vt 0.781664 0.916286
f 267/411/267 53/447/53 271/417/271
f 267/411/267 232/414/232 53/447/53
vt 0.777943 0.925507
f 53/447/53 280/426/280 286/448/286
f 286/448/286 271/417/271 53/447/53
f 280/426/280 279/425/279 286/448/286
vt 0.871826 0.701348
f 53/51/53 52/50/52 280/449/280
vt 0.862591 0.932039
f 285/437/285 64/450/64 241/445/241
vt 0.821990 0.628174
vt 0.818049 0.625601
vt 0.813232 0.628174
f 285/451/285 283/452/283 64/453/64
vt 0.815964 0.623223
f 283/452/283 65/454/65 64/453/64
vt 0.271663 0.698294
f 281/455/281 248/359/248 247/358/247
vt 0.282087 0.708072
f 281/455/281 263/456/263 248/359/248
vt 0.864479 0.647289
vt 0.869340 0.651611
vt 0.870235 0.646804
f 287/457/287 279/458/279 278/459/278
vt 0.864014 0.651611
f 287/457/287 286/460/286 279/458/279
vt 0.975457 0.945971
f 288/461/288 69/339/69 244/356/244
vt 0.923107 0.745118
vt 0.919651 0.749067
f 288/462/288 289/463/289 69/69/69
vt 0.918725 0.733834
f 288/462/288 290/464/290 289/463/289
f 289/463/289 67/67/67 69/69/69
vt 0.402881 0.901611
vt 0.403097 0.889991
vt 0.395264 0.898582
f 291/465/291 292/466/292 293/467/293
vt 0.407732 0.899091
f 291/465/291 294/468/294 292/466/292
vt 0.406972 0.890887
f 294/468/294 295/469/295 292/466/292
vt 0.981201 0.733643
vt 0.984097 0.733276
vt 0.988659 0.728760
f 293/470/293 296/471/296 291/472/291
vt 0.990355 0.732719
f 296/471/296 297/473/297 291/472/291
vt 0.681130 0.849077
vt 0.681727 0.839432
vt 0.678641 0.841722
f 298/474/298 299/475/299 300/476/300
vt 0.687027 0.845763
f 298/474/298 70/477/70 299/475/299
vt 0.957851 0.737120
f 70/70/70 72/72/72 299/478/299
vt 0.688965 0.850830
f 298/474/298 139/479/139 70/477/70
vt 0.677611 0.850676
f 300/476/300 301/480/301 298/474/298
vt 0.477932 0.643799
vt 0.479079 0.632800
vt 0.473389 0.625276
f 139/481/139 302/482/302 143/483/143
vt 0.485173 0.638417
f 139/481/139 298/484/298 302/482/302
vt 0.705751 0.726712
vt 0.701863 0.730844
f 302/485/302 303/486/303 143/162/143
vt 0.478325 0.628593
vt 0.476435 0.627794
f 302/482/302 304/487/304 303/488/303
vt 0.812963 0.878174
vt 0.798696 0.849343
vt 0.792220 0.856064
f 288/489/288 83/490/83 305/491/305
vt 0.821593 0.874601
f 288/489/288 240/492/240 83/490/83
f 288/461/288 244/356/244 240/348/240
vt 0.488722 0.637693
f 301/493/301 302/482/302 298/484/298
vt 0.693730 0.761250
f 141/160/141 140/159/140 307/494/307
f 307/494/307 167/199/167 141/160/141
vt 0.780817 0.871093
vt 0.802363 0.872398
f 305/491/305 308/495/308 290/496/290
f 290/496/290 288/489/288 305/491/305
f 305/491/305 80/80/80 308/495/308
f 305/491/305 81/81/81 80/80/80
vt 0.792453 0.850755
f 305/491/305 309/497/309 81/81/81
vt 0.425506 0.896340
vt 0.421638 0.875891
vt 0.412105 0.888637
f 310/498/310 311/499/311 312/500/312
vt 0.434258 0.885365
f 310/498/310 313/501/313 311/499/311
vt 0.432143 0.880473
f 313/501/313 314/502/314 311/499/311
f 312/500/312 294/468/294 310/498/310
vt 0.438540 0.895055
f 310/498/310 315/503/315 313/501/313
f 312/500/312 295/469/295 294/468/294
vt 0.439941 0.891672
f 315/503/315 316/504/316 313/501/313
vt 0.441542 0.887945
f 316/504/316 317/505/317 313/501/313
vt 0.264639 0.765492
vt 0.268276 0.764236
f 282/431/282 99/506/99 98/507/98
f 98/507/98 260/391/260 282/431/282
vt 0.674429 0.772516
f 167/199/167 307/494/307 318/508/318
f 318/508/318 171/203/171 167/199/167
vt 0.674131 0.791597
f 318/508/318 319/509/319 171/203/171
vt 0.686023 0.764999
f 307/494/307 320/510/320 318/508/318
vt 0.669982 0.780048
f 318/508/318 321/511/321 319/509/319
vt 0.681677 0.799197
f 319/509/319 322/512/322 171/203/171
vt 0.678368 0.764850
f 320/510/320 323/513/323 318/508/318
vt 0.804757 0.617329
vt 0.801514 0.624268
vt 0.810335 0.624268
f 323/514/323 324/515/324 318/516/318
vt 0.178171 0.163354
vt 0.174639 0.167091
vt 0.174305 0.170912
f 325/517/325 327/518/327 326/519/326
vt 0.175072 0.163269
f 325/517/325 329/520/329 327/518/327
vt 0.249860 0.678757
f 104/521/104 250/361/250 249/360/249
vt 0.260542 0.673087
f 249/360/249 103/522/103 104/521/104
vt 0.540418 0.652351
vt 0.525164 0.655518
vt 0.555730 0.655518
f 331/523/331 332/524/332 303/525/303
vt 0.525197 0.651080
f 331/523/331 333/526/333 332/524/332
vt 0.544305 0.652841
f 303/525/303 330/527/330 331/523/331
vt 0.555655 0.653656
f 303/525/303 304/528/304 330/527/330
vt 0.671282 0.728815
f 143/162/143 332/529/332 147/166/147
f 143/162/143 303/486/303 332/529/332
vt 0.963298 0.828111
vt 0.957203 0.831299
vt 0.971234 0.831299
f 307/530/307 149/531/149 320/532/320
vt 0.953857 0.829992
f 307/530/307 140/533/140 149/531/149
vt 0.675575 0.699922
vt 0.671530 0.712773
vt 0.686858 0.711552
f 328/534/328 334/535/334 335/536/335
vt 0.687040 0.699796
f 335/536/335 228/537/228 328/534/328
f 335/536/335 227/325/227 228/537/228
f 335/536/335 229/327/229 227/325/227
f 146/165/146 323/513/323 320/510/320
f 320/510/320 149/169/149 146/165/146
f 74/74/74 316/504/316 315/503/315
vt 0.441417 0.897641
f 315/503/315 338/538/338 74/74/74
f 74/74/74 73/73/73 316/504/316
vt 0.670141 0.803177
vt 0.665438 0.818454
f 170/202/170 339/539/339 340/540/340
f 170/202/170 171/203/171 339/539/339
f 340/540/340 261/395/261 170/202/170
vt 0.664795 0.814619
f 339/539/339 341/541/341 340/540/340
f 171/203/171 322/512/322 339/539/339
vt 0.682557 0.642893
vt 0.687952 0.632737
vt 0.683858 0.635486
f 342/542/342 334/543/334 343/544/343
vt 0.685125 0.647705
f 342/542/342 335/545/335 334/543/334
vt 0.681977 0.646546
f 342/542/342 344/546/344 335/545/335
vt 0.525508 0.642720
f 345/547/345 333/526/333 331/523/331
f 73/73/73 76/76/76 87/87/87
f 87/87/87 317/505/317 73/73/73
f 73/73/73 75/75/75 76/76/76
vt 0.450458 0.896233
f 75/75/75 346/548/346 76/76/76
vt 0.455367 0.894367
f 346/548/346 347/549/347 76/76/76
f 76/76/76 78/78/78 87/87/87
f 78/78/78 85/85/85 87/87/87
vt 0.453355 0.898783
f 346/548/346 348/550/348 347/549/347
f 317/505/317 316/504/316 73/73/73
vt 0.844329 0.690674
vt 0.836859 0.686546
vt 0.836670 0.690674
f 323/551/323 150/552/150 324/553/324
vt 0.755939 0.649284
vt 0.742920 0.655518
vt 0.761769 0.655518
f 323/554/323 146/555/146 150/556/150
vt 0.679238 0.635377
f 337/557/337 342/542/342 343/544/343
vt 0.674264 0.641997
f 337/557/337 336/558/336 342/542/342
vt 0.443525 0.882554
vt 0.436820 0.878993
f 313/501/313 349/559/349 350/560/350
f 350/560/350 314/502/314 313/501/313
f 349/559/349 317/505/317 87/87/87
f 349/559/349 313/501/313 317/505/317
f 87/87/87 86/86/86 349/559/349
vt 0.849395 0.721792
vt 0.857035 0.721428
vt 0.856701 0.717616
f 347/561/347 351/562/351 352/563/352
vt 0.845248 0.718156
f 352/563/352 77/564/77 347/561/347
vt 0.841524 0.718319
f 77/564/77 76/565/76 347/561/347
vt 0.463179 0.895029
vt 0.467318 0.895476
vt 0.468722 0.892085
f 352/566/352 353/567/353 354/568/354
vt 0.860671 0.717401
f 352/563/352 351/562/351 353/569/353
vt 0.772623 0.873251
vt 0.766357 0.865962
f 355/570/355 95/95/95 92/571/92
vt 0.767022 0.878174
f 92/571/92 356/572/356 355/570/355
f 95/95/95 94/94/94 92/571/92
vt 0.670194 0.799268
f 322/512/322 319/509/319 357/573/357
f 357/573/357 339/539/339 322/512/322
vt 0.778372 0.850268
f 80/80/80 341/574/341 96/96/96
f 96/96/96 308/495/308 80/80/80
f 96/96/96 95/95/95 308/495/308
f 80/80/80 79/79/79 341/574/341
vt 0.775418 0.870795
f 95/95/95 358/575/358 308/495/308
f 95/95/95 355/570/355 358/575/358
vt 0.781647 0.848324
f 79/79/79 340/576/340 341/574/341
vt 0.422434 0.873526
f 359/577/359 314/502/314 350/560/350
f 359/577/359 311/499/311 314/502/314
vt 0.470996 0.886754
vt 0.440021 0.871611
f 85/85/85 360/578/360 361/579/361
f 85/85/85 78/78/78 360/578/360
f 361/579/361 350/560/350 85/85/85
vt 0.435770 0.871890
f 361/579/361 362/580/362 350/560/350
f 362/580/362 359/577/359 350/560/350
vt 0.425144 0.867572
f 362/580/362 363/581/363 359/577/359
f 78/78/78 354/568/354 360/578/360
f 350/560/350 349/559/349 85/85/85
f 78/78/78 352/566/352 354/568/354
f 78/78/78 77/77/77 352/566/352
vt 0.421905 0.865399
f 363/581/363 364/582/364 359/577/359
vt 0.415374 0.870566
f 364/582/364 365/583/365 359/577/359
f 349/559/349 86/86/86 85/85/85
vt 0.477196 0.891776
f 354/568/354 88/584/88 360/578/360
vt 0.475724 0.895135
f 354/568/354 366/585/366 88/584/88
vt 0.474994 0.887088
f 88/584/88 367/586/367 360/578/360
f 354/568/354 353/567/353 366/585/366
vt 0.955848 0.727553
vt 0.954255 0.731900
vt 0.958410 0.727825
f 368/587/368 369/588/369 370/589/370
vt 0.949951 0.733643
f 368/587/368 356/590/356 369/588/369
vt 0.958584 0.733432
f 356/590/356 371/591/371 369/588/369
vt 0.985107 0.979736
vt 0.996977 0.979736
vt 0.991717 0.978856
f 356/592/356 92/593/92 91/594/91
vt 0.991414 0.973076
f 91/594/91 371/595/371 356/592/356
f 309/497/309 305/491/305 83/490/83
vt 0.973389 0.725830
f 83/83/83 82/82/82 309/596/309
vt 0.843187 0.645566
vt 0.836670 0.651611
vt 0.846334 0.651611
f 365/597/365 364/598/364 328/599/328
vt 0.846515 0.647999
f 328/599/328 326/600/326 365/597/365
vt 0.649170 0.686382
vt 0.649232 0.694580
vt 0.654077 0.692254
f 372/601/372 343/602/343 334/603/334
vt 0.658356 0.692077
f 334/603/334 363/604/363 372/601/372
vt 0.660235 0.694580
f 334/603/334 364/605/364 363/604/363
vt 0.669538 0.707569
f 334/535/334 328/534/328 364/606/364
vt 0.686278 0.628391
f 337/557/337 343/544/343 372/607/372
vt 0.968361 0.987685
vt 0.995308 0.984207
vt 0.960857 0.983680
f 147/608/147 361/609/361 360/610/360
vt 0.992893 0.989226
f 147/608/147 332/611/332 361/609/361
vt 0.956843 0.988114
f 360/610/360 150/612/150 147/608/147
vt 0.957063 0.982832
f 360/610/360 367/613/367 150/612/150
vt 0.949037 0.991278
vt 0.956696 0.991455
f 150/612/150 318/614/318 324/615/324
f 150/612/150 90/90/90 318/614/318
f 150/612/150 88/88/88 90/90/90
f 150/612/150 367/613/367 88/88/88
vt 0.482294 0.889446
vt 0.483536 0.895827
f 89/616/89 366/585/366 373/617/373
f 89/616/89 88/584/88 366/585/366
vt 0.941785 0.981803
vt 0.941438 0.990057
f 90/90/90 374/618/374 321/619/321
f 321/619/321 318/614/318 90/90/90
vt 0.937760 0.986410
f 374/618/374 375/620/375 321/619/321
vt 0.948493 0.982088
f 90/90/90 89/89/89 376/621/376
vt 0.491548 0.896651
vt 0.489324 0.892456
f 373/617/373 370/622/370 374/623/374
vt 0.485709 0.900676
f 373/617/373 377/624/377 370/622/370
vt 0.485809 0.890951
f 374/623/374 378/625/378 373/617/373
vt 0.490556 0.898844
f 377/624/377 368/626/368 370/622/370
vt 0.963297 0.733643
vt 0.963592 0.727612
f 375/627/375 374/628/374 370/589/370
f 370/589/370 369/588/369 375/627/375
vt 0.934048 0.983564
vt 0.926642 0.983137
vt 0.924970 0.986347
f 371/629/371 93/630/93 379/631/379
f 379/631/379 375/620/375 371/629/371
vt 0.996962 0.977498
f 371/595/371 91/594/91 93/632/93
vt 0.836670 0.659424
vt 0.845883 0.659424
vt 0.841239 0.656303
f 375/633/375 369/634/369 371/635/371
vt 0.929888 0.991455
f 319/636/319 375/620/375 379/631/379
f 319/636/319 321/619/321 375/620/375
vt 0.922419 0.986877
f 379/631/379 357/637/357 319/636/319
vt 0.918796 0.981958
f 93/630/93 96/638/96 357/637/357
vt 0.953644 0.753127
vt 0.949951 0.757080
f 93/93/93 94/639/94 96/640/96
vt 0.918701 0.984193
f 96/638/96 339/641/339 357/637/357
f 357/637/357 379/631/379 93/630/93
f 93/93/93 92/92/92 94/639/94
vt 0.657086 0.833070
vt 0.645263 0.835205
vt 0.657960 0.835205
f 96/642/96 341/643/341 339/644/339
vt 0.786950 0.843101
f 81/81/81 261/645/261 79/79/79
f 81/81/81 309/497/309 261/645/261
vt 0.794021 0.843367
f 309/497/309 84/646/84 261/645/261
vt 0.796325 0.847110
f 309/497/309 82/647/82 84/646/84
f 261/645/261 340/576/340 79/79/79
vt 0.532748 0.675280
vt 0.524170 0.675672
vt 0.538065 0.682153
f 372/648/372 362/649/362 345/650/345
vt 0.528900 0.665298
f 372/648/372 363/651/363 362/649/362
vt 0.525126 0.682861
vt 0.529658 0.682140
f 362/649/362 332/652/332 333/653/333
f 333/653/333 345/650/345 362/649/362
vt 0.999087 0.985404
f 362/654/362 361/609/361 332/611/332
vt 0.483157 0.889816
f 373/617/373 378/625/378 376/655/376
f 373/617/373 376/655/376 89/616/89
vt 0.774948 0.702947
f 12/11/12 122/656/122 13/12/13
vt 0.767385 0.701262
f 122/656/122 166/657/166 13/12/13
vt 0.298136 0.728824
vt 0.297225 0.728981
f 214/658/214 242/659/242 98/507/98
vt 0.945609 0.981965
f 90/90/90 376/621/376 378/660/378
f 90/90/90 378/660/378 374/618/374
vt 0.709750 0.715713
f 71/326/71 70/661/70 145/164/145
f 70/661/70 139/158/139 145/164/145
vt 0.949781 0.934131
vt 0.953444 0.936669
f 133/662/133 134/663/134 107/144/107
f 133/147/133 7/146/7 134/149/134
vt 0.961148 0.936768
f 134/663/134 108/664/108 107/144/107
f 3/114/3 2/188/2 114/111/114
vt 0.502578 0.667195
vt 0.500724 0.669455
vt 0.504370 0.671142
f 380/665/380 179/666/179 178/667/178
vt 0.820232 0.690674
vt 0.817881 0.686399
f 200/668/200 381/669/381 31/29/31
vt 0.611774 0.892421
vt 0.615092 0.893926
vt 0.607507 0.894737
f 382/670/382 383/671/383 384/672/384
vt 0.921482 0.856606
vt 0.921878 0.851715
vt 0.917858 0.855816
f 385/673/385 386/674/386 387/675/387
vt 0.579631 0.686573
vt 0.579672 0.690475
vt 0.584850 0.688738
f 388/676/388 389/677/389 390/678/390
vt 0.729192 0.642842
vt 0.728662 0.635417
vt 0.723528 0.641168
f 389/679/389 391/680/391 390/681/390
vt 0.626647 0.891989
vt 0.615857 0.896422
vt 0.624211 0.903679
f 392/682/392 393/683/393 255/684/255
vt 0.848389 0.614975
vt 0.848487 0.620361
vt 0.852646 0.620361
f 394/685/394 395/686/395 396/687/396
vt 0.586442 0.690516
vt 0.586966 0.695459
vt 0.591518 0.692498
f 391/688/391 397/689/397 398/690/398
vt 0.666607 0.906569
vt 0.654975 0.898713
vt 0.655224 0.907348
f 277/691/277 399/692/399 400/693/400
vt 0.739252 0.635771
vt 0.735107 0.634997
vt 0.735500 0.639813
f 286/694/286 287/695/287 274/696/274
vt 0.861642 0.620361
vt 0.859402 0.615012
vt 0.856201 0.620361
f 274/697/274 287/698/287 278/699/278
vt 0.903980 0.746031
f 401/700/401 289/463/289 290/464/290
vt 0.838146 0.729991
vt 0.834479 0.730112
vt 0.838409 0.733826
f 338/701/338 315/702/315 402/703/402
vt 0.849423 0.725625
vt 0.845754 0.725775
vt 0.849691 0.729479
f 348/704/348 346/705/346 403/706/403
vt 0.452292 0.901611
f 348/550/348 403/707/403 347/549/347
vt 0.884244 0.785306
vt 0.871474 0.793671
vt 0.911653 0.826108
f 404/708/404 405/709/405 125/710/125
vt 0.922004 0.802639
f 125/710/125 185/711/185 404/708/404
vt 0.916930 0.776070
f 185/711/185 233/712/233 404/708/404
vt 0.886348 0.781362
f 233/712/233 406/713/406 404/708/404
f 233/712/233 235/341/235 406/713/406
vt 0.925474 0.794811
f 185/711/185 186/714/186 233/712/233
vt 0.922545 0.814105
f 125/710/125 176/715/176 185/711/185
vt 0.924574 0.775701
f 186/714/186 193/716/193 233/712/233
vt 0.919274 0.825755
f 125/710/125 4/717/4 176/715/176
vt 0.930546 0.821381
f 4/717/4 119/718/119 176/715/176
vt 0.927275 0.831120
f 4/717/4 116/719/116 119/718/119
vt 0.925996 0.806277
f 176/715/176 177/720/177 185/711/185
vt 0.923462 0.831299
f 4/717/4 3/721/3 116/719/116
vt 0.715576 0.644420
vt 0.723973 0.645380
f 390/681/390 207/722/207 202/723/202
vt 0.722516 0.632881
f 390/681/390 411/724/411 207/722/207
vt 0.716032 0.647705
f 207/722/207 197/725/197 202/723/202
f 390/681/390 391/680/391 411/724/411
vt 0.591644 0.692240
f 391/688/391 398/690/398 411/726/411
vt 0.729778 0.643802
f 202/723/202 388/727/388 390/681/390
vt 0.729045 0.647705
f 202/723/202 412/728/412 388/727/388
vt 0.483607 0.664293
vt 0.475673 0.655446
vt 0.476154 0.665969
f 203/729/203 239/730/239 413/731/413
vt 0.483347 0.653067
f 203/729/203 414/732/414 239/730/239
vt 0.844788 0.628174
vt 0.840824 0.624460
vt 0.836670 0.628174
f 414/733/414 236/734/236 239/735/239
vt 0.998267 0.921970
vt 0.991942 0.921956
vt 0.994555 0.925049
f 414/736/414 415/737/415 236/738/236
vt 0.567139 0.696239
vt 0.579900 0.705665
f 238/739/238 262/740/262 389/677/389
vt 0.573452 0.706299
f 238/739/238 248/741/248 262/740/262
vt 0.568398 0.692689
f 389/677/389 239/742/239 238/739/238
f 389/677/389 388/676/388 239/742/239
vt 0.957764 0.916961
vt 0.976668 0.921181
vt 0.982132 0.913774
f 103/743/103 246/744/246 416/745/416
vt 0.959418 0.920605
f 103/743/103 249/746/249 246/744/246
vt 0.908862 0.917628
vt 0.906982 0.921982
vt 0.911441 0.925049
f 381/747/381 200/748/200 199/749/199
vt 0.884419 0.739309
vt 0.881652 0.764017
f 401/700/401 417/750/417 418/751/418
f 418/751/418 234/338/234 401/700/401
f 418/751/418 406/713/406 234/338/234
f 406/713/406 235/341/235 234/338/234
vt 0.898685 0.715648
f 401/700/401 358/752/358 417/750/417
vt 0.873438 0.751327
f 417/750/417 419/753/419 418/751/418
vt 0.887264 0.716167
vt 0.879478 0.712692
f 356/754/356 377/755/377 417/750/417
f 234/338/234 68/68/68 401/700/401
f 68/68/68 289/463/289 401/700/401
vt 0.883075 0.708705
f 356/754/356 368/756/368 377/755/377
f 68/68/68 67/67/67 289/463/289
vt 0.409200 0.875529
f 312/500/312 329/757/329 292/466/292
f 292/466/292 295/469/295 312/500/312
vt 0.994627 0.944101
vt 0.980668 0.951129
vt 0.992870 0.953065
f 336/758/336 420/759/420 344/760/344
vt 0.981426 0.955064
f 420/759/420 421/761/421 344/760/344
vt 0.996577 0.952233
f 344/760/344 342/762/342 336/758/336
f 351/562/351 417/750/417 377/755/377
vt 0.854022 0.740734
f 351/562/351 422/763/422 417/750/417
vt 0.868123 0.713216
f 377/755/377 366/764/366 351/562/351
f 366/764/366 353/569/353 351/562/351
vt 0.875442 0.709074
f 377/755/377 373/765/373 366/764/366
vt 0.949639 0.889893
vt 0.953767 0.887676
vt 0.949911 0.887680
f 128/766/128 137/767/137 161/768/161
vt 0.956051 0.889893
f 128/766/128 127/769/127 137/767/137
vt 0.942139 0.888176
f 161/768/161 2/770/2 128/766/128
vt 0.972465 0.786650
vt 0.978653 0.782139
vt 0.972602 0.779688
f 123/771/123 424/772/424 423/773/423
vt 0.974549 0.788330
f 123/771/123 138/774/138 424/772/424
vt 0.978170 0.784576
f 138/774/138 425/775/425 424/772/424
vt 0.744902 0.676701
vt 0.736723 0.672547
vt 0.732715 0.675686
f 425/776/425 130/777/130 426/778/426
vt 0.749085 0.673462
f 425/776/425 138/779/138 130/777/130
vt 0.744052 0.678955
vt 0.723389 0.678955
f 424/780/424 426/778/426 427/781/427
f 424/780/424 425/776/425 426/778/426
vt 0.827564 0.827792
vt 0.831420 0.829921
vt 0.834816 0.822131
f 426/782/426 124/783/124 427/784/427
vt 0.893408 0.956299
f 129/135/129 124/129/124 426/785/426
vt 0.897278 0.953157
f 426/785/426 130/786/130 129/135/129
vt 0.856218 0.794381
f 124/783/124 405/709/405 429/787/429
f 124/783/124 125/710/125 405/709/405
f 429/787/429 427/784/427 124/783/124
vt 0.811815 0.811700
f 429/787/429 430/788/430 427/784/427
vt 0.816141 0.830643
f 430/788/430 424/789/424 427/784/427
vt 0.808284 0.827195
f 430/788/430 423/790/423 424/789/424
vt 0.811214 0.812085
f 430/788/430 428/791/428 423/790/423
vt 0.863140 0.783047
f 405/709/405 431/792/431 429/787/429
vt 0.873212 0.785940
f 405/709/405 432/793/432 431/792/431
vt 0.866997 0.783626
f 432/793/432 433/794/433 431/792/431
vt 0.872118 0.782047
f 432/793/432 434/795/434 433/794/433
vt 0.802820 0.812181
vt 0.814453 0.800066
f 409/796/409 430/788/430 435/797/435
f 409/796/409 428/791/428 430/788/430
vt 0.840982 0.795044
f 430/788/430 429/787/429 437/798/437
f 437/798/437 435/797/435 430/788/430
vt 0.848416 0.790848
f 429/787/429 438/799/438 437/798/437
vt 0.513188 0.668811
vt 0.502846 0.660965
f 175/800/175 439/801/439 178/667/178
f 439/801/439 380/665/380 178/667/178
vt 0.839069 0.749103
vt 0.812523 0.754154
vt 0.802490 0.777755
f 440/802/440 441/803/441 442/804/442
f 442/804/442 437/798/437 440/802/440
f 442/804/442 435/797/435 437/798/437
vt 0.823227 0.736652
f 440/802/440 310/805/310 441/803/441
vt 0.804961 0.758454
f 441/803/441 443/806/443 442/804/442
vt 0.806440 0.792848
f 442/804/442 436/807/436 435/797/435
f 440/802/440 402/703/402 310/805/310
f 440/802/440 422/763/422 402/703/402
f 422/763/422 403/706/403 402/703/402
f 402/703/402 315/702/315 310/805/310
vt 0.841939 0.725949
f 403/706/403 75/808/75 402/703/402
f 422/763/422 351/562/351 403/706/403
f 351/562/351 347/561/347 403/706/403
f 403/706/403 346/705/346 75/808/75
vt 0.496667 0.656263
vt 0.489415 0.662920
vt 0.498030 0.666895
f 444/809/444 445/810/445 181/811/181
vt 0.500894 0.663066
f 181/811/181 446/812/446 444/809/444
vt 0.491171 0.655778
f 444/809/444 447/813/447 445/810/445
vt 0.488281 0.658449
f 447/813/447 448/814/448 445/810/445
f 181/811/181 380/665/380 446/812/446
f 181/811/181 179/666/179 380/665/380
f 380/665/380 439/801/439 446/812/446
vt 0.856201 0.659424
vt 0.861636 0.659424
vt 0.860264 0.656855
f 201/815/201 446/816/446 439/817/439
vt 0.959882 0.760555
vt 0.956357 0.759308
vt 0.955035 0.763356
f 201/818/201 200/819/200 444/820/444
vt 0.961905 0.764893
f 444/820/444 446/821/446 201/818/201
vt 0.820340 0.706299
vt 0.815614 0.703528
vt 0.813232 0.706299
f 445/822/445 204/823/204 180/824/180
vt 0.487006 0.669606
f 180/825/180 181/811/181 445/810/445
vt 0.847728 0.775556
vt 0.858293 0.755897
f 440/802/440 449/826/449 450/827/450
f 440/802/440 437/798/437 449/826/449
f 437/798/437 438/799/438 449/826/449
vt 0.859208 0.781062
f 438/799/438 386/828/386 449/826/449
f 438/799/438 429/787/429 386/828/386
f 429/787/429 431/792/431 386/828/386
vt 0.852802 0.775333
f 386/828/386 451/829/451 449/826/449
vt 0.925292 0.858643
f 386/674/386 385/673/385 451/830/451
vt 0.878370 0.778427
f 432/793/432 404/708/404 452/831/452
f 432/793/432 405/709/405 404/708/404
vt 0.951959 0.758955
vt 0.951085 0.759839
vt 0.949951 0.764892
f 31/832/31 30/833/30 447/834/447
f 447/834/447 444/820/444 31/832/31
f 444/820/444 200/819/200 31/832/31
vt 0.813233 0.684462
f 381/669/381 453/835/453 32/30/32
f 32/30/32 31/29/31 381/669/381
vt 0.922273 0.919057
vt 0.917950 0.915966
f 381/747/381 396/836/396 395/837/395
vt 0.930166 0.920754
f 381/747/381 416/838/416 396/836/396
vt 0.913638 0.915522
f 395/837/395 453/839/453 381/747/381
vt 0.988560 0.918730
vt 0.990192 0.913453
f 416/745/416 454/840/454 396/841/396
vt 0.488742 0.648122
vt 0.490755 0.651415
f 395/842/395 414/732/414 453/843/453
f 414/732/414 448/814/448 453/843/453
f 448/814/448 447/813/447 453/843/453
vt 0.481248 0.648181
f 395/842/395 415/844/415 414/732/414
f 448/814/448 414/732/414 203/729/203
f 203/729/203 445/810/445 448/814/448
vt 0.486371 0.666820
f 203/729/203 204/845/204 445/810/445
vt 0.910501 0.843890
vt 0.910274 0.854571
f 386/674/386 222/846/222 455/847/455
vt 0.922352 0.843790
f 386/674/386 433/848/433 222/846/222
f 455/847/455 387/675/387 386/674/386
f 222/846/222 217/299/217 455/847/455
vt 0.899046 0.843796
f 222/846/222 223/849/223 217/299/217
f 217/299/217 220/302/220 455/847/455
f 386/828/386 431/792/431 433/794/433
vt 0.883650 0.851475
f 208/850/208 218/300/218 223/849/223
vt 0.899007 0.836267
f 223/849/223 209/851/209 208/850/208
f 218/300/218 217/299/217 223/849/223
vt 0.910536 0.838943
f 223/849/223 34/852/34 209/851/209
vt 0.910653 0.836037
f 34/852/34 33/853/33 209/851/209
vt 0.922203 0.838770
vt 0.918064 0.836476
f 433/848/433 434/854/434 221/855/221
f 221/855/221 222/846/222 433/848/433
vt 0.925596 0.832915
f 452/856/452 221/855/221 434/854/434
vt 0.996694 0.846508
vt 0.993945 0.854101
vt 0.998990 0.854736
f 452/857/452 225/858/225 221/859/221
f 434/795/434 432/793/432 452/831/452
vt 0.982029 0.842585
vt 0.984806 0.847051
f 452/857/452 418/860/418 456/861/456
f 452/831/452 406/713/406 418/751/418
f 452/831/452 404/708/404 406/713/406
vt 0.871826 0.675049
vt 0.877710 0.675049
vt 0.876249 0.672763
f 447/862/447 30/863/30 32/864/32
vt 0.872550 0.670298
f 32/864/32 453/865/453 447/862/447
vt 0.476163 0.666234
vt 0.473389 0.671143
f 203/729/203 412/866/412 202/867/202
f 203/729/203 413/731/413 412/866/412
vt 0.465576 0.615336
vt 0.468694 0.618108
vt 0.465576 0.628174
f 388/868/388 413/869/413 239/870/239
vt 0.475776 0.667818
f 388/871/388 412/866/412 413/731/413
vt 0.595243 0.688477
f 382/872/382 411/726/411 398/690/398
vt 0.608279 0.896659
f 382/670/382 384/672/384 411/873/411
vt 0.598389 0.893245
f 207/874/207 384/672/384 383/671/383
vt 0.630287 0.889650
f 383/671/383 205/875/205 207/874/207
f 383/671/383 392/682/392 205/875/205
f 383/671/383 393/683/393 392/682/392
f 207/874/207 411/873/411 384/672/384
vt 0.612143 0.896704
f 383/671/383 457/876/457 393/683/393
vt 0.630665 0.890677
f 392/682/392 211/877/211 205/875/205
vt 0.595188 0.692781
vt 0.598840 0.693063
vt 0.598976 0.693001
f 457/878/457 458/879/458 393/880/393
vt 0.883545 0.854281
vt 0.890927 0.858643
f 208/850/208 210/881/210 459/882/459
f 459/882/459 218/300/218 208/850/208
vt 0.634196 0.891315
vt 0.634793 0.894500
vt 0.642584 0.892854
f 210/883/210 460/884/460 459/885/459
f 459/882/459 216/298/216 218/300/218
vt 0.660667 0.888784
vt 0.657130 0.888161
vt 0.657744 0.891273
f 455/886/455 219/887/219 461/888/461
vt 0.665692 0.894579
f 461/888/461 462/889/462 455/886/455
vt 0.656749 0.887108
f 455/886/455 220/890/220 219/887/219
vt 0.988737 0.854259
f 452/857/452 456/861/456 224/891/224
f 224/891/224 225/858/225 452/857/452
vt 0.981201 0.854736
f 456/861/456 54/892/54 224/891/224
vt 0.970230 0.714111
vt 0.965034 0.711173
vt 0.961670 0.714111
f 456/893/456 284/894/284 54/895/54
vt 0.590786 0.706299
f 262/740/262 251/896/251 397/689/397
f 397/689/397 389/677/389 262/740/262
vt 0.965369 0.796143
vt 0.958114 0.792790
vt 0.953857 0.796143
f 251/897/251 45/898/45 397/899/397
f 397/689/397 391/688/391 389/677/389
vt 0.600387 0.690545
f 457/878/457 383/900/383 382/872/382
f 382/872/382 398/690/398 457/878/457
f 49/47/49 392/682/392 255/684/255
f 49/47/49 211/877/211 392/682/392
vt 0.628387 0.901726
f 255/684/255 256/901/256 49/47/49
f 49/47/49 48/46/48 460/884/460
f 460/884/460 211/877/211 49/47/49
f 460/884/460 210/883/210 211/877/211
vt 0.645796 0.889208
f 216/902/216 461/888/461 219/887/219
vt 0.646878 0.896011
f 216/902/216 463/903/463 461/888/461
f 216/902/216 459/885/459 463/903/463
vt 0.672640 0.890766
vt 0.677039 0.893477
f 385/904/385 462/889/462 464/905/464
vt 0.668424 0.888433
f 385/904/385 387/906/387 462/889/462
f 387/906/387 455/886/455 462/889/462
vt 0.676584 0.889718
f 464/905/464 451/907/451 385/904/385
vt 0.538846 0.930440
vt 0.558740 0.936768
vt 0.569195 0.927640
f 407/908/407 443/909/443 408/910/408
vt 0.539249 0.934915
f 407/908/407 442/911/442 443/909/443
vt 0.565848 0.932070
f 443/909/443 296/912/296 408/910/408
vt 0.992841 0.733643
f 443/913/443 297/473/297 296/471/296
vt 0.838394 0.675049
vt 0.840703 0.670981
vt 0.836670 0.674758
f 415/914/415 394/915/394 465/916/465
vt 0.845965 0.675049
f 415/914/415 395/917/395 394/915/394
vt 0.682028 0.909424
vt 0.677942 0.905280
f 450/918/450 464/905/464 466/919/466
vt 0.680112 0.887649
f 450/918/450 449/920/449 464/905/464
vt 0.853145 0.771486
f 449/826/449 451/829/451 464/921/464
vt 0.589990 0.699072
vt 0.597352 0.699457
f 45/922/45 47/923/47 458/879/458
f 398/690/398 397/689/397 45/922/45
vt 0.601010 0.699617
f 47/923/47 254/924/254 458/879/458
vt 0.605835 0.701277
f 393/880/393 254/924/254 255/925/255
f 393/880/393 458/879/458 254/924/254
vt 0.643114 0.901884
f 460/884/460 48/46/48 258/926/258
f 258/926/258 459/885/459 460/884/460
f 258/926/258 463/903/463 459/885/459
f 462/889/462 466/919/466 464/905/464
f 462/889/462 277/691/277 466/919/466
f 462/889/462 399/692/399 277/691/277
f 462/889/462 461/888/461 399/692/399
vt 0.674356 0.907201
f 277/691/277 276/927/276 466/919/466
f 461/888/461 463/903/463 399/692/399
vt 0.853380 0.614937
vt 0.851014 0.611429
f 454/928/454 465/929/465 394/685/394
f 394/685/394 396/687/396 454/928/454
vt 0.986721 0.925049
f 237/930/237 416/745/416 246/744/246
f 237/930/237 454/840/454 416/745/416
vt 0.990190 0.922894
f 237/930/237 465/931/465 454/840/454
f 237/930/237 236/738/236 465/931/465
f 236/738/236 415/737/415 465/931/465
vt 0.651278 0.906520
f 463/903/463 273/932/273 399/692/399
f 463/903/463 258/926/258 273/932/273
f 273/932/273 400/693/400 399/692/399
vt 0.651165 0.909346
f 273/932/273 272/933/272 400/693/400
vt 0.644020 0.909424
vt 0.644348 0.909392
f 258/926/258 257/934/257 268/935/268
f 268/935/268 273/932/273 258/926/258
vt 0.869775 0.758663
f 418/751/418 419/753/419 467/936/467
vt 0.763863 0.693003
vt 0.758204 0.688030
vt 0.750732 0.694580
f 467/937/467 284/938/284 418/939/418
vt 0.981418 0.851537
f 284/940/284 456/861/456 418/860/418
vt 0.764360 0.689172
f 467/937/467 275/941/275 284/938/284
vt 0.746986 0.647705
vt 0.735542 0.647705
f 400/942/400 274/696/274 277/943/277
vt 0.747044 0.636154
f 400/942/400 271/944/271 274/696/274
f 271/944/271 286/694/286 274/696/274
vt 0.750834 0.643888
f 400/942/400 272/945/272 271/944/271
vt 0.775434 0.690938
f 467/937/467 276/946/276 275/941/275
vt 0.774335 0.694580
f 467/937/467 466/947/466 276/946/276
f 419/753/419 422/763/422 450/827/450
f 419/753/419 417/750/417 422/763/422
f 422/763/422 440/802/440 450/827/450
f 450/827/450 467/936/467 419/753/419
vt 0.858385 0.760702
f 450/827/450 466/948/466 467/936/467
f 443/913/443 291/472/291 297/473/297
vt 0.804989 0.750729
f 443/806/443 441/803/441 291/949/291
vt 0.808316 0.746729
f 294/950/294 291/949/291 441/803/441
f 441/803/441 310/805/310 294/950/294
vt 0.857252 0.679501
vt 0.860658 0.682861
vt 0.858935 0.677086
f 293/951/293 408/952/408 296/953/296
vt 0.856201 0.682861
f 293/951/293 468/954/468 408/952/408
vt 0.569346 0.931197
vt 0.577582 0.934423
vt 0.577214 0.931002
f 468/955/468 292/956/292 469/957/469
vt 0.967400 0.761777
vt 0.965576 0.764893
vt 0.977204 0.764893
f 468/958/468 293/959/293 292/960/292
vt 0.902727 0.719265
f 401/700/401 290/464/290 308/961/308
f 308/961/308 358/752/358 401/700/401
vt 0.573003 0.927319
f 468/955/468 410/962/410 408/910/408
f 468/955/468 469/957/469 410/962/410
vt 0.592750 0.933469
f 325/963/325 469/957/469 292/956/292
f 325/963/325 410/962/410 469/957/469
vt 0.593095 0.936768
f 292/956/292 329/964/329 325/963/325
vt 0.993298 0.956299
f 421/761/421 335/965/335 344/760/344
vt 0.848389 0.651788
vt 0.853406 0.651699
vt 0.850626 0.639962
f 421/966/421 229/967/229 335/968/335
vt 0.848729 0.655518
f 421/966/421 72/969/72 229/967/229
vt 0.853285 0.655518
f 72/969/72 71/970/71 229/967/229
vt 0.977770 0.955972
vt 0.977785 0.956299
f 421/761/421 299/971/299 72/972/72
vt 0.977295 0.952664
f 420/759/420 300/973/300 299/971/299
f 299/971/299 421/761/421 420/759/420
vt 0.979629 0.947167
f 420/759/420 306/974/306 300/973/300
vt 0.410620 0.872035
f 329/757/329 311/499/311 327/975/327
f 329/757/329 312/500/312 311/499/311
vt 0.845468 0.643799
vt 0.842903 0.638831
vt 0.839515 0.640500
f 75/976/75 74/977/74 338/978/338
vt 0.836670 0.643799
f 338/978/338 402/979/402 75/976/75
f 365/583/365 327/975/327 311/499/311
f 311/499/311 359/577/359 365/583/365
vt 0.412024 0.868565
f 365/583/365 326/980/326 327/975/327
vt 0.894883 0.715821
f 358/752/358 355/981/355 417/750/417
f 355/981/355 356/754/356 417/750/417
f 45/922/45 458/879/458 457/878/457
f 45/922/45 457/878/457 398/690/398
l 97 98
l 226 245
# 869 faces, 981 coords texture

# End of File
