####
#
# OBJ File Generated by Meshlab
#
####
# Object table_1.obj
#
# Vertices: 422
# Faces: 807
#
####
mtllib ./table_1.obj.mtl

vn -0.981793 -0.151742 0.114270
v 7.233261 -0.736258 0.778200
vn -0.858123 0.392343 -0.331198
v 7.284729 -0.853828 0.764755
vn -0.344923 0.061666 0.936603
v 7.303801 -0.853816 0.785717
vn -0.187620 -0.585066 0.788985
v 7.280327 -1.183018 0.784381
vn -0.869440 -0.217699 0.443488
v 7.247871 -1.159495 0.788533
vn -0.702649 -0.651179 -0.286793
v 7.286510 -1.206514 0.741300
vn -0.527797 -0.023101 -0.849056
v 7.303829 -0.924363 0.729539
vn -0.229962 -0.136548 -0.963573
v 7.280315 -0.924363 0.755000
vn -0.431249 0.294882 -0.852683
v 7.303825 -0.900848 0.754578
vn -0.038813 -0.017353 0.999096
v 7.327360 -0.924399 0.791233
vn -0.122876 -0.002248 0.992420
v 7.397871 -0.830289 0.806183
vn 0.072494 0.054103 0.995900
v 7.538956 -0.736259 0.796131
vn -0.078688 -0.002658 0.996896
v 7.343510 -0.689233 0.788536
vn 0.107963 0.138297 0.984489
v 7.491909 -0.762715 0.811053
vn -0.197089 -0.564768 0.801370
v 7.374317 -1.042018 0.073987
vn -0.059820 -0.434933 0.898474
v 7.397869 -1.018409 0.096418
vn -0.427536 -0.135248 0.893824
v 7.350784 -1.018497 0.073883
vn 0.338647 -0.630624 0.698307
v 7.538950 -0.900842 0.121477
vn 0.370280 -0.617875 0.693630
v 7.444872 -1.018457 0.073107
vn 0.243211 -0.777896 0.579418
v 7.586039 -0.900755 0.070430
vn 0.916430 0.333838 0.220698
v 7.535355 -0.665703 0.082956
vn 0.356200 0.597623 0.718310
v 7.585968 -0.712732 0.065975
vn 0.737753 0.503788 0.449352
v 7.538923 -0.642202 0.066540
vn -0.039245 0.976891 -0.210105
v 7.585974 -0.728172 0.294558
vn -0.683610 0.729716 -0.013820
v 7.538954 -0.730352 0.294561
vn -0.298819 0.954303 -0.003608
v 7.562456 -0.718819 0.318068
vn 0.448951 0.295445 -0.843300
v 7.585970 -0.454065 0.755422
vn 0.086707 0.255215 -0.962989
v 7.585943 -0.477686 0.729429
vn 0.367959 0.161774 -0.915661
v 7.585964 -0.430584 0.729420
vn 0.241709 0.648746 -0.721600
v 7.609491 -0.395296 0.741326
vn -0.094227 0.988676 0.116797
v 7.585974 -0.397863 0.764793
vn -0.409397 0.642137 0.648116
v 7.750500 -0.595115 0.065816
vn -0.303246 0.750647 0.587002
v 7.609480 -0.712752 0.065860
vn -0.036262 0.976052 0.214496
v 7.609465 -0.732863 0.106517
vn 0.112360 -0.986496 0.119170
v 7.656513 -0.886691 0.153484
vn -0.307608 -0.893740 0.326507
v 7.656521 -0.886424 0.129955
vn 0.196600 -0.770520 0.606339
v 7.680056 -0.881211 0.153412
vn 0.174963 -0.978035 -0.113293
v 7.656513 -0.862776 0.224021
vn 0.248281 -0.926745 -0.281959
v 7.656513 -0.886093 0.247534
vn 0.181608 -0.977087 -0.110995
v 7.633001 -0.888680 0.224021
vn -0.420441 -0.586843 0.691986
v 7.680046 -0.900815 0.136172
vn -0.127874 -0.133356 0.982784
v 7.703573 -0.900794 0.151443
vn 0.392496 -0.251260 0.884768
v 7.703541 -0.877337 0.144118
vn 0.579208 -0.815090 0.012110
v 7.690243 -0.877328 0.459146
vn 0.945866 -0.319375 -0.057775
v 7.696285 -0.853870 0.412116
vn 0.981197 -0.069688 0.179991
v 7.700418 -0.853828 0.482659
vn 0.130172 -0.229176 0.964642
v 7.844612 -1.041922 0.094396
vn 0.043168 -0.449711 0.892130
v 7.844656 -1.088881 0.070723
vn 0.463083 -0.045739 0.885134
v 7.891649 -1.041906 0.069788
vn -0.453711 0.751620 -0.478762
v 7.868124 -0.419295 0.741295
vn -0.043288 0.987255 0.153144
v 7.844612 -0.409750 0.764797
vn -0.052584 0.736879 0.673976
v 7.891638 -0.417050 0.764808
vn -0.272298 0.915121 -0.297335
v 7.891638 -0.395716 0.741242
vn 0.525767 -0.738440 -0.422227
v 7.891949 -1.251356 0.739217
vn 0.503909 -0.852459 0.139249
v 7.938660 -1.248745 0.764789
vn 0.034846 -0.833610 0.551254
v 7.891638 -1.248858 0.764799
vn 0.351681 -0.142387 -0.925228
v 7.891783 -0.736283 0.723717
vn 0.104464 -0.026104 -0.994186
v 7.891224 -0.712688 0.708800
vn 0.272579 0.034447 -0.961517
v 7.915169 -0.712752 0.736607
vn -0.071989 0.105976 -0.991759
v 7.915146 -0.501136 0.706052
vn -0.209008 0.192664 -0.958747
v 7.891638 -0.501140 0.729708
vn -0.032241 0.288984 -0.956791
v 7.915150 -0.477627 0.730276
vn 0.281241 0.352888 -0.892398
v 7.962116 -0.853828 0.706346
vn -0.489849 0.230583 -0.840761
v 7.938648 -0.853825 0.729717
vn 0.030607 0.041087 -0.998687
v 7.962227 -0.830310 0.730503
vn 0.020309 0.397818 -0.917240
v 7.962175 -0.783287 0.706207
vn -0.288175 0.046230 -0.956461
v 7.938660 -0.783287 0.729898
vn 0.243350 0.071986 -0.967264
v 7.985685 -0.783287 0.732584
vn 0.329756 -0.292002 0.897773
v 7.962145 -0.924338 0.785590
vn 0.408809 0.030883 0.912097
v 7.985575 -1.018396 0.789774
vn 0.514496 -0.083696 0.853398
v 7.985765 -0.900854 0.782341
vn 0.112517 -0.259712 -0.959109
v 7.985672 -0.595189 0.731839
vn -0.148168 -0.405439 -0.902034
v 7.985685 -0.571674 0.706950
vn 0.700726 -0.108714 -0.705099
v 8.009195 -0.571675 0.734281
vn 0.855828 -0.232260 0.462184
v 8.037167 -0.524619 0.765731
vn 0.687427 -0.097652 -0.719658
v 8.009195 -0.524651 0.734003
vn 0.851288 -0.166349 -0.497632
v 8.044073 -0.501139 0.741293
vn 0.179160 0.642441 0.745098
v 7.374357 -0.501133 0.067958
vn 0.084393 0.572506 0.815545
v 7.844616 -0.524655 0.065647
vn -0.449134 0.009649 0.893412
v 7.492926 -0.801780 0.068009
vn 0.424062 0.653163 0.627336
v 7.421371 -0.524645 0.067635
vn -0.556561 -0.471048 0.684363
v 7.444832 -0.712783 0.066623
vn -0.429071 -0.487506 0.760418
v 7.491930 -0.736265 0.066278
vn 0.702296 -0.062356 0.709149
v 7.891397 -0.596268 0.064672
vn -0.430818 0.132139 0.892712
v 7.350847 -0.971382 0.073244
vn -0.290719 -0.488042 0.822981
v 7.774025 -1.042007 0.070782
vn 0.574219 0.300248 0.761659
v 7.868122 -0.994900 0.069398
vn 0.587782 0.067531 0.806196
v 7.703539 -0.806805 0.068370
vn -0.272849 -0.354555 0.894340
v 7.701334 -0.971619 0.070529
vn -0.318122 0.287019 0.903559
v 7.491932 -0.830298 0.070351
vn -0.144849 -0.544915 0.825885
v 7.609470 -0.900883 0.070313
vn -0.037182 0.946819 -0.319612
v 7.350855 -1.244776 0.717750
vn 0.026316 0.998606 -0.045764
v 7.727116 -1.260096 0.647352
vn -0.807328 0.045912 0.588314
v 7.209776 -0.947872 0.791065
vn -0.694879 -0.367892 -0.617899
v 7.223520 -0.971387 0.764790
vn -0.428322 -0.117974 0.895892
v 7.233299 -0.971404 0.795787
vn -0.740671 -0.040647 -0.670638
v 7.209774 -0.947872 0.753807
vn -0.338686 0.329211 -0.881426
v 7.303823 -0.853823 0.754542
vn -0.174434 -0.117426 -0.977642
v 7.280315 -0.947875 0.764790
vn -0.468747 0.174981 -0.865828
v 7.280315 -0.994899 0.753981
vn -0.291845 -0.031916 -0.955933
v 7.256805 -1.018411 0.763354
vn -0.823513 -0.362068 -0.436730
v 7.218866 -1.041924 0.764790
vn -0.318245 -0.095142 -0.943222
v 7.256821 -1.035865 0.764807
vn -0.578910 -0.594234 -0.558345
v 7.256813 -1.065436 0.769504
vn -0.580457 -0.462235 0.670379
v 7.248709 -1.065464 0.788946
vn -0.365754 -0.052282 0.929242
v 7.233292 -1.018415 0.796195
vn -0.528753 -0.051017 -0.847241
v 7.303814 -0.759773 0.754711
vn -0.575875 -0.038588 -0.816627
v 7.327322 -0.830313 0.759349
vn -0.992014 0.126114 -0.001740
v 7.233259 -0.712748 0.777223
vn -0.600017 0.721351 -0.345879
v 7.280308 -0.597525 0.764754
vn -0.301280 0.101399 0.948129
v 7.256802 -0.689240 0.783455
vn -0.560740 0.348953 0.750868
v 7.280325 -0.618667 0.786215
vn -0.830809 0.086159 -0.549848
v 7.286556 -0.595188 0.764799
vn -0.288812 0.030242 0.956908
v 7.289448 -0.618678 0.789039
vn -0.648700 -0.761036 0.003608
v 7.256803 -0.493543 0.764808
vn -0.242805 -0.177584 -0.953682
v 7.304197 -0.477620 0.731736
vn -0.760139 0.174123 -0.625995
v 7.271967 -0.501140 0.764807
vn -0.850041 -0.351343 -0.392413
v 7.222132 -0.454109 0.741279
vn -0.431548 -0.046017 -0.900916
v 7.303814 -0.524650 0.758506
vn -0.399011 -0.059990 -0.914982
v 7.327568 -0.524643 0.730756
vn 0.013178 0.365926 -0.930551
v 7.374365 -0.430605 0.731887
vn 0.069868 0.197703 -0.977769
v 7.491938 -0.454133 0.729647
vn -0.083355 0.075147 -0.993683
v 7.421328 -0.548204 0.719429
vn 0.047805 0.405305 -0.912931
v 7.468414 -0.430605 0.729851
vn -0.021828 0.304572 -0.952239
v 7.327339 -0.430603 0.732078
vn -0.515639 0.617329 -0.594157
v 7.233290 -0.421218 0.741288
vn -0.778580 0.334207 -0.531148
v 7.223890 -0.430600 0.741283
vn -0.636490 0.171958 0.751872
v 7.233286 -0.430574 0.771962
vn -0.575741 0.022090 0.817334
v 7.256796 -0.454059 0.774307
vn -0.190201 0.964609 0.182627
v 7.280315 -0.383576 0.764833
vn 0.023360 -0.112447 0.993383
v 7.444895 -1.112468 0.787243
vn 0.011395 -0.045037 0.998920
v 7.468416 -0.994919 0.783725
vn 0.013471 -0.443173 0.896335
v 7.374376 -1.182997 0.781901
vn -0.061827 -0.133912 0.989063
v 7.444868 -0.877296 0.805967
vn -0.317146 0.012727 -0.948291
v 7.303841 -1.088948 0.730350
vn -0.314508 -0.425163 -0.848717
v 7.303854 -1.206509 0.727282
vn 0.144563 -0.007219 0.989469
v 7.491903 -0.806779 0.809307
vn 0.124653 -0.205421 0.970703
v 7.491926 -0.877336 0.814635
vn -0.714393 -0.294590 -0.634711
v 7.280319 -0.565279 0.764818
vn -0.380287 0.040440 0.923984
v 7.259085 -0.524641 0.788668
vn -0.655922 -0.684897 -0.317304
v 7.256802 -0.548164 0.756123
vn -0.618775 -0.006166 0.785544
v 7.256802 -0.524651 0.788320
vn -0.410463 -0.111569 0.905026
v 7.266331 -0.477612 0.788496
vn -0.026526 0.985181 0.169457
v 7.421381 -0.401636 0.765056
vn 0.036404 0.978292 0.204008
v 7.327337 -0.385215 0.764876
vn -0.013698 0.558080 0.829674
v 7.515444 -0.407097 0.781758
vn 0.144368 0.951615 0.271269
v 7.374361 -0.383567 0.764916
vn -0.844641 -0.174444 0.506114
v 7.256796 -0.477570 0.780488
vn -0.155073 0.022646 -0.987643
v 7.303831 -1.018411 0.729506
vn -0.343629 0.082594 -0.935466
v 7.303827 -0.994899 0.729546
vn 0.027270 0.021421 0.999399
v 7.727072 -0.618684 0.790421
vn -0.054852 -0.015119 0.998380
v 7.303831 -0.636535 0.789106
vn -0.041664 0.007720 0.999102
v 7.750544 -0.729204 0.788875
vn -0.012435 0.031545 0.999425
v 7.774029 -0.665728 0.787761
vn 0.033205 0.428054 0.903143
v 7.821117 -0.665718 0.786749
vn -0.278152 0.047346 0.959370
v 7.283028 -0.501132 0.788549
vn 0.012543 0.412500 0.910871
v 7.750582 -0.430566 0.783018
vn -0.379831 0.030955 -0.924538
v 7.256802 -0.524651 0.729540
vn -0.777437 0.628947 -0.004175
v 7.256803 -0.507115 0.764808
vn 0.166891 -0.983924 0.063573
v 7.327339 -1.218624 0.741293
vn 0.242707 -0.314041 -0.917862
v 7.327354 -1.206509 0.727981
vn 0.022966 -0.898224 0.438937
v 7.350853 -1.193627 0.764810
vn -0.028324 -0.805288 0.592207
v 7.397877 -1.202107 0.764807
vn 0.217317 -0.726973 0.651371
v 7.421389 -1.200770 0.764846
vn -0.619627 -0.121712 -0.775402
v 7.303827 -0.947874 0.754186
vn -0.033423 0.944497 -0.326816
v 7.421383 -1.249930 0.694278
vn -0.588959 -0.201506 -0.782638
v 7.327589 -0.806794 0.731015
vn -0.445710 -0.015694 -0.895040
v 7.327600 -0.759768 0.730993
vn -0.016096 -0.324260 0.945831
v 7.515434 -0.895021 0.129997
vn -0.528730 0.349152 0.773652
v 7.444895 -0.905281 0.106479
vn -0.778033 0.353145 0.519571
v 7.491934 -0.853826 0.133155
vn -0.185608 -0.390094 0.901874
v 7.515436 -0.877338 0.132586
vn -0.020464 -0.547774 0.836376
v 7.538942 -0.877339 0.134939
vn -0.767695 0.375447 0.519311
v 7.515436 -0.830299 0.082955
vn -0.561555 0.008523 0.827395
v 7.515480 -0.712723 0.139371
vn -0.273109 0.061202 0.960034
v 7.397871 -0.571678 0.106479
vn -0.616705 -0.736444 0.278074
v 7.497812 -0.736262 0.106469
vn -0.260302 0.422173 0.868339
v 7.397879 -0.548164 0.102853
vn -0.229153 -0.265745 0.936413
v 7.585976 -1.208428 0.764801
vn -0.049368 -0.077574 0.995764
v 7.609486 -1.121923 0.788983
vn 0.109159 -0.475842 0.872731
v 7.444904 -1.183017 0.764889
vn 0.255902 0.469230 0.845185
v 7.421413 -0.560409 0.106468
vn -0.013175 0.670864 -0.741464
v 7.515440 -0.407088 0.755090
vn -0.052295 0.403986 -0.913269
v 7.562462 -0.430601 0.729524
vn 0.476801 0.611029 0.631905
v 7.538931 -0.665746 0.129966
vn -0.382243 0.413276 0.826495
v 7.538954 -0.689237 0.143358
vn 0.082497 -0.120548 0.989274
v 7.515440 -0.926411 0.788241
vn 0.108863 0.842214 0.528039
v 7.668278 -0.414215 0.773905
vn 0.058184 0.943960 -0.324892
v 7.703539 -0.416260 0.764822
vn 0.068971 0.727523 0.682607
v 7.633013 -0.418831 0.782388
vn 0.635374 0.303764 0.709949
v 8.032722 -0.430580 0.766833
vn 0.100449 0.664385 0.740609
v 7.962177 -0.421403 0.764812
vn 0.642543 0.710644 0.286573
v 7.633001 -0.398218 0.764811
vn 0.642514 0.710234 0.287652
v 8.032713 -0.428175 0.764818
vn 0.160693 0.906803 -0.389725
v 7.915150 -0.395792 0.741243
vn 0.050188 -0.186947 0.981087
v 7.774069 -1.207839 0.789717
vn -0.120952 -0.081213 0.989331
v 7.774063 -0.900846 0.787315
vn 0.301052 -0.098509 0.948506
v 7.962193 -1.196411 0.790269
vn 0.196354 -0.030497 0.980059
v 7.538979 -0.830338 0.792585
vn 0.019857 -0.118541 0.992751
v 7.938625 -0.947839 0.784021
vn 0.125298 -0.274230 0.953467
v 7.938656 -1.206493 0.791881
vn -0.135402 -0.072596 0.988128
v 7.656486 -1.229998 0.785251
vn 0.365904 -0.659552 0.656586
v 7.962151 -1.206491 0.788144
vn -0.484044 0.826856 0.286373
v 7.515440 -0.832936 0.129972
vn -0.614048 0.047714 0.787825
v 7.506762 -0.853821 0.153485
vn -0.641712 -0.685681 0.343579
v 7.507999 -0.736262 0.082946
vn -0.103660 0.651812 -0.751263
v 7.515398 -0.442248 0.740861
vn -0.351315 -0.105763 0.930265
v 7.515440 -0.853825 0.157629
vn -0.235904 -0.434912 0.869023
v 7.797575 -0.900835 0.797434
vn -0.984869 0.010059 0.173009
v 7.530790 -0.806803 0.129973
vn -0.936066 0.187214 0.297878
v 7.529165 -0.759773 0.153486
vn -0.711272 0.632532 0.306587
v 7.521667 -0.830310 0.129970
vn -0.980390 0.056554 -0.188776
v 7.520756 -0.783284 0.153483
vn -0.906579 -0.273212 -0.321667
v 7.527204 -0.830305 0.435633
vn -0.838239 0.487809 0.243718
v 7.526846 -0.806799 0.459144
vn -0.931216 0.144049 -0.334792
v 7.540607 -0.806787 0.435632
vn -0.897598 -0.372240 -0.236127
v 7.556902 -0.830321 0.412121
vn -0.965480 -0.257314 0.040467
v 7.562458 -0.853830 0.485176
vn -0.596140 -0.784748 0.169669
v 7.542950 -0.806801 0.482658
vn -0.922130 -0.377746 -0.083577
v 7.562460 -0.853830 0.434132
vn -0.717516 -0.696130 0.023941
v 7.538950 -0.806800 0.480005
vn -0.995507 -0.094647 0.002816
v 7.527506 -0.783290 0.247534
vn -0.807316 -0.590012 -0.011256
v 7.574549 -0.877337 0.271045
vn -0.411710 -0.898740 0.150866
v 7.585985 -0.888789 0.341581
vn -0.984197 0.033612 0.173855
v 7.528046 -0.783266 0.388608
vn -0.340405 -0.938621 -0.055809
v 7.585970 -0.888910 0.294558
vn -0.968671 -0.135636 0.208036
v 7.538883 -0.783308 0.412126
vn -0.280920 -0.959729 -0.002016
v 7.585945 -0.888760 0.271047
vn -0.901035 0.430411 0.053686
v 7.537022 -0.736261 0.459145
vn -0.726940 0.566984 -0.387410
v 7.538954 -0.759776 0.412121
vn -0.981397 -0.189128 0.033017
v 7.542393 -0.806802 0.529685
vn -0.803264 0.517021 0.295730
v 7.538954 -0.736263 0.576708
vn -0.668574 0.469723 -0.576514
v 7.538950 -0.729414 0.459145
vn -0.885187 0.198644 0.420696
v 7.550846 -0.759773 0.600221
vn -0.891320 -0.442394 0.099183
v 7.553377 -0.853822 0.623729
vn -0.933125 0.194605 0.302337
v 7.554186 -0.783287 0.623731
vn -0.996885 0.023060 0.075425
v 7.526138 -0.783288 0.200509
vn -0.447001 0.889591 0.093907
v 7.562443 -0.730185 0.200511
vn -0.848888 0.500122 -0.171078
v 7.538961 -0.749560 0.224021
vn -0.189100 0.961908 -0.197418
v 7.585968 -0.730620 0.435635
vn 0.155959 0.771742 0.616516
v 7.562464 -0.712747 0.162329
vn -0.234783 0.917284 -0.321663
v 7.562464 -0.718605 0.459137
vn -0.343024 0.886218 0.311372
v 7.562456 -0.719159 0.176368
vn -0.627170 -0.771444 0.107384
v 7.562464 -0.862921 0.623732
vn -0.732402 -0.680013 -0.034186
v 7.562458 -0.863881 0.506170
vn -0.297649 0.873963 0.384180
v 7.585976 -0.744228 0.623732
vn -0.698656 0.572241 0.429442
v 7.564362 -0.759771 0.623733
vn 0.134797 0.990861 -0.005004
v 7.656517 -0.725572 0.294553
vn -0.201285 0.952539 0.228372
v 7.656544 -0.723341 0.153437
vn -0.160942 0.962798 0.217066
v 7.562464 -0.729824 0.576705
vn 0.194690 0.916747 0.348812
v 7.656513 -0.736215 0.614543
vn 0.281429 0.924536 0.256963
v 7.656513 -0.740172 0.623733
vn 0.204552 -0.238379 0.949386
v 7.754732 -1.230019 0.788314
vn -0.424349 -0.136362 0.895172
v 7.609493 -1.230034 0.772658
vn 0.215850 0.975674 0.038320
v 7.656511 -0.720762 0.506163
vn 0.328234 0.934708 0.136323
v 7.680023 -0.726158 0.576703
vn -0.595298 -0.521116 0.611603
v 7.604887 -1.230032 0.764800
vn 0.353625 0.065317 -0.933104
v 7.609493 -0.430633 0.756045
vn -0.285173 0.637619 0.715625
v 7.696623 -0.689226 0.129994
vn 0.205332 0.418795 0.884562
v 7.844576 -0.582854 0.106507
vn -0.020566 0.257565 -0.966042
v 7.703550 -0.477717 0.729759
vn -0.013288 0.349254 -0.936934
v 7.797590 -0.454126 0.731494
vn 0.048721 -0.285357 0.957182
v 7.774090 -0.971367 0.124230
vn 0.780124 -0.597076 0.186836
v 7.680027 -0.853828 0.529683
vn 0.695128 -0.693489 0.189392
v 7.667751 -0.877344 0.623732
vn 0.112229 -0.993544 -0.016615
v 7.633009 -0.888282 0.576707
vn 0.703106 -0.704566 0.096065
v 7.656515 -0.877339 0.529683
vn 0.026532 -0.994827 0.098056
v 7.633007 -0.888028 0.553195
vn -0.219842 -0.974075 0.053357
v 7.632999 -0.912168 0.529683
vn 0.164297 -0.976287 0.140963
v 7.656513 -0.886661 0.271046
vn 0.027479 -0.972642 0.230680
v 7.633003 -0.888483 0.247534
vn 0.595766 -0.794889 0.114950
v 7.680025 -0.880983 0.247534
vn -0.083932 -0.996467 -0.003099
v 7.633001 -0.865519 0.271046
vn 0.154367 -0.970246 -0.186529
v 7.632999 -0.888840 0.294561
vn 0.897534 -0.440944 -0.000871
v 7.691528 -0.853832 0.318067
vn 0.977572 -0.198016 0.071714
v 7.692587 -0.853815 0.247535
vn 0.006224 -0.999547 -0.029434
v 7.633024 -0.888297 0.459140
vn 0.246570 -0.968806 0.024872
v 7.632990 -0.888822 0.318072
vn 0.434492 -0.890829 0.132821
v 7.656540 -0.879341 0.482655
vn 0.973900 -0.218614 0.061053
v 7.682255 -0.830290 0.553196
vn 0.965158 -0.259004 0.037250
v 7.680017 -0.830311 0.623732
vn 0.885053 -0.362400 0.292142
v 7.695658 -0.783295 0.600219
vn 0.987550 -0.067285 0.142187
v 7.682365 -0.806801 0.623733
vn 0.587674 -0.808966 -0.014598
v 7.656519 -0.877346 0.644078
vn 0.978193 0.203231 -0.042846
v 7.703510 -0.759776 0.529683
vn 0.641147 0.739213 0.206141
v 7.691238 -0.736258 0.506170
vn 0.986984 0.008446 -0.160597
v 7.715620 -0.759739 0.576713
vn 0.833810 0.366395 0.412936
v 7.681841 -0.759771 0.623734
vn 0.903628 0.092733 0.418160
v 7.716623 -0.759739 0.600224
vn 0.739017 0.643653 -0.198907
v 7.680023 -0.757228 0.623734
vn 0.891054 0.441881 0.103752
v 7.695375 -0.736269 0.176997
vn 0.208371 0.932692 0.294392
v 7.680056 -0.730559 0.176946
vn 0.772943 0.420727 0.474919
v 7.727049 -0.863441 0.129974
vn 0.947246 -0.230268 0.222940
v 7.693243 -0.853779 0.177005
vn 0.459367 -0.886676 0.052805
v 7.680027 -0.862403 0.176997
vn 0.292587 -0.937887 -0.186441
v 7.680025 -0.880154 0.200509
vn 0.568310 0.371350 0.734250
v 7.844591 -0.994917 0.088509
vn 0.921586 0.075711 0.380719
v 7.685137 -0.806789 0.082947
vn 0.416741 -0.078549 0.905625
v 7.844614 -1.018410 0.097700
vn 0.986201 0.147372 0.075430
v 7.686769 -0.806816 0.129970
vn 0.757386 0.644959 0.101954
v 7.764864 -0.900853 0.085728
vn 0.992178 -0.124546 0.008458
v 7.684496 -0.806783 0.247536
vn 0.980317 -0.197413 0.002453
v 7.695152 -0.783255 0.224024
vn 0.737074 -0.426450 0.524274
v 7.697782 -0.783320 0.082984
vn 0.986802 -0.129300 0.097490
v 7.692547 -0.759771 0.129967
vn 0.670069 -0.591806 0.448077
v 7.773006 -0.689259 0.094725
vn 0.515691 -0.136843 0.845776
v 7.848230 -0.595198 0.106465
vn 0.977735 -0.004164 0.209801
v 7.692211 -0.736259 0.153473
vn 0.380659 0.678745 0.628016
v 7.687836 -0.711152 0.154901
vn 0.715653 -0.211429 -0.665687
v 7.883587 -1.257927 0.720308
vn 0.094171 0.889820 -0.446488
v 7.727098 -1.259548 0.670804
vn 0.143125 -0.578682 0.802896
v 7.767605 -1.257236 0.764718
vn 0.107839 0.426590 0.897993
v 7.915155 -0.665720 0.782122
vn 0.933183 -0.011265 0.359226
v 8.035646 -0.548128 0.765888
vn 0.574663 0.189192 0.796222
v 7.980751 -0.712804 0.787270
vn -0.142406 0.575501 -0.805307
v 7.938663 -0.420202 0.741246
vn -0.057118 0.273109 -0.960286
v 7.844612 -0.454116 0.732216
vn 0.007465 0.172261 -0.985023
v 7.774122 -0.501079 0.729155
vn -0.596665 0.385783 -0.703678
v 7.962170 -0.407091 0.730111
vn -0.312066 -0.006179 -0.950040
v 7.962175 -0.501141 0.730504
vn 0.020798 0.130021 -0.991293
v 7.750622 -0.501044 0.728992
vn 0.391198 0.168951 -0.904665
v 7.938660 -0.501143 0.722546
vn 0.371949 -0.265797 0.889385
v 7.962084 -0.900849 0.807114
vn 0.256105 0.559362 0.788368
v 7.938665 -0.689241 0.811794
vn 0.594389 0.321632 0.737058
v 7.971611 -0.712745 0.811848
vn 0.570109 -0.814403 0.108277
v 7.962179 -1.212479 0.764838
vn 0.142957 0.004496 -0.989719
v 7.868107 -0.971384 0.729590
vn -0.497917 0.030490 -0.866689
v 7.938648 -0.877338 0.729946
vn -0.340011 0.003932 -0.940413
v 7.938520 -1.112437 0.731619
vn 0.139029 0.055039 -0.988758
v 7.891727 -1.041937 0.728936
vn 0.126183 0.103760 -0.986566
v 7.891636 -0.924362 0.738808
vn 0.118564 -0.034794 -0.992337
v 7.915159 -0.783287 0.737610
vn 0.009761 0.013497 -0.999861
v 7.915134 -0.853822 0.738571
vn 0.371949 -0.706757 -0.601788
v 7.938513 -1.218231 0.741086
vn 0.729864 -0.059702 -0.680980
v 8.010874 -1.088946 0.741101
vn 0.708645 0.003714 -0.705556
v 7.985767 -1.135976 0.733944
vn 0.154782 0.001303 -0.987948
v 7.915165 -0.642214 0.738543
vn -0.192735 0.957786 0.213307
v 7.962175 -0.395866 0.741293
vn 0.041725 -0.547274 -0.835913
v 7.962233 -1.206507 0.707726
vn -0.286536 -0.288645 -0.913554
v 7.938456 -1.206476 0.731953
vn 0.916671 -0.305150 -0.258067
v 8.011877 -1.183002 0.741340
vn 0.263340 0.934168 -0.240795
v 7.985731 -0.395660 0.717741
vn 0.091465 0.369698 -0.924639
v 7.985674 -0.407088 0.706355
vn 0.939689 -0.081284 0.332230
v 8.009209 -1.159482 0.764683
vn 0.966580 -0.179129 0.183403
v 8.013378 -1.135967 0.764669
vn 0.968568 -0.017935 0.248100
v 8.031401 -0.712751 0.764758
vn 0.571458 0.632026 -0.523430
v 8.009197 -0.430598 0.733961
vn 0.562065 0.578302 -0.591312
v 8.032713 -0.430602 0.736542
vn 0.757384 0.644961 0.101958
v 7.785820 -0.929179 0.109242
vn -0.152819 -0.068026 -0.985910
v 7.327339 -0.947874 0.729545
vn -0.453039 0.060460 -0.889438
v 7.347069 -0.853835 0.738727
vn 0.102004 -0.226181 -0.968730
v 7.397881 -1.206509 0.721292
vn -0.160037 0.055835 -0.985531
v 7.374365 -1.206509 0.705503
vn -0.234483 0.187783 -0.953811
v 7.374357 -1.182997 0.726574
vn 0.828294 -0.376218 -0.415197
v 7.441496 -1.206511 0.717740
vn 0.020372 -0.230244 -0.972920
v 7.444895 -1.185223 0.717723
vn 0.351071 -0.865375 0.357598
v 7.421389 -1.206509 0.741295
vn -0.712624 -0.490421 -0.501652
v 7.518087 -1.206522 0.714126
vn -0.680206 0.565516 -0.466381
v 7.518568 -1.230036 0.714128
vn -0.670063 -0.480192 0.566066
v 7.523752 -1.230042 0.741285
vn -0.501703 -0.844370 -0.187971
v 7.633015 -0.894074 0.506169
vn 0.325499 -0.937113 0.125977
v 7.609489 -0.879132 0.271046
vn 0.370812 -0.910030 0.185320
v 7.656513 -0.873382 0.200509
vn 0.274427 0.095537 -0.956850
v 7.868000 -1.229998 0.724261
vn 0.246681 0.318695 -0.915195
v 7.821085 -1.230031 0.709840
vn 0.175649 0.130990 -0.975699
v 7.821039 -1.204733 0.718196
vn 0.160058 0.004261 -0.987098
v 7.821213 -1.041941 0.719215
vn 0.451256 0.094638 -0.887362
v 7.872444 -0.689247 0.717376
vn 0.074483 -0.174035 -0.981919
v 7.915150 -0.524652 0.720138
vn 0.117524 0.008201 -0.993036
v 7.327301 -1.041925 0.738733
vn -0.371804 -0.352390 -0.858827
v 7.514826 -1.203247 0.714093
vn -0.054977 -0.066732 -0.996255
v 7.373934 -0.900860 0.733669
vn -0.076352 -0.203140 -0.976168
v 7.350819 -1.182999 0.735798
vn 0.199904 -0.863754 -0.462567
v 7.421394 -1.226450 0.717830
vn -0.026697 -0.058803 -0.997913
v 7.632791 -0.971414 0.688969
vn -0.288839 -0.171954 -0.941809
v 7.556009 -0.900848 0.694911
vn -0.328704 0.242183 -0.912853
v 7.562954 -1.230007 0.689115
vn -0.186178 -0.046462 -0.981417
v 7.374260 -0.853827 0.728923
vn -0.226846 0.083209 -0.970370
v 7.539326 -0.712708 0.692268
vn -0.181424 -0.262480 -0.947729
v 7.609579 -0.924360 0.686292
vn 0.035645 -0.180491 -0.982931
v 7.632923 -0.924356 0.684524
vn -0.037520 0.171541 -0.984462
v 7.609554 -0.642084 0.688448
vn -0.087750 0.254470 -0.963091
v 7.633049 -0.689207 0.680411
vn -0.331241 0.536351 -0.776278
v 7.586010 -0.741539 0.671110
vn -0.640482 0.265841 -0.720494
v 7.569162 -0.759819 0.671097
vn -0.097967 0.895501 -0.434144
v 7.491924 -1.240875 0.717779
vn 0.257448 0.030488 -0.965811
v 7.844259 -0.665676 0.702338
vn 0.329432 0.266107 -0.905904
v 7.695566 -0.736270 0.670842
vn -0.000727 0.177880 -0.984052
v 7.868095 -0.524693 0.722566
vn 0.370973 -0.384958 -0.845095
v 7.763290 -0.712655 0.695154
vn 0.426371 -0.022638 -0.904265
v 7.868160 -0.595150 0.722930
vn 0.586937 0.043052 -0.808487
v 7.702278 -0.759770 0.670732
vn 0.103485 0.436972 -0.893502
v 7.656500 -1.230036 0.679779
vn -0.070002 0.538146 -0.839940
v 7.609491 -1.253556 0.660277
vn -0.112383 0.608129 -0.785843
v 7.609489 -1.230024 0.677456
vn 0.280958 -0.308810 -0.908680
v 7.656332 -0.900824 0.683579
vn 0.086356 0.180519 -0.979773
v 7.656235 -1.206461 0.688078
vn 0.104729 -0.885358 -0.452961
v 7.350853 -1.196633 0.741295
vn 0.014505 -0.940479 0.339541
v 7.397877 -1.218289 0.741293
vn -0.214654 -0.922455 -0.320936
v 7.374365 -1.227113 0.717782
vn -0.069127 0.482427 -0.873204
v 7.574259 -1.260834 0.659045
vn -0.028099 -0.998734 -0.041731
v 7.444902 -1.203911 0.741292
vn -0.823427 -0.066192 -0.563548
v 7.561289 -0.806796 0.670830
vn -0.836240 -0.270574 0.476962
v 7.538965 -0.830306 0.165119
vn -0.371853 -0.815183 0.444074
v 7.633001 -0.884235 0.106458
vn -0.372538 -0.857274 0.355382
v 7.562462 -0.865351 0.153485
vn 0.079698 -0.770669 0.632232
v 7.562464 -0.877337 0.137474
vn -0.312714 -0.650156 0.692465
v 7.546513 -0.853816 0.153482
vn -0.788511 -0.612660 -0.053832
v 7.562466 -0.867642 0.412121
vn -0.265395 -0.649441 -0.712595
v 7.609489 -0.890116 0.670753
vn -0.779264 -0.494767 -0.384646
v 7.576338 -0.853825 0.670760
vn -0.988958 0.006969 -0.148035
v 7.562469 -0.806800 0.668816
vn -0.677183 -0.717115 0.164828
v 7.562443 -0.858212 0.176999
vn -0.326528 -0.944764 -0.028309
v 7.585974 -0.870175 0.176997
vn -0.372041 -0.928207 0.004057
v 7.585985 -0.875639 0.600219
vn -0.263577 -0.963513 -0.046586
v 7.609488 -0.883056 0.647246
vn -0.790732 0.609389 0.058212
v 7.579847 -0.759772 0.647247
vn -0.456189 0.888894 -0.041933
v 7.585976 -0.754452 0.647250
vn 0.245779 0.870226 -0.426965
v 7.656513 -0.743012 0.647253
vn 0.754979 0.504999 -0.418310
v 7.677069 -0.759771 0.647241
vn 0.900387 -0.315226 -0.299894
v 7.656515 -0.877340 0.670753
vn 0.854186 -0.369851 -0.365480
v 7.684555 -0.830311 0.670763
# 422 vertices, 0 vertices normals


usemtl material_0
vt 0.684326 0.887076
vt 0.688582 0.907644
vt 0.684326 0.909424
f 1/1/1 2/2/2 3/3/3
vt 0.651849 0.848524
vt 0.657710 0.850830
vt 0.649882 0.841043
f 4/4/4 5/5/5 6/6/6
vt 0.715526 0.675725
vt 0.715929 0.670142
vt 0.711460 0.672701
f 7/7/7 8/8/8 9/9/9
vt 0.456630 0.816704
vt 0.467933 0.812358
vt 0.452112 0.801621
f 3/10/3 10/11/10 11/12/11
vt 0.435769 0.779367
vt 0.429576 0.811480
vt 0.440427 0.786845
f 12/13/12 13/14/13 14/15/14
vt 0.160609 0.701707
vt 0.157487 0.706070
vt 0.165026 0.704840
f 15/16/15 16/17/16 17/18/17
vt 0.548072 0.610792
vt 0.524170 0.620361
vt 0.554088 0.620361
f 18/19/18 19/20/19 20/21/20
vt 0.945403 0.785127
vt 0.934326 0.788330
vt 0.948083 0.788330
f 21/22/21 22/23/22 23/24/23
vt 0.449608 0.843079
vt 0.449870 0.835484
vt 0.446035 0.838984
f 24/25/24 25/26/25 26/27/26
vt 0.840514 0.694255
vt 0.836670 0.698486
vt 0.844336 0.698486
f 27/28/27 28/29/28 29/30/29
vt 0.828756 0.908737
vt 0.825316 0.902448
vt 0.824812 0.909424
f 30/31/30 29/32/29 31/33/31
vt 0.392875 0.694580
vt 0.422681 0.694580
vt 0.424895 0.687684
f 32/34/32 33/35/33 34/36/34
vt 0.860135 0.675049
vt 0.860113 0.671219
vt 0.856201 0.675049
f 35/37/35 36/38/36 37/39/37
vt 0.653076 0.701143
vt 0.657155 0.703572
vt 0.657217 0.698144
f 38/40/38 39/41/39 40/42/40
vt 0.115438 0.732508
vt 0.111673 0.733107
vt 0.112313 0.736891
f 41/43/41 42/44/42 43/45/43
vt 0.441026 0.662579
vt 0.433268 0.658852
vt 0.444679 0.658593
f 44/46/44 45/47/45 46/48/46
vt 0.085160 0.714478
vt 0.083859 0.707015
vt 0.077599 0.715835
f 47/49/47 48/50/48 49/51/49
vt 0.840688 0.663294
vt 0.836670 0.667236
vt 0.844415 0.667236
f 50/52/50 51/53/51 52/54/52
vt 0.977633 0.803955
vt 0.977400 0.798787
vt 0.973389 0.801597
f 52/55/52 53/56/53 50/57/50
vt 0.860385 0.694580
vt 0.856294 0.686927
vt 0.856201 0.694580
f 54/58/54 55/59/55 56/60/56
vt 0.864014 0.667236
vt 0.868558 0.667236
vt 0.866053 0.661814
f 57/61/57 58/62/58 59/63/59
vt 0.706437 0.853750
vt 0.710874 0.854271
vt 0.708549 0.849405
f 60/64/60 61/65/61 62/66/62
vt 0.593372 0.831278
vt 0.593185 0.827460
vt 0.589357 0.831299
f 63/67/63 64/68/64 65/69/65
vt 0.738056 0.948341
vt 0.745714 0.948477
vt 0.738046 0.944669
f 66/70/66 65/71/65 67/72/67
vt 0.840271 0.678793
vt 0.836670 0.682861
vt 0.844336 0.682861
f 66/73/66 67/74/67 68/75/68
vt 0.463192 0.709145
vt 0.478312 0.704642
vt 0.459197 0.705474
f 69/76/69 70/77/70 71/78/71
vt 0.738075 0.952335
f 65/71/65 66/70/66 68/79/68
vt 0.602295 0.660234
vt 0.606200 0.663330
vt 0.606186 0.657463
f 72/80/72 73/81/73 74/82/74
vt 0.799352 0.960887
vt 0.799188 0.967723
vt 0.803239 0.963590
f 75/83/75 76/84/76 77/85/77
vt 0.148124 0.743499
vt 0.150069 0.753988
vt 0.158266 0.756471
f 80/86/80 83/87/83 82/88/82
vt 0.145093 0.770359
vt 0.135621 0.760327
vt 0.131848 0.760965
f 23/89/23 22/90/22 33/91/33
vt 0.096471 0.712610
vt 0.110053 0.721923
vt 0.130486 0.730151
f 86/92/86 89/93/89 20/94/20
vt 0.166300 0.712402
vt 0.147507 0.738890
f 85/95/85 90/96/90 80/86/80
vt 0.126722 0.730769
f 89/93/89 91/97/91 20/94/20
vt 0.494665 0.862549
vt 0.491162 0.858272
vt 0.496426 0.857921
f 94/98/94 95/99/95 96/100/96
vt 0.489014 0.862511
f 94/98/94 97/101/97 95/99/95
vt 0.854279 0.678955
vt 0.853736 0.657346
vt 0.849871 0.659409
f 94/102/94 3/103/3 2/104/2
vt 0.848389 0.678955
f 2/104/2 97/105/97 94/102/94
vt 0.379639 0.624827
vt 0.379722 0.628174
vt 0.394514 0.612655
f 2/106/2 98/107/98 97/108/97
vt 0.387371 0.627939
vt 0.391071 0.624042
f 98/107/98 9/109/9 8/110/8
f 8/110/8 97/108/97 98/107/98
vt 0.394913 0.623650
f 8/110/8 99/111/99 97/108/97
vt 0.398432 0.614432
f 99/111/99 95/112/95 97/108/97
vt 0.402543 0.623720
f 99/111/99 100/113/100 95/112/95
vt 0.406258 0.619572
f 100/113/100 101/114/101 95/112/95
vt 0.409881 0.613335
f 101/114/101 102/115/102 95/112/95
vt 0.409100 0.619446
f 101/114/101 103/116/103 102/115/102
vt 0.413918 0.619166
f 103/116/103 104/117/104 102/115/102
vt 0.489967 0.847303
vt 0.495039 0.842449
vt 0.495870 0.850491
f 102/118/102 105/119/105 106/120/106
vt 0.492556 0.842119
f 102/118/102 104/121/104 105/119/105
f 106/120/106 96/100/96 95/99/95
f 95/99/95 102/118/102 106/120/106
vt 0.472625 0.831299
f 94/122/94 10/11/10 3/10/3
vt 0.476278 0.827307
f 94/122/94 96/123/96 10/11/10
vt 0.975365 0.862843
vt 0.961027 0.869223
vt 0.972975 0.870361
f 2/124/2 107/125/107 108/126/108
vt 0.954901 0.858116
f 2/124/2 1/127/1 107/125/107
vt 0.951157 0.858912
f 1/127/1 109/128/109 107/125/107
vt 0.934326 0.870361
f 109/128/109 110/129/110 107/125/107
vt 0.976038 0.866225
f 108/126/108 98/130/98 2/124/2
vt 0.973389 0.831299
vt 0.989097 0.831299
vt 0.977335 0.828389
f 110/131/110 111/132/111 112/133/112
vt 0.415126 0.822397
vt 0.434216 0.829209
vt 0.430221 0.825568
f 110/134/110 109/135/109 111/136/111
vt 0.998312 0.967561
vt 0.996826 0.962504
vt 0.997898 0.962675
f 112/137/112 113/138/113 110/139/110
vt 0.996826 0.968018
f 112/137/112 114/140/114 113/138/113
vt 0.534318 0.716494
vt 0.531992 0.724207
vt 0.535553 0.718962
f 115/141/115 116/142/116 117/143/117
vt 0.528092 0.710851
f 115/141/115 118/144/118 116/142/116
vt 0.539426 0.724144
f 116/142/116 119/145/119 117/143/117
vt 0.539645 0.728009
f 116/142/116 120/146/120 119/145/119
vt 0.790936 0.900398
vt 0.810249 0.897901
vt 0.799663 0.882263
f 121/147/121 122/148/122 123/149/123
vt 0.779950 0.892501
f 123/149/123 116/150/116 121/147/121
vt 0.806222 0.901255
f 121/147/121 124/151/124 122/148/122
vt 0.783297 0.899924
f 116/150/116 125/152/125 121/147/121
vt 0.767884 0.900901
f 116/150/116 126/153/126 125/152/125
vt 0.766357 0.895773
f 116/150/116 118/154/118 126/153/126
vt 0.766438 0.899374
f 118/154/118 127/155/127 126/153/126
vt 0.824951 0.643799
vt 0.831502 0.643799
vt 0.825835 0.638449
f 128/156/128 118/157/118 129/158/129
vt 0.977210 0.819580
vt 0.976650 0.814388
vt 0.973389 0.814664
f 128/159/128 127/160/127 118/161/118
vt 0.987946 0.819580
vt 0.978779 0.814613
f 128/159/128 130/162/130 126/163/126
f 126/163/126 127/160/127 128/159/128
vt 0.491453 0.824090
vt 0.497634 0.791840
f 10/11/10 105/164/105 131/165/131
vt 0.478345 0.788886
f 131/165/131 132/166/132 10/11/10
vt 0.509624 0.802770
f 105/164/105 133/167/133 131/165/131
vt 0.510329 0.818065
f 105/164/105 4/168/4 133/167/133
f 10/11/10 96/123/96 105/164/105
vt 0.459405 0.793630
f 132/166/132 134/169/134 10/11/10
f 134/169/134 11/12/11 10/11/10
vt 0.506748 0.823524
f 105/164/105 5/170/5 4/168/4
vt 0.483921 0.826959
f 96/123/96 106/171/106 105/164/105
vt 0.738688 0.681225
vt 0.727460 0.694580
vt 0.746599 0.694580
f 5/172/5 135/173/135 136/174/136
vt 0.723389 0.681560
f 5/172/5 105/175/105 135/173/135
vt 0.746545 0.690981
f 136/174/136 6/176/6 5/172/5
vt 0.489014 0.836538
f 105/119/105 104/121/104 135/177/135
vt 0.417925 0.627685
f 104/117/104 103/116/103 135/178/135
f 3/10/3 11/12/11 13/14/13
vt 0.438039 0.829036
f 13/14/13 1/179/1 3/10/3
f 11/12/11 14/15/14 13/14/13
f 13/14/13 111/136/111 1/179/1
vt 0.447591 0.786514
f 11/12/11 137/180/137 14/15/14
f 11/12/11 134/169/134 137/180/137
vt 0.459064 0.785994
f 134/169/134 138/181/138 137/180/137
f 111/136/111 109/135/109 1/179/1
vt 0.962421 0.807807
vt 0.953857 0.811768
vt 0.969838 0.811768
f 139/182/139 114/183/114 140/184/140
vt 0.957568 0.807808
f 139/182/139 113/185/113 114/183/114
vt 0.966550 0.806529
f 140/184/140 141/186/141 139/182/139
vt 0.969991 0.811727
f 140/184/140 142/187/142 141/186/141
vt 0.395743 0.825605
vt 0.382226 0.800922
vt 0.380257 0.816334
f 143/188/143 144/189/144 145/190/145
vt 0.382420 0.785618
f 143/188/143 146/191/146 144/189/144
vt 0.380340 0.823991
f 145/190/145 130/192/130 143/188/143
vt 0.391979 0.827306
f 130/192/130 129/193/129 143/188/143
vt 0.379639 0.808701
f 144/189/144 147/194/147 145/190/145
vt 0.388335 0.831299
f 130/192/130 128/195/128 129/193/129
vt 0.395804 0.827141
f 129/193/129 148/196/148 143/188/143
vt 0.775046 0.908447
vt 0.782697 0.908685
f 125/152/125 130/197/130 145/198/145
f 125/152/125 126/153/126 130/197/130
vt 0.406450 0.628058
vt 0.402625 0.628174
f 149/199/149 100/113/100 150/200/150
f 149/199/149 101/114/101 100/113/100
vt 0.415249 0.749649
vt 0.421304 0.818325
f 12/13/12 151/201/151 152/202/152
f 152/202/152 13/14/13 12/13/12
vt 0.433043 0.745007
f 12/13/12 153/203/153 151/201/151
vt 0.422547 0.741660
f 153/203/153 154/204/154 151/201/151
f 152/202/152 111/136/111 13/14/13
vt 0.418572 0.822275
f 152/202/152 112/205/112 111/136/111
vt 0.422194 0.734002
f 154/204/154 155/206/155 151/201/151
vt 0.399443 0.822715
f 152/202/152 146/191/146 156/207/156
f 152/202/152 151/201/151 146/191/146
vt 0.384485 0.747216
f 151/201/151 157/208/157 146/191/146
f 146/191/146 143/188/143 156/207/156
vt 0.418507 0.820796
f 156/207/156 114/209/114 152/202/152
vt 0.403444 0.826432
f 156/207/156 140/210/140 114/209/114
f 114/209/114 112/205/112 152/202/152
vt 0.801514 0.706299
vt 0.807799 0.706299
vt 0.808493 0.704070
f 158/211/158 159/212/159 117/213/117
vt 0.805567 0.698377
f 117/213/117 119/214/119 158/211/158
vt 0.869716 0.659424
vt 0.865985 0.654934
vt 0.864306 0.659424
f 156/215/156 159/216/159 140/217/140
vt 0.868532 0.655392
f 156/215/156 117/218/117 159/216/159
vt 0.864014 0.659259
f 159/216/159 142/219/142 140/217/140
vt 0.876458 0.667236
vt 0.872746 0.663164
vt 0.871826 0.667236
f 143/220/143 117/221/117 156/222/156
vt 0.875333 0.662508
f 143/220/143 115/223/115 117/221/117
vt 0.877421 0.665474
f 143/220/143 148/224/148 115/223/115
vt 0.652381 0.727954
vt 0.650521 0.724132
vt 0.650517 0.727956
f 160/225/160 136/226/136 161/227/161
vt 0.650411 0.721309
f 160/225/160 6/228/6 136/226/136
vt 0.640096 0.846774
vt 0.636744 0.850516
f 4/4/4 162/229/162 133/230/133
f 4/4/4 6/6/6 162/229/162
vt 0.643014 0.840689
f 6/6/6 160/231/160 162/229/162
vt 0.632330 0.846973
f 162/229/162 163/232/163 133/230/133
vt 0.512549 0.798777
vt 0.512157 0.794965
f 163/233/163 164/234/164 133/167/133
vt 0.395020 0.627715
f 165/235/165 99/111/99 8/110/8
vt 0.718955 0.673459
f 8/8/8 7/7/7 165/236/165
vt 0.973233 0.791700
vt 0.981520 0.796143
vt 0.980708 0.790935
f 167/237/167 107/238/107 168/239/168
vt 0.969482 0.796143
f 167/237/167 108/240/108 107/238/107
vt 0.142006 0.728970
vt 0.153031 0.725471
f 16/17/16 169/241/169 170/242/170
f 170/242/170 85/95/85 16/17/16
vt 0.146902 0.734929
f 169/241/169 171/243/171 170/242/170
f 85/95/85 17/18/17 16/17/16
vt 0.142489 0.731799
f 169/241/169 172/244/172 171/243/171
vt 0.138719 0.732433
f 169/241/169 173/245/173 172/244/172
vt 0.149930 0.707412
f 19/246/19 169/241/169 16/17/16
vt 0.138069 0.728702
f 19/246/19 18/247/18 169/241/169
vt 0.986011 0.737021
vt 0.981201 0.741455
vt 0.993309 0.741455
f 16/248/16 15/249/15 19/250/19
vt 0.621688 0.681151
vt 0.635543 0.670991
vt 0.631861 0.669437
f 170/251/170 174/252/174 90/253/90
vt 0.602295 0.682861
f 90/253/90 85/254/85 170/251/170
vt 0.906284 0.891087
vt 0.894952 0.902381
vt 0.924852 0.905867
f 82/255/82 175/256/175 176/257/176
vt 0.895947 0.895841
f 82/255/82 177/258/177 175/256/175
vt 0.937368 0.909424
vt 0.927702 0.908380
f 78/259/78 176/257/176 178/260/178
vt 0.512176 0.768149
vt 0.497945 0.765013
f 179/261/179 180/262/180 131/165/131
vt 0.509095 0.791274
f 131/165/131 181/263/181 179/261/179
f 131/165/131 133/167/133 181/263/181
f 133/167/133 164/234/164 181/263/181
vt 0.482023 0.620361
vt 0.486229 0.619919
vt 0.481539 0.612818
f 178/264/178 182/265/182 81/266/81
vt 0.473389 0.614828
f 81/266/81 78/267/78 178/264/178
vt 0.798111 0.907164
vt 0.813497 0.906744
f 144/268/144 31/33/31 183/269/183
f 183/269/183 124/151/124 144/268/144
vt 0.821499 0.902208
f 31/33/31 184/270/184 183/269/183
f 124/151/124 121/147/121 144/268/144
vt 0.790319 0.909424
f 121/147/121 147/271/147 144/268/144
f 31/33/31 29/32/29 184/270/184
vt 0.898337 0.909424
vt 0.923683 0.909357
f 176/257/176 185/272/185 182/273/182
f 176/257/176 175/256/175 185/272/185
vt 0.894947 0.907556
f 175/256/175 186/274/186 185/272/185
f 182/273/182 178/260/178 176/257/176
vt 0.466858 0.781759
f 134/169/134 187/275/187 138/181/138
f 134/169/134 132/166/132 187/275/187
vt 0.508357 0.610230
vt 0.512186 0.620361
f 23/276/23 182/265/182 185/277/185
f 23/276/23 81/266/81 182/265/182
vt 0.793701 0.613256
vt 0.796420 0.620432
vt 0.793701 0.624268
f 185/278/185 21/279/21 23/280/23
vt 0.552905 0.662545
vt 0.539571 0.659344
vt 0.547113 0.663330
f 188/281/188 157/282/157 189/283/189
vt 0.793024 0.835306
vt 0.800971 0.839111
vt 0.806608 0.837209
f 31/284/31 190/285/190 188/286/188
vt 0.524170 0.663330
f 157/282/157 51/287/51 189/283/189
vt 0.381229 0.724352
vt 0.380393 0.732052
f 157/208/157 52/288/52 51/289/51
vt 0.382379 0.701318
f 157/208/157 191/290/191 52/288/52
vt 0.381412 0.712852
f 191/290/191 192/291/192 52/288/52
vt 0.617756 0.835205
vt 0.605960 0.834079
vt 0.598389 0.835205
f 189/292/189 193/293/193 31/294/31
vt 0.766357 0.837256
vt 0.781750 0.839111
f 31/284/31 144/295/144 146/296/146
vt 0.381987 0.701334
f 191/290/191 194/297/194 192/291/192
vt 0.988985 0.803955
vt 0.981197 0.798633
f 192/298/192 195/299/195 52/55/52
vt 0.864014 0.698486
vt 0.869443 0.698486
vt 0.869415 0.693063
f 193/300/193 30/301/30 31/302/31
f 195/299/195 53/56/53 52/55/52
vt 0.510689 0.737616
vt 0.460774 0.739901
f 196/303/196 70/77/70 197/304/197
f 197/304/197 180/262/180 196/303/196
vt 0.507430 0.707117
f 196/303/196 198/305/198 70/77/70
f 197/304/197 187/275/187 180/262/180
vt 0.451064 0.778656
f 197/304/197 199/306/199 187/275/187
vt 0.467188 0.712791
f 70/77/70 200/307/200 197/304/197
f 187/275/187 132/166/132 180/262/180
f 132/166/132 131/165/131 180/262/180
vt 0.509245 0.710872
f 196/303/196 201/308/201 198/305/198
vt 0.515166 0.756560
f 180/262/180 202/309/202 196/303/196
f 70/77/70 69/76/69 200/307/200
vt 0.509068 0.707045
f 201/308/201 203/310/203 198/305/198
vt 0.633566 0.680157
vt 0.638107 0.677763
f 171/311/171 204/312/204 174/252/174
f 174/252/174 170/251/170 171/311/171
vt 0.636624 0.682861
f 171/311/171 205/313/205 204/312/204
vt 0.729223 0.653978
vt 0.734271 0.649742
vt 0.730673 0.650102
f 177/314/177 83/315/83 206/316/206
vt 0.740565 0.655518
f 177/314/177 82/317/82 83/315/83
f 138/181/138 187/275/187 199/306/199
f 199/306/199 137/180/137 138/181/138
vt 0.813885 0.900585
f 207/318/207 124/151/124 183/269/183
f 207/318/207 122/148/122 124/151/124
vt 0.797075 0.672392
vt 0.791841 0.671604
vt 0.796992 0.673757
f 205/319/205 172/320/172 208/321/208
vt 0.795731 0.669760
f 205/319/205 171/322/171 172/320/172
vt 0.992410 0.749268
vt 0.991249 0.745683
vt 0.981201 0.749268
f 206/323/206 83/324/83 80/325/80
vt 0.143743 0.739493
vt 0.147500 0.754377
f 80/86/80 174/326/174 206/327/206
f 80/86/80 90/96/90 174/326/174
f 199/306/199 153/203/153 12/13/12
f 199/306/199 197/304/197 153/203/153
vt 0.460602 0.736096
f 197/304/197 209/328/209 153/203/153
f 12/13/12 14/15/14 199/306/199
f 14/15/14 137/180/137 199/306/199
vt 0.500732 0.841554
vt 0.508524 0.850830
vt 0.512465 0.844373
f 206/329/206 210/330/210 211/331/211
vt 0.774170 0.647705
vt 0.789463 0.647705
vt 0.785834 0.639565
f 206/332/206 174/333/174 210/334/210
vt 0.719482 0.655518
f 211/335/211 177/314/177 206/316/206
vt 0.887451 0.899066
f 211/336/211 175/256/175 177/258/177
vt 0.789667 0.640110
f 174/333/174 212/337/212 210/334/210
vt 0.512201 0.848401
f 210/330/210 213/338/213 211/331/211
vt 0.992234 0.995008
vt 0.989014 0.999267
vt 0.993360 0.999267
f 214/339/214 215/340/215 216/341/216
vt 0.998272 0.995885
f 216/341/216 217/342/217 214/339/214
vt 0.801514 0.629446
vt 0.809865 0.635986
vt 0.810118 0.627990
f 214/343/214 218/344/218 219/345/219
vt 0.801930 0.635986
f 214/343/214 220/346/220 218/344/218
vt 0.805849 0.626385
f 219/345/219 215/347/215 214/343/214
vt 0.809553 0.627591
f 219/345/219 221/348/221 215/347/215
vt 0.691601 0.694580
vt 0.687768 0.677485
vt 0.676266 0.674973
f 222/349/222 223/350/223 224/351/224
vt 0.668648 0.694580
f 224/351/224 225/352/225 222/349/222
vt 0.664795 0.685612
f 224/351/224 217/353/217 225/352/225
vt 0.683917 0.674944
f 223/350/223 226/354/226 224/351/224
vt 0.529189 0.706299
vt 0.528119 0.698580
vt 0.524170 0.698920
f 217/355/217 227/356/227 225/357/225
vt 0.532337 0.701967
f 217/355/217 216/358/216 227/356/227
vt 0.687742 0.674961
f 223/350/223 228/359/228 226/354/226
vt 0.534863 0.690124
vt 0.527715 0.694776
f 216/358/216 229/360/229 230/361/230
vt 0.539466 0.701167
f 216/358/216 221/362/221 229/360/229
f 230/361/230 227/356/227 216/358/216
vt 0.762451 0.835790
vt 0.764547 0.839698
vt 0.762451 0.843018
f 216/363/216 215/364/215 221/365/221
vt 0.547524 0.700303
vt 0.553841 0.688039
vt 0.534773 0.689030
f 231/366/231 232/367/232 233/368/233
f 233/368/233 221/362/221 231/366/231
vt 0.558209 0.691499
f 231/366/231 234/369/234 232/367/232
f 233/368/233 229/360/229 221/362/221
vt 0.989307 0.889893
vt 0.988831 0.889273
vt 0.981201 0.889893
f 221/370/221 219/371/219 231/372/231
vt 0.563652 0.706299
vt 0.562451 0.694903
f 234/369/234 235/373/235 236/374/236
f 234/369/234 231/366/231 235/373/235
vt 0.519902 0.848610
vt 0.520856 0.838286
f 211/331/211 237/375/237 238/376/238
vt 0.524091 0.843072
f 237/375/237 239/377/239 238/376/238
f 211/331/211 213/338/213 237/375/237
vt 0.535549 0.841152
f 239/377/239 25/378/25 238/376/238
vt 0.527520 0.849103
f 239/377/239 222/379/222 25/378/25
vt 0.550300 0.850830
f 222/379/222 225/380/225 25/378/25
vt 0.559289 0.839632
vt 0.539873 0.838099
f 225/380/225 240/381/240 26/382/26
f 26/382/26 25/378/25 225/380/225
vt 0.770179 0.624267
vt 0.764869 0.622238
vt 0.755320 0.624268
f 225/383/225 230/384/230 240/385/240
f 225/357/225 227/356/227 230/361/230
vt 0.888813 0.908219
f 175/256/175 241/386/241 186/274/186
f 175/256/175 211/336/211 241/386/241
vt 0.758946 0.616176
vt 0.754639 0.618575
f 229/387/229 242/388/242 240/385/240
f 240/385/240 230/384/230 229/387/229
vt 0.517492 0.682861
vt 0.516598 0.682124
vt 0.512451 0.682861
f 229/389/229 233/390/233 242/391/242
vt 0.486871 0.844461
vt 0.471376 0.839984
vt 0.479933 0.848247
f 22/392/22 241/393/241 34/394/34
vt 0.944954 0.777772
vt 0.936515 0.772346
f 22/23/22 185/395/185 241/396/241
f 22/23/22 21/22/21 185/395/185
vt 0.469029 0.839968
f 241/393/241 243/397/243 34/394/34
f 185/272/185 186/274/186 241/386/241
vt 0.486747 0.848273
f 34/394/34 33/398/33 22/392/22
vt 0.773271 0.678955
vt 0.773328 0.677028
vt 0.758038 0.669147
f 244/399/244 235/400/235 231/401/231
vt 0.754165 0.678955
f 231/401/231 245/402/245 244/399/244
vt 0.750732 0.677413
f 231/401/231 218/403/218 245/402/245
vt 0.823560 0.835576
vt 0.817139 0.839111
vt 0.828003 0.839111
f 234/404/234 246/405/246 232/406/232
vt 0.819241 0.835430
f 234/404/234 247/407/247 246/405/246
vt 0.562195 0.691169
f 234/369/234 236/374/236 247/408/247
vt 0.449208 0.854481
vt 0.472134 0.855433
vt 0.464993 0.839941
f 248/409/248 249/410/249 238/411/238
f 238/411/238 24/25/24 248/409/248
f 249/410/249 243/397/243 238/411/238
f 249/410/249 34/394/34 243/397/243
f 238/411/238 25/26/25 24/25/24
vt 0.423169 0.834334
vt 0.403942 0.837338
vt 0.423143 0.838007
f 233/412/233 250/413/250 242/414/242
vt 0.404016 0.833609
f 233/412/233 232/415/232 250/413/250
vt 0.397161 0.852404
vt 0.396013 0.841008
vt 0.395628 0.852391
f 251/416/251 246/417/246 252/418/252
f 251/416/251 250/413/250 246/417/246
f 250/413/250 232/415/232 246/417/246
vt 0.514439 0.740592
f 253/419/253 196/303/196 202/309/202
vt 0.426686 0.842133
vt 0.414916 0.852955
f 240/420/240 255/421/255 248/409/248
f 248/409/248 26/27/26 240/420/240
f 240/420/240 242/414/242 255/421/255
f 242/414/242 250/413/250 255/421/255
f 250/413/250 251/416/251 255/421/255
vt 0.403268 0.856348
f 251/416/251 256/422/256 255/421/255
f 248/409/248 24/25/24 26/27/26
f 179/261/179 202/309/202 180/262/180
vt 0.515517 0.764178
f 179/261/179 254/423/254 202/309/202
vt 0.998273 0.889893
vt 0.993762 0.888672
vt 0.992920 0.889893
f 179/424/179 257/425/257 254/426/254
vt 0.828156 0.623365
vt 0.832117 0.628174
vt 0.834822 0.623472
f 258/427/258 30/428/30 193/429/193
vt 0.824951 0.628174
f 258/427/258 29/430/29 30/428/30
vt 0.409429 0.682485
vt 0.379639 0.684470
f 32/34/32 259/431/259 260/432/260
f 32/34/32 34/36/34 259/431/259
vt 0.097690 0.788091
vt 0.099246 0.797551
vt 0.112427 0.783681
f 260/433/260 79/434/79 32/435/32
vt 0.476060 0.861654
f 34/394/34 249/410/249 259/436/259
vt 0.757738 0.859459
vt 0.756175 0.852984
vt 0.744693 0.851508
f 258/437/258 193/438/193 189/439/189
vt 0.740258 0.861841
f 189/439/189 261/440/261 258/437/258
vt 0.727404 0.852787
f 189/439/189 262/441/262 261/440/261
vt 0.579241 0.837282
vt 0.590286 0.850830
vt 0.592229 0.846707
f 89/442/89 42/443/42 41/444/41
vt 0.573491 0.850830
f 89/442/89 263/445/263 42/443/42
vt 0.596198 0.844396
f 41/444/41 36/446/36 89/442/89
vt 0.563232 0.840838
f 89/442/89 86/447/86 263/445/263
vt 0.595164 0.849771
f 41/444/41 37/448/37 36/446/36
vt 0.717079 0.868070
vt 0.701825 0.871592
vt 0.709408 0.877441
f 264/449/264 265/450/265 266/451/266
vt 0.717092 0.873276
f 266/451/266 267/452/267 264/449/264
vt 0.713233 0.877443
f 266/451/266 268/453/268 267/452/267
vt 0.717145 0.879380
f 268/453/268 269/454/269 267/452/267
vt 0.659716 0.706299
vt 0.659727 0.700881
f 39/41/39 270/455/270 271/456/271
f 271/456/271 40/42/40 39/41/39
vt 0.654402 0.706299
f 39/41/39 272/457/272 270/455/270
vt 0.759054 0.875922
vt 0.759203 0.874256
vt 0.755313 0.877749
f 273/458/273 270/459/270 274/460/274
vt 0.762963 0.877764
f 273/458/273 271/461/271 270/459/270
vt 0.418048 0.659176
vt 0.410869 0.664986
vt 0.406583 0.659375
f 275/462/275 270/463/270 276/464/276
vt 0.751542 0.866633
f 275/465/275 274/460/274 270/459/270
vt 0.406783 0.663909
f 270/463/270 272/466/272 276/464/276
vt 0.736256 0.865872
vt 0.728535 0.877549
vt 0.751488 0.877727
f 45/467/45 277/468/277 278/469/278
f 278/469/278 275/465/275 45/467/45
vt 0.728671 0.868546
f 45/467/45 44/470/44 277/468/277
f 278/469/278 274/460/274 275/465/275
vt 0.724750 0.873475
f 44/470/44 279/471/279 277/468/277
vt 0.724792 0.865215
f 279/471/279 46/472/46 264/449/264
f 264/449/264 267/452/267 279/471/279
vt 0.456273 0.654730
vt 0.452535 0.658646
f 46/48/46 280/473/280 264/474/264
f 279/471/279 44/470/44 46/472/46
vt 0.467996 0.662300
vt 0.467751 0.654542
f 265/475/265 280/473/280 281/476/281
f 265/475/265 264/474/264 280/473/280
vt 0.463652 0.646825
f 280/473/280 282/477/282 281/476/281
vt 0.467670 0.650700
f 282/477/282 283/478/283 281/476/281
vt 0.471421 0.662347
f 281/476/281 284/479/284 265/475/265
vt 0.410396 0.860911
f 285/480/285 255/421/255 256/422/256
vt 0.414538 0.858783
f 285/480/285 286/481/286 255/421/255
vt 0.402690 0.862549
f 256/422/256 287/482/287 285/480/285
vt 0.395264 0.856748
vt 0.398868 0.862549
f 256/422/256 288/483/288 289/484/289
f 256/422/256 251/416/251 288/483/288
f 289/484/289 287/482/287 256/422/256
vt 0.395302 0.856421
f 251/416/251 290/485/290 288/483/288
f 251/416/251 252/418/252 290/485/290
vt 0.467936 0.861731
f 248/409/248 286/481/286 291/486/291
f 248/409/248 255/421/255 286/481/286
vt 0.468098 0.859174
f 291/486/291 292/487/292 248/409/248
f 292/487/292 249/410/249 248/409/248
vt 0.389727 0.663404
vt 0.387143 0.660964
vt 0.395123 0.659576
f 43/488/43 293/489/293 294/490/294
vt 0.949951 0.711732
vt 0.955807 0.713954
vt 0.956478 0.709850
f 294/491/294 37/492/37 43/493/43
vt 0.950913 0.714111
f 294/491/294 295/494/295 37/492/37
vt 0.960037 0.714111
f 37/492/37 41/495/41 43/493/43
vt 0.399145 0.663916
f 296/496/296 294/490/294 276/464/276
vt 0.510778 0.682861
vt 0.506373 0.680967
vt 0.504639 0.682861
f 296/497/296 295/498/295 294/499/294
vt 0.429020 0.690360
vt 0.426514 0.694580
vt 0.467193 0.694580
f 297/500/297 87/501/87 88/502/88
vt 0.469157 0.691330
f 88/502/88 298/503/298 297/500/297
vt 0.086442 0.722036
vt 0.085803 0.718240
vt 0.082655 0.722736
f 297/504/297 299/505/299 87/506/87
vt 0.379825 0.652305
vt 0.387443 0.652151
f 293/489/293 298/507/298 300/508/300
vt 0.379639 0.666813
f 293/489/293 301/509/301 298/507/298
f 300/508/300 294/490/294 293/489/293
vt 0.406559 0.651813
f 302/510/302 45/47/45 275/462/275
f 302/510/302 280/473/280 45/47/45
f 280/473/280 46/48/46 45/47/45
f 275/462/275 276/464/276 302/510/302
f 276/464/276 294/490/294 302/510/302
f 294/490/294 300/508/300 302/510/302
vt 0.402570 0.647959
vt 0.452057 0.643142
f 302/510/302 303/511/303 285/512/285
f 285/512/285 280/473/280 302/510/302
f 285/512/285 282/477/282 280/473/280
vt 0.969372 0.819580
vt 0.962840 0.815973
vt 0.957755 0.819580
f 285/513/285 287/514/287 282/515/282
vt 0.959303 0.814695
f 287/514/287 289/516/289 282/515/282
vt 0.114192 0.748432
vt 0.089786 0.787339
vt 0.115764 0.751999
f 88/517/88 84/518/84 304/519/304
vt 0.117154 0.747890
f 304/519/304 298/520/298 88/517/88
f 303/511/303 302/510/302 300/508/300
vt 0.387268 0.644454
f 300/508/300 305/521/305 303/511/303
vt 0.379639 0.648371
f 300/508/300 304/522/304 305/521/305
f 300/508/300 298/507/298 304/522/304
vt 0.953857 0.817122
f 282/515/282 289/516/289 288/523/288
vt 0.467564 0.643065
f 288/524/288 283/478/283 282/477/282
vt 0.953597 0.850665
vt 0.972867 0.846593
vt 0.938184 0.841537
f 306/525/306 307/526/307 308/527/308
vt 0.934326 0.854736
vt 0.978239 0.854736
f 304/528/304 84/529/84 307/526/307
vt 0.391033 0.640566
f 308/530/308 305/521/305 304/522/304
vt 0.448316 0.639510
f 303/511/303 286/531/286 285/512/285
vt 0.394819 0.640466
f 303/511/303 291/532/291 286/531/286
f 303/511/303 305/521/305 291/532/291
f 305/521/305 308/530/308 291/532/291
vt 0.391253 0.636525
f 308/530/308 309/533/309 291/532/291
vt 0.824951 0.843104
vt 0.826669 0.842203
vt 0.830679 0.871827
f 307/534/307 260/535/260 259/536/259
vt 0.824951 0.878174
f 259/536/259 308/537/308 307/534/307
vt 0.387061 0.632954
f 259/538/259 309/533/309 308/530/308
vt 0.471837 0.860339
f 292/487/292 291/486/291 309/539/309
vt 0.189308 0.304988
vt 0.185490 0.304974
vt 0.177376 0.330412
f 93/540/93 311/541/311 310/542/310
vt 0.108912 0.739803
vt 0.098417 0.723787
f 293/543/293 263/544/263 297/504/297
f 293/543/293 42/44/42 263/544/263
f 263/544/263 299/505/299 297/504/297
f 293/543/293 43/45/43 42/44/42
vt 0.421492 0.718705
f 313/545/313 191/290/191 157/208/157
f 157/208/157 151/201/151 313/545/313
vt 0.401469 0.699964
f 313/545/313 314/546/314 191/290/191
f 151/201/151 155/206/155 313/545/313
vt 0.428661 0.707699
f 313/545/313 315/547/315 314/546/314
vt 0.397635 0.699892
f 314/546/314 75/548/75 191/290/191
vt 0.716605 0.838308
vt 0.708325 0.839162
f 53/549/53 316/550/316 62/66/62
vt 0.720381 0.850003
f 62/66/62 317/551/317 53/549/53
f 62/66/62 61/65/61 317/551/317
vt 0.728480 0.861170
f 61/65/61 318/552/318 317/551/317
f 318/552/318 262/441/262 317/551/317
vt 0.705028 0.836254
f 316/550/316 319/553/319 62/66/62
vt 0.700327 0.850107
f 319/553/319 320/554/320 62/66/62
vt 0.731999 0.862549
f 318/552/318 321/555/321 262/441/262
f 321/555/321 261/440/261 262/441/262
vt 0.713075 0.836941
f 53/549/53 195/556/195 316/550/316
vt 0.703546 0.851774
f 320/554/320 322/557/322 62/66/62
vt 0.723862 0.842280
f 262/441/262 51/558/51 317/551/317
f 262/441/262 189/439/189 51/558/51
vt 0.459382 0.709368
vt 0.425153 0.714760
f 209/328/209 323/559/323 324/560/324
f 324/560/324 153/203/153 209/328/209
vt 0.428729 0.709229
f 323/559/323 325/561/325 324/560/324
f 324/560/324 154/204/154 153/203/153
vt 0.516472 0.718153
f 56/562/56 201/308/201 196/303/196
vt 0.518758 0.738256
f 196/303/196 312/563/312 56/562/56
vt 0.516104 0.710509
f 56/562/56 55/564/55 201/308/201
f 196/303/196 253/419/253 312/563/312
vt 0.712665 0.617719
vt 0.706597 0.620295
vt 0.710529 0.624268
f 55/565/55 326/566/326 201/567/201
f 86/92/86 299/505/299 263/544/263
f 86/92/86 47/49/47 299/505/299
f 86/92/86 48/50/48 47/49/47
f 209/328/209 200/307/200 323/559/323
vt 0.867660 0.938659
vt 0.864014 0.940674
vt 0.891874 0.940674
f 209/568/209 197/569/197 200/570/200
vt 0.570474 0.661563
vt 0.590071 0.662759
vt 0.584908 0.657665
f 155/571/155 324/572/324 313/573/313
vt 0.563232 0.663330
f 155/571/155 154/574/154 324/572/324
vt 0.985107 0.714111
vt 0.994582 0.714111
vt 0.987968 0.711513
f 47/575/47 87/576/87 299/577/299
f 47/49/47 49/51/49 87/506/87
vt 0.987276 0.779827
vt 0.985257 0.779438
vt 0.981201 0.788330
f 260/578/260 307/579/307 84/580/84
vt 0.995119 0.788330
f 84/580/84 79/581/79 260/578/260
vt 0.718951 0.843161
f 50/582/50 317/551/317 51/558/51
f 50/582/50 53/549/53 317/551/317
vt 0.612296 0.815976
vt 0.597006 0.827460
vt 0.635212 0.827433
f 327/583/327 328/584/328 329/585/329
vt 0.623771 0.819818
f 329/585/329 330/586/330 327/583/327
vt 0.604579 0.819807
f 327/583/327 331/587/331 328/584/328
vt 0.738033 0.940897
f 332/588/332 67/72/67 65/71/65
vt 0.749513 0.940856
f 65/71/65 333/589/333 332/588/332
vt 0.749526 0.944623
f 65/71/65 64/590/64 333/589/333
vt 0.974645 0.774697
vt 0.977714 0.770234
vt 0.970792 0.769726
f 334/591/334 326/592/326 55/593/55
vt 0.787840 0.956299
f 335/594/335 65/71/65 68/79/68
vt 0.703648 0.956298
f 68/79/68 74/595/74 335/594/335
vt 0.795478 0.952141
f 335/594/335 336/596/336 65/71/65
vt 0.726553 0.940935
f 68/79/68 59/597/59 74/595/74
vt 0.707460 0.952442
f 59/597/59 72/598/72 74/595/74
vt 0.715072 0.940990
f 59/597/59 337/599/337 72/598/72
f 68/79/68 67/72/67 59/597/59
vt 0.692139 0.948670
f 337/599/337 320/600/320 72/598/72
f 67/72/67 332/588/332 59/597/59
vt 0.597487 0.659537
f 324/572/324 315/601/315 313/573/313
vt 0.596354 0.663330
f 324/572/324 325/602/325 315/601/315
vt 0.774170 0.620673
vt 0.777463 0.624268
vt 0.776304 0.619349
f 316/603/316 192/604/192 338/605/338
vt 0.796392 0.642890
vt 0.793701 0.647705
vt 0.793701 0.638183
f 316/606/316 195/607/195 192/608/192
f 329/585/329 328/584/328 63/67/63
vt 0.650695 0.831288
f 63/67/63 339/609/339 329/585/329
vt 0.650497 0.827420
f 339/609/339 340/610/340 329/585/329
f 328/584/328 64/68/64 63/67/63
vt 0.652336 0.827429
f 339/609/339 334/611/334 340/610/340
vt 0.696481 0.619428
vt 0.707241 0.624156
f 341/612/341 203/613/203 326/566/326
vt 0.703334 0.612036
f 326/566/326 339/614/339 341/612/341
vt 0.709044 0.615924
f 326/566/326 334/615/334 339/614/339
f 203/613/203 201/567/201 326/566/326
vt 0.504098 0.676051
vt 0.500116 0.678955
vt 0.508251 0.678013
f 69/616/69 323/617/323 200/618/200
vt 0.499986 0.673440
f 69/616/69 71/619/71 323/617/323
vt 0.701591 0.833636
vt 0.700587 0.835737
f 342/620/342 343/621/343 319/553/319
vt 0.706021 0.834193
f 319/553/319 338/622/338 342/620/342
f 319/553/319 316/550/316 338/622/338
vt 0.976034 0.979736
vt 0.979945 0.976398
vt 0.930104 0.974039
f 63/623/63 65/624/65 336/625/336
vt 0.918701 0.979736
f 336/625/336 339/626/339 63/623/63
vt 0.922307 0.970766
f 336/625/336 341/627/341 339/626/339
vt 0.699618 0.968018
vt 0.695925 0.961661
vt 0.692139 0.964465
f 336/628/336 344/629/344 341/630/341
vt 0.699776 0.961349
f 336/628/336 345/631/345 344/629/344
vt 0.501065 0.699704
f 203/310/203 344/632/344 198/305/198
vt 0.696045 0.624267
f 203/613/203 341/612/341 344/633/344
vt 0.497211 0.699201
vt 0.428266 0.699426
f 345/634/345 346/635/346 71/78/71
vt 0.465151 0.678955
vt 0.446297 0.675493
vt 0.426514 0.678955
f 71/636/71 70/637/70 345/638/345
f 346/635/346 315/547/315 71/78/71
vt 0.469567 0.674828
f 315/639/315 323/617/323 71/619/71
vt 0.469483 0.678955
f 315/639/315 325/640/325 323/617/323
f 70/77/70 198/305/198 345/634/345
f 198/305/198 344/632/344 345/634/345
f 346/635/346 314/546/314 315/547/315
f 320/554/320 319/553/319 343/621/343
vt 0.692356 0.859983
f 343/621/343 73/641/73 320/554/320
vt 0.692139 0.862549
f 73/641/73 72/642/72 320/554/320
vt 0.785549 0.619725
vt 0.788527 0.624268
f 347/643/347 192/604/192 194/644/194
vt 0.780189 0.615579
f 347/643/347 342/645/342 192/604/192
f 342/645/342 338/605/338 192/604/192
vt 0.789070 0.620012
f 194/644/194 348/646/348 347/643/347
vt 0.707427 0.964880
vt 0.768720 0.960972
f 345/631/345 335/647/335 346/648/346
f 345/631/345 336/628/336 335/647/335
vt 0.791541 0.967541
f 74/649/74 346/648/346 335/647/335
vt 0.795519 0.960934
f 74/649/74 314/650/314 346/648/346
f 74/649/74 76/84/76 314/650/314
vt 0.613838 0.657476
f 74/82/74 73/81/73 76/651/76
vt 0.632980 0.663330
f 73/81/73 343/652/343 76/651/76
vt 0.629140 0.657438
f 343/652/343 347/653/347 76/651/76
f 76/84/76 75/83/75 314/650/314
vt 0.634803 0.661897
f 343/652/343 342/654/342 347/653/347
vt 0.814483 0.968018
vt 0.814637 0.965495
f 77/85/77 347/655/347 348/656/348
f 77/85/77 76/84/76 347/655/347
vt 0.945949 0.799774
vt 0.934344 0.799093
vt 0.934326 0.803955
f 77/657/77 348/658/348 191/659/191
vt 0.949628 0.803955
f 191/659/191 75/660/75 77/657/77
vt 0.382371 0.701266
f 348/661/348 194/297/194 191/290/191
vt 0.965576 0.776611
vt 0.976129 0.776611
f 334/591/334 54/662/54 340/663/340
f 55/593/55 54/662/54 334/591/334
f 249/410/249 292/487/292 309/539/309
f 249/410/249 309/539/309 259/436/259
vt 0.517002 0.836372
f 211/331/211 238/376/238 243/664/243
vt 0.514761 0.835259
f 211/331/211 243/664/243 241/665/241
vt 0.443361 0.687492
vt 0.449088 0.690845
f 349/666/349 297/500/297 301/667/301
vt 0.380508 0.632334
f 304/522/304 306/668/306 308/530/308
f 31/284/31 146/296/146 190/285/190
vt 0.383298 0.671143
f 293/489/293 349/669/349 301/509/301
vt 0.558692 0.661162
f 188/281/188 190/670/190 157/282/157
vt 0.812320 0.835816
f 31/284/31 188/286/188 189/671/189
vt 0.718541 0.678955
f 165/236/165 7/7/7 350/672/350
vt 0.696045 0.676680
vt 0.702835 0.678955
vt 0.699437 0.673989
f 167/673/167 351/674/351 108/675/108
vt 0.650572 0.739435
vt 0.650696 0.735607
vt 0.646707 0.735607
f 352/676/352 353/677/353 354/678/354
vt 0.624832 0.842050
vt 0.624850 0.844491
vt 0.628250 0.844311
f 355/679/355 356/680/356 357/681/357
vt 0.949654 0.874977
vt 0.949703 0.876432
vt 0.949252 0.872300
f 358/682/358 359/683/359 360/684/360
vt 0.931520 0.839284
vt 0.930420 0.846924
vt 0.930420 0.839259
f 212/685/212 174/686/174 204/687/204
vt 0.824951 0.667236
vt 0.832608 0.667236
vt 0.828837 0.661402
f 237/688/237 222/689/222 239/690/239
vt 0.949951 0.776611
vt 0.957882 0.774947
vt 0.955864 0.769311
f 184/691/184 207/692/207 183/693/183
vt 0.797450 0.667236
vt 0.797077 0.658948
vt 0.789795 0.667236
f 219/694/219 218/695/218 231/696/231
vt 0.998325 0.819580
vt 0.995708 0.814514
vt 0.992920 0.819580
f 27/697/27 29/698/29 258/699/258
vt 0.720905 0.877965
f 361/700/361 269/454/269 268/453/268
vt 0.759031 0.880343
f 273/458/273 362/701/362 271/461/271
vt 0.981201 0.775626
vt 0.985575 0.776611
vt 0.985625 0.772641
f 295/702/295 296/703/296 363/704/363
vt 0.832606 0.651611
vt 0.825029 0.646740
vt 0.824951 0.651611
f 296/705/296 276/706/276 272/707/272
vt 0.654380 0.815951
vt 0.654498 0.808315
vt 0.650320 0.808308
f 364/708/364 365/709/365 366/710/366
vt 0.623847 0.808341
f 330/586/330 367/711/367 327/583/327
vt 0.840360 0.616864
vt 0.836670 0.620361
vt 0.845202 0.620361
f 58/712/58 368/713/368 59/714/59
vt 0.869442 0.620361
vt 0.867815 0.616207
vt 0.864014 0.620361
f 60/715/60 369/716/369 61/717/61
f 322/557/322 60/64/60 62/66/62
vt 0.623675 0.727952
vt 0.650102 0.758469
vt 0.647141 0.747087
f 370/718/370 371/719/371 356/720/356
vt 0.600784 0.735546
f 370/718/370 372/721/372 371/719/371
f 356/720/356 354/678/354 370/718/370
vt 0.631385 0.724132
f 354/678/354 135/722/135 370/718/370
vt 0.646633 0.731776
f 354/678/354 373/723/373 135/722/135
f 373/723/373 136/226/136 135/722/135
f 356/720/356 352/676/352 354/678/354
vt 0.650601 0.746534
f 356/720/356 355/724/355 352/676/352
f 373/723/373 161/227/161 136/226/136
vt 0.653841 0.743262
f 355/724/355 374/725/374 352/676/352
vt 0.612616 0.777674
f 375/726/375 371/719/371 372/721/372
vt 0.601094 0.765178
f 372/721/372 376/727/376 375/726/375
vt 0.654651 0.766300
f 375/726/375 377/728/377 371/719/371
vt 0.593176 0.735600
f 372/721/372 378/729/378 376/727/376
vt 0.570529 0.762468
f 378/729/378 379/730/379 376/727/376
vt 0.577867 0.728008
f 378/729/378 168/731/168 379/730/379
vt 0.543568 0.743268
f 168/731/168 123/732/123 379/730/379
f 168/731/168 120/146/120 123/732/123
vt 0.585512 0.728005
f 378/729/378 167/733/167 168/731/168
vt 0.604987 0.773897
f 376/727/376 380/734/380 375/726/375
f 120/146/120 116/142/116 123/732/123
vt 0.593098 0.731175
f 378/729/378 351/735/351 167/733/167
vt 0.650634 0.759000
f 377/728/377 358/736/358 371/719/371
vt 0.654457 0.759077
f 377/728/377 359/737/359 358/736/358
vt 0.605000 0.777695
f 380/734/380 381/738/381 375/726/375
vt 0.608459 0.727961
f 350/739/350 372/721/372 370/718/370
vt 0.616103 0.724133
f 370/718/370 150/740/150 350/739/350
vt 0.604636 0.724135
f 350/739/350 7/741/7 372/721/372
f 7/741/7 378/729/378 372/721/372
vt 0.619925 0.724133
f 370/718/370 149/742/149 150/740/150
vt 0.559081 0.773900
f 382/743/382 379/730/379 123/732/123
vt 0.532029 0.770063
f 123/732/123 28/744/28 382/743/382
vt 0.528196 0.754764
f 123/732/123 122/745/122 28/744/28
vt 0.566805 0.777722
f 382/743/382 383/746/383 379/730/379
vt 0.575385 0.770064
f 383/746/383 384/747/384 379/730/379
vt 0.524374 0.766243
f 122/745/122 184/748/184 28/744/28
vt 0.961957 0.776611
f 122/749/122 207/692/207 184/691/184
vt 0.578357 0.767322
f 384/747/384 385/750/385 379/730/379
vt 0.524372 0.770068
f 184/748/184 29/751/29 28/744/28
vt 0.977011 0.878679
vt 0.965274 0.881732
f 92/752/92 360/684/360 166/753/166
vt 0.954131 0.876855
f 360/684/360 386/754/386 166/753/166
f 360/684/360 359/683/359 386/754/386
vt 0.532035 0.789205
vt 0.535835 0.796866
f 28/744/28 261/755/261 321/756/321
f 321/756/321 382/743/382 28/744/28
vt 0.524170 0.773900
f 28/744/28 258/757/258 261/755/261
vt 0.522048 0.678955
vt 0.517069 0.676146
vt 0.512451 0.678955
f 28/758/28 27/759/27 258/760/258
vt 0.562813 0.812101
vt 0.574534 0.787896
f 382/743/382 387/761/387 388/762/388
f 382/743/382 321/756/321 387/761/387
vt 0.539734 0.815985
f 321/756/321 389/763/389 387/761/387
vt 0.860040 0.940674
vt 0.844906 0.938556
vt 0.832763 0.940674
f 387/764/387 390/765/390 388/766/388
vt 0.551185 0.815994
f 389/763/389 391/767/391 387/761/387
f 388/762/388 383/746/383 382/743/382
vt 0.535840 0.800691
f 321/756/321 318/768/318 389/763/389
vt 0.570504 0.798920
vt 0.578355 0.788988
f 390/769/390 392/770/392 388/762/388
vt 0.535849 0.819818
vt 0.539748 0.823644
f 61/771/61 369/772/369 389/763/389
f 389/763/389 318/768/318 61/771/61
vt 0.659603 0.793015
vt 0.654733 0.781525
f 311/773/311 393/774/393 365/709/365
vt 0.658952 0.818488
f 365/709/365 310/775/310 311/773/311
vt 0.658709 0.773872
f 311/773/311 394/776/394 393/774/393
f 365/709/365 364/708/364 310/775/310
vt 0.654748 0.773873
f 394/776/394 395/777/395 393/774/393
vt 0.601183 0.781506
vt 0.574123 0.819835
f 396/778/396 57/779/57 367/711/367
f 396/778/396 390/769/390 57/779/57
f 367/711/367 375/726/375 396/778/396
vt 0.650834 0.781483
f 367/711/367 397/780/397 375/726/375
f 367/711/367 366/710/366 397/780/397
f 367/711/367 329/585/329 366/710/366
f 329/585/329 340/610/340 366/710/366
f 367/711/367 330/586/330 329/585/329
f 390/769/390 387/761/387 57/779/57
f 340/610/340 364/708/364 366/710/366
vt 0.566526 0.816688
f 387/761/387 368/781/368 57/779/57
vt 0.657735 0.819849
f 340/610/340 54/782/54 364/708/364
f 375/726/375 381/738/381 396/778/396
vt 0.997355 0.928955
vt 0.992873 0.926556
vt 0.989014 0.928955
f 368/783/368 58/784/58 57/785/57
vt 0.871826 0.698486
vt 0.875357 0.698486
vt 0.874397 0.693329
f 54/786/54 310/787/310 364/788/364
vt 0.593114 0.823634
f 333/789/333 367/711/367 57/779/57
f 333/789/333 327/583/327 367/711/367
f 333/789/333 331/587/331 327/583/327
vt 0.581655 0.823640
f 57/779/57 332/790/332 333/789/333
vt 0.570196 0.823643
f 57/779/57 59/791/59 332/790/332
vt 0.830441 0.700892
vt 0.834243 0.706299
vt 0.833645 0.702899
f 129/792/129 115/793/115 148/794/148
vt 0.824951 0.706299
f 129/792/129 118/795/118 115/793/115
vt 0.826188 0.620361
vt 0.832677 0.620361
vt 0.831270 0.615799
f 141/796/141 142/797/142 159/798/159
vt 0.824951 0.614719
f 159/798/159 158/799/158 141/796/141
f 135/722/135 149/742/149 370/718/370
vt 0.622481 0.716483
f 135/722/135 103/800/103 149/742/149
vt 0.619656 0.716481
f 103/800/103 101/801/101 149/742/149
vt 0.802613 0.705170
f 119/214/119 141/802/141 158/211/158
vt 0.802198 0.700770
f 119/214/119 139/803/139 141/802/141
vt 0.804178 0.671143
vt 0.807029 0.663004
vt 0.801514 0.663011
f 150/804/150 165/805/165 350/806/350
vt 0.809671 0.671143
f 150/804/150 100/807/100 165/805/165
vt 0.811051 0.663489
f 100/807/100 99/808/99 165/805/165
vt 0.969482 0.936767
vt 0.997625 0.936767
vt 0.995967 0.931597
f 113/809/113 168/810/168 107/811/107
vt 0.550843 0.721334
f 113/812/113 120/146/120 168/731/168
vt 0.969590 0.935897
f 107/811/107 110/813/110 113/809/113
vt 0.545980 0.720320
f 113/812/113 139/814/139 120/146/120
f 139/814/139 119/145/119 120/146/120
f 7/7/7 9/9/9 351/674/351
f 351/735/351 378/729/378 7/741/7
vt 0.703971 0.671988
f 9/9/9 98/815/98 351/674/351
f 98/815/98 108/675/108 351/674/351
vt 0.648806 0.731782
f 161/227/161 373/723/373 398/816/398
vt 0.639824 0.843697
vt 0.643223 0.840479
f 398/817/398 160/231/160 161/818/161
f 398/817/398 163/232/163 162/229/162
vt 0.631709 0.842435
f 398/817/398 399/819/399 163/232/163
vt 0.635055 0.838144
f 398/817/398 400/820/400 399/819/399
f 162/229/162 160/231/160 398/817/398
vt 0.801514 0.651770
vt 0.810647 0.659424
vt 0.810868 0.651769
f 121/821/121 145/822/145 147/823/147
vt 0.801533 0.659424
f 121/821/121 125/824/125 145/822/145
f 353/677/353 398/816/398 354/678/354
vt 0.653948 0.735607
f 353/677/353 400/825/400 398/816/398
f 398/816/398 373/723/373 354/678/354
vt 0.652328 0.739435
f 400/825/400 352/676/352 399/826/399
f 400/825/400 353/677/353 352/676/352
f 352/676/352 374/725/374 399/826/399
vt 0.849781 0.687141
vt 0.848389 0.706299
vt 0.852028 0.706299
f 394/827/394 311/828/311 93/829/93
vt 0.628594 0.847695
f 357/681/357 164/830/164 163/232/163
f 163/232/163 399/819/399 357/681/357
vt 0.624547 0.845169
f 357/681/357 402/831/402 164/830/164
vt 0.625293 0.850239
f 402/831/402 181/832/181 164/830/164
vt 0.627530 0.839363
f 399/819/399 374/833/374 357/681/357
f 374/833/374 355/679/355 357/681/357
vt 0.649992 0.747089
vt 0.654242 0.759923
f 402/834/402 371/719/371 360/835/360
f 402/834/402 356/720/356 371/719/371
f 371/719/371 358/736/358 360/835/360
vt 0.650414 0.743262
f 402/834/402 357/836/357 356/720/356
vt 0.611209 0.844182
f 181/832/181 402/831/402 360/837/360
vt 0.601994 0.850830
f 360/837/360 179/838/179 181/832/181
vt 0.598389 0.848893
f 360/837/360 257/839/257 179/838/179
vt 0.585995 0.766039
f 379/730/379 385/750/385 403/840/403
f 403/840/403 376/727/376 379/730/379
vt 0.942153 0.879686
f 386/754/386 359/683/359 377/841/377
vt 0.656189 0.754740
f 377/728/377 394/776/394 386/842/386
f 377/728/377 395/777/395 394/776/394
vt 0.985479 0.725830
vt 0.992465 0.725830
vt 0.990741 0.722267
f 404/843/404 210/844/210 212/845/212
vt 0.985107 0.720293
f 212/845/212 208/846/208 404/843/404
vt 0.990661 0.721279
f 212/845/212 204/847/204 208/846/208
vt 0.985873 0.719121
f 204/847/204 205/848/205 208/846/208
vt 0.847093 0.874317
vt 0.858708 0.868140
vt 0.855710 0.867702
f 405/849/405 406/850/406 407/851/407
vt 0.843583 0.866846
f 407/851/407 20/852/20 405/849/405
vt 0.789419 0.678601
vt 0.786769 0.673212
vt 0.778076 0.678955
f 407/853/407 18/854/18 20/855/20
vt 0.842278 0.869711
f 20/852/20 91/856/91 405/849/405
vt 0.790620 0.675100
f 407/853/407 173/857/173 18/854/18
vt 0.789790 0.670354
f 173/857/173 169/858/169 18/854/18
vt 0.794564 0.678213
f 208/321/208 173/857/173 408/859/408
f 208/321/208 172/320/172 173/857/173
vt 0.798688 0.678955
f 408/859/408 404/860/404 208/321/208
f 173/857/173 407/853/407 408/859/408
vt 0.652773 0.658124
vt 0.649660 0.663330
vt 0.653500 0.663330
f 217/861/217 409/862/409 220/863/220
vt 0.637451 0.660505
f 217/861/217 224/864/224 409/862/409
vt 0.657814 0.659707
f 220/863/220 214/865/214 217/861/217
vt 0.599543 0.773882
f 376/727/376 410/866/410 380/734/380
vt 0.593642 0.768487
f 376/727/376 411/867/411 410/866/410
f 376/727/376 403/840/403 411/867/411
vt 0.785365 0.694043
vt 0.785411 0.693782
vt 0.778146 0.694580
f 403/868/403 412/869/412 411/870/411
vt 0.862442 0.869525
vt 0.878972 0.865612
vt 0.872494 0.861656
f 413/871/413 222/872/222 237/873/237
vt 0.873661 0.879942
f 413/871/413 223/874/223 222/872/222
vt 0.863855 0.863714
f 237/873/237 404/875/404 413/871/413
vt 0.866237 0.857208
f 237/873/237 213/876/213 404/875/404
vt 0.860908 0.858212
f 213/876/213 210/877/210 404/875/404
vt 0.860317 0.865370
f 404/875/404 408/878/408 413/871/413
vt 0.860391 0.873252
f 406/850/406 414/879/414 413/871/413
f 413/871/413 408/878/408 406/850/406
f 408/878/408 407/851/407 406/850/406
vt 0.764554 0.858879
vt 0.762451 0.847229
vt 0.764222 0.850578
f 220/880/220 245/881/245 218/882/218
vt 0.762451 0.862549
f 220/880/220 409/883/409 245/881/245
vt 0.701448 0.885415
vt 0.705392 0.883102
vt 0.697841 0.880305
f 244/884/244 415/885/415 416/886/416
vt 0.693807 0.882679
f 416/886/416 411/887/411 244/884/244
vt 0.694042 0.880843
f 416/886/416 410/888/410 411/887/411
vt 0.701387 0.885986
f 411/887/411 235/889/235 244/884/244
vt 0.778076 0.686187
f 235/890/235 411/870/411 412/869/412
vt 0.789440 0.686429
f 412/869/412 236/891/236 235/890/235
vt 0.793582 0.691341
f 412/869/412 417/892/417 236/891/236
vt 0.793456 0.686962
f 417/892/417 247/893/247 236/891/236
vt 0.793099 0.694580
f 412/869/412 385/894/385 417/892/417
f 412/869/412 403/868/403 385/894/385
vt 0.761255 0.659565
vt 0.758362 0.659520
vt 0.759508 0.663443
f 385/895/385 384/896/384 417/897/417
vt 0.758467 0.663430
f 384/896/384 418/898/418 417/897/417
f 377/728/377 375/726/375 397/780/397
f 397/780/397 395/777/395 377/728/377
f 397/780/397 393/774/393 395/777/395
f 414/879/414 223/874/223 413/871/413
vt 0.872307 0.882147
f 414/879/414 228/899/228 223/874/223
vt 0.852204 0.881155
f 405/849/405 35/900/35 414/879/414
f 414/879/414 406/850/406 405/849/405
vt 0.863189 0.884105
f 35/900/35 40/901/40 414/879/414
f 40/901/40 228/899/228 414/879/414
vt 0.866478 0.885986
f 40/901/40 271/902/271 228/899/228
vt 0.848942 0.879241
f 405/849/405 36/903/36 35/900/35
vt 0.758993 0.884454
f 271/461/271 362/701/362 228/904/228
vt 0.755168 0.884440
f 362/701/362 226/905/226 228/904/228
vt 0.735892 0.885986
f 409/906/409 278/469/278 277/468/277
vt 0.747518 0.884385
f 409/906/409 224/907/224 278/469/278
vt 0.720578 0.885602
f 277/468/277 245/908/245 409/906/409
f 277/468/277 268/453/268 245/908/245
f 268/453/268 415/885/415 245/908/245
f 415/885/415 244/884/244 245/908/245
f 277/468/277 361/700/361 268/453/268
f 268/453/268 266/451/266 415/885/415
f 224/907/224 226/905/226 278/469/278
vt 0.746905 0.663383
vt 0.746871 0.667205
vt 0.758370 0.667236
f 419/909/419 252/910/252 246/911/246
f 246/911/246 418/898/418 419/909/419
vt 0.796451 0.687992
vt 0.794579 0.691636
f 246/912/246 417/892/417 418/913/418
f 246/912/246 247/893/247 417/892/417
f 226/905/226 362/701/362 274/460/274
f 274/460/274 278/469/278 226/905/226
f 362/701/362 273/458/273 274/460/274
f 266/451/266 265/450/265 416/886/416
f 416/886/416 415/885/415 266/451/266
vt 0.698480 0.873170
f 265/450/265 284/914/284 416/886/416
vt 0.575816 0.781538
f 419/915/419 384/747/384 383/746/383
f 419/909/419 418/898/418 384/896/384
f 383/746/383 388/762/388 419/915/419
vt 0.578541 0.784883
f 388/762/388 420/916/420 419/915/419
f 91/856/91 36/903/36 405/849/405
vt 0.832764 0.885986
f 91/856/91 89/917/89 36/903/36
vt 0.692139 0.875021
f 410/888/410 284/914/284 396/918/396
f 410/888/410 416/886/416 284/914/284
f 396/778/396 381/738/381 410/866/410
vt 0.595315 0.676006
vt 0.594943 0.680166
vt 0.598276 0.682861
f 284/919/284 421/920/421 396/921/396
f 381/738/381 380/734/380 410/866/410
vt 0.985599 0.763946
vt 0.990135 0.760267
vt 0.982785 0.758597
f 361/922/361 279/923/279 267/924/267
vt 0.981201 0.764893
f 267/924/267 269/925/269 361/922/361
vt 0.993244 0.764893
f 361/922/361 277/926/277 279/923/279
vt 0.977599 0.741455
vt 0.975319 0.735167
vt 0.970426 0.738080
f 35/927/35 295/928/295 363/929/363
vt 0.965576 0.741455
f 363/929/363 40/930/40 35/927/35
vt 0.979040 0.738154
f 35/927/35 37/931/37 295/928/295
vt 0.966800 0.735970
f 363/929/363 38/932/38 40/930/40
f 365/709/365 397/780/397 366/710/366
f 365/709/365 393/774/393 397/780/397
vt 0.993032 0.776611
vt 0.993525 0.773316
vt 0.988943 0.772014
f 272/933/272 39/934/39 38/935/38
f 38/935/38 296/703/296 272/933/272
f 38/935/38 363/704/363 296/703/296
vt 0.589822 0.786101
f 390/769/390 422/936/422 392/770/392
vt 0.563232 0.682861
vt 0.586142 0.679763
f 390/937/390 396/921/396 422/938/422
f 396/921/396 421/920/421 422/938/422
f 284/919/284 422/938/422 421/920/421
vt 0.587085 0.672266
f 284/919/284 281/939/281 422/938/422
vt 0.976668 0.749268
vt 0.968998 0.745375
vt 0.965576 0.749268
f 283/940/283 420/941/420 392/942/392
vt 0.574497 0.678283
vt 0.583432 0.671647
f 392/943/392 422/938/422 283/944/283
vt 0.971824 0.743741
f 283/940/283 288/945/288 420/941/420
f 422/938/422 281/939/281 283/944/283
f 420/916/420 388/762/388 392/770/392
vt 0.742920 0.667236
vt 0.743194 0.667232
vt 0.743706 0.663412
f 288/946/288 290/947/290 420/948/420
f 290/947/290 252/910/252 419/909/419
f 419/909/419 420/948/420 290/947/290
vt 0.719509 0.667236
vt 0.720921 0.659865
vt 0.719482 0.663069
f 56/949/56 310/950/310 54/951/54
vt 0.739740 0.667236
f 56/949/56 312/952/312 310/950/310
vt 0.558714 0.823644
f 387/761/387 391/767/391 337/953/337
f 337/953/337 368/781/368 387/761/387
f 337/953/337 59/791/59 368/781/368
vt 0.535845 0.831299
f 369/772/369 320/954/320 337/953/337
f 337/953/337 391/767/391 369/772/369
f 391/767/391 389/763/389 369/772/369
vt 0.535907 0.827471
f 369/772/369 322/955/322 320/954/320
vt 0.536036 0.823643
f 369/772/369 60/956/60 322/955/322
f 328/584/328 333/789/333 64/68/64
f 328/584/328 331/587/331 333/789/333
vt 0.850381 0.681428
f 401/957/401 394/827/394 93/829/93
# 807 faces, 957 coords texture

# End of File
