####
#
# OBJ File Generated by Meshlab
#
####
# Object fan.obj
#
# Vertices: 436
# Faces: 825
#
####
mtllib ./fan.obj.mtl

vn 0.405147 -0.897190 0.175799
v -3.374335 0.745239 0.946623
vn 0.315847 -0.947209 0.055092
v -3.374335 0.742919 0.926625
vn 0.259081 -0.904217 -0.339511
v -3.354338 0.752471 0.872660
vn 0.704479 -0.645727 -0.294526
v -3.327609 0.772467 0.866624
vn 0.892369 -0.413783 0.180171
v -3.400521 0.732468 0.966624
vn 0.696768 -0.716862 -0.024969
v -3.398551 0.732467 0.946624
vn 0.865868 -0.069516 -0.495420
v -3.416992 0.692472 0.926624
vn 0.925731 -0.321678 -0.198862
v -3.414343 0.710560 0.926625
vn 0.883288 -0.383051 -0.270324
v -3.438442 0.652467 0.886624
vn 0.285451 -0.917249 0.277798
v -3.374338 0.766314 1.006622
vn 0.413138 -0.802494 0.430489
v -3.454334 0.766775 1.066626
vn 0.251189 -0.910068 0.329667
v -3.411393 0.772233 1.046435
vn 0.501150 -0.789488 0.354341
v -3.387569 0.752470 0.986625
vn 0.912774 -0.233669 0.335027
v -3.404483 0.732469 0.986625
vn 0.677621 -0.034473 0.734603
v -3.414337 0.732470 1.004245
vn 0.494792 -0.695355 0.521211
v -3.403653 0.752474 1.006622
vn 0.323795 -0.110329 0.939672
v -3.434337 0.732470 1.014846
vn 0.285111 -0.834687 0.471179
v -3.474337 0.722469 1.046624
vn 0.039539 -0.772399 0.633906
v -3.494335 0.716515 1.026626
vn 0.011525 -0.175632 0.984388
v -3.534337 0.612469 -0.018085
vn 0.093154 -0.877078 0.471229
v -3.494336 0.732468 1.055860
vn -0.686188 0.727413 0.004052
v -3.574336 0.612469 -0.072019
vn -0.744609 -0.156610 0.648869
v -3.594337 0.552469 -0.037911
vn -0.635147 0.089697 0.767166
v -3.594337 0.592469 -0.038444
vn -0.651768 0.072269 0.754968
v -3.594337 0.572469 -0.043189
vn 0.376739 0.146500 0.914661
v -3.594337 0.532469 -0.045591
vn -0.678277 0.713350 0.176272
v -3.614336 0.574366 -0.113375
vn -0.776154 0.089269 0.624192
v -3.602876 0.552463 -0.053381
vn -0.669884 0.322369 0.668830
v -3.634336 0.492469 -0.036495
vn -0.655220 -0.159263 0.738459
v -3.654336 0.472469 -0.056799
vn -0.357877 0.751233 0.554592
v -3.654334 0.537168 -0.113378
vn -0.668534 0.530382 0.521304
v -3.634336 0.522453 -0.073377
vn -0.693529 0.419479 0.585708
v -3.659847 0.492469 -0.073376
vn -0.623158 0.530235 0.574913
v -3.654338 0.532470 -0.104296
vn -0.673931 0.119328 0.729093
v -3.674338 0.492469 -0.088260
vn -0.609094 0.011511 0.793015
v -3.674339 0.432469 -0.084379
vn -0.408909 0.058797 0.910679
v -3.694337 0.472470 -0.095941
vn -0.070892 -0.605740 0.792498
v -3.734337 0.412469 -0.112242
vn 0.255354 -0.886063 0.386894
v -3.414669 0.772026 1.048186
vn -0.005151 -0.916936 0.399001
v -3.374339 0.774577 1.026621
vn 0.654992 -0.754179 -0.046898
v -3.402248 0.732462 0.886624
vn 0.143467 -0.794652 0.589870
v -3.494338 0.742474 1.086621
vn -0.038359 -0.915991 0.399360
v -3.514337 0.736093 1.066625
vn 0.876804 -0.479591 0.034755
v -3.434349 0.692473 0.746625
vn 0.709255 -0.477028 0.519040
v -3.459851 0.732469 1.046624
vn 0.531476 -0.657405 0.534184
v -3.454334 0.752467 1.046625
vn 0.529753 -0.705392 0.470939
v -3.461040 0.732471 1.026623
vn 0.343113 -0.894437 -0.286803
v -3.454336 0.635248 0.886624
vn -0.550013 -0.810786 -0.200280
v -3.487616 0.632473 0.906624
vn -0.142687 0.285252 0.947772
v -3.574336 0.612469 -0.020612
vn -0.272411 0.692476 0.668034
v -3.554337 0.612469 -0.042362
vn 0.374329 -0.324061 0.868828
v -3.554336 0.592468 -0.033375
vn 0.635751 -0.389596 0.666360
v -3.589577 0.532469 -0.053376
vn -0.887233 -0.390383 0.245801
v -3.606034 0.752468 1.066624
vn -0.241529 0.615838 0.749938
v -3.614341 0.512473 -0.042020
vn -0.747111 0.640685 0.177050
v -3.616228 0.572470 -0.113375
vn -0.870860 0.346325 0.348801
v -3.624838 0.552467 -0.093378
vn -0.809223 -0.085967 0.581178
v -3.691473 0.412469 -0.093376
vn -0.414434 -0.552662 0.723056
v -3.694337 0.406304 -0.113376
vn -0.466478 -0.160062 0.869930
v -3.694337 0.432469 -0.093377
vn -0.478204 0.828490 0.291419
v -3.655953 0.550614 -0.133616
vn -0.607672 -0.164819 0.776898
v -3.574356 0.952460 -0.134907
vn -0.755807 0.639995 -0.138428
v -3.668124 0.852471 0.946624
vn -0.105672 -0.444721 0.889414
v -3.674337 0.412469 -0.083316
vn -0.395965 0.910621 0.118243
v -3.674345 0.868664 0.966625
vn 0.670117 -0.518233 0.531392
v -3.621887 0.452468 -0.093375
vn -0.918428 0.168756 0.357786
v -3.624434 0.572469 -0.073376
vn -0.617613 0.778162 -0.114098
v -3.604582 0.592469 -0.073376
vn 0.398400 0.846915 -0.352154
v -3.554161 0.881678 0.926625
vn -0.541879 -0.321682 0.776459
v -3.514338 0.832469 1.122964
vn -0.086347 -0.895125 0.437374
v -3.514337 0.622623 0.626624
vn -0.483333 -0.084028 0.871395
v -3.494336 0.812470 1.126623
vn 0.118897 -0.735125 0.667424
v -3.474337 0.626051 1.006624
vn 0.839688 -0.533946 -0.099124
v -3.446102 0.632471 0.806624
vn 0.568760 0.110887 0.814995
v -3.414337 0.452469 -0.111154
vn -0.441460 0.876270 -0.193040
v -3.374337 0.883803 0.866624
vn 0.707211 -0.705710 -0.042738
v -3.344282 0.772545 1.026624
vn -0.021366 0.290291 0.956700
v -3.174426 0.812544 -0.128209
vn 0.386919 -0.603336 0.697338
v -3.474337 0.632469 -0.086912
vn -0.744866 0.663183 -0.073234
v -3.584554 0.612469 -0.053376
vn -0.543961 -0.401112 0.737031
v -3.584349 0.752469 1.086624
vn 0.942309 0.100366 -0.319345
v -3.395765 0.672470 0.946626
vn 0.542798 0.357536 -0.759960
v -3.354335 0.812471 0.779241
vn 0.357137 -0.919780 0.162660
v -3.334337 0.742487 0.906623
vn -0.035072 -0.210453 0.976975
v -3.354339 0.595615 -0.133608
vn 0.737400 -0.549283 -0.393103
v -3.374324 0.752454 0.766625
vn -0.591193 0.760210 -0.269391
v -3.390094 0.892510 0.926615
vn 0.743455 -0.653689 0.141303
v -3.294339 0.804358 0.866625
vn 0.962714 -0.145193 -0.228255
v -3.444313 0.672470 0.726624
vn -0.080451 -0.566125 0.820384
v -3.774334 0.592477 -0.132563
vn -0.226995 -0.211444 0.950665
v -3.660752 0.392466 -0.113366
vn 0.595571 -0.541216 0.593616
v -3.634341 0.432472 -0.096153
vn 0.228703 -0.906831 0.354052
v -3.634342 0.453731 -0.073382
vn 0.157604 -0.103883 0.982023
v -3.494340 0.592468 -0.121095
vn -0.356865 -0.295585 0.886158
v -3.827627 0.612433 -0.132460
vn -0.085780 -0.574811 0.813778
v -3.774335 0.613195 -0.117929
vn -0.846708 0.531804 0.016431
v -3.678916 0.852459 0.926626
vn -0.993116 -0.050086 0.105889
v -3.679012 0.832469 0.946624
vn 0.304609 -0.426436 0.851684
v -3.654334 0.412467 -0.107385
vn -0.485270 0.868743 -0.098986
v -3.654337 0.863300 0.946624
vn -0.934376 0.290772 0.205895
v -3.674341 0.852475 0.992413
vn -0.150908 -0.136403 0.979092
v -3.654341 0.392472 -0.104076
vn 0.071863 -0.471604 0.878877
v -3.654338 0.432469 -0.062976
vn 0.699009 -0.162237 0.696466
v -3.616091 0.432467 -0.113374
vn 0.433929 -0.498132 0.750713
v -3.614336 0.452469 -0.121051
vn 0.462406 -0.453014 0.762207
v -3.594334 0.452466 -0.119162
vn -0.087862 -0.698811 0.709890
v -3.634337 0.472469 -0.038608
vn 0.702988 -0.584862 0.404653
v -3.623363 0.472471 -0.073379
vn -0.907717 0.376099 -0.186007
v -3.626261 0.572469 -0.093376
vn -0.709227 0.704178 0.033623
v -3.614336 0.582714 -0.073376
vn -0.812166 0.429290 0.395091
v -3.604502 0.592469 -0.053376
vn -0.663725 0.733374 0.147076
v -3.594337 0.602687 -0.053376
vn -0.262506 0.956918 -0.124090
v -3.614339 0.885264 0.906624
vn 0.146404 0.934784 -0.323642
v -3.576206 0.892480 0.926626
vn -0.210500 0.899623 0.382580
v -3.574336 0.622651 -0.033376
vn -0.089290 0.961366 -0.260391
v -3.574336 0.622638 -0.053376
vn -0.113152 -0.497059 0.860307
v -3.554336 0.752471 1.096437
vn -0.059974 -0.852307 0.519592
v -3.554337 0.742753 1.086622
vn -0.580227 -0.051948 0.812797
v -3.514337 0.852469 1.136023
vn -0.591284 0.365481 0.718893
v -3.550228 0.872468 1.106620
vn -0.420549 -0.391845 -0.818288
v -3.514337 0.632469 0.593472
vn -0.912453 -0.182389 0.366283
v -3.526714 0.632469 0.626624
vn 0.704499 -0.396393 0.588688
v -3.514337 0.592469 -0.095494
vn 0.402258 -0.319758 0.857872
v -3.494324 0.572471 -0.111461
vn 0.507556 -0.714503 0.481531
v -3.494336 0.633502 -0.073375
vn 0.353993 -0.699189 0.621147
v -3.494336 0.625345 -0.093376
vn -0.315454 -0.242975 0.917307
v -3.494338 0.792476 1.136053
vn 0.172499 -0.513284 0.840704
v -3.454336 0.812469 1.139401
vn -0.023491 -0.989918 0.139678
v -3.474337 0.602486 0.986624
vn 0.256272 -0.844332 0.470561
v -3.454336 0.623089 0.986624
vn 0.182680 -0.975663 -0.121288
v -3.454340 0.624328 0.806624
vn 0.017623 -0.980032 -0.198060
v -3.454334 0.632446 0.789638
vn 0.788312 0.147204 -0.597407
v -3.451794 0.692469 0.706624
vn 0.966912 -0.172991 -0.187498
v -3.423453 0.692469 0.726624
vn -0.184572 0.952992 -0.240289
v -3.454346 0.885510 0.966615
vn -0.549008 0.722234 -0.420675
v -3.394336 0.885337 0.926625
vn 0.226650 0.029986 0.973515
v -3.434341 0.492467 -0.095702
vn -0.269284 0.049879 0.961768
v -3.434339 0.432468 -0.107445
vn 0.017875 -0.395349 0.918357
v -3.374334 0.632478 -0.115978
vn -0.074482 -0.336844 0.938610
v -3.394338 0.614233 -0.133582
vn -0.104756 0.973455 -0.203499
v -3.374336 0.888708 0.846623
vn 0.270193 0.774463 -0.572017
v -3.414335 0.874278 0.826618
vn 0.981760 -0.189792 0.011236
v -3.394337 0.652469 0.966624
vn 0.863938 -0.434735 -0.254198
v -3.407748 0.632469 0.946624
vn 0.668220 -0.183092 -0.721082
v -3.394328 0.732456 0.738244
vn 0.436856 0.273489 -0.856948
v -3.394336 0.752471 0.747666
vn 0.581752 0.161247 0.797222
v -3.374345 0.372425 -0.129504
vn 0.268332 0.268941 -0.925024
v -3.354337 0.792469 0.757902
vn 0.406336 0.005332 -0.913708
v -3.374335 0.772470 0.759588
vn 0.245474 -0.962219 0.117803
v -3.354337 0.762468 1.026624
vn -0.075078 -0.515877 0.853366
v -3.354338 0.772474 1.036624
vn 0.857207 -0.507096 0.089716
v -3.317004 0.772469 0.926624
vn 0.500436 -0.797375 0.337279
v -3.334336 0.755990 0.926625
vn 0.047156 0.089548 0.994866
v -3.294337 0.732453 -0.106585
vn 0.185106 -0.055666 0.981141
v -3.174398 0.752444 -0.128079
vn 0.591844 -0.191506 -0.782973
v -3.294339 0.832470 0.830506
vn 0.517294 -0.771739 -0.369900
v -3.274337 0.803566 0.846624
vn -0.382833 -0.632176 -0.673641
v -3.494336 0.652468 0.580707
vn 0.148944 0.052657 0.987443
v -3.434337 0.712469 1.016773
vn -0.708658 -0.149053 0.689629
v -3.629800 1.212458 -0.135690
vn -0.169167 0.833543 0.525918
v -3.694337 0.669582 -0.133234
vn -0.541916 -0.062238 0.838125
v -3.514344 0.732465 -0.134304
vn -0.419500 0.165538 0.892534
v -3.834312 0.632491 -0.132511
vn -0.379585 0.475067 0.793868
v -3.514364 0.692447 -0.134077
vn -0.453916 0.068712 0.888391
v -3.614324 0.592505 -0.133334
vn -0.058837 0.096662 0.993577
v -3.483028 0.752482 -0.113051
vn -0.220462 0.167679 0.960875
v -3.774336 0.632466 -0.104317
vn -0.102320 0.264109 0.959050
v -3.674335 0.652458 -0.095033
vn -0.025904 -0.008743 0.999626
v -3.574338 0.652491 -0.094404
vn -0.650453 0.066721 0.756610
v -3.574338 0.622178 -0.113408
vn -0.336977 0.704827 0.624231
v -3.554339 0.649200 -0.093412
vn 0.283779 0.193872 0.939086
v -3.414322 0.372346 -0.090555
vn -0.173454 0.984705 0.016420
v -3.674337 0.547038 -0.113376
vn -0.628332 0.627479 -0.459858
v -3.673987 0.532466 -0.133738
vn -0.134500 0.697847 0.703505
v -3.554336 0.672465 -0.105172
vn -0.358145 0.877838 0.318014
v -3.514336 0.684560 -0.113380
vn -0.905276 -0.422622 0.043193
v -3.676709 0.812468 0.926624
vn -0.862063 0.323833 -0.389845
v -3.674339 0.832472 0.868875
vn -0.929813 -0.258417 -0.262046
v -3.674337 0.812469 0.878326
vn -0.671659 -0.740262 -0.029777
v -3.668764 0.792472 0.886624
vn -0.549742 -0.825618 -0.127041
v -3.634325 0.775984 0.866624
vn -0.770304 -0.633141 0.075924
v -3.654346 0.792462 0.986625
vn -0.679803 -0.606483 -0.412366
v -3.653191 0.792467 0.866624
vn -0.918292 0.103486 0.382139
v -3.665209 0.832470 1.026624
vn -0.847901 -0.492926 0.195160
v -3.650792 0.792462 1.046624
vn -0.280268 0.928280 -0.244432
v -3.614332 0.882368 0.886625
vn -0.453529 0.823376 0.341121
v -3.654334 0.872454 1.006621
vn 0.259346 -0.464699 0.846637
v -3.514332 0.532464 -0.133384
vn 0.522692 -0.476853 0.706686
v -3.520276 0.552473 -0.113386
vn 0.554651 -0.394381 0.732684
v -3.634332 0.372440 -0.129595
vn 0.526650 -0.120005 0.841569
v -3.614334 0.432467 -0.114663
vn 0.407615 -0.364861 0.837094
v -3.634341 0.412472 -0.106723
vn -0.703985 0.028150 -0.709656
v -3.634338 0.812473 0.802344
vn -0.750362 -0.419682 -0.510710
v -3.599690 0.772475 0.786624
vn -0.799447 -0.238306 0.551448
v -3.646541 0.792456 1.066623
vn -0.686461 0.266816 0.676448
v -3.638125 0.832469 1.066625
vn -0.532630 0.583230 -0.613309
v -3.634337 0.818348 0.806623
vn -0.221843 0.907646 -0.356321
v -3.554336 0.879763 0.826627
vn -0.265982 0.128303 0.955401
v -3.614333 0.852466 1.086621
vn -0.369749 0.835804 0.405854
v -3.634342 0.863705 1.026627
vn -0.577214 -0.815332 -0.045367
v -3.594337 0.752469 0.886623
vn -0.593098 -0.804978 0.015688
v -3.592697 0.752490 1.026624
vn -0.509768 -0.628498 0.587475
v -3.604140 0.772446 1.066624
vn -0.427455 -0.850139 0.307483
v -3.634335 0.780258 1.066624
vn -0.816453 -0.521627 -0.247609
v -3.595858 0.752490 1.046624
vn -0.477152 -0.302786 0.825013
v -3.605197 0.792469 1.086621
vn -0.102236 0.248731 0.963162
v -3.594339 0.852470 1.080709
vn -0.249275 0.966246 -0.065048
v -3.534339 0.885296 1.026627
vn -0.390322 0.895011 -0.215879
v -3.554340 0.877013 1.066626
vn -0.427339 0.854346 0.295762
v -3.567452 0.872469 1.066624
vn -0.493852 0.392671 0.775835
v -3.574337 0.852471 1.090234
vn 0.067685 0.047866 0.996558
v -3.474337 0.372470 -0.128416
vn -0.235638 -0.011919 0.971768
v -3.474346 0.432467 -0.131297
vn -0.110265 -0.285675 0.951962
v -3.512937 0.532468 -0.133396
vn 0.656858 -0.509960 0.555408
v -3.554346 0.552476 -0.076107
vn 0.684598 -0.505400 0.525258
v -3.574335 0.512468 -0.095622
vn 0.695541 -0.598566 0.397420
v -3.594340 0.492471 -0.086888
vn 0.402141 -0.420739 0.813180
v -3.514338 0.572469 -0.108778
vn 0.699832 -0.588283 0.405164
v -3.534343 0.592474 -0.067875
vn 0.616511 -0.717262 0.324728
v -3.614341 0.481497 -0.073381
vn 0.758087 -0.549133 0.351790
v -3.574344 0.532475 -0.073384
vn 0.676212 -0.505830 0.535606
v -3.634340 0.452471 -0.077223
vn -0.409440 0.445878 -0.795960
v -3.574334 0.812465 0.773051
vn -0.705474 0.002076 -0.708733
v -3.583584 0.772459 0.766622
vn -0.507169 0.209858 -0.835906
v -3.554338 0.772470 0.746622
vn -0.158788 0.888752 -0.430007
v -3.514332 0.882634 0.806624
vn -0.074427 0.619549 -0.781422
v -3.494340 0.840290 0.766615
vn -0.596950 -0.169574 0.784153
v -3.574334 0.992473 -0.126237
vn -0.630250 -0.770604 0.094622
v -3.554356 0.724710 1.006624
vn -0.753080 -0.657671 -0.018441
v -3.554305 0.717131 0.886623
vn -0.521472 -0.850955 0.062798
v -3.563049 0.732471 1.026624
vn -0.503823 -0.282324 0.816367
v -3.594337 0.772469 1.069477
vn -0.715298 -0.439590 0.543240
v -3.574336 0.772469 1.087667
vn -0.493334 -0.230370 0.838779
v -3.594335 0.792469 1.095699
vn 0.791139 -0.340444 0.508131
v -3.604337 0.492469 -0.033376
vn 0.210267 -0.060037 0.975799
v -3.614341 0.492474 -0.019136
vn -0.853278 -0.504216 -0.132978
v -3.534393 0.707192 0.746625
vn -0.791924 -0.279187 -0.543057
v -3.549865 0.732469 0.746624
vn -0.317095 -0.121830 0.940536
v -3.534336 0.812470 1.109254
vn 0.136791 0.984627 -0.108616
v -3.535371 0.872471 0.926625
vn -0.104304 0.990839 0.085779
v -3.434337 0.871365 0.866625
vn 0.144648 0.902013 -0.406755
v -3.454337 0.883563 0.806622
vn 0.029804 0.995117 -0.094100
v -3.434340 0.885422 0.826620
vn 0.515907 0.117731 0.848516
v -3.594337 0.512469 -0.037365
vn 0.873965 -0.377562 0.305995
v -3.594337 0.502469 -0.053376
vn -0.580426 0.291581 -0.760320
v -3.534337 0.754083 0.726623
vn -0.032550 0.505454 -0.862239
v -3.494334 0.792475 0.732518
vn -0.130236 0.366531 -0.921246
v -3.494336 0.732467 0.696715
vn -0.393251 0.622126 -0.676988
v -3.514341 0.737788 0.706627
vn -0.957267 0.013015 -0.288913
v -3.526732 0.712475 0.706614
vn -0.606533 -0.412318 0.679788
v -3.594337 0.752469 1.075527
vn -0.298186 -0.507890 0.808166
v -3.511432 0.772460 1.106633
vn -0.473968 -0.170656 0.863847
v -3.514336 0.792470 1.109545
vn 0.106459 0.988512 -0.107289
v -3.534335 0.883973 1.006625
vn 0.757465 -0.526514 0.386044
v -3.556591 0.552470 -0.073377
vn 0.889184 -0.418046 0.185983
v -3.559089 0.552469 -0.053376
vn 0.225527 -0.815511 0.532990
v -3.574336 0.537206 -0.033376
vn 0.078176 -0.220503 0.972248
v -3.574336 0.552469 -0.017836
vn -0.806068 0.519520 0.283468
v -3.564000 0.632469 -0.073376
vn -0.164903 0.726235 0.667375
v -3.534336 0.642621 -0.033376
vn -0.578527 0.776477 0.249780
v -3.554337 0.643715 -0.073376
vn -0.634448 0.537024 0.555950
v -3.534336 0.652469 -0.097894
vn -0.551199 0.589526 0.590457
v -3.534336 0.672469 -0.093376
vn -0.583851 0.589893 0.557803
v -3.512666 0.672469 -0.073376
vn -0.592495 0.036733 0.804736
v -3.494266 0.732504 -0.114104
vn -0.535648 -0.147469 0.831465
v -3.534428 0.932418 -0.108845
vn -0.651524 -0.160310 0.741497
v -3.574345 0.973118 -0.130431
vn -0.628292 -0.777011 -0.038774
v -3.500913 0.652443 0.746624
vn -0.782430 -0.613526 -0.106718
v -3.509907 0.652473 0.926624
vn -0.874916 -0.481528 0.051511
v -3.534352 0.694652 0.966623
vn -0.859011 -0.509507 0.050016
v -3.517983 0.672466 0.726624
vn -0.870945 -0.340471 0.354308
v -3.527260 0.692426 0.986623
vn -0.911766 -0.351088 -0.213120
v -3.527405 0.692442 0.726624
vn -0.263061 -0.422777 0.867213
v -3.516902 0.692470 1.006624
vn -0.350391 -0.343840 0.871206
v -3.514337 0.692470 1.006623
vn -0.368826 -0.896339 0.246056
v -3.554337 0.727492 1.026625
vn -0.705404 0.694047 0.143888
v -3.546540 0.892469 1.086626
vn -0.305347 0.924760 -0.227118
v -3.514330 0.907128 1.066637
vn -0.485592 0.859840 0.157720
v -3.534337 0.903809 1.086629
vn -0.187833 0.940984 -0.281545
v -3.514341 0.889602 1.026621
vn -0.093516 0.847390 0.522670
v -3.523716 0.652469 -0.053376
vn -0.574871 0.766634 0.285999
v -3.534336 0.652470 -0.084181
vn 0.095982 0.311154 0.945500
v -3.494336 0.661381 -0.053376
vn -0.379167 0.913095 -0.149965
v -3.394337 0.878087 0.886624
vn -0.271294 0.633301 0.724796
v -3.474336 0.890709 1.146623
vn -0.289057 -0.115937 0.950266
v -3.474338 0.852470 1.153305
vn 0.752571 -0.555625 0.353439
v -3.514335 0.612467 -0.073375
vn 0.810835 -0.053873 0.582791
v -3.514336 0.632469 -0.050616
vn 0.790988 -0.455133 0.408890
v -3.520033 0.612471 -0.033377
vn 0.372967 -0.246086 0.894616
v -3.491181 0.652470 -0.053377
vn 0.752592 0.418359 0.508508
v -3.518072 0.632469 -0.033376
vn 0.748667 0.080007 0.658101
v -3.454337 0.672470 -0.069065
vn 0.169252 0.614751 0.770347
v -3.474337 0.692469 -0.056498
vn -0.291339 0.307807 0.905746
v -3.494336 0.672470 -0.056663
vn -0.945688 0.262014 -0.192415
v -3.514337 0.652469 0.626624
vn -0.211456 -0.718779 -0.662301
v -3.494337 0.649066 0.586623
vn -0.906884 0.201124 -0.370285
v -3.514337 0.692469 0.613181
vn -0.155335 0.070111 -0.985371
v -3.494336 0.672469 0.568472
vn -0.954666 -0.176458 0.239742
v -3.514340 0.652469 0.631864
vn -0.603946 0.716751 -0.348594
v -3.514338 0.707667 0.626625
vn -0.497584 -0.866512 -0.039599
v -3.498381 0.652469 0.726624
vn 0.038985 0.171414 0.984428
v -3.414356 0.752479 -0.115342
vn 0.046093 -0.137626 0.989411
v -3.234368 0.572466 -0.126976
vn -0.867879 -0.412755 0.276442
v -3.523703 0.652470 0.986624
vn -0.630817 -0.747943 -0.206524
v -3.504573 0.632469 0.966624
vn -0.918275 -0.164546 0.360133
v -3.528933 0.672469 0.986624
vn -0.532392 -0.829886 -0.166875
v -3.494335 0.632473 0.946624
vn -0.679923 -0.718031 0.148780
v -3.509004 0.632469 0.986624
vn -0.737313 -0.270886 0.618862
v -3.502834 0.652469 1.006624
vn -0.581390 0.485330 0.653025
v -3.494336 0.679188 1.026624
vn -0.425502 -0.035487 0.904261
v -3.494336 0.672469 1.033236
vn -0.083233 -0.424320 0.901679
v -3.454334 0.832463 1.152168
vn 0.045298 0.761325 0.646786
v -3.434337 0.894147 1.146625
vn 0.157092 0.947367 0.278960
v -3.374336 0.907716 1.106628
vn -0.125569 0.991952 -0.016211
v -3.474330 0.914619 1.066633
vn 0.245639 0.733540 0.633704
v -3.374336 0.898259 1.126630
vn -0.131474 -0.249772 0.959338
v -3.474322 0.592474 -0.109458
vn -0.477715 0.109076 0.871717
v -3.454327 0.392471 -0.113394
vn 0.753570 -0.605910 -0.254962
v -3.472834 0.652469 0.606624
vn 0.346150 -0.926686 0.146402
v -3.494336 0.632470 0.626624
vn 0.768835 -0.637212 0.053421
v -3.474336 0.652468 0.646624
vn -0.041688 -0.988587 0.144766
v -3.494336 0.635511 0.646624
vn -0.122101 0.642461 0.756528
v -3.474338 0.701492 -0.093379
vn -0.103205 0.780709 -0.616313
v -3.494336 0.692468 0.591641
vn 0.543695 0.839222 -0.010126
v -3.474337 0.716738 0.686623
vn 0.932860 0.262060 -0.247177
v -3.443778 0.692475 0.626622
vn 0.449314 0.658184 -0.604078
v -3.474337 0.692468 0.597710
vn 0.157396 0.652721 -0.741068
v -3.454337 0.858556 0.786628
vn 0.213390 0.571638 -0.792272
v -3.374332 0.832483 0.780659
vn -0.369194 -0.351781 0.860201
v -3.494336 0.652469 1.015072
vn 0.153974 -0.075696 0.985171
v -3.454336 0.672469 1.020357
vn -0.113023 0.423266 0.898928
v -3.474337 0.692469 1.020514
vn -0.161035 0.222893 0.961450
v -3.494335 0.692469 1.009888
vn 0.129918 -0.833363 0.537241
v -3.434337 0.782945 1.106625
vn 0.340572 -0.449870 0.825607
v -3.374329 0.832456 1.134638
vn 0.307887 -0.837213 0.451974
v -3.374336 0.784157 1.086632
vn 0.183782 -0.824290 0.535509
v -3.454334 0.782899 1.106630
vn 0.073325 -0.734056 0.675119
v -3.494335 0.764245 1.106621
vn -0.005192 0.989263 -0.146051
v -3.354336 0.916506 0.966624
vn -0.337477 0.894098 -0.294446
v -3.374324 0.900261 0.886631
vn 0.548115 0.040251 0.835434
v -3.454344 0.592467 -0.113383
vn 0.398621 -0.221872 0.889873
v -3.437417 0.612468 -0.133448
vn 0.416821 0.100819 0.903380
v -3.435489 0.592466 -0.133364
vn -0.351297 -0.903739 -0.244636
v -3.494337 0.650762 0.726624
vn 0.216923 -0.919726 -0.327184
v -3.474337 0.652469 0.706624
vn 0.338160 -0.820008 -0.461773
v -3.454336 0.639639 0.726624
vn 0.334096 -0.939417 -0.076654
v -3.454345 0.632454 0.752835
vn 0.745723 0.014715 -0.666094
v -3.474337 0.672469 0.588119
vn 0.874630 -0.267729 -0.404158
v -3.464218 0.672469 0.606624
vn 0.990361 0.085700 -0.108816
v -3.459483 0.692469 0.686624
vn 0.871721 -0.392810 -0.292922
v -3.464374 0.672470 0.686623
vn 0.631966 -0.772088 0.067071
v -3.476950 0.652470 0.686624
vn 0.905841 -0.078343 -0.416311
v -3.441632 0.672469 0.706624
vn 0.849321 -0.425433 -0.312506
v -3.444499 0.652473 0.726626
vn 0.468498 0.364299 -0.804858
v -3.454342 0.732462 0.715189
vn 0.768115 0.604719 -0.210510
v -3.470111 0.712468 0.686625
vn 0.097937 -0.139818 0.985322
v -3.414335 0.672468 -0.102002
vn 0.292739 -0.155206 0.943512
v -3.434337 0.672470 -0.097751
vn 0.705053 0.225558 0.672327
v -3.443265 0.672469 -0.093376
vn 0.577444 0.004329 -0.816419
v -3.431536 0.712474 0.726609
vn 0.559252 -0.516316 -0.648579
v -3.414325 0.712467 0.731663
vn 0.405818 0.479589 -0.778014
v -3.354334 0.832478 0.786611
vn 0.248011 -0.632532 0.733753
v -3.434336 0.632468 1.012326
vn -0.479121 -0.410361 0.775917
v -3.494336 0.632469 1.013530
vn 0.276316 -0.834681 0.476400
v -3.434337 0.624373 0.986624
vn 0.712759 -0.672455 0.199445
v -3.414336 0.626134 0.966624
vn -0.517495 -0.675498 0.525263
v -3.494336 0.625565 1.006624
vn 0.763515 -0.272857 0.585315
v -3.399914 0.652470 1.006623
vn 0.841166 0.151918 0.518999
v -3.407265 0.712469 1.006626
vn 0.434737 0.136788 0.890108
v -3.414336 0.712469 1.012217
vn 0.391171 -0.464045 0.794762
v -3.434337 0.646094 -0.113374
vn 0.180120 0.599463 -0.779873
v -3.334335 0.852476 0.815552
vn 0.045142 0.881600 -0.469833
v -3.354335 0.887605 0.846624
vn 0.308850 0.836984 -0.451741
v -3.314336 0.880717 0.846624
vn 0.280100 0.246551 -0.927770
v -3.314337 0.852469 0.812992
vn 0.096317 0.146657 0.984487
v -3.434337 0.872469 1.158738
vn 0.281540 0.953555 0.107094
v -3.314336 0.909015 1.026625
vn 0.252026 0.951956 -0.173961
v -3.314334 0.908444 0.966626
vn 0.290719 -0.949842 -0.115253
v -3.454337 0.632447 0.783848
vn 0.181669 -0.930173 0.319020
v -3.434337 0.602882 0.966624
vn -0.230209 -0.965930 0.118250
v -3.454339 0.612464 0.966624
vn -0.266679 -0.955786 -0.123920
v -3.454334 0.610646 0.926624
vn 0.638961 -0.670702 -0.376678
v -3.424676 0.612467 0.926624
vn 0.390456 -0.775360 -0.496347
v -3.434336 0.612468 0.913915
vn -0.245312 -0.898059 -0.365118
v -3.454336 0.612469 0.919354
vn 0.244877 -0.704094 0.666549
v -3.434337 0.612468 0.976214
vn 0.605188 0.253872 0.754517
v -3.354337 0.872469 1.133971
vn 0.554578 -0.159800 0.816644
v -3.342360 0.852458 1.126636
vn 0.034541 -0.005553 0.999388
v -3.334336 0.712458 -0.105139
vn 0.028520 -0.142402 0.989398
v -3.320803 0.672467 -0.113357
vn 0.132447 -0.319532 0.938274
v -3.354338 0.632469 -0.120092
vn 0.395991 0.589864 0.703741
v -3.361489 0.892472 1.126625
vn 0.941917 0.243121 -0.231699
v -3.403774 0.692469 0.946623
vn 0.972209 -0.182129 0.147098
v -3.402692 0.712474 0.986624
vn 0.864989 -0.417749 -0.277992
v -3.341110 0.772472 0.786624
vn 0.388468 -0.839836 0.379168
v -3.334335 0.784195 1.046626
vn 0.714266 -0.431954 0.550672
v -3.290788 0.832464 1.066627
vn 0.651964 -0.178256 0.736999
v -3.316085 0.852461 1.106631
vn 0.422673 -0.866294 0.266238
v -3.314335 0.784905 1.026628
vn -0.025715 -0.161265 0.986576
v -3.314339 0.652459 -0.115309
vn 0.531809 0.679878 0.504921
v -3.312587 0.892470 1.086626
vn 0.760184 0.225001 0.609504
v -3.299030 0.872470 1.086625
vn 0.556369 0.816880 -0.152184
v -3.276814 0.892477 0.946622
vn 0.587490 0.752875 -0.296708
v -3.274334 0.876690 0.886621
vn 0.695536 0.656897 0.291060
v -3.288093 0.892472 1.046624
vn 0.909551 0.071229 -0.409443
v -3.343255 0.792469 0.786624
vn 0.831157 -0.546316 -0.103526
v -3.339623 0.772478 0.806624
vn 0.597841 -0.169515 -0.783487
v -3.314334 0.832467 0.819138
vn 0.800355 -0.485691 -0.351476
v -3.317180 0.792469 0.846624
vn 0.720978 -0.639118 -0.267804
v -3.334345 0.775842 0.826623
vn 0.630651 -0.763846 -0.137185
v -3.321781 0.772471 0.846625
vn 0.684978 0.339974 -0.644378
v -3.294337 0.852469 0.832938
vn 0.762382 -0.561203 -0.322218
v -3.322195 0.752470 0.886624
vn 0.802411 -0.563586 -0.196234
v -3.314337 0.783946 0.886624
vn 0.672790 -0.739101 -0.032907
v -3.314337 0.779650 0.926624
vn 0.699947 -0.697937 0.151521
v -3.318541 0.772469 0.966624
vn 0.261889 -0.956263 0.130290
v -3.314336 0.784215 0.986624
vn 0.173680 -0.911095 -0.373819
v -3.334337 0.742950 0.886624
vn 0.418238 -0.875983 0.240274
v -3.334337 0.763978 0.966624
vn 0.298420 -0.936870 0.182263
v -3.334336 0.779936 1.006625
vn 0.314778 -0.947381 0.058172
v -3.294334 0.783062 0.946625
vn 0.311623 -0.946995 0.078052
v -3.334337 0.782511 1.026624
vn 0.633958 -0.766245 0.104722
v -3.291270 0.812469 0.866624
vn 0.916656 0.109430 0.384404
v -3.264796 0.852469 1.026625
vn 0.829187 -0.392839 0.397650
v -3.268045 0.832468 1.026625
vn 0.835971 0.417393 -0.356280
v -3.257540 0.852470 0.886623
vn 0.137720 -0.874194 -0.465637
v -3.274337 0.792469 0.879550
vn 0.376897 -0.925108 -0.046080
v -3.274338 0.785280 0.926623
vn 0.833076 -0.531507 0.153246
v -3.255433 0.812473 0.966622
vn 0.911460 -0.409514 0.039226
v -3.254339 0.812470 0.946624
vn 0.880779 0.457411 0.122487
v -3.258040 0.872470 0.986624
vn 0.654018 0.752746 0.075055
v -3.272922 0.892470 0.986625
vn 0.991121 0.130416 0.025882
v -3.250577 0.852470 0.986624
vn 0.816978 -0.075383 -0.571721
v -3.267534 0.832469 0.866624
vn 0.941856 -0.063334 -0.329994
v -3.249844 0.832470 0.886624
vn 0.935840 0.350059 -0.040781
v -3.254335 0.852469 0.906624
# 436 vertices, 0 vertices normals


usemtl material_0
vt 0.484548 0.295328
vt 0.475706 0.292571
vt 0.475918 0.295928
f 95/1/95 90/2/90 96/3/96
vt 0.609349 0.141842
vt 0.607000 0.139656
vt 0.606201 0.143799
f 63/4/63 97/5/97 98/6/98
vt 0.617920 0.186768
vt 0.624198 0.186768
vt 0.622119 0.183884
f 64/7/64 91/8/91 99/9/99
vt 0.586670 0.057352
vt 0.589104 0.061357
vt 0.586670 0.065674
f 100/10/100 65/11/65 101/12/101
vt 0.451832 0.018567
vt 0.449799 0.012749
vt 0.447262 0.019685
f 92/13/92 103/14/103 99/15/99
vt 0.453683 0.022206
vt 0.456413 0.022071
vt 0.455641 0.017937
f 104/16/104 105/17/105 66/18/66
vt 0.625732 0.147705
vt 0.631875 0.147705
vt 0.627899 0.145256
f 106/19/106 66/20/66 105/21/105
vt 0.456915 0.008697
vt 0.454536 0.014320
vt 0.458036 0.014008
f 107/22/107 93/23/93 108/24/108
vt 0.602295 0.065440
vt 0.604140 0.068138
vt 0.602295 0.069580
f 109/25/109 67/26/67 110/27/110
vt 0.602295 0.053843
vt 0.604196 0.056486
vt 0.602295 0.057861
f 68/28/68 111/29/111 112/30/112
vt 0.356201 0.003174
vt 0.366539 0.003174
vt 0.359700 0.001244
f 69/31/69 113/32/113 114/33/114
vt 0.602295 0.081299
vt 0.602295 0.077285
vt 0.604198 0.079926
f 80/34/80 115/35/115 116/36/116
vt 0.582883 0.018366
vt 0.581500 0.013698
vt 0.581066 0.018799
f 117/37/117 81/38/81 118/39/118
vt 0.886880 0.359493
vt 0.890744 0.366513
vt 0.889253 0.357507
f 119/40/119 120/41/120 70/42/70
vt 0.631492 0.124268
vt 0.626437 0.121792
vt 0.625732 0.124268
f 121/43/121 71/44/71 122/45/122
vt 0.621973 0.113060
vt 0.617920 0.116455
vt 0.623207 0.116455
f 94/46/94 123/47/123 124/48/124
vt 0.539459 0.030014
vt 0.542210 0.031829
vt 0.543157 0.029211
f 125/49/125 126/50/126 79/51/79
vt 0.889917 0.349953
vt 0.882819 0.349181
vt 0.888422 0.353063
f 127/52/127 128/53/128 72/54/72
vt 0.571045 0.028016
vt 0.575181 0.026890
vt 0.572264 0.023331
f 129/55/129 130/56/130 73/57/73
vt 0.606201 0.001289
vt 0.609121 0.002218
vt 0.606201 0.003174
f 131/58/131 132/59/132 74/60/74
vt 0.621250 0.025958
vt 0.617920 0.030518
vt 0.622623 0.030518
f 133/61/133 134/62/134 89/63/89
vt 0.879639 0.300049
vt 0.892010 0.300049
vt 0.891318 0.298882
f 135/64/135 87/65/87 136/66/136
vt 0.565085 0.202361
vt 0.564635 0.212160
vt 0.567716 0.208950
f 137/67/137 138/68/138 75/69/75
vt 0.411097 0.302704
vt 0.414154 0.299568
vt 0.407485 0.296907
f 139/70/139 140/71/140 85/72/85
vt 0.912305 0.424800
vt 0.915963 0.418208
vt 0.909200 0.424645
f 141/73/141 142/74/142 76/75/76
vt 0.986592 0.569405
vt 0.982186 0.571500
vt 0.988786 0.573115
f 143/76/143 144/77/144 82/78/82
vt 0.961255 0.420723
vt 0.956101 0.417032
vt 0.957319 0.420368
f 86/79/86 145/80/145 146/81/146
vt 0.610089 0.133506
vt 0.606201 0.135986
vt 0.614152 0.135986
f 148/82/148 149/83/149 83/84/83
vt 0.277284 0.028270
vt 0.277712 0.026009
vt 0.275746 0.026924
f 150/85/150 77/86/77 151/87/151
vt 0.296939 0.031754
vt 0.294570 0.025920
vt 0.293835 0.029726
f 84/88/84 152/89/152 153/90/153
vt 0.538416 0.092546
vt 0.533887 0.096396
vt 0.533130 0.097216
f 156/91/156 157/92/157 88/93/88
vt 0.463409 0.305830
vt 0.434370 0.311185
vt 0.434732 0.317689
f 161/94/161 164/95/164 162/96/162
vt 0.476114 0.299051
f 95/1/95 96/3/96 167/97/167
vt 0.485817 0.298527
f 167/97/167 163/98/163 95/1/95
vt 0.983372 0.585904
vt 0.984287 0.602527
vt 0.977295 0.599732
f 167/99/167 168/100/168 161/101/161
vt 0.978664 0.576216
f 161/101/161 163/102/163 167/99/167
vt 0.449704 0.294033
vt 0.460061 0.303205
f 90/2/90 165/103/165 168/104/168
vt 0.443813 0.304120
f 165/103/165 169/105/169 168/104/168
vt 0.443507 0.299207
f 165/103/165 170/106/170 169/105/169
vt 0.440535 0.303767
f 170/106/170 171/107/171 169/105/169
vt 0.982549 0.622092
vt 0.977295 0.628916
f 161/101/161 175/108/175 164/109/164
f 161/101/161 168/100/168 175/108/175
vt 0.440728 0.307555
f 168/104/168 169/105/169 175/110/175
vt 0.980881 0.628795
f 175/108/175 176/111/176 164/109/164
vt 0.869996 0.508885
vt 0.875793 0.516782
vt 0.876182 0.513749
f 177/112/177 178/113/178 179/114/179
vt 0.866710 0.513137
f 177/112/177 97/115/97 178/113/178
vt 0.877100 0.510437
f 179/114/179 180/116/180 177/112/177
vt 0.865776 0.509013
f 177/112/177 98/117/98 97/115/97
vt 0.883274 0.508363
vt 0.865633 0.498978
f 177/112/177 181/118/181 182/119/182
vt 0.603926 0.190674
vt 0.597048 0.187965
vt 0.590576 0.190674
f 177/120/177 180/121/180 181/122/181
vt 0.880674 0.511404
f 180/116/180 183/123/183 181/118/181
vt 0.858824 0.505953
f 182/119/182 101/124/101 98/117/98
vt 0.856759 0.499684
f 182/119/182 184/125/184 101/124/101
f 98/117/98 177/112/177 182/119/182
vt 0.858399 0.492469
f 182/119/182 185/126/185 184/125/184
vt 0.860770 0.510298
f 101/124/101 65/127/65 98/117/98
vt 0.901016 0.374572
vt 0.897480 0.378615
vt 0.906595 0.385625
f 97/128/97 100/129/100 186/130/186
vt 0.910775 0.375299
f 186/130/186 178/131/178 97/128/97
vt 0.903307 0.385575
f 100/129/100 113/132/113 186/130/186
vt 0.887603 0.378474
f 100/129/100 187/133/187 113/132/113
vt 0.890411 0.375022
f 100/129/100 101/134/101 187/133/187
vt 0.897769 0.376233
f 97/128/97 63/135/63 100/129/100
vt 0.894182 0.375355
f 63/135/63 65/136/65 100/129/100
vt 0.612720 0.143799
f 63/4/63 98/6/98 65/137/65
vt 0.476733 0.026500
vt 0.478677 0.022219
vt 0.458435 0.023404
f 188/138/188 189/139/189 106/140/106
vt 0.444189 0.026611
f 106/140/106 190/141/190 188/138/188
vt 0.453861 0.022509
f 106/140/106 191/142/191 190/141/190
vt 0.449285 0.021174
f 191/142/191 192/143/192 190/141/190
vt 0.444711 0.020516
f 192/143/192 102/144/102 190/141/190
vt 0.615257 0.120361
vt 0.613847 0.117543
vt 0.610916 0.118769
f 192/145/192 99/146/99 102/147/102
vt 0.610861 0.117240
f 99/146/99 91/148/91 102/147/102
f 192/143/192 92/13/92 99/15/99
vt 0.888429 0.518799
vt 0.895925 0.513857
f 183/123/183 193/149/193 194/150/194
f 183/123/183 179/114/179 193/149/193
f 183/123/183 180/116/180 179/114/179
vt 0.571045 0.125216
vt 0.572140 0.128174
vt 0.578101 0.125702
f 185/151/185 195/152/195 196/153/196
vt 0.574203 0.118877
f 196/153/196 184/154/184 185/151/185
f 178/113/178 193/149/193 179/114/179
vt 0.384874 0.003174
vt 0.372643 0.002318
vt 0.371826 0.003174
f 178/155/178 197/156/197 193/157/193
vt 0.921035 0.381868
vt 0.916172 0.395583
f 197/158/197 186/130/186 198/159/198
f 197/158/197 178/131/178 186/130/186
vt 0.583585 0.128174
vt 0.581087 0.118137
f 196/153/196 199/160/199 200/161/200
f 200/161/200 184/154/184 196/153/196
vt 0.579680 0.113777
f 200/161/200 187/162/187 184/154/184
vt 0.574751 0.112285
f 187/162/187 101/163/101 184/154/184
vt 0.885396 0.501002
f 181/118/181 194/150/194 201/164/201
f 181/118/181 183/123/183 194/150/194
vt 0.868053 0.486294
f 182/119/182 202/165/202 185/126/185
f 182/119/182 181/118/181 202/165/202
vt 0.860709 0.484988
f 202/165/202 203/166/203 185/126/185
vt 0.858003 0.487955
f 203/166/203 204/167/204 185/126/185
vt 0.865341 0.484436
f 202/165/202 205/168/205 203/166/203
vt 0.856201 0.490079
f 204/167/204 195/169/195 185/126/185
vt 0.905994 0.361413
vt 0.899247 0.368746
vt 0.907248 0.370361
f 206/170/206 207/171/207 196/172/196
vt 0.912051 0.365763
f 196/172/196 195/173/195 206/170/206
vt 0.602295 0.131729
vt 0.604510 0.134300
vt 0.602295 0.139893
f 207/174/207 199/175/199 196/176/196
vt 0.911630 0.363164
f 195/173/195 204/177/204 206/170/206
vt 0.884540 0.381508
vt 0.883788 0.398015
vt 0.899823 0.391767
f 200/178/200 208/179/208 114/180/114
f 114/180/114 187/133/187 200/178/200
f 114/180/114 113/132/113 187/133/187
vt 0.877591 0.394482
f 200/178/200 209/181/209 208/179/208
vt 0.877730 0.392295
f 200/178/200 210/182/210 209/181/209
vt 0.875095 0.384334
f 200/178/200 199/183/199 210/182/210
vt 0.901569 0.370071
vt 0.894502 0.369911
f 199/184/199 207/171/207 210/185/210
vt 0.896323 0.366648
f 207/171/207 211/186/211 210/185/210
vt 0.551120 0.195840
vt 0.557506 0.221924
vt 0.557465 0.212170
f 188/187/188 212/188/212 213/189/213
vt 0.551342 0.195841
f 213/189/213 214/190/214 188/187/188
vt 0.475219 0.014769
vt 0.468102 0.018202
f 189/139/189 215/191/215 216/192/216
f 216/192/216 106/140/106 189/139/189
vt 0.463526 0.016765
f 216/192/216 217/193/217 106/140/106
vt 0.481826 0.020843
f 189/139/189 218/194/218 215/191/215
vt 0.482340 0.012781
f 218/194/218 219/195/219 215/191/215
f 217/193/217 66/18/66 106/140/106
vt 0.460099 0.014152
f 217/193/217 220/196/220 66/18/66
vt 0.470645 0.014102
f 215/191/215 221/197/221 216/192/216
f 220/196/220 108/24/108 66/18/66
vt 0.454376 0.014891
f 108/24/108 222/198/222 66/18/66
f 222/198/222 92/13/92 66/18/66
f 92/13/92 104/16/104 66/18/66
f 92/13/92 192/143/192 104/16/104
f 192/143/192 191/142/191 104/16/104
f 108/24/108 93/23/93 222/198/222
vt 0.617920 0.202393
vt 0.621337 0.202393
vt 0.618014 0.199124
f 105/199/105 191/200/191 106/201/106
f 105/17/105 104/16/104 191/142/191
vt 0.578112 0.058824
vt 0.582255 0.065674
vt 0.582066 0.058974
f 194/202/194 223/203/223 224/204/224
vt 0.571495 0.064688
f 194/202/194 193/205/193 223/203/223
vt 0.933730 0.440674
vt 0.933934 0.432225
vt 0.930504 0.435549
f 223/206/223 225/207/225 224/208/224
vt 0.586278 0.167236
vt 0.580213 0.163182
vt 0.571045 0.167236
f 198/209/198 226/210/226 227/211/227
vt 0.926620 0.405041
vt 0.926434 0.391666
f 227/212/227 223/213/223 198/159/198
f 223/213/223 197/158/197 198/159/198
vt 0.571045 0.065674
f 223/203/223 193/205/193 197/214/197
vt 0.875382 0.482784
f 202/165/202 201/164/201 229/215/229
f 202/165/202 181/118/181 201/164/201
vt 0.890941 0.494512
f 201/164/201 230/216/230 229/215/229
vt 0.871678 0.482117
f 229/215/229 231/217/231 202/165/202
vt 0.538233 0.007031
vt 0.542329 0.005440
vt 0.539281 0.001768
f 232/218/232 233/219/233 234/220/234
vt 0.537109 0.002535
f 234/220/234 206/221/206 232/218/232
vt 0.536625 0.007080
f 206/221/206 203/222/203 232/218/232
vt 0.531982 0.005344
f 206/221/206 204/223/204 203/222/203
vt 0.462498 0.009134
vt 0.461482 0.006525
f 235/224/235 236/225/236 220/196/220
f 220/196/220 217/193/217 235/224/235
vt 0.910555 0.506658
f 194/150/194 237/226/237 230/216/230
f 230/216/230 201/164/201 194/150/194
vt 0.907502 0.510356
f 194/150/194 238/227/238 237/226/237
vt 0.899537 0.514785
f 194/150/194 224/228/224 238/227/238
vt 0.904253 0.360078
f 234/229/234 211/186/211 207/171/207
vt 0.894204 0.357175
f 234/229/234 239/230/239 211/186/211
f 207/171/207 206/170/206 234/229/234
f 239/230/239 120/41/120 211/186/211
f 239/230/239 70/42/70 120/41/120
vt 0.900196 0.398116
vt 0.909638 0.414748
vt 0.919229 0.402196
f 240/231/240 241/232/241 226/233/226
f 226/233/226 198/159/198 240/231/240
f 198/159/198 186/130/186 240/231/240
vt 0.919061 0.411936
f 241/232/241 242/234/242 226/233/226
vt 0.900024 0.395195
f 186/130/186 69/235/69 240/231/240
f 186/130/186 113/132/113 69/235/69
vt 0.915749 0.415115
f 241/232/241 243/236/243 242/234/242
vt 0.466061 0.009176
vt 0.464791 0.011852
f 216/192/216 244/237/244 245/238/245
f 245/238/245 217/193/217 216/192/216
vt 0.845364 0.443299
vt 0.841395 0.448486
vt 0.846884 0.448486
f 238/239/238 225/240/225 246/241/246
vt 0.836670 0.445418
f 238/239/238 224/242/224 225/240/225
vt 0.946519 0.439052
vt 0.943043 0.430148
f 223/206/223 227/243/227 247/244/247
f 247/244/247 225/207/225 223/206/223
vt 0.935274 0.427075
f 247/244/247 246/245/246 225/207/225
vt 0.939019 0.419539
f 247/244/247 248/246/248 246/245/246
vt 0.936692 0.422194
f 248/246/248 249/247/249 246/245/246
vt 0.933864 0.419662
f 249/247/249 250/248/250 246/245/246
vt 0.611155 0.148228
vt 0.609804 0.151611
vt 0.614150 0.151611
f 81/249/81 233/250/233 232/251/232
vt 0.613506 0.148276
f 232/251/232 251/252/251 81/249/81
vt 0.606201 0.148649
f 81/249/81 117/253/117 233/250/233
vt 0.902847 0.351520
vt 0.895112 0.350170
f 117/254/117 252/255/252 239/230/239
f 239/230/239 234/229/234 117/254/117
vt 0.546482 0.007080
f 234/220/234 233/219/233 117/256/117
vt 0.893504 0.352900
f 252/255/252 253/257/253 239/230/239
vt 0.887040 0.398086
f 114/180/114 208/179/208 254/258/254
vt 0.938232 0.296143
vt 0.938232 0.291810
vt 0.941492 0.292103
f 221/259/221 255/260/255 256/261/256
vt 0.944735 0.295625
f 256/261/256 257/262/257 221/259/221
vt 0.947510 0.293663
f 256/261/256 258/263/258 257/262/257
vt 0.818254 0.296143
vt 0.826522 0.296143
vt 0.819522 0.294153
f 259/264/259 260/265/260 261/266/261
vt 0.817139 0.291763
f 261/266/261 171/267/171 259/264/259
vt 0.437307 0.304483
vt 0.437496 0.307731
f 175/110/175 262/268/262 263/269/263
f 175/110/175 169/105/169 262/268/262
vt 0.984469 0.625347
vt 0.987606 0.628947
f 176/111/176 263/270/263 264/271/264
f 176/111/176 175/108/175 263/270/263
vt 0.990721 0.534424
vt 0.990626 0.529789
vt 0.957764 0.534424
f 162/272/162 265/273/265 266/274/266
vt 0.439857 0.349983
vt 0.446488 0.352893
f 266/275/266 62/276/62 162/96/162
vt 0.446681 0.356247
f 266/275/266 267/277/267 62/276/62
vt 0.446862 0.359390
f 228/278/228 267/277/267 266/275/266
vt 0.917166 0.498652
vt 0.894098 0.480539
f 230/216/230 268/279/268 269/280/269
f 230/216/230 237/226/237 268/279/268
vt 0.884111 0.482441
f 269/280/269 270/281/270 230/216/230
f 270/281/270 229/215/229 230/216/230
vt 0.916907 0.504011
f 237/226/237 271/282/271 268/279/268
vt 0.882284 0.479620
f 270/281/270 272/283/272 229/215/229
vt 0.914689 0.506732
f 237/226/237 273/284/273 271/282/271
vt 0.880506 0.476796
vt 0.880684 0.476612
f 229/215/229 274/285/274 275/286/275
vt 0.872672 0.480982
f 275/286/275 276/287/276 229/215/229
f 229/215/229 272/283/272 274/285/274
f 276/287/276 231/217/231 229/215/229
vt 0.889190 0.369854
f 210/185/210 120/41/120 277/288/277
f 210/185/210 211/186/211 120/41/120
vt 0.876782 0.401377
f 209/181/209 278/289/278 208/179/208
vt 0.873690 0.398000
f 209/181/209 279/290/279 278/289/278
vt 0.883639 0.401315
f 278/289/278 280/291/280 208/179/208
vt 0.873987 0.395868
f 209/181/209 277/292/277 279/290/279
f 209/181/209 210/182/210 277/292/277
f 280/291/280 254/258/254 208/179/208
vt 0.825310 0.292365
f 261/266/261 260/265/260 281/293/281
vt 0.991836 0.626568
vt 0.987224 0.624592
vt 0.989230 0.621193
f 281/294/281 282/295/282 261/296/261
vt 0.991492 0.631553
f 281/294/281 283/297/283 282/295/282
vt 0.915661 0.510820
f 250/298/250 237/226/237 238/227/238
vt 0.853272 0.444571
f 238/239/238 246/241/246 250/299/250
f 250/298/250 273/284/273 237/226/237
vt 0.893252 0.411253
vt 0.899550 0.421157
f 241/232/241 135/300/135 136/301/136
f 241/232/241 240/231/240 135/300/135
f 240/231/240 254/258/254 135/300/135
f 254/258/254 280/291/280 135/300/135
vt 0.906162 0.421236
f 136/301/136 284/302/284 241/232/241
vt 0.877798 0.360766
vt 0.886575 0.370361
f 119/40/119 285/303/285 279/304/279
f 279/304/279 120/41/120 119/40/119
vt 0.881101 0.355386
f 119/40/119 286/305/286 285/303/285
f 279/304/279 277/288/277 120/41/120
vt 0.476874 0.026611
vt 0.483851 0.022761
f 189/139/189 214/306/214 124/307/124
f 124/307/124 218/194/218 189/139/189
vt 0.550862 0.192512
f 189/308/189 188/187/188 214/190/214
vt 0.484372 0.017889
f 124/307/124 123/309/123 218/194/218
vt 0.537903 0.034424
vt 0.534591 0.030819
f 287/310/287 125/49/125 288/311/288
vt 0.532134 0.033535
f 288/311/288 289/312/289 287/310/287
vt 0.536827 0.026428
f 125/49/125 290/313/290 288/311/288
f 287/310/287 126/50/126 125/49/125
vt 0.531982 0.030524
f 288/311/288 291/314/291 289/312/289
vt 0.969482 0.299170
vt 0.970464 0.303955
vt 0.974857 0.303362
f 292/315/292 293/316/293 294/317/294
vt 0.976623 0.300558
f 294/317/294 290/318/290 292/315/292
vt 0.976113 0.302010
f 294/317/294 283/319/283 290/318/290
vt 0.980535 0.303762
f 283/319/283 281/320/281 290/318/290
vt 0.981529 0.300335
f 281/320/281 288/321/288 290/318/290
vt 0.173306 0.003174
vt 0.170841 0.001260
vt 0.168701 0.003174
f 260/322/260 291/323/291 288/324/288
vt 0.983706 0.303955
f 288/321/288 281/320/281 260/325/260
vt 0.611945 0.015053
vt 0.606878 0.018799
vt 0.614166 0.018799
f 121/326/121 295/327/295 296/328/296
vt 0.606201 0.015054
f 121/326/121 122/329/122 295/327/295
f 282/295/282 283/297/283 264/271/264
f 264/271/264 263/270/263 282/295/282
vt 0.602295 0.041372
vt 0.603859 0.042420
vt 0.602295 0.046143
f 283/330/283 294/331/294 264/332/264
vt 0.992596 0.444580
vt 0.989946 0.442552
vt 0.989014 0.444580
f 263/333/263 262/334/262 282/335/282
vt 0.937835 0.514511
vt 0.929736 0.517621
vt 0.938265 0.518799
f 296/336/296 297/337/297 298/338/298
vt 0.931194 0.512125
f 296/336/296 295/339/295 297/337/297
vt 0.930540 0.511579
f 295/339/295 299/340/299 297/337/297
vt 0.938306 0.515476
f 298/338/298 158/341/158 296/336/296
vt 0.926870 0.517776
f 299/340/299 250/298/250 300/342/300
f 299/340/299 271/282/271 250/298/250
vt 0.922607 0.296143
vt 0.922607 0.291555
vt 0.935804 0.295964
f 250/343/250 249/344/249 300/345/300
f 300/342/300 297/337/297 299/340/299
f 271/282/271 273/284/273 250/298/250
vt 0.919833 0.500557
f 271/282/271 299/340/299 301/346/301
f 301/346/301 268/279/268 271/282/271
vt 0.429858 0.321213
vt 0.418695 0.321840
f 266/275/266 166/347/166 302/348/302
vt 0.431500 0.317865
f 266/275/266 265/349/265 166/347/166
vt 0.885661 0.475274
vt 0.891048 0.473939
f 304/350/304 269/280/269 305/351/305
f 304/350/304 270/281/270 269/280/269
vt 0.883731 0.477697
f 304/350/304 306/352/306 270/281/270
vt 0.894251 0.475289
f 269/280/269 307/353/307 305/351/305
vt 0.888247 0.472172
f 305/351/305 308/354/308 304/350/304
vt 0.590576 0.124867
vt 0.591195 0.128174
vt 0.595876 0.128174
f 306/355/306 304/356/304 309/357/309
vt 0.599160 0.123634
f 309/357/309 310/358/310 306/355/306
vt 0.599999 0.124549
f 309/357/309 311/359/311 310/358/310
vt 0.609854 0.229528
vt 0.609801 0.226269
vt 0.606201 0.229736
f 272/360/272 306/361/306 274/362/274
vt 0.613313 0.229736
f 272/360/272 270/363/270 306/361/306
vt 0.594527 0.121536
f 306/355/306 310/358/310 275/364/275
f 275/286/275 274/285/274 306/352/306
f 72/54/72 286/305/286 119/40/119
f 72/54/72 128/53/128 286/305/286
vt 0.880457 0.351180
f 128/53/128 312/365/312 286/305/286
f 119/40/119 70/42/70 72/54/72
f 70/42/70 253/257/253 72/54/72
f 70/42/70 239/230/239 253/257/253
vt 0.864014 0.413817
vt 0.869989 0.423906
vt 0.876509 0.407964
f 313/366/313 314/367/314 315/368/315
vt 0.864192 0.407285
f 315/368/315 285/369/285 313/366/313
f 315/368/315 279/290/279 285/369/285
vt 0.866991 0.423690
f 313/366/313 316/370/316 314/367/314
f 315/368/315 278/289/278 279/290/279
vt 0.558351 0.186065
f 214/190/214 137/67/137 317/371/317
f 214/190/214 213/189/213 137/67/137
f 213/189/213 138/68/138 137/67/137
vt 0.488424 0.022824
f 317/372/317 124/307/124 214/306/214
vt 0.561215 0.218655
f 213/189/213 318/373/318 138/68/138
vt 0.554773 0.186070
vt 0.555079 0.189294
f 317/371/317 94/374/94 124/375/124
vt 0.993807 0.390044
vt 0.989368 0.389266
vt 0.988682 0.394866
f 296/376/296 319/377/319 320/378/320
vt 0.994782 0.394186
f 320/378/320 121/379/121 296/376/296
vt 0.990389 0.397705
f 320/378/320 71/380/71 121/379/121
vt 0.983725 0.392185
f 319/377/319 321/381/321 320/378/320
vt 0.985697 0.395892
f 321/381/321 322/382/322 320/378/320
vt 0.994529 0.389215
f 296/376/296 158/383/158 319/377/319
vt 0.983003 0.635986
vt 0.989038 0.635975
f 323/384/323 264/271/264 293/385/293
f 323/384/323 176/111/176 264/271/264
f 323/384/323 164/109/164 176/111/176
vt 0.990230 0.631990
f 264/271/264 294/386/294 293/385/293
vt 0.604265 0.113805
vt 0.602295 0.116455
vt 0.602295 0.109445
f 297/387/297 300/388/300 324/389/324
vt 0.932383 0.405917
vt 0.930495 0.401475
vt 0.930420 0.408826
f 324/390/324 298/391/298 297/392/297
vt 0.997172 0.534276
f 164/393/164 265/273/265 162/272/162
vt 0.875732 0.296143
vt 0.885139 0.296143
vt 0.881307 0.290425
f 164/394/164 323/395/323 265/396/265
vt 0.428011 0.312993
f 323/397/323 166/347/166 265/349/265
vt 0.931652 0.411866
vt 0.940942 0.415530
vt 0.941700 0.405780
f 300/398/300 325/399/325 326/400/326
f 300/398/300 249/247/249 325/399/325
vt 0.935690 0.405236
f 326/400/326 327/401/327 300/398/300
f 327/401/327 324/390/324 300/398/300
f 249/247/249 248/246/248 325/399/325
vt 0.954212 0.440674
vt 0.964978 0.432153
f 328/402/328 329/403/329 247/244/247
f 247/244/247 227/243/227 328/402/328
vt 0.922870 0.411686
f 227/212/227 226/233/226 328/404/328
f 226/233/226 242/234/242 328/404/328
vt 0.579446 0.093291
vt 0.575797 0.093361
vt 0.578501 0.100001
f 311/405/311 330/406/330 331/407/331
vt 0.597820 0.128167
f 311/359/311 309/357/309 330/408/330
vt 0.622932 0.123456
vt 0.624225 0.124268
vt 0.622834 0.119436
f 310/409/310 311/410/311 332/411/332
vt 0.619939 0.121686
f 332/411/332 333/412/333 310/409/310
vt 0.617920 0.124268
f 333/412/333 275/413/275 310/409/310
vt 0.398006 0.056139
vt 0.403370 0.044218
vt 0.391343 0.047039
f 334/414/334 335/415/335 312/416/312
vt 0.407718 0.054410
f 334/414/334 336/417/336 335/415/335
vt 0.392436 0.050691
f 312/416/312 128/418/128 334/414/334
vt 0.395435 0.057200
f 128/418/128 337/419/337 334/414/334
vt 0.387451 0.055701
f 128/418/128 127/420/127 337/419/337
vt 0.390130 0.061768
f 127/420/127 338/421/338 337/419/337
vt 0.436918 0.018799
vt 0.434326 0.012920
vt 0.437316 0.012174
f 127/422/127 252/423/252 338/424/338
f 253/257/253 127/52/127 72/54/72
f 253/257/253 252/255/252 127/52/127
vt 0.892278 0.427888
f 135/300/135 315/368/315 339/425/339
f 135/300/135 280/291/280 315/368/315
vt 0.899372 0.421942
f 339/425/339 87/426/87 135/300/135
f 280/291/280 278/289/278 315/368/315
vt 0.905590 0.424781
f 339/425/339 340/427/340 87/426/87
vt 0.561401 0.186111
vt 0.559141 0.179488
f 317/371/317 341/428/341 79/429/79
vt 0.555732 0.180634
f 79/429/79 126/430/126 317/371/317
f 126/430/126 94/374/94 317/371/317
vt 0.553105 0.031020
vt 0.542060 0.021503
f 79/51/79 342/431/342 292/432/292
vt 0.549204 0.034424
f 79/51/79 341/433/341 342/431/342
f 292/432/292 290/313/290 79/51/79
f 290/313/290 125/49/125 79/51/79
vt 0.995666 0.642987
vt 0.994937 0.647396
vt 0.998164 0.647705
f 341/434/341 343/435/343 342/436/342
vt 0.617920 0.264893
vt 0.622529 0.264893
vt 0.622409 0.259841
f 344/437/344 345/438/345 346/439/346
vt 0.619319 0.256679
f 346/439/346 347/440/347 344/437/344
vt 0.995540 0.385918
vt 0.991380 0.385654
f 158/383/158 298/441/298 348/442/348
f 348/442/348 319/377/319 158/383/158
vt 0.988045 0.386119
f 348/442/348 349/443/349 319/377/319
vt 0.975496 0.388881
vt 0.976569 0.391723
f 321/381/321 350/444/350 351/445/351
vt 0.983059 0.383401
f 321/381/321 326/446/326 350/444/350
f 321/381/321 349/443/349 326/446/326
f 321/381/321 319/377/319 349/443/349
vt 0.978157 0.395194
f 351/445/351 352/447/352 321/381/321
vt 0.972174 0.391259
vt 0.970240 0.395333
vt 0.975111 0.396378
f 353/448/353 354/449/354 345/450/345
f 345/450/345 351/445/351 353/448/353
vt 0.971378 0.397705
f 354/449/354 346/451/346 345/450/345
f 345/450/345 352/447/352 351/445/351
vt 0.934463 0.401889
f 348/452/348 324/390/324 327/401/327
f 348/452/348 298/391/298 324/390/324
vt 0.945941 0.418687
vt 0.941416 0.414734
f 248/246/248 355/453/355 356/454/356
f 248/246/248 247/244/247 355/453/355
f 356/454/356 325/399/325 248/246/248
vt 0.417983 0.308829
f 302/348/302 323/397/323 357/455/357
f 302/348/302 166/347/166 323/397/323
vt 0.421240 0.308644
f 323/397/323 358/456/358 357/455/357
vt 0.422697 0.308560
f 323/397/323 359/457/359 358/456/358
f 247/244/247 329/403/329 146/81/146
f 146/81/146 355/453/355 247/244/247
vt 0.961672 0.422732
f 329/403/329 149/458/149 146/81/146
vt 0.949172 0.415701
f 146/81/146 360/459/360 355/453/355
vt 0.967160 0.428293
f 329/403/329 83/460/83 149/458/149
f 146/81/146 145/80/145 360/459/360
vt 0.952010 0.415100
f 145/80/145 361/461/361 360/459/360
vt 0.968279 0.431462
f 329/403/329 362/462/362 83/460/83
vt 0.571045 0.096250
vt 0.571584 0.102614
vt 0.572556 0.093009
f 73/463/73 363/464/363 364/465/364
vt 0.578784 0.023137
f 73/57/73 130/56/130 363/466/363
vt 0.578340 0.027344
f 130/56/130 365/467/365 363/466/363
vt 0.581495 0.030518
f 365/467/365 366/468/366 363/466/363
vt 0.571281 0.093049
f 364/465/364 367/469/367 73/463/73
vt 0.574106 0.108643
vt 0.583829 0.108643
vt 0.584077 0.107372
f 368/470/368 369/471/369 370/472/370
f 370/472/370 331/407/331 368/470/368
f 331/407/331 363/464/363 368/470/368
f 331/407/331 364/465/364 363/464/363
f 331/407/331 330/406/330 364/465/364
vt 0.584504 0.104065
f 331/407/331 370/472/370 159/473/159
vt 0.582021 0.097196
f 159/473/159 332/474/332 331/407/331
f 332/474/332 311/405/311 331/407/331
vt 0.971969 0.643325
vt 0.957764 0.647705
f 75/475/75 147/476/147 343/435/343
vt 0.979050 0.640353
f 343/435/343 137/477/137 75/475/75
f 343/435/343 341/434/341 137/477/137
f 341/428/341 317/371/317 137/67/137
vt 0.959306 0.638780
f 75/475/75 172/478/172 147/476/147
vt 0.550207 0.025329
vt 0.546294 0.021516
f 292/432/292 371/479/371 359/480/359
f 292/432/292 342/431/342 371/479/371
vt 0.420976 0.304368
f 371/481/371 358/456/358 359/457/359
vt 0.617920 0.253174
vt 0.622895 0.248294
vt 0.619023 0.246352
f 323/482/323 292/483/292 359/484/359
vt 0.624089 0.253174
f 323/482/323 293/485/293 292/483/292
vt 0.609559 0.257738
vt 0.607354 0.260986
vt 0.614164 0.260986
f 349/486/349 327/487/327 326/488/326
vt 0.606201 0.257639
f 349/486/349 348/489/348 327/487/327
vt 0.944389 0.412701
f 133/490/133 355/453/355 360/459/360
vt 0.854056 0.474980
vt 0.849303 0.477593
vt 0.848389 0.472172
f 133/491/133 356/492/356 355/493/355
vt 0.949630 0.412655
f 360/459/360 134/494/134 133/490/133
vt 0.852930 0.478223
f 133/491/133 350/495/350 356/492/356
vt 0.972110 0.389649
f 133/496/133 351/445/351 350/444/350
vt 0.610073 0.156020
vt 0.608752 0.159424
vt 0.613385 0.159424
f 133/497/133 353/498/353 351/499/351
vt 0.852322 0.487549
vt 0.848389 0.477480
f 326/500/326 325/501/325 356/492/356
f 356/492/356 350/495/350 326/500/326
vt 0.918065 0.430932
f 142/74/142 141/73/141 372/502/372
vt 0.924252 0.424331
f 372/502/372 329/503/329 142/74/142
f 329/503/329 328/404/328 142/74/142
vt 0.912282 0.428028
f 141/73/141 373/504/373 372/502/372
vt 0.923245 0.427547
f 372/502/372 362/505/362 329/503/329
vt 0.912347 0.434420
f 373/504/373 374/506/374 372/502/372
vt 0.918428 0.434186
f 374/506/374 375/507/375 372/502/372
vt 0.873921 0.354510
vt 0.872374 0.357977
f 376/508/376 313/509/313 285/303/285
f 285/303/285 286/305/286 376/508/376
f 286/305/286 312/365/312 376/508/376
vt 0.882695 0.434006
f 314/367/314 377/510/377 339/425/339
f 339/425/339 315/368/315 314/367/314
vt 0.892370 0.434264
f 377/510/377 378/511/378 339/425/339
vt 0.568332 0.221924
f 172/512/172 75/69/75 138/68/138
f 138/68/138 318/373/318 172/512/172
vt 0.420643 0.295656
vt 0.408708 0.260453
f 85/72/85 343/513/343 147/514/147
f 85/72/85 140/71/140 343/513/343
vt 0.421139 0.298889
f 140/71/140 342/515/342 343/513/343
vt 0.611497 0.188848
vt 0.607129 0.188232
vt 0.606201 0.190674
f 347/516/347 346/517/346 354/518/354
vt 0.616193 0.190674
f 354/518/354 379/519/379 347/516/347
vt 0.606201 0.158221
f 353/498/353 133/497/133 89/520/89
vt 0.969482 0.392876
f 89/521/89 354/449/354 353/448/353
f 242/234/242 243/236/243 142/74/142
vt 0.887451 0.296143
vt 0.897006 0.296143
vt 0.893700 0.292115
f 142/522/142 328/523/328 242/524/242
f 243/236/243 76/75/76 142/74/142
vt 0.711670 0.292726
vt 0.711800 0.296143
vt 0.718237 0.296107
f 380/525/380 381/526/381 382/527/382
vt 0.718334 0.291349
f 382/527/382 383/528/383 380/525/380
vt 0.720368 0.292910
f 382/527/382 384/529/384 383/528/383
vt 0.719446 0.296143
f 382/527/382 385/530/385 384/529/384
vt 0.996826 0.296143
vt 0.999033 0.296143
vt 0.997929 0.292705
f 380/531/380 386/532/386 381/533/381
vt 0.393613 0.040193
vt 0.406359 0.037950
f 376/534/376 335/415/335 387/535/387
f 376/534/376 312/416/312 335/415/335
vt 0.408452 0.040537
f 335/415/335 388/536/388 387/535/387
vt 0.405343 0.316058
f 139/70/139 389/537/389 357/455/357
vt 0.402767 0.309688
f 139/70/139 390/538/390 389/537/389
vt 0.407841 0.302887
f 139/70/139 391/539/391 390/538/390
f 357/455/357 371/481/371 139/70/139
f 357/455/357 358/456/358 371/481/371
vt 0.987899 0.562963
vt 0.983559 0.560376
vt 0.981710 0.567964
f 368/540/368 363/541/363 366/542/366
f 366/542/366 143/76/143 368/540/368
f 366/542/366 144/77/144 143/76/143
vt 0.977623 0.573486
f 366/542/366 383/543/383 144/77/144
vt 0.977295 0.566620
f 366/542/366 380/544/380 383/543/383
vt 0.981332 0.564152
vt 0.979122 0.565414
f 366/542/366 365/545/365 386/546/386
f 386/546/386 380/544/380 366/542/366
f 241/232/241 76/75/76 243/236/243
f 241/232/241 284/302/284 76/75/76
vt 0.865114 0.354657
vt 0.864678 0.349265
f 316/547/316 376/508/376 387/548/387
f 316/547/316 313/509/313 376/508/376
vt 0.864014 0.352852
f 387/548/387 392/549/392 316/547/316
vt 0.399023 0.319673
vt 0.380235 0.333794
f 302/348/302 154/550/154 78/551/78
f 302/348/302 389/537/389 154/550/154
f 302/348/302 357/455/357 389/537/389
vt 0.991464 0.573486
vt 0.996675 0.564595
f 368/540/368 393/552/393 369/553/369
f 368/540/368 143/76/143 393/552/393
vt 0.996101 0.567872
f 393/552/393 394/554/394 369/553/369
f 143/76/143 82/78/82 393/552/393
vt 0.554145 0.104762
vt 0.552868 0.100791
vt 0.547472 0.103597
f 149/555/149 148/556/148 395/557/395
vt 0.552847 0.107961
f 395/557/395 86/558/86 149/555/149
vt 0.557219 0.108643
f 86/558/86 146/559/146 149/555/149
vt 0.416838 0.055490
vt 0.420872 0.045241
vt 0.413819 0.040748
f 396/560/396 397/561/397 398/562/398
f 398/562/398 336/417/336 396/560/396
f 398/562/398 335/415/335 336/417/336
vt 0.421404 0.055939
f 396/560/396 399/563/399 397/561/397
f 398/562/398 388/536/388 335/415/335
vt 0.586670 0.108643
vt 0.586670 0.101689
vt 0.587946 0.108181
f 87/564/87 284/565/284 136/566/136
f 87/426/87 340/427/340 284/302/284
vt 0.617920 0.171143
vt 0.622137 0.171143
vt 0.620215 0.166857
f 340/567/340 76/568/76 284/569/284
vt 0.387789 0.294234
vt 0.401531 0.306497
f 303/570/303 400/571/400 85/72/85
f 400/571/400 391/539/391 85/72/85
f 391/539/391 139/70/139 85/72/85
f 373/504/373 76/75/76 340/427/340
f 373/504/373 141/73/141 76/75/76
vt 0.602564 0.296143
vt 0.600154 0.289341
vt 0.594784 0.289282
f 392/572/392 388/573/388 398/574/398
vt 0.592282 0.296143
f 398/574/398 401/575/401 392/572/392
vt 0.590576 0.292612
f 398/574/398 402/576/402 401/575/401
vt 0.602425 0.292526
f 392/572/392 387/577/387 388/573/388
vt 0.895877 0.440220
vt 0.905904 0.440674
f 340/427/340 403/578/403 404/579/404
f 340/427/340 339/425/339 403/578/403
f 404/579/404 374/506/374 340/427/340
f 339/425/339 378/511/378 403/578/403
f 374/506/374 373/504/373 340/427/340
vt 0.873419 0.433800
f 401/580/401 377/510/377 314/367/314
vt 0.867097 0.425694
f 314/367/314 392/581/392 401/580/401
vt 0.879801 0.437948
f 401/580/401 405/582/405 377/510/377
f 314/367/314 316/370/316 392/581/392
vt 0.550419 0.097784
vt 0.548041 0.100534
f 148/556/148 83/583/83 406/584/406
f 406/584/406 395/557/395 148/556/148
vt 0.544694 0.103670
f 406/584/406 407/585/407 395/557/395
vt 0.541784 0.093281
vt 0.537685 0.099880
vt 0.541623 0.103060
f 408/586/408 409/587/409 410/588/410
f 410/588/410 406/584/406 408/586/408
f 408/586/408 156/91/156 409/587/409
f 156/91/156 88/93/88 409/587/409
f 410/588/410 407/585/407 406/584/406
vt 0.537746 0.103216
f 409/587/409 411/589/411 410/588/410
vt 0.549815 0.094682
vt 0.544494 0.090916
f 408/586/408 362/590/362 372/591/372
f 408/586/408 406/584/406 362/590/362
f 406/584/406 83/583/83 362/590/362
vt 0.379683 0.324028
f 303/570/303 155/592/155 154/550/154
f 154/550/154 400/571/400 303/570/303
f 154/550/154 390/538/390 400/571/400
f 154/550/154 389/537/389 390/538/390
vt 0.538463 0.089413
f 412/593/412 156/91/156 408/586/408
vt 0.542964 0.090090
f 408/586/408 375/594/375 412/593/412
vt 0.164795 0.065674
vt 0.164795 0.061032
vt 0.167201 0.063264
f 408/595/408 372/596/372 375/597/375
vt 0.300610 0.029896
f 413/598/413 152/89/152 84/88/84
vt 0.301047 0.025720
f 413/598/413 414/599/414 152/89/152
vt 0.294703 0.024860
f 414/599/414 415/600/415 152/89/152
vt 0.288186 0.024810
f 415/600/415 416/601/416 152/89/152
vt 0.285235 0.022446
f 415/600/415 417/602/417 416/601/416
vt 0.300104 0.032356
f 84/88/84 418/603/418 413/598/413
vt 0.287544 0.027613
f 419/604/419 416/601/416 417/602/417
vt 0.281288 0.024685
f 417/602/417 420/605/420 419/604/419
vt 0.292321 0.021412
vt 0.278912 0.021077
f 417/602/417 421/606/421 399/607/399
f 417/602/417 415/600/415 421/606/421
f 399/607/399 420/605/420 417/602/417
vt 0.278136 0.023773
f 399/607/399 422/608/422 420/605/420
vt 0.274981 0.022951
f 399/607/399 396/609/396 422/608/422
f 421/606/421 415/600/415 414/599/414
vt 0.305216 0.020631
f 414/599/414 423/610/423 421/606/421
vt 0.305064 0.021835
f 414/599/414 88/611/88 423/610/423
vt 0.531982 0.101376
f 414/612/414 409/587/409 88/93/88
vt 0.428368 0.044432
vt 0.418177 0.038813
f 397/561/397 424/613/424 402/614/402
vt 0.427774 0.047236
f 397/561/397 425/615/425 424/613/424
f 402/614/402 398/562/398 397/561/397
vt 0.390931 0.013378
vt 0.400183 0.015307
vt 0.400082 0.010602
f 412/616/412 404/617/404 426/618/426
vt 0.393258 0.018799
f 412/616/412 374/619/374 404/617/404
vt 0.387451 0.014823
f 412/616/412 375/620/375 374/619/374
vt 0.303734 0.020178
vt 0.296259 0.019384
f 423/610/423 427/621/427 428/622/428
f 428/622/428 421/606/421 423/610/423
vt 0.435187 0.053995
f 399/563/399 429/623/429 425/615/425
vt 0.431916 0.061517
f 399/563/399 421/624/421 429/623/429
f 425/615/425 397/561/397 399/563/399
vt 0.437316 0.055536
f 421/624/421 430/625/430 429/623/429
vt 0.436495 0.061768
f 421/624/421 428/626/428 430/625/430
vt 0.422634 0.010124
vt 0.416510 0.012931
vt 0.416581 0.016882
f 424/627/424 431/628/431 432/629/432
vt 0.426093 0.017467
f 432/629/432 405/630/405 424/627/424
vt 0.432164 0.014934
f 405/630/405 402/631/402 424/627/424
vt 0.432251 0.018799
f 405/630/405 401/632/401 402/631/402
vt 0.416345 0.009465
f 424/627/424 433/633/433 431/628/431
vt 0.889426 0.440674
f 377/510/377 405/582/405 432/634/432
f 432/634/432 378/511/378 377/510/377
f 432/634/432 403/578/403 378/511/378
vt 0.571045 0.182858
vt 0.573513 0.183502
vt 0.573990 0.182195
f 157/635/157 423/636/423 88/637/88
vt 0.572367 0.188141
f 157/635/157 434/638/434 423/636/423
vt 0.576693 0.183058
f 427/639/427 423/636/423 434/638/434
vt 0.575430 0.190674
f 434/638/434 435/640/435 427/639/427
vt 0.396461 0.008416
f 412/616/412 426/618/426 434/641/434
vt 0.390278 0.010417
f 434/641/434 156/642/156 412/616/412
vt 0.392764 0.004696
f 434/641/434 157/643/157 156/642/156
vt 0.399920 0.007121
f 426/618/426 435/644/435 434/641/434
vt 0.410062 0.017411
vt 0.403358 0.010256
f 403/645/403 431/628/431 436/646/436
f 436/646/436 404/617/404 403/645/403
f 403/645/403 432/629/432 431/628/431
f 436/646/436 426/618/426 404/617/404
vt 0.584251 0.184456
vt 0.585700 0.190674
f 428/647/428 435/640/435 430/648/430
f 428/647/428 427/639/427 435/640/435
vt 0.409308 0.004030
f 435/644/435 436/646/436 430/649/430
f 435/644/435 426/618/426 436/646/436
vt 0.434174 0.046877
f 425/615/425 433/650/433 424/613/424
f 425/615/425 429/623/429 433/650/433
f 430/649/430 431/628/431 433/633/433
f 430/649/430 436/646/436 431/628/431
vt 0.412529 0.003966
f 433/633/433 429/651/429 430/649/430
f 96/3/96 168/104/168 167/97/167
f 90/2/90 168/104/168 96/3/96
vt 0.180420 0.214111
vt 0.180420 0.170842
vt 0.181439 0.174128
f 160/652/160 62/653/62 267/654/267
f 69/235/69 254/258/254 240/231/240
f 114/180/114 254/258/254 69/235/69
vt 0.840576 0.296143
vt 0.849142 0.296143
vt 0.842421 0.293243
f 390/655/390 391/656/391 400/657/400
vt 0.164795 0.057861
vt 0.164795 0.052501
vt 0.166826 0.055275
f 60/658/60 59/659/59 58/660/58
vt 0.593783 0.229736
vt 0.593434 0.226569
vt 0.590576 0.227463
f 57/661/57 109/662/109 56/663/56
vt 0.582317 0.007080
vt 0.577556 0.005616
vt 0.573850 0.007080
f 217/664/217 245/665/245 235/666/235
vt 0.617920 0.132080
vt 0.621572 0.132080
vt 0.621429 0.128817
f 205/667/205 54/668/54 203/669/203
vt 0.606201 0.165783
vt 0.612142 0.167236
vt 0.609191 0.164297
f 221/670/221 257/671/257 53/672/53
vt 0.254517 0.023523
vt 0.250807 0.029558
vt 0.247641 0.029576
f 52/673/52 256/674/256 255/675/255
vt 0.257025 0.030518
f 256/674/256 52/673/52 258/676/258
vt 0.606201 0.276611
vt 0.609129 0.275986
vt 0.607362 0.271729
f 52/677/52 51/678/51 50/679/50
vt 0.626868 0.183332
vt 0.625732 0.186768
vt 0.630406 0.186768
f 71/680/71 320/681/320 299/682/299
vt 0.290595 0.061768
vt 0.307647 0.061768
vt 0.295043 0.058055
f 49/683/49 131/684/131 48/685/48
vt 0.273070 0.044407
vt 0.270250 0.040895
vt 0.269952 0.043612
f 47/686/47 46/687/46 45/688/45
vt 0.566735 0.168514
vt 0.563529 0.171872
vt 0.563232 0.167953
f 44/689/44 89/690/89 134/691/134
vt 0.625732 0.069580
vt 0.628652 0.069580
vt 0.626212 0.064977
f 360/692/360 361/693/361 44/694/44
vt 0.563764 0.165072
f 44/689/44 134/691/134 360/695/360
vt 0.420330 0.025156
vt 0.400501 0.034424
vt 0.429651 0.034424
f 131/696/131 269/697/269 268/698/268
vt 0.403784 0.029813
f 131/696/131 49/699/49 269/697/269
vt 0.423195 0.025923
f 268/698/268 132/700/132 131/696/131
vt 0.424127 0.025964
f 268/698/268 379/701/379 132/700/132
vt 0.429124 0.026186
f 268/698/268 347/702/347 379/701/379
vt 0.432958 0.033500
f 268/698/268 344/703/344 347/702/347
vt 0.397226 0.030481
f 49/699/49 307/704/307 269/697/269
vt 0.400781 0.023214
f 49/699/49 382/705/382 307/704/307
vt 0.394366 0.023076
f 382/705/382 381/706/381 307/704/307
vt 0.258662 0.043903
vt 0.258545 0.051531
vt 0.264719 0.049270
f 252/707/252 117/708/117 43/709/43
vt 0.434326 0.004110
vt 0.437719 0.007383
f 43/710/43 42/711/42 252/423/252
vt 0.260055 0.052842
f 117/708/117 118/712/118 43/709/43
f 42/711/42 338/424/338 252/423/252
vt 0.317591 0.040181
vt 0.309734 0.030947
vt 0.297459 0.041748
f 86/713/86 410/714/410 41/715/41
vt 0.318196 0.054309
f 41/715/41 44/716/44 86/713/86
vt 0.321226 0.045595
f 44/716/44 145/717/145 86/713/86
vt 0.312680 0.032586
f 86/713/86 407/718/407 410/714/410
vt 0.321415 0.050300
f 44/716/44 361/719/361 145/717/145
vt 0.315786 0.033418
f 86/713/86 395/720/395 407/718/407
vt 0.276571 0.029485
vt 0.267123 0.026558
f 40/721/40 396/609/396 336/722/336
vt 0.261659 0.033385
vt 0.271606 0.033987
f 336/722/336 334/723/334 39/724/39
f 40/721/40 151/87/151 396/609/396
f 151/87/151 422/608/422 396/609/396
f 151/87/151 77/86/77 422/608/422
vt 0.563754 0.064766
vt 0.559326 0.067777
vt 0.559326 0.059891
f 59/725/59 60/726/60 38/727/38
vt 0.892421 0.458766
vt 0.894731 0.452329
vt 0.887684 0.458249
f 37/728/37 36/729/36 35/730/35
vt 0.897120 0.454822
f 37/728/37 60/731/60 36/729/36
vt 0.899193 0.452782
f 60/731/60 58/732/58 36/729/36
vt 0.897086 0.450381
f 58/732/58 64/733/64 36/729/36
vt 0.881174 0.462227
vt 0.885737 0.455501
vt 0.879413 0.456353
f 34/734/34 33/735/33 32/736/32
vt 0.892022 0.448440
vt 0.887098 0.451401
f 36/729/36 103/737/103 30/738/30
f 30/738/30 35/730/35 36/729/36
f 30/738/30 33/735/33 35/730/35
vt 0.882035 0.449463
f 30/738/30 29/739/29 33/735/33
vt 0.884472 0.447873
f 30/738/30 107/740/107 29/739/29
f 103/737/103 36/729/36 64/733/64
vt 0.609773 0.046418
vt 0.606201 0.050049
vt 0.614129 0.050049
f 64/741/64 99/742/99 103/743/103
vt 0.879942 0.467304
vt 0.872532 0.464082
vt 0.870454 0.468018
f 61/744/61 56/745/56 165/746/165
vt 0.875329 0.460642
f 61/744/61 57/747/57 56/745/56
vt 0.880848 0.463678
f 61/744/61 31/748/31 57/747/57
f 31/748/31 32/736/32 57/747/57
vt 0.871929 0.454516
f 32/736/32 28/749/28 57/747/57
vt 0.877637 0.450432
f 32/736/32 55/750/55 28/749/28
f 32/736/32 29/739/29 55/750/55
f 32/736/32 33/735/33 29/739/29
vt 0.879430 0.446030
f 29/739/29 236/751/236 55/750/55
vt 0.872102 0.464116
f 56/745/56 27/752/27 165/746/165
vt 0.862092 0.465527
f 27/752/27 170/753/170 165/746/165
vt 0.627895 0.269251
vt 0.625732 0.272705
vt 0.630221 0.272705
f 174/754/174 173/755/173 61/756/61
vt 0.627830 0.046143
vt 0.631784 0.046143
vt 0.628949 0.042694
f 31/757/31 61/758/61 173/759/173
vt 0.609777 0.069214
vt 0.606201 0.073486
vt 0.612649 0.073486
f 222/760/222 30/761/30 103/762/103
vt 0.613753 0.067407
f 103/762/103 92/763/92 222/760/222
vt 0.621729 0.001901
vt 0.617920 0.007080
vt 0.622320 0.007080
f 93/764/93 107/765/107 30/766/30
vt 0.609400 0.069630
f 30/761/30 222/760/222 93/767/93
vt 0.606495 0.096924
vt 0.615502 0.096924
vt 0.611752 0.092783
f 220/768/220 236/769/236 107/770/107
vt 0.606201 0.094875
f 107/770/107 108/771/108 220/768/220
f 236/751/236 29/739/29 107/740/107
vt 0.875360 0.448427
vt 0.873189 0.451180
f 55/750/55 244/772/244 26/773/26
f 26/773/26 28/749/28 55/750/55
vt 0.867339 0.458292
vt 0.872387 0.460190
f 28/749/28 111/774/111 67/775/67
vt 0.868363 0.454565
f 28/749/28 25/776/25 111/774/111
vt 0.596670 0.226179
vt 0.600838 0.229736
f 67/777/67 57/661/57 28/778/28
f 67/777/67 109/662/109 57/661/57
vt 0.865858 0.455859
f 25/776/25 24/779/24 111/774/111
vt 0.870609 0.452144
f 28/749/28 23/780/23 25/776/25
f 28/749/28 26/773/26 23/780/23
vt 0.598101 0.218471
vt 0.593325 0.221924
vt 0.604554 0.221924
f 68/781/68 22/782/22 27/783/27
vt 0.603893 0.218189
f 27/783/27 109/784/109 68/781/68
vt 0.594271 0.217294
f 68/781/68 112/785/112 22/782/22
vt 0.599906 0.217171
f 109/784/109 110/786/110 68/781/68
vt 0.592462 0.218597
f 112/785/112 80/787/80 22/782/22
vt 0.873099 0.462575
f 27/752/27 56/745/56 109/788/109
vt 0.590576 0.219955
f 80/787/80 116/789/116 22/782/22
vt 0.596157 0.215938
f 111/790/111 68/781/68 110/786/110
vt 0.601787 0.215821
f 110/786/110 67/791/67 111/790/111
vt 0.574484 0.003588
vt 0.571045 0.006908
f 55/792/55 236/793/236 235/666/235
f 235/666/235 245/665/245 55/792/55
vt 0.858720 0.461198
vt 0.856201 0.464266
f 170/753/170 259/794/259 171/795/171
vt 0.862183 0.459983
f 170/753/170 22/796/22 259/794/259
f 170/753/170 27/752/27 22/796/22
vt 0.860859 0.454200
vt 0.859975 0.456566
vt 0.862805 0.458642
f 50/797/50 115/798/115 80/799/80
f 80/799/80 24/779/24 50/797/50
vt 0.865026 0.458473
f 80/799/80 112/800/112 24/779/24
f 112/800/112 111/774/111 24/779/24
vt 0.575145 0.011354
vt 0.571224 0.017189
vt 0.571045 0.018799
f 205/801/205 231/802/231 276/803/276
vt 0.578425 0.010128
f 276/803/276 54/804/54 205/801/205
vt 0.571909 0.011525
f 205/801/205 202/805/202 231/802/231
vt 0.269476 0.056348
f 276/806/276 43/709/43 118/712/118
f 118/39/118 54/804/54 276/803/276
vt 0.267172 0.047538
f 276/806/276 21/807/21 43/709/43
vt 0.579780 0.012025
f 118/39/118 251/808/251 54/804/54
f 118/39/118 81/38/81 251/808/251
vt 0.604111 0.007649
vt 0.602490 0.007745
vt 0.602295 0.010986
f 232/809/232 203/810/203 54/811/54
vt 0.604661 0.010986
f 54/811/54 251/812/251 232/809/232
vt 0.597238 0.089629
vt 0.593234 0.089810
vt 0.590599 0.093018
f 221/813/221 53/814/53 244/815/244
vt 0.600560 0.093018
f 244/815/244 216/816/216 221/813/221
vt 0.591757 0.089856
f 53/814/53 26/817/26 244/815/244
vt 0.590576 0.086576
f 53/814/53 23/818/23 26/817/26
vt 0.615580 0.167236
vt 0.613087 0.163373
f 257/671/257 258/819/258 23/820/23
f 23/820/23 53/672/53 257/671/257
vt 0.867934 0.448404
vt 0.861412 0.452327
f 258/821/258 52/822/52 25/776/25
f 25/776/25 23/780/23 258/821/258
vt 0.990384 0.292241
vt 0.985107 0.296143
vt 0.985107 0.291150
f 24/823/24 52/824/52 50/825/50
vt 0.992398 0.294801
f 24/823/24 25/826/25 52/824/52
vt 0.248198 0.022113
f 219/827/219 52/673/52 255/675/255
vt 0.247104 0.029403
f 255/675/255 215/828/215 219/827/219
vt 0.253112 0.017694
f 219/827/219 289/829/289 52/673/52
vt 0.246741 0.017668
f 219/827/219 287/830/287 289/829/289
vt 0.256210 0.018820
f 289/829/289 20/831/20 52/673/52
vt 0.165053 0.209767
vt 0.164795 0.214111
vt 0.164795 0.209508
f 255/832/255 221/833/221 215/834/215
vt 0.576080 0.072861
vt 0.572045 0.077393
vt 0.580305 0.077393
f 51/835/51 260/836/260 259/837/259
vt 0.581779 0.074041
f 259/837/259 22/838/22 51/835/51
vt 0.571045 0.071994
f 51/835/51 20/839/20 260/836/260
vt 0.575559 0.069347
f 51/835/51 52/840/52 20/839/20
vt 0.612422 0.274089
vt 0.609890 0.272189
f 116/841/116 115/842/115 51/678/51
vt 0.613874 0.276611
f 51/678/51 22/843/22 116/841/116
f 115/842/115 50/679/50 51/678/51
vt 0.621280 0.163330
vt 0.622166 0.160086
vt 0.618368 0.161172
f 171/844/171 261/845/261 282/846/282
vt 0.617920 0.163330
f 282/846/282 262/847/262 171/844/171
vt 0.910889 0.300049
vt 0.917424 0.300049
vt 0.914195 0.299355
f 262/848/262 169/849/169 171/850/171
vt 0.568254 0.163330
vt 0.560047 0.159339
vt 0.563825 0.154638
f 276/851/276 275/852/275 19/853/19
vt 0.568603 0.153184
f 19/853/19 21/854/21 276/851/276
vt 0.559326 0.156189
f 275/852/275 333/855/333 19/853/19
vt 0.565464 0.150809
f 19/853/19 18/856/18 21/854/21
vt 0.242920 0.020618
vt 0.242920 0.014356
f 123/857/123 126/858/126 287/830/287
vt 0.624193 0.022705
vt 0.622733 0.017623
vt 0.617920 0.022705
f 123/859/123 94/860/94 126/861/126
f 287/830/287 219/827/219 123/857/123
vt 0.586670 0.018799
vt 0.586670 0.010704
vt 0.589065 0.013792
f 219/862/219 218/863/218 123/864/123
vt 0.627070 0.152854
vt 0.625732 0.155518
vt 0.631157 0.155518
f 291/865/291 260/866/260 20/867/20
vt 0.630172 0.152389
f 20/867/20 289/868/289 291/865/291
vt 0.165648 0.190674
vt 0.164795 0.190674
vt 0.164795 0.186846
f 299/869/299 295/870/295 122/871/122
vt 0.629403 0.182986
f 122/872/122 71/680/71 299/682/299
vt 0.608135 0.198478
vt 0.611165 0.194871
vt 0.607083 0.194020
f 309/873/309 308/874/308 367/875/367
vt 0.612787 0.198486
f 309/873/309 304/876/304 308/874/308
vt 0.606250 0.195342
f 367/875/367 364/877/364 309/873/309
vt 0.606201 0.198486
f 364/877/364 330/878/330 309/873/309
vt 0.564338 0.003457
vt 0.551514 0.007080
vt 0.567042 0.007080
f 322/879/322 301/880/301 299/881/299
vt 0.567557 0.002774
f 299/881/299 320/882/320 322/879/322
vt 0.617920 0.276611
vt 0.622188 0.276611
vt 0.621863 0.270095
f 322/883/322 321/884/321 352/885/352
vt 0.557116 0.002868
f 352/886/352 301/880/301 322/879/322
vt 0.439724 0.031455
vt 0.436546 0.030942
vt 0.432916 0.034209
f 352/887/352 345/888/345 301/889/301
f 345/888/345 344/703/344 301/889/301
f 344/703/344 268/698/268 301/889/301
vt 0.393831 0.031790
f 305/890/305 307/704/307 381/706/381
vt 0.390647 0.024974
f 381/706/381 129/891/129 305/890/305
vt 0.387451 0.029505
vt 0.390534 0.032276
f 305/890/305 367/892/367 308/893/308
f 305/890/305 129/891/129 367/892/367
vt 0.625732 0.225830
vt 0.630763 0.225830
vt 0.630703 0.222575
f 129/894/129 73/895/73 367/896/367
vt 0.262350 0.045519
f 21/807/21 46/687/46 42/897/42
vt 0.565891 0.148100
vt 0.567969 0.146289
f 21/854/21 45/898/45 46/899/46
f 21/854/21 18/856/18 45/898/45
f 42/897/42 43/709/43 21/807/21
vt 0.407614 0.025458
vt 0.401981 0.023411
f 49/699/49 48/900/48 385/901/385
f 385/901/385 382/705/382 49/699/49
vt 0.984525 0.401560
vt 0.976262 0.405518
vt 0.983484 0.404566
f 17/902/17 332/903/332 159/904/159
vt 0.973389 0.403922
f 17/902/17 333/905/333 332/903/332
vt 0.561418 0.144924
vt 0.563976 0.148752
f 333/855/333 17/906/17 47/907/47
f 47/907/47 19/853/19 333/855/333
vt 0.561370 0.139437
f 17/906/17 16/908/16 47/907/47
vt 0.559326 0.142099
f 17/906/17 15/909/15 16/908/16
vt 0.278396 0.039411
vt 0.281560 0.038775
vt 0.278516 0.035982
f 15/910/15 14/911/14 16/912/16
vt 0.282294 0.034661
f 14/911/14 13/913/13 16/912/16
vt 0.269354 0.046409
f 18/914/18 47/686/47 45/688/45
vt 0.271725 0.050116
f 18/914/18 19/915/19 47/686/47
vt 0.272009 0.033621
f 46/687/46 16/912/16 12/916/12
f 46/687/46 47/686/47 16/912/16
vt 0.267149 0.038785
f 11/917/11 42/897/42 46/687/46
vt 0.259282 0.042647
f 11/917/11 338/918/338 42/897/42
vt 0.260893 0.035840
f 11/917/11 337/919/337 338/918/338
f 16/912/16 40/721/40 12/916/12
vt 0.279698 0.030977
f 16/912/16 10/920/10 40/721/40
vt 0.577723 0.029753
f 130/56/130 386/921/386 365/467/365
vt 0.574616 0.030518
f 130/56/130 381/922/381 386/921/386
f 130/56/130 129/55/129 381/922/381
f 11/917/11 39/724/39 334/723/334
f 334/723/334 337/919/337 11/917/11
vt 0.596202 0.015745
vt 0.591890 0.012780
vt 0.590576 0.022705
f 140/923/140 139/924/139 371/925/371
vt 0.596951 0.022705
f 371/925/371 342/926/342 140/923/140
vt 0.307997 0.059927
vt 0.295727 0.054350
f 74/927/74 9/928/9 48/685/48
f 48/685/48 131/684/131 74/927/74
f 44/716/44 9/928/9 74/927/74
vt 0.290575 0.044168
f 44/716/44 8/929/8 9/928/9
vt 0.311284 0.061678
f 74/927/74 379/930/379 44/716/44
vt 0.290396 0.046339
f 8/929/8 7/931/7 9/928/9
vt 0.320796 0.060285
f 379/930/379 354/932/354 44/716/44
vt 0.563232 0.175049
f 354/933/354 89/690/89 44/689/44
vt 0.310368 0.061490
f 74/927/74 132/934/132 379/930/379
vt 0.581498 0.151611
vt 0.581972 0.148354
vt 0.574886 0.151611
f 48/935/48 9/936/9 384/937/384
vt 0.403197 0.020615
f 384/938/384 385/901/385 48/900/48
vt 0.571045 0.145076
f 9/936/9 144/939/144 384/937/384
vt 0.579423 0.138915
f 9/936/9 7/940/7 144/939/144
vt 0.573835 0.138975
f 7/940/7 82/941/82 144/939/144
vt 0.572739 0.150160
f 144/939/144 383/942/383 384/937/384
vt 0.576179 0.136748
f 7/940/7 393/943/393 82/941/82
vt 0.288112 0.039347
f 41/715/41 6/944/6 8/929/8
f 8/929/8 44/716/44 41/715/41
vt 0.281542 0.040597
f 6/944/6 394/945/394 8/929/8
vt 0.606201 0.214111
vt 0.609431 0.214038
vt 0.612665 0.210743
f 6/946/6 5/947/5 394/948/394
vt 0.580873 0.136319
vt 0.573209 0.131203
f 8/949/8 394/950/394 393/943/393
f 393/943/393 7/940/7 8/949/8
vt 0.986643 0.405414
f 17/902/17 159/904/159 370/951/370
vt 0.987797 0.402110
f 370/951/370 15/952/15 17/902/17
vt 0.987835 0.405518
f 370/951/370 369/953/369 15/952/15
vt 0.612744 0.214006
vt 0.615925 0.214111
vt 0.616002 0.210723
f 14/954/14 15/955/15 369/956/369
f 369/956/369 394/948/394 14/954/14
f 394/948/394 5/947/5 14/954/14
vt 0.303652 0.029167
vt 0.301588 0.034288
f 410/714/410 4/957/4 3/958/3
f 3/958/3 41/715/41 410/714/410
vt 0.292247 0.035962
f 3/958/3 2/959/2 41/715/41
f 2/959/2 6/944/6 41/715/41
vt 0.307038 0.029102
f 410/714/410 411/960/411 4/957/4
vt 0.289095 0.035076
f 2/959/2 1/961/1 6/944/6
vt 0.284874 0.038939
f 5/962/5 1/961/1 13/913/13
f 5/962/5 6/944/6 1/961/1
f 13/913/13 14/911/14 5/962/5
f 13/913/13 1/961/1 419/604/419
f 419/604/419 10/920/10 13/913/13
f 419/604/419 420/605/420 10/920/10
f 1/961/1 153/90/153 419/604/419
f 1/961/1 2/959/2 153/90/153
f 420/605/420 422/608/422 10/920/10
f 2/959/2 84/88/84 153/90/153
f 10/920/10 16/912/16 13/913/13
f 84/88/84 3/958/3 418/603/418
f 84/88/84 2/959/2 3/958/3
f 40/721/40 150/85/150 151/87/151
f 40/721/40 10/920/10 150/85/150
vt 0.532137 0.106651
vt 0.536983 0.107860
vt 0.535651 0.103587
f 413/963/413 3/964/3 4/965/4
vt 0.533096 0.108643
f 413/963/413 418/966/418 3/964/3
f 4/965/4 409/587/409 414/612/414
f 4/965/4 411/589/411 409/587/409
f 414/612/414 413/963/413 4/965/4
f 419/604/419 152/89/152 416/601/416
f 419/604/419 153/90/153 152/89/152
f 77/86/77 10/920/10 422/608/422
f 150/85/150 10/920/10 77/86/77
f 12/916/12 39/724/39 46/687/46
f 39/724/39 11/917/11 46/687/46
f 336/722/336 39/724/39 12/916/12
f 336/722/336 12/916/12 40/721/40
# 825 faces, 966 coords texture

# End of File
