####
#
# OBJ File Generated by Meshlab
#
####
# Object office_chair_11.obj
#
# Vertices: 443
# Faces: 820
#
####
mtllib ./office_chair_11.obj.mtl

vn -0.856543 -0.322715 0.402727
v 6.156099 -2.375609 1.016189
vn -0.143147 -0.985666 0.089279
v 6.124237 -2.337758 0.996185
vn 0.275023 -0.887487 -0.369768
v 6.104238 -2.337832 0.976184
vn -0.928177 0.062655 0.366827
v 6.126372 -2.515609 0.916156
vn -0.399093 0.772990 -0.493164
v 6.084239 -2.242368 0.836186
vn -0.843818 -0.506999 0.175851
v 6.141085 -2.355603 0.996183
vn -0.839034 -0.538504 0.077681
v 6.084238 -2.307578 0.876186
vn -0.747118 -0.642443 0.170537
v 6.124246 -2.349502 0.956183
vn -0.903068 -0.173240 0.393009
v 6.104286 -2.372953 0.856163
vn 0.205222 0.978522 0.019466
v 6.124240 -2.207560 0.996181
vn -0.391198 0.867512 -0.307224
v 6.064237 -2.235605 0.896183
vn -0.017180 0.845795 -0.533232
v 6.064238 -2.226065 0.916185
vn -0.467716 -0.359842 -0.807314
v 6.064239 -2.287084 0.876185
vn -0.928330 0.362272 0.083445
v 6.064224 -2.275613 0.836189
vn -0.319161 0.831907 -0.453945
v 6.084238 -2.264975 0.816184
vn -0.260408 -0.872051 -0.414385
v 6.086363 -2.315607 0.936185
vn -0.219865 -0.848310 -0.481694
v 6.064239 -2.300504 0.916185
vn -0.793910 -0.479012 -0.374506
v 6.060984 -2.275607 0.876185
vn -0.750961 0.382057 -0.538600
v 6.044239 -2.255607 0.891702
vn -0.558200 0.561536 -0.610812
v 6.044239 -2.251651 0.896185
vn -0.778638 0.158380 0.607156
v 6.080189 -2.535605 0.816189
vn 0.868686 -0.045416 -0.493277
v 6.084239 -2.355607 0.959494
vn 0.405077 -0.354517 -0.842752
v 6.064239 -2.335607 0.944509
vn -0.748580 0.622273 0.228918
v 6.051057 -2.275618 0.816213
vn -0.819196 -0.241869 0.520016
v 6.089368 -2.355604 0.836092
vn -0.744404 0.013627 0.667590
v 6.072706 -2.455612 0.796112
vn -0.701495 -0.068306 0.709394
v 6.072158 -2.435606 0.796094
vn -0.601190 0.073460 0.795722
v 6.064253 -2.475609 0.790132
vn -0.241892 0.657409 -0.713654
v 6.027243 -2.235607 0.916185
vn 0.076769 0.646027 -0.759444
v 6.044239 -2.215606 0.929898
vn 0.204322 0.519048 -0.829965
v 6.024239 -2.200725 0.936182
vn 0.372356 -0.298387 -0.878815
v 6.064260 -2.355606 0.948425
vn 0.501822 0.857025 -0.116973
v 6.024239 -2.241629 0.696184
vn 0.079643 0.313511 -0.946239
v 5.944236 -2.275609 0.622440
vn 0.371826 0.122913 -0.920129
v 6.004223 -2.395607 0.627674
vn 0.464966 0.298282 -0.833568
v 5.984249 -2.295603 0.638922
vn 0.468644 0.185829 -0.863620
v 6.004241 -2.355606 0.634990
vn 0.294308 -0.143837 -0.944825
v 5.984222 -2.435603 0.618555
vn 0.318784 -0.104469 -0.942053
v 5.964230 -2.575614 0.618204
vn 0.363326 -0.078772 -0.928326
v 6.004222 -2.455607 0.630615
vn -0.209350 -0.781089 -0.588279
v 6.044237 -2.295606 0.909437
vn -0.058924 -0.329088 -0.942459
v 6.024235 -2.295605 0.911094
vn -0.556681 -0.041354 -0.829696
v 6.024242 -2.275611 0.905680
vn -0.216918 0.373553 -0.901890
v 6.024235 -2.235606 0.917336
vn 0.548518 -0.503008 -0.667915
v 5.950187 -2.675631 0.716198
vn 0.532706 -0.450152 -0.716650
v 5.884241 -2.655608 0.665170
vn 0.666220 0.054942 -0.743729
v 5.864236 -2.695607 0.656186
vn 0.640674 -0.186694 -0.744770
v 5.863133 -2.675608 0.656184
vn 0.579006 0.482973 -0.656879
v 5.844238 -2.735604 0.609151
vn -0.026170 0.413325 -0.910207
v 5.924257 -2.295601 0.620966
vn 0.233142 0.018452 -0.972268
v 5.855983 -2.475602 0.596161
vn 0.180252 -0.003617 -0.983614
v 5.904242 -2.415605 0.596181
vn 0.332807 -0.149513 -0.931067
v 5.884241 -2.575604 0.598336
vn 0.353629 0.130590 -0.926225
v 5.844238 -2.495604 0.590384
vn 0.005427 0.007234 0.999959
v 5.824236 -2.535613 0.768355
vn 0.245323 -0.081665 0.965996
v 5.944236 -2.655611 0.758077
vn 0.655349 0.107401 -0.747652
v 5.824232 -2.715609 0.606218
vn 0.626869 -0.260048 -0.734445
v 5.817387 -2.675608 0.596175
vn 0.406194 -0.468044 -0.784819
v 5.884227 -2.595594 0.606735
vn 0.472842 -0.086362 -0.876905
v 5.879900 -2.575599 0.596182
vn -0.241403 0.019714 -0.970225
v 6.006064 -2.295602 0.916086
vn -0.013492 -0.170615 -0.985245
v 5.984212 -2.335599 0.919876
vn 0.285109 0.318564 -0.904008
v 5.804249 -2.475603 0.580333
vn -0.091999 0.956402 0.277183
v 5.944238 -2.202256 0.716183
vn 0.061027 0.227192 0.971936
v 5.764238 -2.335607 0.788482
vn 0.531533 -0.215975 -0.819041
v 5.784246 -2.715611 0.585216
vn -0.158093 0.635866 -0.755434
v 5.884235 -2.275596 0.656168
vn -0.098943 0.716237 -0.690807
v 5.904237 -2.223115 0.696181
vn 0.167314 -0.118353 0.978774
v 5.764238 -2.375608 0.792069
vn 0.311713 0.140451 -0.939739
v 5.764233 -2.575609 0.536195
vn 0.402057 -0.278592 -0.872202
v 5.764239 -2.635607 0.541895
vn 0.344583 0.175096 0.922282
v 5.782287 -2.635627 0.796123
vn 0.498525 0.206440 0.841935
v 5.816128 -2.715622 0.796151
vn 0.249057 0.285270 0.925522
v 5.764230 -2.595611 0.794654
vn -0.379568 0.653422 0.654956
v 5.724238 -2.235608 0.739694
vn -0.038820 0.578726 -0.814598
v 5.784241 -2.261511 0.676171
vn -0.111742 0.052016 -0.992375
v 5.844225 -2.235604 0.937454
vn 0.362690 0.508145 0.781181
v 5.724238 -2.600622 0.816182
vn -0.185462 0.814147 -0.550244
v 5.724239 -2.235613 0.698461
vn -0.396164 0.918008 -0.017772
v 5.724239 -2.226834 0.716188
vn -0.287627 0.730473 -0.619419
v 5.704241 -2.256947 0.676173
vn 0.049218 0.222418 -0.973708
v 5.864227 -2.373291 0.596122
vn 0.003453 0.171106 -0.985247
v 5.744241 -2.575617 0.531934
vn -0.221892 0.602274 -0.766831
v 5.664236 -2.315611 0.636187
vn 0.027708 0.278155 -0.960136
v 5.764233 -2.457557 0.576153
vn -0.088388 0.395911 -0.914025
v 5.804232 -2.390078 0.596154
vn -0.339099 -0.167681 0.925686
v 5.724250 -2.395606 0.785974
vn -0.335021 0.280483 0.899494
v 5.744226 -2.335602 0.785278
vn -0.456966 0.122162 0.881055
v 5.724239 -2.375605 0.785432
vn -0.778637 0.600909 0.180645
v 5.668333 -2.275618 0.696160
vn -0.913494 0.239403 0.328960
v 5.636240 -2.335604 0.676192
vn -0.787746 0.085334 0.610061
v 5.647326 -2.375616 0.716163
vn 0.199078 0.518188 0.831775
v 5.704237 -2.555607 0.796185
vn -0.391597 0.227793 -0.891494
v 5.664250 -2.375624 0.611312
vn -0.714118 0.654931 -0.247186
v 5.644234 -2.311918 0.656184
vn -0.609470 0.516634 -0.601362
v 5.644232 -2.327730 0.636153
vn -0.602021 0.271845 -0.750780
v 5.644238 -2.335606 0.630880
vn -0.964639 0.238408 -0.112400
v 5.630434 -2.335608 0.656186
vn -0.364994 0.378932 0.850406
v 5.624238 -2.455607 0.706186
vn -0.992927 0.051234 0.107100
v 5.614242 -2.455608 0.696186
vn -0.840505 0.491158 0.228725
v 5.604242 -2.518345 0.695805
vn -0.900383 0.105021 -0.422234
v 5.635465 -2.455606 0.636180
vn -0.955955 0.068752 0.285346
v 5.625370 -2.475606 0.696183
vn -0.038410 0.653242 0.756174
v 5.664236 -2.535604 0.787803
vn -0.244660 0.401777 0.882449
v 5.704259 -2.495603 0.757373
vn 0.007105 -0.207213 -0.978270
v 5.724302 -2.635537 0.540093
vn -0.437253 0.707940 0.554645
v 5.624238 -2.520015 0.756186
vn -0.865768 0.334680 -0.372068
v 5.626259 -2.495602 0.636176
vn -0.775389 0.154815 -0.612212
v 5.664247 -2.466883 0.596193
vn -0.831534 0.345576 -0.434890
v 5.617633 -2.515603 0.636176
vn -0.872385 0.477974 -0.102397
v 5.604246 -2.515613 0.676186
vn -0.393696 0.185141 -0.900403
v 5.704239 -2.575612 0.538115
vn -0.119342 -0.103114 -0.987484
v 5.712454 -2.615537 0.536327
vn -0.380307 0.294211 -0.876816
v 5.684232 -2.555588 0.554511
vn -0.670300 0.271123 -0.690790
v 5.624218 -2.575598 0.592367
vn -0.983292 0.052069 0.174429
v 6.162355 -2.475608 0.996161
vn -0.935983 -0.075172 0.343927
v 6.154267 -2.435607 0.976155
vn 0.683661 0.290203 -0.669620
v 6.064237 -2.315607 0.698480
vn 0.693372 0.153409 -0.704061
v 6.044237 -2.375607 0.661939
vn -0.014909 0.185779 -0.982478
v 5.984228 -2.195623 0.926521
vn 0.083926 0.055743 0.994912
v 5.944239 -2.375610 0.760004
vn 0.402647 0.274882 0.873107
v 5.944232 -2.435603 0.770891
vn 0.032979 0.300571 0.953189
v 5.764250 -2.515602 0.767603
vn -0.052632 0.237765 0.969896
v 5.744238 -2.495606 0.758665
vn 0.065214 0.265584 0.961880
v 5.924240 -2.469362 0.796180
vn -0.209121 -0.153315 0.965797
v 5.864229 -2.515606 0.779873
vn -0.111745 0.096279 0.989062
v 5.784239 -2.495605 0.766138
vn -0.807853 -0.275740 -0.520905
v 6.174685 -2.375615 1.056192
vn -0.960305 -0.143062 0.239474
v 6.164234 -2.355608 1.056187
vn -0.936469 -0.060501 0.345493
v 6.180978 -2.415607 1.056189
vn -0.943323 0.148568 0.296764
v 6.164237 -2.475607 1.016185
vn 0.447984 0.030461 -0.893522
v 6.044234 -2.475605 0.649065
vn 0.718633 0.192743 -0.668144
v 6.084247 -2.505543 0.676156
vn 0.514494 0.047125 -0.856198
v 6.064229 -2.495610 0.646470
vn 0.367931 -0.173855 -0.913456
v 6.044245 -2.515607 0.656170
vn -0.672467 -0.093759 0.734165
v 6.037579 -2.315612 0.796200
vn 0.334546 -0.126427 0.933860
v 5.984228 -2.535607 0.811886
vn 0.966233 -0.163750 0.198948
v 5.996998 -2.535606 0.796185
vn 0.370560 -0.916051 0.153412
v 5.984237 -2.551618 0.796187
vn 0.797034 0.077581 -0.598930
v 6.001340 -2.615607 0.636189
vn 0.200994 -0.840566 -0.503041
v 6.004240 -2.628291 0.656188
vn 0.759497 -0.063262 -0.647427
v 6.004252 -2.615608 0.643703
vn 0.144494 -0.390552 -0.909170
v 5.964244 -2.595604 0.622824
vn -0.159035 -0.777015 -0.609061
v 5.964239 -2.630451 0.656185
vn 0.171750 -0.304128 -0.937021
v 5.984220 -2.615606 0.622308
vn 0.597445 0.511686 -0.617444
v 5.964239 -2.221320 0.676188
vn 0.494618 0.243546 0.834289
v 5.964237 -2.455607 0.763751
vn 0.797529 -0.592194 0.115125
v 5.964239 -2.675607 0.736185
vn 0.519084 -0.041000 0.853739
v 5.951952 -2.675601 0.756203
vn 0.493209 -0.468280 0.733116
v 5.964242 -2.655604 0.747001
vn 0.467856 0.536487 -0.702348
v 5.964236 -2.255601 0.656178
vn -0.287145 0.667958 -0.686571
v 5.924238 -2.262347 0.656184
vn -0.262161 0.634187 -0.727378
v 5.884239 -2.299984 0.636921
vn -0.056277 0.363787 -0.929780
v 5.884245 -2.335617 0.608802
vn -0.158463 0.637223 -0.754212
v 5.904245 -2.299836 0.616159
vn 0.718329 0.304098 0.625722
v 5.772321 -2.735627 0.856164
vn -0.642112 -0.016756 0.766428
v 5.704237 -2.275607 0.748274
vn -0.537749 0.218430 0.814319
v 5.724242 -2.295609 0.753374
vn -0.784809 0.134904 0.604877
v 5.685783 -2.275620 0.716155
vn -0.546171 0.358405 0.757129
v 5.684227 -2.475611 0.726231
vn -0.395759 0.580485 0.711626
v 5.644239 -2.475612 0.716181
vn -0.794139 0.013501 0.607587
v 5.644235 -2.395607 0.708402
vn -0.260390 0.307567 0.915205
v 5.644234 -2.455607 0.698387
vn -0.477959 0.217018 0.851151
v 5.624238 -2.415607 0.711235
vn -0.911723 0.382045 0.151006
v 5.609663 -2.415607 0.696185
vn -0.977191 -0.098681 -0.188043
v 5.624242 -2.435608 0.676186
vn -0.940433 0.248765 -0.231737
v 5.625499 -2.415607 0.676185
vn -0.319886 0.407485 0.855353
v 5.744222 -2.272893 0.756186
vn -0.115695 0.373521 0.920379
v 5.744230 -2.254434 0.747297
vn 0.396306 0.572540 -0.717733
v 6.064242 -2.175601 0.967116
vn 0.293630 -0.170581 -0.940576
v 5.765602 -2.615605 0.536171
vn 0.994116 -0.108150 -0.006143
v 6.282563 -2.515606 1.096182
vn 0.978293 -0.110978 -0.175003
v 6.265754 -2.515607 1.056185
vn 0.612604 -0.482127 0.626315
v 6.264240 -2.546204 1.136187
vn 0.804319 -0.580377 -0.127410
v 6.264257 -2.567044 1.096189
vn 0.705605 -0.671917 0.225056
v 6.256732 -2.575607 1.096184
vn 0.597301 -0.139070 0.789868
v 6.264240 -2.439599 1.176188
vn 0.714814 0.042293 0.698034
v 6.264244 -2.421906 1.176188
vn 0.998177 0.053181 -0.028534
v 6.280873 -2.475608 1.096186
vn 0.960012 0.064971 -0.272316
v 6.266411 -2.455586 1.036175
vn 0.971260 0.145725 0.188199
v 6.267475 -2.395599 1.156184
vn 0.985653 0.142546 -0.090382
v 6.249599 -2.415576 0.976171
vn 0.863931 -0.104608 -0.492626
v 6.264379 -2.455574 1.033257
vn 0.995747 -0.067263 -0.062964
v 6.250356 -2.475611 0.976180
vn 0.959488 0.081776 -0.269621
v 6.251258 -2.495611 0.996180
vn 0.922060 -0.378634 -0.080259
v 6.259846 -2.575607 1.056186
vn 0.967913 -0.065898 -0.242491
v 6.264235 -2.515606 1.016186
vn 0.981892 0.150420 -0.115159
v 6.248779 -2.415612 0.916188
vn -0.404712 -0.080095 0.910930
v 6.244241 -2.415607 1.179838
vn -0.192647 -0.331999 0.923398
v 6.244236 -2.515607 1.156185
vn -0.250118 -0.558884 0.790626
v 6.244240 -2.547629 1.136186
vn -0.841254 -0.186160 0.507578
v 6.218708 -2.515607 1.136184
vn 0.969556 -0.113777 -0.216832
v 6.255591 -2.455580 0.936176
vn 0.975397 -0.175972 -0.132795
v 6.246070 -2.515601 0.956189
vn -0.704702 -0.556326 0.440337
v 6.224238 -2.575608 1.102481
vn 0.110998 -0.813131 0.571399
v 6.244239 -2.575606 1.112027
vn 0.489562 0.692838 0.529439
v 6.244238 -2.295608 1.159122
vn 0.954112 0.291894 -0.066851
v 6.259540 -2.335659 1.116211
vn 0.784100 0.558902 0.269843
v 6.245359 -2.295606 1.156184
vn -0.830362 -0.144975 0.538034
v 6.204220 -2.395607 1.120646
vn -0.905539 -0.223131 0.360849
v 6.200750 -2.395607 1.116189
vn -0.819285 -0.226225 0.526873
v 6.216048 -2.435607 1.136185
vn -0.638613 -0.063130 0.766934
v 6.224238 -2.375607 1.176185
vn -0.038860 0.023732 0.998963
v 6.244240 -2.395607 1.180655
vn -0.874937 -0.123926 0.468110
v 6.204233 -2.415607 1.132045
vn 0.444917 0.135299 -0.885293
v 6.193663 -2.415607 0.756186
vn 0.889514 0.007247 -0.456851
v 6.218925 -2.435603 0.796179
vn 0.870480 0.082842 -0.485182
v 6.227240 -2.395610 0.796189
vn 0.646940 0.106894 -0.755012
v 6.204240 -2.395606 0.776184
vn -0.878986 -0.220007 0.423061
v 6.214617 -2.455608 1.116186
vn -0.471392 -0.718806 0.510987
v 6.224239 -2.579295 1.096186
vn -0.796286 0.006974 0.604880
v 6.194878 -2.535607 1.076185
vn -0.869846 -0.146072 0.471201
v 6.216482 -2.535607 1.096186
vn 0.903140 -0.240491 -0.355672
v 6.232979 -2.515632 0.816174
vn 0.481320 -0.866038 0.135315
v 6.244241 -2.595602 1.056183
vn 0.843458 -0.497933 -0.201595
v 6.224273 -2.593670 0.976183
vn 0.963027 -0.199382 -0.181180
v 6.237742 -2.515628 0.836176
vn -0.848578 -0.276795 0.450888
v 6.195292 -2.375607 1.136184
vn -0.884860 -0.025646 0.465150
v 6.218036 -2.375607 1.156188
vn -0.328363 0.100116 0.939231
v 6.224236 -2.335607 1.173046
vn 0.000002 -0.531127 -0.847292
v 6.184237 -2.425033 0.756185
vn -0.472455 -0.042970 -0.880307
v 6.174812 -2.415607 0.756185
vn -0.849765 -0.202328 0.486788
v 6.195418 -2.455608 1.096192
vn -0.852395 -0.189889 0.487201
v 6.202160 -2.475607 1.096186
vn -0.517950 -0.641791 0.565537
v 6.204237 -2.586345 1.076186
vn -0.956973 0.009149 0.290034
v 6.175813 -2.555607 1.056184
vn 0.531112 0.846546 -0.035765
v 6.184247 -2.223197 1.056183
vn 0.867280 0.432372 -0.246740
v 6.221606 -2.335606 0.836185
vn 0.902793 0.421938 -0.083267
v 6.225283 -2.335594 0.876180
vn 0.772208 0.379966 -0.509235
v 6.190512 -2.275607 0.816185
vn 0.784435 0.471246 0.403224
v 6.182204 -2.275627 0.836189
vn 0.520103 0.822679 -0.229546
v 6.184237 -2.269265 0.816185
vn -0.822518 -0.261134 0.505246
v 6.155104 -2.295606 1.076182
vn -0.772308 -0.324449 0.546144
v 6.175179 -2.295608 1.096192
vn 0.122060 0.751983 -0.647783
v 6.164239 -2.266400 0.796185
vn -0.936898 0.184869 0.296726
v 6.154244 -2.495607 1.016187
vn -0.838390 -0.275327 0.470422
v 6.175071 -2.475607 1.056181
vn -0.822727 -0.333390 0.460404
v 6.197394 -2.475607 1.076185
vn -0.971625 0.091849 0.217963
v 6.198042 -2.515607 1.076184
vn -0.832793 -0.059200 0.550411
v 6.175148 -2.495607 1.036193
vn -0.886765 0.155963 0.435112
v 6.185330 -2.535607 1.056185
vn -0.958122 0.056061 0.280819
v 6.180442 -2.555607 1.036188
vn -0.806098 -0.354537 0.473825
v 6.174287 -2.575607 1.016185
vn 0.733982 -0.554716 -0.391869
v 6.224264 -2.532987 0.816175
vn -0.412136 -0.808902 0.419311
v 6.204237 -2.595608 1.056186
vn -0.709771 -0.457233 0.535877
v 6.176946 -2.595607 1.016186
vn -0.840072 -0.307822 0.446681
v 6.155358 -2.595607 0.996185
vn 0.162399 -0.978620 0.126215
v 6.204239 -2.623863 0.996185
vn -0.235827 -0.949061 0.208969
v 6.184236 -2.621083 0.976184
vn 0.532847 -0.790023 -0.303212
v 6.189667 -2.615601 0.896186
vn 0.743035 -0.578688 -0.336182
v 6.204237 -2.595612 0.896181
vn -0.863229 0.078409 0.498686
v 6.155733 -2.275606 1.096186
vn -0.703569 -0.000920 0.710627
v 6.174273 -2.275606 1.116184
vn 0.196430 0.858171 0.474297
v 6.184236 -2.226337 1.076186
vn -0.757830 0.403140 0.513003
v 6.162075 -2.255605 1.076187
vn -0.793200 0.061344 0.605863
v 6.154526 -2.275607 1.056185
vn 0.036962 0.670778 -0.740737
v 6.146683 -2.275607 0.796185
vn 0.260585 0.944112 -0.201862
v 6.164247 -2.269587 0.816184
vn 0.711727 0.697060 -0.086909
v 6.154420 -2.235638 0.836191
vn 0.690814 -0.088021 -0.717655
v 6.204239 -2.435607 0.776183
vn 0.764265 0.039527 -0.643690
v 6.227600 -2.475608 0.776188
vn 0.029846 -0.370841 -0.928217
v 6.184237 -2.435607 0.767297
vn 0.396259 -0.138609 -0.907616
v 6.204237 -2.495607 0.769373
vn -0.930833 -0.021282 0.364825
v 6.154493 -2.535607 1.016186
vn -0.887021 -0.282530 0.365198
v 6.154296 -2.555606 1.016183
vn -0.851454 -0.443411 0.280021
v 6.145785 -2.575607 0.956185
vn -0.986140 -0.013280 0.165383
v 6.154984 -2.535611 0.996110
vn -0.893264 -0.102981 0.437578
v 6.164239 -2.575607 0.997218
vn -0.922349 -0.168191 0.347828
v 6.135069 -2.555607 0.956185
vn -0.920722 0.024872 0.389427
v 6.159254 -2.595607 0.956185
vn -0.736257 -0.523656 0.428615
v 6.164239 -2.605725 0.976184
vn -0.858338 -0.415607 0.300877
v 6.144237 -2.575607 0.952190
vn -0.575589 -0.797538 0.180637
v 6.144238 -2.627862 0.956185
vn -0.956406 -0.021897 0.291220
v 6.144238 -2.595607 0.937896
vn -0.645596 -0.141580 0.750440
v 6.144238 -2.615607 0.969602
vn -0.140740 0.899719 0.413157
v 6.144237 -2.215607 1.025215
vn 0.640296 0.766683 -0.047102
v 6.124237 -2.215608 0.977262
vn 0.547995 0.801467 -0.239484
v 6.164240 -2.225732 1.016183
vn 0.172504 0.971887 0.160242
v 6.144238 -2.212011 1.016185
vn 0.598563 0.756122 -0.264580
v 6.164248 -2.238147 0.976183
vn 0.438053 0.835603 -0.331477
v 6.124237 -2.215608 0.976186
vn 0.233761 0.939954 -0.248681
v 6.104237 -2.223093 0.936185
vn 0.724497 0.689051 0.017685
v 6.164232 -2.255612 0.856186
vn 0.626299 0.760511 -0.171383
v 6.164266 -2.252950 0.936181
vn -0.452245 0.306775 0.837475
v 6.124240 -2.235608 1.029299
vn 0.922940 0.147743 -0.355463
v 6.114353 -2.575607 0.976184
vn 0.492345 0.576358 -0.652233
v 6.084239 -2.195607 0.967610
vn 0.845926 0.018329 -0.532985
v 6.092411 -2.355607 0.976181
vn 0.830335 -0.303230 -0.467543
v 6.104227 -2.355607 0.991687
vn 0.947002 0.146723 -0.285760
v 6.094008 -2.375606 0.956149
vn 0.982076 0.141007 -0.125077
v 6.108469 -2.535607 0.996190
vn 0.487308 -0.197487 -0.850606
v 6.132456 -2.515606 0.756189
vn 0.151013 -0.310920 -0.938362
v 6.164240 -2.538868 0.776179
vn 0.453957 -0.522775 -0.721546
v 6.124238 -2.535607 0.758098
vn 0.195371 -0.622933 -0.757486
v 6.164237 -2.555608 0.779552
vn 0.084858 -0.723542 -0.685044
v 6.144237 -2.555609 0.780666
vn 0.935354 -0.219490 -0.277375
v 6.102437 -2.535606 0.736185
vn 0.784802 0.141002 -0.603494
v 6.093714 -2.575609 0.956066
vn 0.979982 0.023030 -0.197749
v 6.093823 -2.455606 0.956117
vn 0.926144 -0.002760 -0.377160
v 6.114235 -2.615607 0.976184
vn 0.298073 0.948286 -0.109118
v 6.144238 -2.226534 0.836186
vn 0.085732 0.995817 0.031588
v 6.124237 -2.233046 0.856184
vn -0.175161 0.860957 -0.477569
v 6.104237 -2.240350 0.836186
vn 0.886082 0.165079 -0.433138
v 6.081097 -2.315614 0.716200
vn 0.172999 0.712281 -0.680241
v 6.124243 -2.275601 0.793086
vn 0.898271 0.275057 -0.342714
v 6.194464 -2.295612 0.816193
vn 0.797012 0.374156 -0.474109
v 6.200716 -2.315602 0.816186
vn 0.430519 0.210218 -0.877760
v 6.164236 -2.295610 0.796190
vn 0.405856 0.386693 -0.828100
v 6.144239 -2.295606 0.788765
vn 0.290226 0.010669 -0.956899
v 6.164237 -2.455607 0.771090
vn -0.116187 -0.008339 -0.993192
v 6.164217 -2.415611 0.771491
vn 0.753766 0.334135 -0.565854
v 6.084245 -2.315607 0.726762
vn 0.670833 -0.114531 -0.732711
v 6.142699 -2.475603 0.756163
vn 0.851826 0.112223 -0.511663
v 6.084230 -2.475608 0.696197
vn -0.926888 -0.165229 0.337014
v 6.073822 -2.555606 0.816188
vn -0.675514 -0.646037 -0.355410
v 6.084239 -2.571655 0.816184
vn 0.235987 -0.902968 -0.359109
v 6.104238 -2.559835 0.776188
vn -0.066428 -0.997690 -0.014229
v 6.084239 -2.561602 0.776191
vn 0.725260 -0.014977 -0.688312
v 6.091315 -2.595606 0.696185
vn 0.763839 0.108262 -0.636262
v 6.088494 -2.515609 0.676177
vn 0.545613 -0.072736 -0.834875
v 6.064247 -2.575608 0.667228
vn 0.975365 0.080386 -0.205427
v 6.111122 -2.555607 0.716184
vn -0.369003 -0.891279 0.263550
v 6.144236 -2.626455 0.896186
vn -0.916646 -0.309021 0.253507
v 6.141338 -2.575606 0.936184
vn -0.768831 -0.159647 0.619202
v 6.115610 -2.575610 0.896152
vn -0.920924 -0.113063 0.372983
v 6.124235 -2.555608 0.916187
vn -0.452988 -0.743775 -0.491529
v 6.084239 -2.575607 0.820884
vn 0.262618 0.817722 -0.512213
v 6.104243 -2.280122 0.776177
vn 0.485425 0.783342 -0.388251
v 6.074651 -2.295606 0.736184
vn -0.189925 -0.614763 0.765503
v 6.124399 -2.335603 1.008174
vn -0.482109 0.350990 0.802731
v 6.104243 -2.235607 1.018732
vn 0.986546 -0.080579 -0.142249
v 6.104331 -2.395606 1.016481
vn 0.993691 0.112097 0.003510
v 6.107510 -2.535606 1.016432
vn 0.487807 -0.863848 0.125745
v 6.084239 -2.564384 0.756186
vn -0.578705 -0.778053 0.244407
v 6.064238 -2.555607 0.782975
vn -0.671160 -0.204123 0.712655
v 6.051919 -2.535607 0.796185
vn -0.758838 -0.434520 0.485136
v 6.028813 -2.535607 0.776185
vn -0.290963 -0.814505 0.501918
v 6.064238 -2.559269 0.776185
vn -0.937414 0.232402 0.259316
v 6.029555 -2.295610 0.796198
vn -0.422313 0.889601 0.173961
v 6.033020 -2.295607 0.776185
vn -0.053941 0.982434 -0.178642
v 6.064238 -2.287054 0.756185
vn -0.043735 0.942738 -0.330655
v 6.084239 -2.278476 0.776185
vn -0.326346 0.905480 -0.271301
v 6.064236 -2.277619 0.796185
vn 0.693559 0.673619 -0.255369
v 6.064238 -2.293572 0.716185
vn 0.227829 0.944697 0.235883
v 6.044239 -2.283800 0.736185
vn 0.747654 0.521157 -0.411593
v 6.039766 -2.255608 0.696188
vn 0.518038 0.351895 -0.779619
v 6.044239 -2.272841 0.696187
vn -0.330835 0.778963 0.532696
v 6.024237 -2.297679 0.776185
vn -0.095462 -0.222897 0.970157
v 5.984249 -2.355620 0.754659
vn -0.629509 0.228845 0.742528
v 6.005644 -2.315605 0.776178
vn -0.136445 -0.213046 0.967468
v 5.984238 -2.348974 0.756185
vn 0.750860 0.601138 0.273573
v 5.984240 -2.501023 0.776187
vn 0.588102 0.535692 0.605946
v 5.984239 -2.510493 0.756186
vn 0.262203 -0.754508 0.601638
v 6.024237 -2.633127 0.736185
vn 0.372311 -0.555848 0.743248
v 5.984240 -2.635608 0.756210
vn 0.180110 0.977334 -0.111260
v 6.004241 -2.243902 0.696181
vn 0.595590 0.802743 -0.029615
v 5.984242 -2.231119 0.696179
vn 0.274285 0.829965 0.485723
v 6.004240 -2.246048 0.716185
vn -0.077630 0.931712 0.354805
v 6.024236 -2.294397 0.756183
vn 0.331946 0.725827 0.602484
v 6.024237 -2.278966 0.736185
vn 0.742145 0.506508 0.438942
v 5.972963 -2.215609 0.736183
vn 0.574279 0.595513 0.561754
v 6.004240 -2.255606 0.729455
vn -0.127647 -0.164640 0.978059
v 5.984279 -2.375595 0.750073
vn -0.041499 0.049111 0.997931
v 5.984243 -2.415607 0.747648
vn 0.334208 0.028048 0.942082
v 5.964239 -2.395607 0.752285
vn 0.503175 -0.636307 -0.584747
v 5.964239 -2.655608 0.711295
vn 0.620905 -0.601137 -0.503103
v 5.969126 -2.655607 0.716185
vn 0.686845 -0.722115 0.082426
v 5.984238 -2.655607 0.736185
vn 0.148153 -0.842720 -0.517565
v 5.944239 -2.643015 0.676177
vn 0.181280 -0.935273 0.303978
v 6.024237 -2.635607 0.732435
vn 0.104271 -0.979059 0.174847
v 6.024237 -2.638509 0.716185
vn -0.002605 -0.890754 -0.454479
v 5.984239 -2.644748 0.676181
vn 0.380443 -0.840310 -0.386190
v 5.964239 -2.644126 0.696185
vn 0.419629 -0.725034 0.546111
v 6.004240 -2.635607 0.744361
vn 0.944767 0.252126 0.209400
v 5.999369 -2.515605 0.776187
vn 0.688076 -0.699793 -0.191942
v 5.984238 -2.533308 0.776185
vn -0.044411 -0.274285 0.960622
v 6.049113 -2.615606 0.756194
vn -0.043802 -0.411610 0.910307
v 6.064238 -2.575607 0.759559
vn 0.144794 -0.416813 0.897386
v 6.024238 -2.615606 0.755044
vn 0.166778 -0.228616 0.959125
v 5.984234 -2.615605 0.768386
vn 0.115244 -0.777303 0.618481
v 5.944238 -2.555607 0.776185
vn 0.033007 -0.182160 0.982715
v 5.944237 -2.575606 0.768272
vn -0.151334 -0.534259 0.831664
v 5.941362 -2.555609 0.776187
vn -0.076322 0.561531 0.823929
v 6.004240 -2.295608 0.756159
vn -0.001880 0.127253 0.991869
v 5.904239 -2.375612 0.757521
vn -0.249239 -0.036635 0.967749
v 5.984236 -2.335607 0.759132
vn 0.362577 0.294568 0.884176
v 5.784238 -2.308466 0.776186
vn 0.030002 -0.134687 0.990434
v 5.764241 -2.455610 0.759705
vn 0.030093 -0.030323 0.999087
v 5.804233 -2.435601 0.760132
vn 0.363058 0.085175 0.927865
v 5.796937 -2.335607 0.776187
vn 0.204858 0.010196 0.978739
v 5.824236 -2.335607 0.766642
vn 0.301234 -0.254748 0.918891
v 5.784238 -2.404802 0.776188
vn 0.166675 0.307422 0.936862
v 5.964239 -2.249720 0.756153
vn -0.094907 0.612704 0.784593
v 5.964239 -2.211117 0.736177
vn 0.017085 0.207883 0.978005
v 5.878224 -2.275597 0.756221
vn 0.067318 0.364922 0.928601
v 5.784239 -2.295620 0.771429
vn -0.057131 0.759225 0.648315
v 5.744239 -2.231337 0.736173
vn 0.248252 0.773778 -0.582786
v 6.066024 -2.215608 0.936186
vn 0.295739 0.562714 0.771940
v 5.690106 -2.575608 0.816180
vn 0.490498 0.383167 -0.782685
v 6.224236 -2.469269 0.776187
vn 0.920984 0.310890 -0.234811
v 6.224240 -2.457002 0.796184
vn 0.405597 0.160615 -0.899830
v 6.204239 -2.455607 0.776183
vn 0.885351 0.416703 -0.206187
v 6.227543 -2.315550 1.016159
vn -0.060625 0.565984 0.822184
v 6.224239 -2.295606 1.159707
vn -0.242834 0.200635 0.949093
v 6.224233 -2.315607 1.170072
vn -0.347502 0.582069 0.735145
v 6.204231 -2.275605 1.143079
vn 0.945692 0.280455 -0.164353
v 6.244266 -2.355600 1.016182
vn 0.795038 0.570765 -0.205285
v 6.199730 -2.275614 0.976186
vn 0.903305 0.422687 -0.073315
v 6.226987 -2.335569 0.916172
vn 0.587718 -0.763680 -0.267171
v 6.204237 -2.540605 0.796184
vn 0.500031 -0.519315 -0.693023
v 6.204237 -2.535606 0.771240
vn 0.093613 -0.507325 -0.856655
v 6.188171 -2.535608 0.776184
vn 0.535172 0.435508 -0.723826
v 6.184238 -2.335607 0.792130
vn 0.228165 0.323421 -0.918335
v 6.164208 -2.355609 0.776221
vn 0.193268 0.477293 -0.857228
v 6.184237 -2.355607 0.767999
vn -0.841888 -0.035999 0.538451
v 6.195275 -2.335607 1.136185
vn -0.930515 -0.177469 0.320386
v 6.195386 -2.395608 1.096191
vn -0.891420 -0.234731 0.387649
v 6.175022 -2.355607 1.096188
vn -0.593579 0.443612 0.671471
v 6.137378 -2.235606 1.036186
vn -0.806085 0.100744 0.583162
v 6.133076 -2.255607 1.056185
vn -0.802943 -0.119679 0.583917
v 6.130108 -2.275608 1.036186
vn -0.087316 -0.995810 0.027175
v 6.164237 -2.616624 0.916187
vn -0.845354 -0.380480 0.374982
v 6.139372 -2.595607 0.916185
vn -0.591084 -0.769060 -0.243243
v 6.144238 -2.624944 0.936185
vn -0.289914 -0.831961 -0.473065
v 6.124238 -2.595603 0.848186
vn -0.100029 -0.847718 -0.520930
v 6.144237 -2.624475 0.856185
vn 0.161846 -0.748412 -0.643184
v 6.144242 -2.595605 0.839508
vn 0.050574 -0.253099 0.966118
v 6.104267 -2.295607 1.018129
vn -0.553869 -0.238169 0.797812
v 6.124237 -2.275608 1.030354
vn -0.448950 -0.322308 0.833403
v 6.124223 -2.295608 1.013812
vn -0.688106 -0.533766 0.491533
v 6.124237 -2.598020 0.896186
vn -0.367507 -0.910802 -0.188092
v 6.124238 -2.598109 0.856186
vn -0.297982 -0.905600 0.301821
v 6.104237 -2.606970 0.876185
vn -0.370020 -0.910930 -0.182461
v 6.076087 -2.595607 0.856185
vn -0.982412 -0.174566 -0.066283
v 6.075336 -2.575608 0.836183
vn -0.648050 -0.201017 0.734591
v 6.094503 -2.575611 0.876179
vn 0.016220 0.058732 0.998142
v 6.004241 -2.515607 0.756188
vn -0.670513 0.013123 0.741782
v 6.024237 -2.515607 0.771142
vn -0.403699 -0.289985 0.867719
v 6.024237 -2.535607 0.757996
vn -0.118623 -0.299276 0.946764
v 5.884238 -2.535607 0.776186
vn -0.090942 -0.234036 0.967965
v 5.884241 -2.555605 0.769390
vn -0.086746 -0.283681 0.954987
v 5.844242 -2.535608 0.769834
vn 0.973370 0.007022 -0.229134
v 6.249753 -2.435592 0.916174
# 443 vertices, 0 vertices normals


usemtl material_0
vt 0.456963 0.113778
vt 0.453857 0.120361
vt 0.457295 0.120361
f 442/1/442 441/2/441 440/3/440
vt 0.489014 0.190674
vt 0.492909 0.190674
vt 0.491572 0.186836
f 439/4/439 438/5/438 437/6/437
vt 0.797607 0.408351
vt 0.809553 0.403647
vt 0.807844 0.387913
f 397/7/397 396/8/396 395/9/395
vt 0.798762 0.372607
f 395/9/395 394/10/394 397/7/397
vt 0.805427 0.373626
f 395/9/395 393/11/393 394/10/394
vt 0.827092 0.405618
vt 0.816607 0.397819
vt 0.816306 0.402378
f 392/12/392 391/13/391 390/14/390
vt 0.831997 0.402651
f 392/12/392 389/15/389 391/13/391
vt 0.834382 0.409424
f 392/12/392 388/16/388 389/15/389
f 396/8/396 391/13/391 395/9/395
f 396/8/396 390/14/390 391/13/391
vt 0.811723 0.403952
f 396/8/396 387/17/387 390/14/390
vt 0.819603 0.371946
f 386/18/386 393/11/393 395/9/395
vt 0.824351 0.385479
f 395/9/395 385/19/385 386/18/386
f 395/9/395 391/13/391 385/19/385
f 391/13/391 389/15/389 385/19/385
vt 0.813544 0.367984
f 386/18/386 384/20/384 393/11/393
vt 0.954499 0.747673
vt 0.955525 0.744578
vt 0.954090 0.747552
f 383/21/383 382/22/382 381/23/381
vt 0.962507 0.749268
f 383/21/383 441/24/441 382/22/382
vt 0.289526 0.018799
vt 0.290170 0.004165
vt 0.285889 0.005356
f 382/25/382 439/26/439 437/27/437
vt 0.298189 0.016341
f 382/25/382 380/28/380 439/26/439
vt 0.301576 0.010425
f 380/28/380 379/29/379 439/26/439
vt 0.942139 0.746654
vt 0.946671 0.748117
f 382/22/382 437/30/437 376/31/376
f 376/31/376 381/23/381 382/22/382
vt 0.943142 0.749268
f 437/30/437 375/32/375 376/31/376
vt 0.836823 0.419071
vt 0.838084 0.416701
vt 0.836111 0.413474
f 371/33/371 370/34/370 374/35/374
vt 0.826626 0.417443
vt 0.822253 0.418745
vt 0.827982 0.421833
f 373/36/373 369/37/369 372/38/372
vt 0.832391 0.413490
f 373/36/373 374/35/374 368/39/368
vt 0.828708 0.415185
f 368/39/368 367/40/367 373/36/373
vt 0.827636 0.415508
f 367/40/367 366/41/366 373/36/373
vt 0.379004 0.062374
vt 0.375732 0.065674
vt 0.382243 0.065674
f 365/42/365 364/43/364 363/44/363
vt 0.806486 0.366823
vt 0.799653 0.371281
f 393/11/393 362/45/362 361/46/361
f 393/11/393 384/20/384 362/45/362
vt 0.810781 0.364128
f 384/20/384 360/47/360 362/45/362
vt 0.813750 0.364746
f 384/20/384 359/48/359 360/47/360
vt 0.437857 0.245361
vt 0.435517 0.244305
vt 0.430420 0.245361
f 362/49/362 358/50/358 357/51/357
vt 0.398828 0.073486
vt 0.396254 0.066740
vt 0.391357 0.073486
f 357/52/357 361/53/361 362/54/362
vt 0.432893 0.242478
f 358/50/358 356/55/356 357/51/357
vt 0.303209 0.014585
f 374/56/374 379/29/379 380/28/380
vt 0.301368 0.017655
f 380/28/380 355/57/355 374/56/374
vt 0.304594 0.011398
f 374/56/374 354/58/354 379/29/379
vt 0.304770 0.018799
f 355/57/355 368/59/368 374/56/374
vt 0.305052 0.011513
f 374/56/374 370/60/370 354/58/354
vt 0.466406 0.151611
vt 0.469075 0.148413
vt 0.465576 0.148406
f 375/61/375 353/62/353 352/63/352
vt 0.469645 0.151611
f 375/61/375 437/64/437 353/62/353
vt 0.392271 0.173625
vt 0.399174 0.175049
vt 0.394107 0.172935
f 351/65/351 350/66/350 386/67/386
vt 0.391357 0.173962
f 351/65/351 349/68/349 350/66/350
vt 0.401121 0.170952
f 350/66/350 384/69/384 386/67/386
vt 0.403242 0.175049
f 350/66/350 348/70/348 384/69/384
vt 0.438369 0.104736
vt 0.434613 0.099052
vt 0.430420 0.104736
f 346/71/346 358/72/358 360/73/360
vt 0.432096 0.099898
f 358/72/358 362/74/362 360/73/360
vt 0.468875 0.112549
vt 0.468847 0.109288
vt 0.465576 0.112549
f 359/75/359 384/76/384 348/77/348
vt 0.801574 0.408947
f 397/7/397 169/78/169 396/8/396
vt 0.804744 0.409424
f 169/78/169 168/79/168 396/8/396
vt 0.385561 0.065540
f 363/44/363 349/80/349 365/42/365
vt 0.386665 0.065495
f 349/80/349 351/81/351 365/42/365
vt 0.323267 0.247679
vt 0.324166 0.250472
vt 0.319581 0.249438
f 167/82/167 166/83/166 165/84/165
vt 0.317984 0.248345
vt 0.322698 0.251674
vt 0.318339 0.243799
f 164/85/164 163/86/163 162/87/162
vt 0.795874 0.509669
vt 0.797074 0.516161
vt 0.799384 0.508737
f 161/88/161 160/89/160 163/90/163
vt 0.828864 0.509586
vt 0.826315 0.516904
vt 0.828870 0.512989
f 159/91/159 158/92/158 157/93/157
vt 0.411360 0.224140
vt 0.407718 0.218666
vt 0.406982 0.225830
f 155/94/155 154/95/154 153/96/153
vt 0.398759 0.281249
vt 0.402272 0.282065
vt 0.401373 0.278668
f 150/97/150 149/98/149 148/99/148
vt 0.440007 0.237549
vt 0.432274 0.234461
vt 0.430420 0.237549
f 147/100/147 352/101/352 353/102/353
vt 0.824241 0.428955
vt 0.823760 0.422883
vt 0.821637 0.426977
f 145/103/145 144/104/144 143/105/143
vt 0.828737 0.427437
vt 0.829533 0.425897
vt 0.827750 0.428285
f 142/106/142 141/107/141 140/108/140
vt 0.466887 0.132922
vt 0.465576 0.135986
vt 0.468870 0.135986
f 139/109/139 138/110/138 137/111/137
vt 0.806909 0.534363
vt 0.796627 0.533283
vt 0.796001 0.546841
f 389/112/389 127/113/127 126/114/126
vt 0.805068 0.555058
f 126/114/126 125/115/125 389/112/389
vt 0.796411 0.567016
f 126/114/126 137/116/137 125/115/125
vt 0.802361 0.528681
f 389/112/389 388/117/388 127/113/127
vt 0.795375 0.526827
f 388/117/388 124/118/124 127/113/127
vt 0.792744 0.530801
f 124/118/124 123/119/123 127/113/127
vt 0.801380 0.568698
vt 0.809288 0.560463
vt 0.801486 0.565354
f 437/120/437 147/121/147 353/122/353
vt 0.816619 0.562063
f 437/120/437 364/123/364 147/121/147
vt 0.811598 0.556728
f 364/123/364 122/124/122 147/121/147
vt 0.818978 0.558291
f 364/123/364 365/125/365 122/124/122
vt 0.821276 0.554566
f 365/125/365 121/126/121 122/124/122
vt 0.075770 0.240365
vt 0.072773 0.243601
vt 0.071337 0.250075
f 114/127/114 112/128/112 113/129/113
vt 0.333659 0.261155
vt 0.339365 0.249752
vt 0.343350 0.267898
f 110/130/110 109/131/109 115/132/115
vt 0.333087 0.257691
f 110/130/110 108/133/108 109/131/109
vt 0.787371 0.508571
vt 0.794000 0.520467
f 107/134/107 105/135/105 161/88/161
vt 0.785681 0.515904
f 107/134/107 104/136/104 105/135/105
f 105/135/105 160/89/160 161/88/161
vt 0.323144 0.256038
vt 0.331585 0.251497
f 103/137/103 102/138/102 108/133/108
f 103/137/103 166/83/166 102/138/102
vt 0.327099 0.263007
f 108/133/108 111/139/111 103/137/103
f 108/133/108 110/130/110 111/139/111
vt 0.324303 0.263681
f 111/139/111 101/140/101 103/137/103
vt 0.321694 0.254376
f 103/137/103 100/141/100 166/83/166
vt 0.908907 0.331738
vt 0.915847 0.339053
vt 0.917238 0.329274
f 101/142/101 107/143/107 161/144/161
vt 0.913140 0.327488
f 161/144/161 103/145/103 101/142/101
vt 0.798528 0.505681
vt 0.795614 0.506380
f 99/146/99 103/147/103 161/88/161
vt 0.798377 0.503948
f 99/146/99 100/148/100 103/147/103
vt 0.322648 0.236205
vt 0.327034 0.234548
f 167/82/167 98/149/98 97/150/97
f 97/150/97 102/138/102 167/82/167
f 102/138/102 166/83/166 167/82/167
vt 0.325871 0.233577
f 98/149/98 96/151/96 97/150/97
vt 0.322129 0.231775
f 98/149/98 95/152/95 96/151/96
vt 0.802282 0.504570
f 99/146/99 163/90/163 166/153/166
f 166/153/166 100/148/100 99/146/99
f 165/84/165 166/83/166 163/86/163
f 163/86/163 164/85/164 165/84/165
f 167/82/167 164/85/164 162/87/162
f 167/82/167 165/84/165 164/85/164
vt 0.332752 0.237773
vt 0.350704 0.259150
f 109/131/109 94/154/94 114/155/114
f 114/155/114 115/132/115 109/131/109
vt 0.779712 0.521763
vt 0.783761 0.523041
f 399/156/399 93/157/93 104/136/104
f 102/138/102 97/150/97 94/154/94
f 94/154/94 109/131/109 102/138/102
f 109/131/109 108/133/108 102/138/102
f 99/146/99 161/88/161 163/90/163
vt 0.316364 0.240963
vt 0.319922 0.235990
f 98/149/98 92/158/92 91/159/91
f 98/149/98 167/82/167 92/158/92
f 167/82/167 162/87/162 92/158/92
f 95/152/95 98/149/98 91/159/91
vt 0.315504 0.225345
f 91/159/91 90/160/90 95/152/95
vt 0.811750 0.506822
vt 0.828654 0.506521
f 92/161/92 158/92/158 90/162/90
vt 0.813060 0.520048
f 92/161/92 89/163/89 158/92/158
f 90/160/90 91/159/91 92/158/92
vt 0.820071 0.521881
f 89/163/89 88/164/88 158/92/158
f 158/92/158 159/91/159 90/162/90
vt 0.830541 0.519357
f 88/164/88 168/165/168 158/92/158
vt 0.833629 0.518611
f 168/165/168 169/166/169 158/92/158
vt 0.809895 0.520725
f 160/89/160 87/167/87 92/161/92
f 160/89/160 105/135/105 87/167/87
f 92/161/92 163/90/163 160/89/160
f 87/167/87 89/163/89 92/161/92
f 92/158/92 162/87/162 163/86/163
vt 0.872122 0.649764
vt 0.878276 0.628389
vt 0.888639 0.636478
f 94/168/94 86/169/86 85/170/85
vt 0.861798 0.647948
f 94/168/94 84/171/84 86/169/86
vt 0.902898 0.651431
f 85/170/85 114/172/114 94/168/94
vt 0.908298 0.643051
f 85/170/85 83/173/83 114/172/114
vt 0.877074 0.618639
f 86/169/86 82/174/82 85/170/85
vt 0.907118 0.649159
f 83/173/83 112/175/112 114/172/114
vt 0.864651 0.651611
f 94/168/94 97/176/97 84/171/84
vt 0.863222 0.651303
f 97/176/97 96/177/96 84/171/84
vt 0.319187 0.219256
vt 0.326176 0.230130
f 90/160/90 81/178/81 84/179/84
f 84/179/84 95/152/95 90/160/90
vt 0.312670 0.214029
f 90/160/90 80/180/80 81/178/81
vt 0.315733 0.214926
f 80/180/80 79/181/79 81/178/81
f 84/179/84 96/151/96 95/152/95
f 93/157/93 124/118/124 105/135/105
f 105/135/105 104/136/104 93/157/93
vt 0.852079 0.639293
vt 0.854697 0.626714
f 84/171/84 81/182/81 76/183/76
f 76/183/76 86/169/86 84/171/84
vt 0.313297 0.224068
vt 0.309583 0.215573
f 159/184/159 75/185/75 80/180/80
f 80/180/80 90/160/90 159/184/159
vt 0.309326 0.222887
f 159/184/159 157/186/157 75/185/75
f 93/157/93 123/119/123 124/118/124
vt 0.779586 0.533868
f 93/157/93 74/187/74 123/119/123
vt 0.776964 0.528011
f 93/157/93 78/188/78 74/187/74
f 93/157/93 399/156/399 78/188/78
vt 0.777808 0.369442
vt 0.779528 0.357169
vt 0.765641 0.355230
f 156/189/156 73/190/73 72/191/72
vt 0.062749 0.249913
vt 0.069280 0.253281
f 113/129/113 171/192/171 106/193/106
vt 0.066423 0.243487
f 113/129/113 83/194/83 171/192/171
f 113/129/113 112/128/112 83/194/83
vt 0.062791 0.253157
f 171/192/171 71/195/71 106/193/106
vt 0.063112 0.243410
f 83/194/83 70/196/70 171/192/171
vt 0.810743 0.530402
f 388/117/388 392/197/392 87/167/87
f 87/167/87 105/135/105 388/117/388
f 105/135/105 124/118/124 388/117/388
vt 0.814328 0.526491
f 392/197/392 69/198/69 87/167/87
vt 0.836050 0.514699
f 157/93/157 169/166/169 75/199/75
f 157/93/157 158/92/158 169/166/169
vt 0.837494 0.517677
f 169/166/169 397/200/397 75/199/75
vt 0.850796 0.606431
vt 0.860022 0.611827
f 76/183/76 68/201/68 67/202/67
vt 0.848389 0.635011
f 76/183/76 79/203/79 68/201/68
f 76/183/76 81/182/81 79/203/79
f 88/164/88 89/163/89 69/198/69
vt 0.820707 0.525103
f 69/198/69 65/204/65 88/164/88
f 89/163/89 87/167/87 69/198/69
vt 0.951981 0.656614
vt 0.922659 0.659671
vt 0.958538 0.660228
f 68/205/68 80/206/80 64/207/64
vt 0.922649 0.656654
f 68/205/68 79/208/79 80/206/80
vt 0.925879 0.662845
vt 0.961744 0.663330
f 64/207/64 397/209/397 394/210/394
f 64/207/64 80/206/80 397/209/397
vt 0.922607 0.663330
f 80/206/80 75/211/75 397/209/397
vt 0.908615 0.639739
vt 0.892264 0.630287
f 70/212/70 85/170/85 63/213/63
f 70/212/70 83/173/83 85/170/85
vt 0.043855 0.186779
vt 0.017884 0.196069
vt 0.021203 0.202638
f 77/214/77 61/215/61 62/216/62
vt 0.828054 0.526689
f 88/164/88 396/217/396 168/165/168
f 88/164/88 65/204/65 396/217/396
vt 0.825933 0.527188
f 65/204/65 387/218/387 396/217/396
vt 0.909151 0.619338
vt 0.911998 0.618596
vt 0.923338 0.630795
f 60/219/60 59/220/59 58/221/58
vt 0.914917 0.640152
f 58/221/58 171/222/171 60/219/60
vt 0.917808 0.640481
f 58/221/58 71/223/71 171/222/171
vt 0.929224 0.637050
f 58/221/58 66/224/66 71/223/71
vt 0.929399 0.629988
f 58/221/58 57/225/57 66/224/66
vt 0.773880 0.538089
vt 0.777165 0.563879
vt 0.791675 0.540994
f 72/226/72 56/227/56 55/228/55
vt 0.762451 0.546126
f 72/226/72 73/229/73 56/227/56
vt 0.774320 0.565742
f 73/229/73 149/230/149 56/227/56
f 55/228/55 74/187/74 72/226/72
f 55/228/55 123/119/123 74/187/74
f 55/228/55 127/113/127 123/119/123
vt 0.778088 0.566888
f 149/230/149 150/231/150 56/227/56
vt 0.895979 0.623924
f 70/212/70 54/232/54 60/219/60
f 60/219/60 171/222/171 70/212/70
f 70/212/70 63/213/63 54/232/54
vt 0.909175 0.618576
f 54/232/54 53/233/53 60/219/60
vt 0.884655 0.612974
vt 0.892911 0.621549
f 82/174/82 52/234/52 51/235/51
f 51/235/51 85/170/85 82/174/82
f 51/235/51 63/213/63 85/170/85
vt 0.871177 0.614435
f 82/174/82 154/236/154 52/234/52
vt 0.865409 0.607051
f 154/236/154 50/237/50 52/234/52
vt 0.865774 0.610451
f 154/236/154 155/238/155 50/237/50
f 51/235/51 54/232/54 63/213/63
vt 0.822099 0.530108
f 69/198/69 390/239/390 65/204/65
f 69/198/69 392/197/392 390/239/390
f 390/239/390 387/218/387 65/204/65
vt 0.792347 0.544189
f 126/114/126 55/228/55 442/240/442
f 126/114/126 127/113/127 55/228/55
vt 0.793622 0.550627
f 442/240/442 440/241/440 126/114/126
f 154/236/154 86/169/86 76/183/76
f 154/236/154 82/174/82 86/169/86
vt 0.922211 0.621450
vt 0.925372 0.621590
f 57/225/57 48/242/48 47/243/47
f 57/225/57 58/221/58 48/242/48
vt 0.808922 0.423157
vt 0.812655 0.415969
vt 0.808715 0.416016
f 59/244/59 46/245/46 48/246/48
vt 0.797607 0.421071
f 48/246/48 58/247/58 59/244/59
vt 0.819924 0.548185
f 385/248/385 125/115/125 122/124/122
f 385/248/385 389/112/389 125/115/125
f 122/124/122 121/126/121 385/248/385
vt 0.932901 0.627035
f 49/249/49 57/225/57 47/243/47
vt 0.789575 0.561361
vt 0.790605 0.551194
f 56/227/56 382/250/382 441/251/441
f 441/251/441 55/228/55 56/227/56
vt 0.784668 0.569041
f 56/227/56 380/252/380 382/250/382
f 441/251/441 442/240/442 55/228/55
vt 0.400699 0.284424
vt 0.394000 0.281693
vt 0.391357 0.284424
f 56/253/56 355/254/355 380/255/380
vt 0.021572 0.179846
f 77/214/77 120/256/120 61/215/61
vt 0.015136 0.186245
f 120/256/120 44/257/44 61/215/61
vt 0.015212 0.192784
f 44/257/44 43/258/43 61/215/61
vt 0.015041 0.196024
f 43/258/43 42/259/42 61/215/61
vt 0.011839 0.195963
f 43/258/43 41/260/41 42/259/42
vt 0.919247 0.617482
vt 0.919448 0.603209
vt 0.922071 0.605573
f 46/261/46 366/262/366 45/263/45
f 45/263/45 47/243/47 46/261/46
f 47/243/47 48/242/48 46/261/46
vt 0.825760 0.414115
f 366/41/366 367/40/367 45/264/45
vt 0.892032 0.596581
vt 0.910346 0.605228
f 51/235/51 40/265/40 39/266/39
f 39/266/39 53/233/53 51/235/51
f 53/233/53 54/232/54 51/235/51
vt 0.888866 0.599854
f 52/234/52 38/267/38 40/265/40
f 40/265/40 51/235/51 52/234/52
vt 0.913309 0.605377
f 59/220/59 39/266/39 143/268/143
f 59/220/59 53/233/53 39/266/39
f 143/105/143 369/37/369 59/244/59
f 143/105/143 144/104/144 369/37/369
f 144/104/144 372/38/372 369/37/369
f 144/104/144 141/107/141 372/38/372
f 59/220/59 60/219/60 53/233/53
vt 0.986050 0.749268
vt 0.973193 0.743350
vt 0.965576 0.749268
f 126/269/126 383/270/383 137/271/137
vt 0.792469 0.560355
f 126/114/126 440/241/440 383/272/383
f 440/241/440 441/251/441 383/272/383
vt 0.965810 0.745627
f 383/270/383 139/273/139 137/271/137
vt 0.858896 0.605292
f 152/274/152 67/202/67 68/201/68
f 152/274/152 50/237/50 67/202/67
vt 0.864555 0.612887
f 50/237/50 153/275/153 67/202/67
vt 0.413835 0.225830
f 50/276/50 155/94/155 153/96/153
f 46/245/46 369/37/369 366/41/366
f 46/245/46 59/244/59 369/37/369
f 369/37/369 373/36/373 366/41/366
vt 0.876198 0.594853
f 52/234/52 50/237/50 37/277/37
f 37/277/37 38/267/38 52/234/52
vt 0.866173 0.596933
f 50/237/50 36/278/36 37/277/37
vt 0.882737 0.595741
f 37/277/37 35/279/35 38/267/38
vt 0.862696 0.603526
f 50/237/50 34/280/34 36/278/36
vt 0.826954 0.559965
vt 0.829003 0.559563
f 121/126/121 351/281/351 386/282/386
f 386/282/386 385/248/385 121/126/121
f 121/126/121 365/125/365 351/281/351
vt 0.926514 0.417236
vt 0.933868 0.416729
vt 0.932114 0.412679
f 381/283/381 376/284/376 139/285/139
vt 0.972746 0.743325
f 139/273/139 383/270/383 381/286/381
vt 0.371333 0.119592
vt 0.362625 0.127117
vt 0.370832 0.128174
f 125/287/125 352/288/352 147/289/147
vt 0.356740 0.121624
f 125/287/125 137/290/137 352/288/352
f 147/121/147 122/124/122 125/115/125
vt 0.356201 0.124820
f 137/290/137 138/291/138 352/288/352
vt 0.359372 0.128174
f 138/291/138 375/292/375 352/288/352
vt 0.444421 0.178954
vt 0.442139 0.182861
vt 0.449868 0.182861
f 34/293/34 50/294/50 152/295/152
vt 0.829289 0.412341
f 367/40/367 368/39/368 148/296/148
f 148/296/148 45/264/45 367/40/367
vt 0.396815 0.278103
f 150/97/150 368/297/368 355/254/355
f 355/254/355 56/253/56 150/97/150
f 150/97/150 148/99/148 368/297/368
vt 0.708001 0.655518
vt 0.698774 0.653706
vt 0.696045 0.655518
f 151/298/151 356/299/356 33/300/33
vt 0.856552 0.587746
vt 0.858791 0.598862
f 33/301/33 36/278/36 151/302/151
vt 0.852680 0.597618
vt 0.856432 0.590944
f 151/302/151 146/303/146 356/304/356
vt 0.961771 0.653447
vt 0.964975 0.656533
vt 0.968188 0.656333
f 146/305/146 357/306/357 356/307/356
f 36/278/36 34/280/34 151/302/151
f 145/103/145 140/108/140 141/107/141
f 141/107/141 144/104/144 145/103/145
vt 0.901444 0.590296
vt 0.910915 0.587687
vt 0.916625 0.598630
f 135/308/135 321/309/321 142/310/142
f 142/310/142 39/266/39 135/308/135
f 39/266/39 40/265/40 135/308/135
vt 0.895437 0.589919
f 40/265/40 132/311/132 135/308/135
f 142/310/142 143/268/143 39/266/39
f 40/265/40 35/279/35 132/311/132
f 40/265/40 38/267/38 35/279/35
vt 0.352295 0.143585
vt 0.353191 0.144471
vt 0.352295 0.151611
f 142/312/142 140/313/140 143/314/143
vt 0.354700 0.147705
f 140/313/140 145/315/145 143/314/143
vt 0.014905 0.180520
f 44/257/44 120/256/120 31/316/31
vt 0.937586 0.417236
vt 0.935359 0.413189
f 376/284/376 375/317/375 138/318/138
f 138/318/138 139/285/139 376/284/376
vt 0.809110 0.577385
f 364/123/364 437/120/437 28/319/28
vt 0.815576 0.577393
f 28/319/28 27/320/27 364/123/364
vt 0.822880 0.560770
f 27/320/27 363/321/363 364/123/364
vt 0.833282 0.567906
f 136/322/136 363/321/363 27/320/27
vt 0.832565 0.562544
f 136/322/136 350/323/350 363/321/363
vt 0.825937 0.560166
f 350/323/350 349/324/349 363/321/363
vt 0.879289 0.587894
f 132/311/132 35/279/35 119/325/119
f 35/279/35 37/277/37 119/325/119
vt 0.869013 0.582503
f 36/278/36 33/301/33 118/326/118
f 118/326/118 37/277/37 36/278/36
f 118/326/118 119/325/119 37/277/37
vt 0.007658 0.205558
f 32/327/32 62/216/62 42/259/42
f 62/216/62 61/215/61 42/259/42
vt 0.801782 0.572091
f 28/319/28 437/120/437 438/328/438
vt 0.836678 0.566219
vt 0.836043 0.564895
f 136/322/136 340/329/340 348/330/348
f 348/330/348 350/323/350 136/322/136
vt 0.418701 0.190674
vt 0.422921 0.188698
vt 0.419981 0.187915
f 358/331/358 33/332/33 356/333/356
vt 0.425408 0.190674
f 358/331/358 346/334/346 33/332/33
vt 0.012243 0.188845
f 20/335/20 43/258/43 44/257/44
vt 0.012313 0.189501
f 20/335/20 19/336/19 43/258/43
vt 0.009827 0.192741
f 19/336/19 18/337/18 43/258/43
f 76/183/76 67/202/67 153/275/153
f 76/183/76 153/275/153 154/236/154
vt 0.745010 0.825939
vt 0.741499 0.829097
vt 0.747466 0.829808
f 433/338/433 432/339/432 431/340/431
vt 0.820395 0.963835
vt 0.823657 0.963269
vt 0.820362 0.960513
f 430/341/430 429/342/429 428/343/428
vt 0.876777 0.940128
vt 0.877689 0.935456
vt 0.876640 0.941171
f 427/344/427 426/345/426 425/346/425
vt 0.755230 0.832358
vt 0.750333 0.832619
vt 0.751755 0.835492
f 424/347/424 423/348/423 422/349/422
vt 0.726881 0.814731
vt 0.727219 0.810771
vt 0.722995 0.809455
f 421/350/421 420/351/420 419/352/419
vt 0.820507 0.948486
vt 0.823617 0.941960
vt 0.812794 0.946404
f 418/353/418 417/354/417 416/355/416
vt 0.926633 0.796143
vt 0.926915 0.792711
vt 0.922607 0.793822
f 415/356/415 414/357/414 413/358/413
vt 0.725665 0.840503
vt 0.724966 0.842905
vt 0.729014 0.843112
f 412/359/412 411/360/411 410/361/410
vt 0.759573 0.866483
vt 0.749044 0.857526
vt 0.743803 0.872375
f 409/362/409 408/363/408 407/364/407
vt 0.911436 0.985980
vt 0.903617 0.987218
vt 0.907132 0.988012
f 406/365/406 405/366/405 404/367/404
vt 0.743122 0.865542
f 407/364/407 408/363/408 403/368/403
vt 0.766393 0.737549
vt 0.763577 0.733900
vt 0.762451 0.737549
f 402/369/402 401/370/401 400/371/400
vt 0.912466 0.815674
vt 0.905312 0.810275
vt 0.899721 0.815674
f 379/372/379 378/373/378 439/374/439
vt 0.912006 0.812257
f 379/372/379 377/375/377 378/373/378
vt 0.731201 0.694441
vt 0.733878 0.701283
vt 0.731201 0.702393
f 360/376/360 347/377/347 346/378/346
vt 0.732097 0.777159
vt 0.730311 0.779886
vt 0.735711 0.783449
f 360/379/360 345/380/345 347/381/347
vt 0.731249 0.784424
f 345/380/345 344/382/344 347/381/347
vt 0.720358 0.777191
vt 0.721276 0.781704
vt 0.725807 0.780812
f 343/383/343 342/384/342 341/385/341
vt 0.725920 0.774802
f 341/385/341 340/386/340 343/383/343
vt 0.723517 0.772534
f 340/386/340 339/387/339 343/383/343
vt 0.729420 0.775405
f 341/385/341 359/388/359 340/386/340
vt 0.726715 0.773617
f 359/388/359 348/389/348 340/386/340
vt 0.739014 0.775578
vt 0.741265 0.784424
vt 0.744045 0.781929
f 439/390/439 378/391/378 338/392/338
vt 0.741909 0.775344
f 338/392/338 337/393/337 439/390/439
vt 0.746527 0.777107
f 338/392/338 336/394/336 337/393/337
vt 0.745095 0.781245
f 338/392/338 335/395/335 336/394/336
f 345/380/345 359/388/359 341/385/341
f 345/380/345 360/379/360 359/388/359
vt 0.804087 0.960739
vt 0.813884 0.964111
f 332/396/332 330/397/330 428/343/428
f 330/397/330 430/341/430 428/343/428
vt 0.727605 0.784045
vt 0.719482 0.784424
f 329/398/329 342/384/342 328/399/328
f 329/398/329 341/385/341 342/384/342
f 329/398/329 345/380/345 341/385/341
f 329/398/329 344/382/344 345/380/345
vt 0.875007 0.853589
vt 0.871743 0.856440
vt 0.870105 0.856067
f 434/400/434 435/401/435 327/402/327
vt 0.734674 0.823325
vt 0.741220 0.821754
f 327/403/327 433/338/433 434/404/434
vt 0.867821 0.935112
vt 0.864475 0.941206
vt 0.869276 0.940915
f 423/405/423 326/406/326 325/407/325
vt 0.863325 0.935957
f 423/405/423 324/408/324 326/406/326
vt 0.871139 0.937486
f 325/407/325 431/409/431 423/405/423
vt 0.875336 0.939472
f 325/407/325 433/410/433 431/409/431
vt 0.872617 0.944073
f 325/407/325 436/411/436 433/410/433
vt 0.873102 0.932390
f 431/409/431 323/412/323 423/405/423
vt 0.868817 0.930511
f 323/412/323 422/413/422 423/405/423
vt 0.877853 0.944590
f 436/411/436 434/414/434 433/410/433
vt 0.984882 0.981956
vt 0.990531 0.972555
vt 0.980390 0.973120
f 322/415/322 321/416/321 320/417/320
vt 0.992220 0.979338
f 322/415/322 319/418/319 321/416/321
vt 0.726893 0.820198
vt 0.724287 0.822705
vt 0.727094 0.823188
f 338/419/338 334/420/334 318/421/318
vt 0.902145 0.811574
vt 0.903320 0.807146
f 338/422/338 378/373/378 334/423/334
vt 0.727028 0.826369
f 334/420/334 317/424/317 318/421/318
vt 0.727670 0.820489
vt 0.733716 0.823426
f 335/425/335 318/421/318 316/426/316
vt 0.869360 0.856615
vt 0.868427 0.859298
vt 0.862889 0.858747
f 316/427/316 315/428/315 335/429/335
vt 0.745567 0.784424
f 335/395/335 338/392/338 318/430/318
vt 0.969702 0.918728
vt 0.952538 0.939177
vt 0.971272 0.931883
f 314/431/314 414/432/414 313/433/313
vt 0.944031 0.924891
f 314/431/314 312/434/312 414/432/414
vt 0.962181 0.937453
f 414/432/414 311/435/311 313/433/313
vt 0.968616 0.936544
f 311/435/311 310/436/310 313/433/313
vt 0.942426 0.938868
f 309/437/309 414/432/414 312/434/312
vt 0.938927 0.932680
f 312/434/312 328/438/328 309/437/309
vt 0.949847 0.943719
f 309/437/309 413/439/413 414/432/414
vt 0.940601 0.924845
f 312/434/312 329/440/329 328/438/328
vt 0.942932 0.942230
f 309/437/309 308/441/308 413/439/413
vt 0.778988 0.855693
vt 0.775536 0.860347
vt 0.780246 0.862520
f 308/442/308 307/443/307 413/444/413
vt 0.943718 0.948076
vt 0.947088 0.948486
f 308/441/308 306/445/306 307/446/307
vt 0.938729 0.936965
f 328/438/328 305/447/305 309/437/309
vt 0.900241 0.911891
vt 0.899170 0.913330
vt 0.903891 0.913330
f 312/448/312 304/449/304 329/450/329
vt 0.973652 0.798060
vt 0.969482 0.799589
vt 0.970088 0.803955
f 303/451/303 302/452/302 301/453/301
vt 0.981075 0.803955
f 301/453/301 305/454/305 303/451/303
vt 0.902888 0.800084
vt 0.899170 0.802871
f 334/423/334 322/455/322 297/456/297
vt 0.727521 0.832842
vt 0.738896 0.832018
f 327/403/327 296/457/296 427/458/427
f 327/403/327 317/424/317 296/457/296
vt 0.727403 0.835922
f 296/457/296 295/459/295 427/458/427
vt 0.740143 0.829073
f 427/458/427 425/460/425 327/403/327
f 425/460/425 433/338/433 327/403/327
f 327/403/327 316/426/316 317/424/317
f 316/426/316 318/421/318 317/424/317
f 425/460/425 432/339/432 433/338/433
vt 0.719482 0.826513
vt 0.722808 0.830278
f 317/424/317 297/461/297 294/462/294
f 317/424/317 334/420/334 297/461/297
f 294/462/294 296/457/296 317/424/317
vt 0.980480 0.928228
vt 0.982025 0.935162
vt 0.984241 0.932468
f 294/463/294 293/464/293 296/465/296
vt 0.981098 0.983385
vt 0.973389 0.974063
f 297/466/297 320/417/320 314/467/314
f 297/466/297 322/415/322 320/417/320
vt 0.979895 0.923362
vt 0.977458 0.929617
f 297/468/297 313/433/313 292/469/292
f 297/468/297 314/431/314 313/433/313
f 292/469/292 294/463/294 297/468/297
vt 0.903772 0.981752
vt 0.890753 0.971710
vt 0.890730 0.974852
f 299/470/299 333/471/333 291/472/291
vt 0.913545 0.971806
f 299/470/299 332/473/332 333/471/333
vt 0.884248 0.981791
f 291/472/291 298/474/298 299/470/299
vt 0.916787 0.981721
f 299/470/299 290/475/290 332/473/332
vt 0.920030 0.975699
f 290/475/290 289/476/289 332/473/332
vt 0.920067 0.978635
f 290/475/290 288/477/288 289/476/289
vt 0.877670 0.977772
vt 0.884177 0.977758
f 300/478/300 286/479/286 333/471/333
f 286/479/286 291/472/291 333/471/333
vt 0.830167 0.963238
vt 0.830127 0.960392
f 429/342/429 285/480/285 331/481/331
f 331/481/331 428/343/428 429/342/429
vt 0.725942 0.815674
vt 0.721606 0.811138
f 429/482/429 421/350/421 285/483/285
f 421/350/421 419/352/419 285/483/285
vt 0.829072 0.855211
vt 0.816924 0.863595
vt 0.829757 0.862653
f 302/484/302 284/485/284 283/486/283
vt 0.816029 0.852727
f 302/484/302 282/487/282 284/485/284
vt 0.809374 0.855607
vt 0.810059 0.863049
f 284/485/284 281/488/281 280/489/280
f 284/485/284 282/487/282 281/488/281
vt 0.802849 0.858779
f 281/488/281 279/490/279 280/489/280
vt 0.803273 0.862684
f 279/490/279 278/491/278 280/489/280
vt 0.809202 0.855622
f 281/488/281 277/492/277 279/490/279
vt 0.719929 0.807280
vt 0.719482 0.813705
f 285/483/285 276/493/276 331/494/331
vt 0.875935 0.940302
f 426/345/426 431/409/431 432/495/432
f 426/345/426 323/412/323 431/409/431
f 432/495/432 425/346/425 426/345/426
vt 0.868163 0.929746
vt 0.863224 0.928514
vt 0.865004 0.933175
f 424/496/424 275/497/275 274/498/274
vt 0.866063 0.927979
f 424/496/424 273/499/273 275/497/275
f 274/498/274 423/405/423 424/496/424
f 274/498/274 324/408/324 423/405/423
vt 0.861279 0.934586
f 274/498/274 272/500/272 324/408/324
vt 0.860539 0.927589
vt 0.862139 0.930640
f 275/497/275 271/501/271 270/502/270
f 270/502/270 274/498/274 275/497/275
vt 0.859201 0.937482
vt 0.854990 0.929748
vt 0.851512 0.935433
f 269/503/269 268/504/268 267/505/267
vt 0.860732 0.934175
f 269/503/269 266/506/266 268/504/268
vt 0.851154 0.931651
f 268/504/268 265/507/265 267/505/267
f 269/503/269 272/500/272 266/506/266
f 272/500/272 270/502/270 266/506/266
f 272/500/272 274/498/274 270/502/270
vt 0.849131 0.934055
f 265/507/265 264/508/264 267/505/267
vt 0.976025 0.940953
f 292/469/292 263/509/263 293/464/293
f 292/469/292 310/436/310 263/509/263
vt 0.969605 0.942422
f 310/436/310 402/510/402 263/509/263
f 293/464/293 294/463/294 292/469/292
vt 0.965878 0.939370
f 310/436/310 262/511/262 402/510/402
vt 0.973394 0.945158
f 402/510/402 261/512/261 263/509/263
vt 0.785489 0.881779
vt 0.785411 0.884516
vt 0.785504 0.885618
f 402/513/402 400/514/400 261/515/261
vt 0.966387 0.942860
f 262/511/262 260/516/260 402/510/402
f 310/436/310 311/435/311 262/511/262
vt 0.832008 0.857311
vt 0.832294 0.859458
vt 0.836595 0.863137
f 301/517/301 259/518/259 258/519/258
vt 0.840541 0.857513
f 258/519/258 305/520/305 301/517/301
vt 0.840011 0.860782
f 258/519/258 257/521/257 305/520/305
vt 0.939285 0.940283
f 257/522/257 309/437/309 305/447/305
vt 0.730294 0.811106
f 420/351/420 421/350/421 256/523/256
vt 0.730839 0.806724
f 256/523/256 255/524/255 420/351/420
vt 0.817139 0.850830
vt 0.823046 0.850830
vt 0.821563 0.849174
f 302/525/302 259/526/259 301/527/301
f 302/484/302 283/486/283 259/518/259
vt 0.728755 0.801318
vt 0.738119 0.805141
f 254/528/254 255/524/255 253/529/253
vt 0.742578 0.800530
f 253/529/253 406/530/406 254/528/254
f 254/528/254 419/352/419 255/524/255
f 254/528/254 276/493/276 419/352/419
f 419/352/419 420/351/420 255/524/255
vt 0.734971 0.808227
f 255/524/255 252/531/252 253/529/253
f 276/493/276 285/483/285 419/352/419
vt 0.747505 0.842315
vt 0.748764 0.839125
f 427/458/427 251/532/251 250/533/250
vt 0.743254 0.830966
f 250/533/250 426/534/426 427/458/427
vt 0.761051 0.839442
f 250/533/250 249/535/249 422/349/422
vt 0.764266 0.842766
f 250/533/250 248/536/248 249/535/249
vt 0.758406 0.832576
f 249/535/249 273/537/273 422/349/422
vt 0.749355 0.831581
f 422/349/422 323/538/323 250/533/250
f 323/538/323 426/534/426 250/533/250
f 273/537/273 424/347/424 422/349/422
vt 0.809326 0.850830
vt 0.815172 0.850830
vt 0.811772 0.849166
f 273/539/273 271/540/271 275/541/275
vt 0.861185 0.924076
f 273/499/273 249/542/249 271/501/271
f 266/506/266 270/502/270 271/501/271
vt 0.857527 0.928135
f 271/501/271 247/543/247 266/506/266
f 271/501/271 249/542/249 247/543/247
vt 0.854161 0.924935
vt 0.858170 0.920670
f 246/544/246 249/542/249 248/545/248
f 246/544/246 247/543/247 249/542/249
vt 0.848145 0.919849
f 248/545/248 245/546/245 246/544/246
vt 0.731555 0.846924
f 427/458/427 295/459/295 244/547/244
f 244/547/244 251/532/251 427/458/427
f 295/459/295 410/361/410 244/547/244
f 295/459/295 412/359/412 410/361/410
vt 0.852267 0.927576
f 268/504/268 246/544/246 243/548/243
f 268/504/268 247/543/247 246/544/246
f 268/504/268 266/506/266 247/543/247
vt 0.847582 0.928073
f 265/507/265 243/548/243 242/549/242
f 265/507/265 268/504/268 243/548/243
vt 0.992920 0.808571
vt 0.995430 0.814585
vt 0.992920 0.815674
f 263/550/263 411/551/411 412/552/412
vt 0.982085 0.938486
f 412/553/412 293/464/293 263/509/263
vt 0.984726 0.935089
f 412/553/412 295/554/295 293/464/293
f 295/554/295 296/465/296 293/464/293
vt 0.842955 0.928676
vt 0.841778 0.935773
f 264/508/264 241/555/241 240/556/240
f 264/508/264 242/549/242 241/555/241
vt 0.837975 0.928631
f 241/555/241 239/557/239 240/556/240
vt 0.833976 0.933526
f 239/557/239 238/558/238 240/556/240
vt 0.837376 0.936787
f 238/558/238 237/559/237 240/556/240
vt 0.845114 0.938917
f 240/556/240 236/560/236 264/508/264
f 264/508/264 265/507/265 242/549/242
vt 0.938232 0.942870
f 257/522/257 235/561/235 308/441/308
f 308/441/308 309/437/309 257/522/257
vt 0.911376 0.909117
vt 0.912983 0.905715
vt 0.915587 0.909334
f 252/562/252 234/563/234 253/564/253
vt 0.908666 0.905511
f 252/562/252 233/565/233 234/563/234
f 252/531/252 255/524/255 256/523/256
vt 0.734738 0.811973
f 256/523/256 233/566/233 252/531/252
vt 0.836551 0.865985
vt 0.839675 0.862612
f 258/519/258 232/567/232 235/568/235
vt 0.893527 0.910942
vt 0.891357 0.913330
vt 0.895799 0.913330
f 235/569/235 257/570/257 258/571/258
vt 0.724831 0.736534
vt 0.727052 0.733811
vt 0.725827 0.733388
f 231/572/231 230/573/230 232/574/232
vt 0.833580 0.866455
f 232/567/232 258/519/258 231/575/231
vt 0.768392 0.850677
vt 0.765976 0.865551
f 283/576/283 409/362/409 229/577/229
vt 0.755589 0.852033
f 283/576/283 284/578/284 409/362/409
f 284/578/284 408/363/408 409/362/409
f 229/577/229 307/443/307 283/576/283
vt 0.732635 0.737549
vt 0.719482 0.737549
f 307/579/307 231/572/231 283/580/283
vt 0.772422 0.864560
f 229/577/229 228/581/228 307/443/307
vt 0.748835 0.850571
f 284/578/284 280/582/280 408/363/408
f 231/575/231 258/519/258 283/486/283
f 258/519/258 259/518/259 283/486/283
vt 0.801530 0.859177
vt 0.793701 0.866455
vt 0.796783 0.865937
f 276/583/276 254/584/254 227/585/227
f 227/585/227 278/491/278 276/583/276
f 278/491/278 279/490/279 276/583/276
vt 0.845398 0.927043
f 245/546/245 226/586/226 243/548/243
f 243/548/243 246/544/246 245/546/245
vt 0.844819 0.919557
f 245/546/245 225/587/225 226/586/226
f 226/586/226 241/555/241 242/549/242
f 242/549/242 243/548/243 226/586/226
vt 0.831368 0.931718
vt 0.829657 0.934695
f 238/558/238 224/588/224 223/589/223
f 223/589/223 237/559/237 238/558/238
vt 0.734286 0.707616
vt 0.731201 0.710205
vt 0.735856 0.710205
f 222/590/222 262/591/262 311/592/311
vt 0.732137 0.707893
f 222/590/222 221/593/221 262/591/262
vt 0.936423 0.793294
f 415/356/415 311/594/311 414/357/414
vt 0.936689 0.796143
f 415/356/415 222/595/222 311/594/311
vt 0.747699 0.808743
vt 0.737956 0.808746
f 416/596/416 406/530/406 234/597/234
vt 0.750815 0.801435
f 416/596/416 405/598/405 406/530/406
vt 0.744270 0.815674
f 234/597/234 418/599/418 416/596/416
f 406/530/406 253/529/253 234/597/234
vt 0.807078 0.941402
vt 0.805420 0.944033
f 416/355/416 220/600/220 405/601/405
vt 0.813402 0.938266
f 416/355/416 219/602/219 220/600/220
vt 0.816821 0.941562
f 416/355/416 218/603/218 219/602/219
vt 0.939230 0.947263
f 308/441/308 232/604/232 306/445/306
f 308/441/308 235/561/235 232/604/232
vt 0.940403 0.947976
f 232/604/232 230/605/230 306/445/306
vt 0.729760 0.735723
f 231/572/231 307/579/307 306/606/306
f 306/606/306 230/573/230 231/572/231
vt 0.742144 0.849489
vt 0.735276 0.850543
f 408/363/408 278/607/278 227/608/227
f 408/363/408 280/582/280 278/607/278
vt 0.770052 0.906665
vt 0.776783 0.893590
vt 0.756832 0.908703
f 251/609/251 217/610/217 216/611/216
vt 0.780713 0.895518
f 251/609/251 244/612/244 217/610/217
vt 0.770891 0.909424
f 216/611/216 250/613/250 251/609/251
vt 0.759374 0.846924
f 216/614/216 248/536/248 250/533/250
vt 0.992832 0.948486
vt 0.992584 0.935807
vt 0.998343 0.946990
f 216/615/216 215/616/215 248/617/248
vt 0.780070 0.893011
f 244/612/244 214/618/214 217/610/217
vt 0.836764 0.923271
vt 0.840131 0.926472
f 225/587/225 213/619/213 212/620/212
vt 0.840814 0.917342
f 225/587/225 211/621/211 213/619/213
f 212/620/212 226/586/226 225/587/225
f 212/620/212 241/555/241 226/586/226
f 212/620/212 239/557/239 241/555/241
vt 0.826399 0.931693
f 224/588/224 213/619/213 210/622/210
f 224/588/224 212/620/212 213/619/213
f 210/622/210 223/589/223 224/588/224
f 224/588/224 238/558/238 239/557/239
f 239/557/239 212/620/212 224/588/224
vt 0.783919 0.872257
vt 0.780235 0.873355
vt 0.781464 0.879466
f 209/623/209 208/624/208 207/625/207
vt 0.784966 0.878605
f 207/625/207 260/626/260 209/623/209
vt 0.787855 0.874686
f 260/626/260 206/627/206 209/623/209
f 207/625/207 402/513/402 260/626/260
vt 0.781907 0.883014
f 207/625/207 401/628/401 402/513/402
vt 0.820941 0.936273
vt 0.811308 0.931947
vt 0.810730 0.936339
f 205/629/205 204/630/204 203/631/203
vt 0.821928 0.932582
f 205/629/205 202/632/202 204/630/204
f 205/629/205 210/622/210 202/632/202
f 205/629/205 223/589/223 210/622/210
vt 0.962864 0.940123
f 206/633/206 260/516/260 262/511/262
vt 0.964150 0.938636
f 262/511/262 221/634/221 206/633/206
f 413/444/413 228/581/228 208/624/208
vt 0.784610 0.865158
f 208/624/208 415/635/415 413/444/413
f 208/624/208 209/623/209 415/635/415
f 413/444/413 307/443/307 228/581/228
f 417/354/417 218/603/218 416/355/416
vt 0.820982 0.940103
f 417/354/417 201/636/201 218/603/218
vt 0.820292 0.939500
f 218/603/218 200/637/200 219/602/219
f 218/603/218 201/636/201 200/637/200
vt 0.719926 0.865993
vt 0.727028 0.871865
f 199/638/199 198/639/198 403/368/403
f 403/368/403 227/608/227 199/638/199
f 403/368/403 408/363/408 227/608/227
vt 0.994129 0.999268
vt 0.991135 0.997890
vt 0.977295 0.999268
f 227/640/227 254/641/254 406/642/406
vt 0.906690 0.991455
vt 0.923500 0.987673
f 406/365/406 199/643/199 227/644/227
f 406/365/406 404/367/404 199/643/199
vt 0.719824 0.865471
vt 0.719482 0.866027
f 404/645/404 197/646/197 199/638/199
vt 0.995720 0.929134
vt 0.998460 0.932852
f 215/616/215 211/647/211 225/648/225
vt 0.993066 0.926213
f 215/616/215 196/649/196 211/647/211
vt 0.998423 0.936381
f 225/648/225 245/650/245 215/616/215
f 245/650/245 248/617/248 215/616/215
vt 0.995682 0.927989
f 196/649/196 195/651/195 211/647/211
vt 0.761694 0.883005
vt 0.757499 0.896488
f 217/610/217 443/652/443 194/653/194
f 194/653/194 216/611/216 217/610/217
vt 0.758907 0.886788
f 443/652/443 193/654/193 194/653/194
vt 0.829864 0.922680
f 192/655/192 210/622/210 213/619/213
f 192/655/192 202/632/202 210/622/210
vt 0.839689 0.917343
f 213/619/213 195/656/195 192/655/192
f 213/619/213 211/621/211 195/656/195
vt 0.980060 0.948486
f 263/509/263 261/512/261 214/657/214
vt 0.784529 0.895714
vt 0.787620 0.887977
f 214/618/214 410/658/410 263/659/263
vt 0.788369 0.894367
f 410/658/410 411/660/411 263/659/263
f 214/618/214 244/612/244 410/658/410
vt 0.837646 0.915013
vt 0.831937 0.916692
f 195/656/195 196/661/196 191/662/191
f 191/662/191 192/655/192 195/656/195
vt 0.826320 0.919154
f 191/662/191 190/663/190 192/655/192
vt 0.813419 0.929584
f 202/632/202 190/663/190 189/664/189
f 202/632/202 192/655/192 190/663/190
f 189/664/189 204/630/204 202/632/202
f 207/625/207 443/652/443 217/610/217
vt 0.761191 0.879807
f 207/625/207 188/665/188 443/652/443
f 217/610/217 401/628/401 207/625/207
f 217/610/217 214/618/214 401/628/401
f 214/618/214 261/515/261 401/628/401
f 261/515/261 400/514/400 401/628/401
f 188/665/188 208/624/208 229/577/229
f 188/665/188 207/625/207 208/624/208
f 208/624/208 228/581/228 229/577/229
f 205/629/205 219/602/219 200/637/200
f 205/629/205 203/631/203 219/602/219
f 203/631/203 220/600/220 219/602/219
vt 0.747555 0.898337
vt 0.742853 0.908624
f 216/611/216 187/666/187 186/667/186
f 216/611/216 194/653/194 187/666/187
vt 0.989014 0.934698
f 186/668/186 215/616/215 216/615/216
vt 0.750498 0.894351
f 194/653/194 185/669/185 187/666/187
vt 0.753177 0.890707
f 194/653/194 184/670/184 185/669/185
vt 0.743264 0.889193
f 184/670/184 183/671/183 185/669/185
vt 0.751625 0.881157
f 184/670/184 182/672/182 183/671/183
vt 0.722061 0.882492
vt 0.742755 0.889317
f 198/639/198 181/673/181 180/674/180
f 180/674/180 407/364/407 198/639/198
vt 0.733413 0.894239
f 181/673/181 179/675/179 180/674/180
f 180/674/180 182/672/182 407/364/407
f 407/364/407 403/368/403 198/639/198
f 182/672/182 409/362/409 407/364/407
f 182/672/182 188/665/188 409/362/409
f 188/665/188 229/577/229 409/362/409
f 180/674/180 183/671/183 182/672/182
f 182/672/182 193/654/193 188/665/188
f 193/654/193 443/652/443 188/665/188
vt 0.885732 0.991455
vt 0.906607 0.991147
vt 0.900388 0.986763
f 178/676/178 197/677/197 220/678/220
vt 0.890203 0.988564
f 220/678/220 204/679/204 178/676/178
vt 0.894037 0.985979
f 220/678/220 203/680/203 204/679/204
f 197/677/197 405/366/405 220/678/220
vt 0.887120 0.988281
f 204/679/204 189/681/189 178/676/178
f 197/677/197 404/367/404 405/366/405
vt 0.882977 0.991171
f 189/681/189 177/682/177 178/676/178
vt 0.990739 0.928504
f 215/616/215 186/668/186 176/683/176
f 176/683/176 196/649/196 215/616/215
vt 0.989087 0.928016
f 176/683/176 175/684/175 196/649/196
vt 0.989014 0.920856
f 175/684/175 174/685/174 196/649/196
vt 0.992025 0.921207
f 174/685/174 191/686/191 196/649/196
vt 0.741155 0.899269
vt 0.736554 0.909424
f 186/667/186 173/687/173 176/688/176
f 186/667/186 187/666/187 173/687/173
f 187/666/187 180/674/180 173/687/173
vt 0.736166 0.908279
vt 0.734424 0.900635
f 175/689/175 173/687/173 172/690/172
vt 0.892660 0.951071
vt 0.891357 0.952393
vt 0.903186 0.952393
f 175/691/175 176/692/176 173/693/173
vt 0.872460 0.987755
f 177/682/177 189/681/189 190/694/190
vt 0.867920 0.991285
f 190/694/190 174/695/174 177/682/177
vt 0.745796 0.760986
vt 0.740406 0.758035
vt 0.739014 0.760986
f 190/696/190 191/697/191 174/698/174
f 193/654/193 182/672/182 184/670/184
f 184/670/184 194/653/194 193/654/193
f 185/669/185 183/671/183 180/674/180
f 180/674/180 187/666/187 185/669/185
f 197/646/197 181/673/181 198/639/198
vt 0.719636 0.887020
f 197/646/197 178/699/178 181/673/181
f 198/639/198 199/638/199 197/646/197
vt 0.720099 0.889828
vt 0.729255 0.905859
f 179/675/179 177/700/177 174/701/174
f 179/675/179 181/673/181 177/700/177
f 174/701/174 172/690/172 179/675/179
f 174/701/174 175/689/175 172/690/172
f 181/673/181 178/699/178 177/700/177
f 173/687/173 179/675/179 172/690/172
f 173/687/173 180/674/180 179/675/179
f 298/474/298 286/479/286 300/478/300
vt 0.856201 0.861854
vt 0.859188 0.862162
vt 0.857860 0.865334
f 439/702/439 337/703/337 438/704/438
vt 0.859729 0.897970
vt 0.858905 0.901269
vt 0.856201 0.900855
f 136/705/136 339/706/339 340/707/340
vt 0.750732 0.694580
vt 0.754520 0.691528
vt 0.750744 0.687592
f 135/708/135 134/709/134 133/710/133
vt 0.756807 0.694580
f 134/709/134 135/708/135 132/711/132
vt 0.753823 0.710582
vt 0.750732 0.714111
vt 0.760262 0.714111
f 286/712/286 298/713/298 291/714/291
vt 0.958790 0.965908
vt 0.953857 0.968018
vt 0.965171 0.968018
f 313/715/313 310/716/310 292/717/292
f 256/523/256 421/350/421 233/566/233
vt 0.902519 0.872093
vt 0.906892 0.872290
vt 0.902931 0.875231
f 236/718/236 240/719/240 131/720/131
vt 0.909139 0.885531
vt 0.907172 0.895364
vt 0.908162 0.892041
f 130/721/130 129/722/129 128/723/128
vt 0.940127 0.972936
vt 0.928536 0.983643
vt 0.955031 0.983643
f 119/724/119 312/725/312 314/726/314
vt 0.960480 0.981923
f 314/726/314 133/727/133 119/724/119
vt 0.928886 0.982035
f 119/724/119 304/728/304 312/725/312
vt 0.929419 0.978096
f 119/724/119 118/729/118 304/728/304
vt 0.962099 0.982613
f 314/726/314 320/730/320 133/727/133
vt 0.895817 0.881009
f 130/721/130 117/731/117 131/720/131
f 130/721/130 128/723/128 117/731/117
vt 0.909552 0.875901
f 131/720/131 237/732/237 130/721/130
vt 0.916555 0.879713
f 237/732/237 223/733/223 130/721/130
vt 0.915734 0.889396
f 223/733/223 417/734/417 130/721/130
vt 0.921883 0.886776
f 223/733/223 205/735/205 417/734/417
vt 0.899858 0.874864
f 117/731/117 116/736/116 131/720/131
vt 0.919041 0.889731
f 205/735/205 201/737/201 417/734/417
f 131/720/131 240/719/240 237/732/237
vt 0.919934 0.889786
f 205/735/205 200/738/200 201/737/201
vt 0.962589 0.975459
vt 0.971840 0.980313
f 135/739/135 320/730/320 321/740/321
f 135/739/135 133/727/133 320/730/320
vt 0.879555 0.846924
vt 0.885255 0.846915
vt 0.883006 0.843656
f 44/741/44 31/742/31 30/743/30
vt 0.879391 0.846440
f 30/743/30 29/744/29 44/741/44
vt 0.862850 0.871794
vt 0.864035 0.875060
vt 0.863722 0.878294
f 28/745/28 26/746/26 27/747/27
vt 0.869689 0.891817
f 27/747/27 25/748/25 136/705/136
vt 0.863049 0.904687
f 25/748/25 24/749/24 136/705/136
f 24/749/24 339/706/339 136/705/136
vt 0.956472 0.973685
f 119/724/119 133/727/133 132/750/132
vt 0.959832 0.975979
f 133/727/133 134/751/134 132/750/132
vt 0.920675 0.952393
vt 0.914659 0.951922
vt 0.906982 0.952393
f 33/752/33 347/753/347 118/754/118
vt 0.917474 0.951256
f 33/752/33 346/755/346 347/753/347
vt 0.801709 0.812772
vt 0.814597 0.815674
vt 0.804752 0.811500
f 32/756/32 42/757/42 23/758/23
vt 0.863712 0.862338
vt 0.868591 0.862469
f 28/745/28 336/759/336 21/760/21
f 28/745/28 438/704/438 336/759/336
f 438/704/438 337/703/337 336/759/336
vt 0.875188 0.843735
f 44/741/44 29/744/29 20/761/20
vt 0.743183 0.702086
vt 0.739133 0.702114
vt 0.739014 0.706299
f 377/762/377 379/763/379 354/764/354
vt 0.811603 0.810306
vt 0.807021 0.807409
f 17/765/17 16/766/16 23/758/23
vt 0.827890 0.815247
vt 0.838567 0.815674
vt 0.833715 0.812192
f 23/767/23 42/768/42 17/769/17
vt 0.836748 0.813438
f 42/768/42 41/770/41 17/769/17
vt 0.862176 0.842959
vt 0.863041 0.837587
vt 0.859247 0.840909
f 24/771/24 15/772/15 343/773/343
vt 0.768123 0.675049
vt 0.766085 0.671731
vt 0.762451 0.675049
f 24/774/24 14/775/14 15/776/15
vt 0.766367 0.690674
vt 0.763517 0.684989
vt 0.762451 0.690674
f 343/777/343 339/778/339 24/779/24
vt 0.839957 0.807836
vt 0.838565 0.807334
f 18/780/18 13/781/13 41/770/41
vt 0.840921 0.815289
f 41/770/41 43/782/43 18/780/18
f 13/781/13 17/769/17 41/770/41
vt 0.880151 0.840445
f 29/744/29 30/743/30 12/783/12
f 12/783/12 20/761/20 29/744/29
vt 0.876581 0.840520
f 12/783/12 11/784/11 20/761/20
vt 0.883798 0.840082
f 30/743/30 398/785/398 12/783/12
vt 0.891601 0.840317
vt 0.889809 0.837013
f 170/786/170 287/787/287 398/785/398
f 398/785/398 31/742/31 170/786/170
vt 0.889056 0.830417
f 287/787/287 281/788/281 398/785/398
f 398/785/398 30/743/30 31/742/31
vt 0.725401 0.719832
vt 0.727605 0.721875
vt 0.727759 0.721924
f 10/789/10 277/790/277 281/791/281
f 336/759/336 335/429/335 315/428/315
f 315/428/315 21/760/21 336/759/336
vt 0.925306 0.979718
f 118/729/118 344/792/344 304/728/304
vt 0.922607 0.974692
f 118/729/118 347/793/347 344/792/344
vt 0.924988 0.983286
f 344/792/344 329/794/329 304/728/304
vt 0.873899 0.889268
vt 0.889648 0.894790
vt 0.874575 0.900381
f 9/795/9 8/796/8 7/797/7
vt 0.896765 0.894422
f 9/795/9 6/798/6 8/796/8
f 7/797/7 25/748/25 9/795/9
f 7/797/7 24/749/24 25/748/25
vt 0.866887 0.904953
f 7/797/7 14/799/14 24/749/24
vt 0.872544 0.905749
vt 0.873403 0.909424
f 14/799/14 18/800/18 19/801/19
f 14/799/14 7/797/7 18/800/18
vt 0.834683 0.805000
f 7/802/7 13/781/13 18/780/18
vt 0.874224 0.843747
vt 0.867790 0.837544
f 19/803/19 11/784/11 5/804/5
vt 0.996449 0.803955
vt 0.993551 0.798343
vt 0.985107 0.803955
f 5/805/5 14/806/14 19/807/19
vt 0.998347 0.799427
f 5/805/5 15/808/15 14/806/14
f 19/803/19 20/761/20 11/784/11
vt 0.883319 0.857228
f 21/760/21 325/809/325 26/746/26
f 21/760/21 435/401/435 325/809/325
f 26/746/26 28/745/28 21/760/21
f 21/760/21 315/428/315 435/401/435
f 435/401/435 315/428/315 316/427/316
f 316/427/316 327/402/327 435/401/435
vt 0.886178 0.867198
f 4/810/4 117/731/117 9/795/9
f 9/795/9 26/746/26 4/810/4
f 9/795/9 27/747/27 26/746/26
f 4/810/4 116/736/116 117/731/117
vt 0.900164 0.865246
f 4/810/4 267/811/267 116/736/116
f 9/795/9 25/748/25 27/747/27
vt 0.920087 0.981603
f 290/475/290 22/812/22 288/477/288
vt 0.799950 0.809497
vt 0.800254 0.804644
f 22/813/22 16/766/16 3/814/3
vt 0.798375 0.807566
f 3/814/3 288/815/288 22/813/22
vt 0.796704 0.805194
f 3/814/3 289/816/289 288/815/288
vt 0.980895 0.796143
vt 0.979110 0.791982
vt 0.977070 0.795837
f 3/817/3 2/818/2 289/819/289
vt 0.828329 0.812253
f 7/802/7 16/820/16 17/769/17
vt 0.819637 0.810436
f 7/802/7 8/821/8 16/820/16
vt 0.820898 0.815168
f 8/821/8 3/822/3 16/820/16
f 17/769/17 13/781/13 7/802/7
vt 0.858844 0.831167
vt 0.856406 0.837751
f 15/772/15 305/823/305 342/824/342
vt 0.867917 0.834296
f 15/772/15 303/825/303 305/823/305
vt 0.856201 0.834493
f 305/823/305 328/826/328 342/824/342
f 342/824/342 343/773/343 15/772/15
f 15/772/15 5/804/5 303/825/303
vt 0.883018 0.833848
vt 0.871230 0.830962
f 11/784/11 282/827/282 302/828/302
f 302/828/302 5/804/5 11/784/11
f 11/784/11 12/783/12 282/827/282
f 302/828/302 303/825/303 5/804/5
f 398/785/398 281/788/281 282/827/282
f 282/827/282 12/783/12 398/785/398
vt 0.901008 0.891442
f 6/798/6 117/731/117 1/829/1
f 6/798/6 9/795/9 117/731/117
f 117/731/117 128/723/128 1/829/1
f 128/723/128 129/722/129 1/829/1
vt 0.893204 0.861432
f 4/810/4 269/830/269 267/811/267
vt 0.886582 0.860763
f 4/810/4 326/831/326 269/830/269
f 4/810/4 325/809/325 326/831/326
vt 0.978173 0.790617
f 289/819/289 2/818/2 330/832/330
vt 0.969482 0.796143
f 330/832/330 332/833/332 289/819/289
vt 0.895367 0.897452
f 8/796/8 6/798/6 2/834/2
vt 0.817139 0.815674
f 2/835/2 3/822/3 8/821/8
vt 0.897110 0.898028
f 6/798/6 330/836/330 2/834/2
vt 0.805420 0.913330
vt 0.812566 0.913330
vt 0.809729 0.911556
f 279/837/279 277/838/277 10/839/10
vt 0.750732 0.768799
vt 0.757427 0.768799
vt 0.751417 0.764198
f 10/840/10 331/841/331 279/842/279
vt 0.752634 0.763229
f 279/842/279 331/841/331 276/843/276
vt 0.890967 0.857766
vt 0.893518 0.858046
f 269/830/269 324/844/324 272/845/272
f 269/830/269 326/831/326 324/844/324
f 1/829/1 233/565/233 330/836/330
f 1/829/1 234/563/234 233/565/233
vt 0.900800 0.908196
f 233/565/233 421/846/421 330/836/330
vt 0.897381 0.904592
f 421/846/421 430/847/430 330/836/330
f 330/836/330 6/798/6 1/829/1
vt 0.899541 0.908137
f 421/846/421 429/848/429 430/847/430
f 267/811/267 236/718/236 116/736/116
vt 0.903081 0.865636
f 267/811/267 264/849/264 236/718/236
f 236/718/236 131/720/131 116/736/116
vt 0.913791 0.896034
f 129/722/129 418/850/418 234/563/234
f 234/563/234 1/829/1 129/722/129
f 129/722/129 417/734/417 418/850/418
f 129/722/129 130/721/130 417/734/417
vt 0.892649 0.796143
vt 0.897209 0.791318
vt 0.892985 0.793353
f 222/851/222 209/852/209 206/853/206
vt 0.902660 0.796143
f 222/851/222 415/854/415 209/852/209
vt 0.891357 0.794421
f 206/853/206 221/855/221 222/851/222
# 820 faces, 855 coords texture

# End of File
