####
#
# OBJ File Generated by Meshlab
#
####
# Object office_table_6.obj
#
# Vertices: 567
# Faces: 978
#
####
mtllib ./office_table_6.obj.mtl

vn -0.003347 0.011627 0.999927
v -0.678468 2.599792 0.812440
vn 0.764105 -0.455108 -0.457187
v -0.498462 3.143349 0.322956
vn -0.098419 -0.381514 0.919109
v -1.158461 1.279713 0.807193
vn -0.211702 0.160900 0.963999
v -1.178460 2.679713 0.798862
vn 0.106487 -0.794137 0.598337
v -0.818462 2.371692 0.822952
vn -0.166560 0.120712 0.978615
v -1.038464 1.439713 0.792530
vn -0.054304 -0.048162 0.997362
v -1.068459 2.579713 0.811898
vn 0.010292 0.016539 0.999810
v -0.818466 2.609786 0.812308
vn -0.006474 0.013187 0.999892
v -0.488462 2.649743 0.813011
vn -0.078239 -0.226433 0.970879
v -1.218463 2.279712 0.798916
vn -0.048632 -0.528129 0.847770
v -1.218461 2.329412 0.842951
vn -0.055500 -0.473825 0.878868
v -1.178461 2.299713 0.804864
vn -0.045295 -0.619745 0.783495
v -1.138460 2.319709 0.822950
vn -0.518614 0.305800 0.798452
v -1.118463 1.182817 0.862957
vn -0.225006 0.230706 0.946651
v -0.998456 1.299708 0.887580
vn 0.040389 0.088097 0.995293
v -0.998459 2.719714 0.804604
vn 0.317638 0.282290 0.905217
v -0.978463 1.299713 0.866438
vn 0.095885 -0.428549 0.898416
v -0.958463 2.379717 0.854540
vn -0.159437 0.180660 0.970537
v -0.938463 2.979713 0.056003
vn -0.266619 -0.881574 -0.389541
v -0.918459 2.889736 0.362952
vn -0.198107 -0.979711 0.030328
v -0.858463 2.889266 0.322951
vn 0.570346 -0.586673 0.574909
v -0.698459 1.704419 0.822948
vn -0.409929 0.874180 -0.260322
v -0.678463 1.579717 0.882952
vn -0.029231 0.945765 0.323534
v -0.678461 2.988458 0.782952
vn 0.101335 -0.994685 0.018233
v -0.518389 2.906178 0.542950
vn 0.322357 -0.931339 0.169395
v -0.498491 2.905061 0.262951
vn -0.119691 0.116618 -0.985938
v -0.478461 1.717692 0.782947
vn 0.904237 -0.232555 0.358154
v -0.485192 2.919712 0.382951
vn 0.864683 0.492772 -0.097462
v -0.421461 2.479713 0.842951
vn 0.365419 0.013344 -0.930748
v -0.418462 1.319713 0.774312
vn -0.044527 -0.521504 0.852086
v -1.198462 2.299714 0.804060
vn 0.004679 0.004529 0.999979
v -1.198481 2.859692 0.045651
vn -0.148589 -0.052327 0.987514
v -1.138412 2.919712 0.799964
vn -0.051639 -0.389051 0.919768
v -1.098461 2.359711 0.858367
vn -0.314087 0.103487 0.943737
v -1.018459 1.299712 0.871610
vn 0.029142 0.090229 0.995495
v -1.018465 2.739713 0.802999
vn -0.064745 -0.014737 0.997793
v -0.998460 2.759714 0.804943
vn 0.213149 0.429761 0.877424
v -0.998464 1.319714 0.870936
vn 0.022842 -0.428537 0.903236
v -0.977036 2.379732 0.862950
vn -0.134317 0.593347 0.793662
v -0.958462 2.399714 0.850159
vn -0.454788 0.513886 0.727385
v -0.859910 1.599704 0.862933
vn 0.135387 -0.386477 0.912308
v -0.798461 1.399713 0.906504
vn 0.155573 0.139110 0.977980
v -0.798462 1.439713 0.911010
vn 0.213225 0.033244 0.976437
v -0.778460 1.559707 0.868516
vn -0.076673 0.130261 0.988511
v -0.738462 1.719713 0.888736
vn -0.273328 0.624671 0.731491
v -0.758460 1.539711 0.882947
vn 0.470421 -0.314669 0.824432
v -0.778461 1.619712 0.886705
vn -0.100662 -0.987662 0.119962
v -0.758461 2.890314 0.102952
vn 0.063401 -0.240659 0.968537
v -0.778462 2.359724 0.813384
vn 0.606149 0.531359 0.591811
v -0.518463 1.619715 0.802937
vn 0.440666 0.767312 -0.465883
v -0.574938 1.179717 0.702944
vn -0.690724 0.138382 0.709754
v -0.792594 1.699716 0.862955
vn 0.061270 0.030654 0.997650
v -0.438459 2.959737 0.808013
vn -0.006473 0.013191 0.999892
v -0.548463 2.529773 0.814205
vn 0.074213 -0.813063 0.577427
v -1.178462 2.325721 0.842946
vn -0.258113 0.145462 0.955101
v -0.938459 2.649699 0.813887
vn -0.086304 -0.949227 0.302523
v -1.158462 2.329168 0.822945
vn 0.202442 -0.049056 0.978065
v -0.618471 1.399716 0.896658
vn 0.068648 -0.092816 0.993314
v -0.578453 1.359717 0.892361
vn -0.157692 0.111767 0.981143
v -0.938463 3.039714 0.049168
vn -0.462536 -0.885397 0.046187
v -0.878461 2.899713 0.322951
vn -0.045149 0.944477 0.325460
v -0.798461 2.989111 0.782952
vn -0.057894 -0.970354 0.234651
v -0.878461 2.361050 0.822949
vn -0.197008 -0.938484 0.283611
v -0.898460 2.889735 0.302952
vn -0.200341 0.038335 0.978976
v -0.858460 1.439715 0.924963
vn -0.100843 0.902133 0.419509
v -0.538461 2.956621 0.062947
vn -0.027344 -0.553691 0.832273
v -0.738461 1.197208 0.862955
vn -0.192036 0.580028 0.791637
v -0.498306 2.498060 0.822105
vn 0.811728 0.274246 -0.515642
v -0.518461 2.919712 0.645836
vn 0.646345 -0.446963 0.618434
v -0.458458 1.319708 0.842958
vn 0.009089 -0.012798 -0.999877
v -0.478460 1.721440 0.782946
vn -0.085451 -0.987624 0.131515
v -0.498462 2.913942 0.582951
vn 0.377606 -0.904002 -0.200484
v -0.478460 3.176937 0.322950
vn -0.355570 0.001877 0.934648
v -1.198501 1.959713 0.788493
vn -0.101810 0.011264 0.994740
v -1.158379 1.919717 0.805743
vn -0.114388 0.094858 0.988897
v -1.198460 1.439713 0.809495
vn -0.067848 0.029532 0.997259
v -1.218461 1.379713 0.819526
vn -0.126477 -0.029242 0.991538
v -1.198466 2.919711 0.784601
vn -0.098681 -0.012474 0.995041
v -1.178521 2.819712 0.784196
vn -0.267565 0.215057 0.939234
v -1.198461 2.359709 0.866086
vn -0.177353 0.644463 0.743783
v -1.118465 2.379722 0.850367
vn -0.202443 -0.278052 0.938991
v -0.998463 1.279713 0.869999
vn -0.049849 0.517707 0.854104
v -0.938459 2.399694 0.861794
vn -0.003413 0.074318 0.997229
v -0.918463 2.959737 0.807687
vn -0.091604 0.641714 0.761454
v -0.818463 2.979737 0.807390
vn 0.078302 -0.678752 0.730181
v -0.898463 2.379718 0.846695
vn 0.127111 -0.796876 0.590620
v -0.898461 2.365948 0.822958
vn -0.539437 0.281847 0.793455
v -0.878446 1.559701 0.872990
vn -0.193273 0.246313 0.949724
v -0.858462 1.579713 0.892387
vn -0.114339 0.515465 0.849248
v -0.858469 1.459722 0.908788
vn -0.023361 0.303078 0.952679
v -0.838462 1.459719 0.916056
vn -0.229510 -0.232266 0.945187
v -0.838462 1.299712 0.880399
vn -0.059026 -0.367944 0.927973
v -0.738464 1.239719 0.892620
vn 0.071008 -0.047802 0.996330
v -0.798461 1.419713 0.927440
vn -0.068116 -0.148977 0.986492
v -0.818462 1.419713 0.911820
vn -0.003396 0.581452 0.813574
v -0.778463 2.979732 0.807579
vn 0.395369 -0.098457 0.913230
v -0.778468 1.419716 0.905034
vn 0.324061 0.522518 0.788644
v -0.798461 1.527020 0.882949
vn -0.180779 0.558750 0.809393
v -0.778462 1.531857 0.862951
vn -0.326389 0.528814 0.783471
v -0.798461 1.639713 0.882951
vn -0.070279 -0.000833 0.997527
v -0.778462 1.639713 0.899961
vn 0.067220 0.029400 0.997305
v -0.798461 1.619713 0.906417
vn -0.872494 0.049809 0.486079
v -0.794417 1.719713 0.862951
vn -0.840734 0.378895 0.386789
v -0.798463 1.719714 0.842952
vn -0.114682 -0.989532 -0.087600
v -0.798461 2.891409 0.142951
vn -0.271803 -0.947890 0.166217
v -0.788818 2.899713 0.102951
vn -0.410714 0.113660 0.904652
v -0.771861 1.719713 0.882950
vn -0.408271 0.016978 0.912703
v -0.761176 1.699713 0.882954
vn 0.236483 -0.601295 0.763230
v -0.758461 2.379718 0.813391
vn 0.202032 -0.740744 0.640688
v -0.778467 2.374379 0.822937
vn 0.794594 0.410875 -0.446993
v -0.678457 1.218467 0.682937
vn 0.200057 0.593665 -0.779448
v -0.678450 1.247638 0.702926
vn 0.391009 -0.390119 0.833618
v -0.678461 1.709163 0.822940
vn 0.761848 -0.647517 0.017607
v -0.698460 1.702261 0.842953
vn -0.293950 0.955279 -0.032172
v -0.658462 1.609886 0.882951
vn -0.317931 0.944127 0.086852
v -0.638460 1.603551 0.862951
vn 0.095683 0.971035 0.218942
v -0.638461 2.989238 0.782952
vn -0.011891 0.821240 0.570459
v -0.658463 2.984608 0.802942
vn 0.027611 -0.019178 0.999435
v -0.598461 1.399713 0.880097
vn 0.011235 0.052345 0.998566
v -0.598510 1.379765 0.894515
vn 0.102224 -0.143504 0.984356
v -0.598461 1.419718 0.896023
vn 0.169201 -0.038419 0.984833
v -0.538462 1.379713 0.885348
vn 0.045635 0.073721 0.996234
v -0.578467 1.399713 0.894482
vn -0.032719 -0.989114 -0.143471
v -0.498461 3.190607 0.182955
vn 0.255929 -0.927253 0.273319
v -0.518443 2.904475 0.602951
vn 0.227730 -0.940847 0.250892
v -0.498462 2.915630 0.602951
vn 0.341040 0.624806 0.702360
v -0.498462 2.952259 0.062952
vn 0.395716 0.884728 0.246301
v -0.522953 2.939751 0.102953
vn -0.376956 0.843022 -0.383690
v -0.508461 1.599713 0.782951
vn 0.271052 0.731816 0.625281
v -0.498462 1.606132 0.802951
vn -0.110845 0.433338 0.894389
v -0.518463 2.499759 0.815083
vn -0.073297 0.155979 0.985037
v -0.498463 2.519734 0.815304
vn 0.482954 -0.799624 0.356871
v -0.498462 2.889712 0.242951
vn -0.043690 -0.988198 0.146821
v -0.518524 2.902378 0.242952
vn 0.646627 -0.368733 -0.667765
v -0.518461 2.879713 0.667923
vn 0.487626 0.804957 -0.338032
v -0.480682 2.919714 0.702951
vn 0.104618 -0.522202 0.846380
v -0.498465 1.279717 0.842944
vn 0.247945 -0.344593 0.905416
v -0.478462 1.279713 0.850262
vn -0.000461 -0.000257 -1.000000
v -0.485168 1.719713 0.782951
vn 0.006473 0.035553 -0.999347
v -0.476493 1.719712 0.782947
vn 0.242343 -0.951697 -0.188528
v -0.478461 2.912619 0.562951
vn 0.052037 -0.998119 0.032405
v -0.478461 2.895171 0.582951
vn 0.098967 -0.845212 0.525188
v -0.478461 2.915777 0.602951
vn 0.397198 0.881672 0.254731
v -0.498459 2.937431 0.382953
vn 0.635475 0.603353 0.481806
v -0.478462 2.939707 0.377706
vn 0.470149 -0.558904 -0.683071
v -0.498460 3.173201 0.302955
vn 0.675465 -0.323769 -0.662511
v -0.498464 3.159715 0.306661
vn 0.834683 -0.545695 0.074308
v -0.458461 2.919711 0.582951
vn 0.003092 0.017475 0.999843
v -0.358457 2.579723 0.814776
vn 0.082768 0.035150 0.995949
v -0.378464 2.962347 0.802935
vn 0.835050 0.188803 0.516764
v -0.424604 2.459712 0.822995
vn 0.498839 -0.000968 0.866694
v -0.418453 2.487427 0.822987
vn 0.546090 0.001970 -0.837724
v -0.398462 1.299713 0.775936
vn 0.506695 -0.473184 -0.720665
v -0.418462 1.279713 0.774171
vn -0.003349 0.011628 0.999927
v -0.618466 2.719762 0.811246
vn 0.020809 0.023008 0.999519
v -0.898460 2.584718 0.814550
vn -0.015234 -0.038459 0.999144
v -1.038462 2.599712 0.814497
vn -0.256053 -0.006624 0.966640
v -1.238558 2.619721 0.782779
vn -0.126484 -0.017528 0.991814
v -1.238657 2.539720 0.782205
vn -0.134284 0.015488 0.990822
v -1.238458 2.699722 0.783354
vn -0.023882 -0.000015 0.999715
v -1.358533 2.839689 0.779896
vn -0.026382 -0.005999 0.999634
v -1.278512 2.919696 0.782157
vn -0.177818 -0.187767 0.965984
v -0.978482 2.879709 0.044531
vn -0.041682 -0.735180 0.676590
v -0.818469 2.859708 0.043853
vn -0.149824 0.067112 0.986432
v -0.998461 2.999719 0.044081
vn -0.158434 0.001340 0.987369
v -1.218512 2.179715 0.787119
vn -0.185261 0.008219 0.982655
v -1.258305 1.659718 0.789065
vn -0.216317 0.053807 0.974839
v -1.278303 1.459712 0.786984
vn -0.168316 0.060406 0.983881
v -1.238472 2.419714 0.786109
vn -0.157246 -0.005859 0.987542
v -1.198574 2.519712 0.786795
vn -0.153589 -0.111938 0.981774
v -1.218473 2.239715 0.787749
vn 0.263260 -0.493695 0.828830
v -1.217486 2.559714 0.785009
vn -0.073638 0.016464 0.997149
v -1.138460 1.559705 0.812496
vn 0.029956 0.040774 0.998719
v -1.138512 1.539708 0.813539
vn -0.245623 0.772231 0.585943
v -1.218459 2.370906 0.842946
vn -0.048817 -0.013837 0.998712
v -1.058469 2.199715 0.807709
vn -0.123162 -0.159259 0.979524
v -1.158462 2.259711 0.799417
vn -0.063350 0.018695 0.997816
v -1.098458 2.079723 0.808187
vn -0.193376 0.006556 0.981103
v -1.152713 1.979722 0.805872
vn -0.259198 -0.419785 0.869826
v -1.218461 2.339713 0.846080
vn -0.579496 0.190479 0.792403
v -1.218461 2.359712 0.851459
vn -0.114926 0.676369 0.727542
v -1.078464 2.408452 0.822955
vn -0.142355 0.762476 0.631162
v -1.194189 2.399714 0.802959
vn -0.270180 0.319293 0.908325
v -1.098463 2.379718 0.864622
vn -0.011607 0.136717 0.990542
v -1.118462 1.379713 0.819513
vn 0.053398 0.016921 0.998430
v -1.118470 1.479709 0.812246
vn 0.323286 0.123860 0.938160
v -1.098462 1.459714 0.812851
vn 0.120498 0.131280 0.983995
v -1.158462 1.330163 0.822917
vn -0.195646 -0.077224 0.977629
v -1.218462 1.339713 0.811664
vn 0.111017 0.063791 0.991769
v -1.138461 1.319713 0.816886
vn -0.000665 -0.358719 0.933445
v -1.098462 2.299726 0.811930
vn -0.156591 0.244340 0.956963
v -1.158457 2.419712 0.801689
vn -0.128916 -0.032939 0.991108
v -1.158459 2.519711 0.793179
vn -0.110710 -0.005894 0.993835
v -1.098467 2.499715 0.798549
vn -0.082697 0.246363 0.965643
v -1.038471 2.439716 0.809418
vn -0.118577 -0.018607 0.992770
v -1.018459 2.519713 0.811723
vn -0.094072 0.034440 0.994970
v -0.978454 2.559650 0.816793
vn 0.074455 0.035659 0.996587
v -0.958460 2.639707 0.813735
vn -0.017501 0.010258 0.999794
v -0.938472 2.959725 0.808019
vn -0.048734 -0.402750 0.914012
v -0.918456 2.739710 0.812128
vn -0.118003 0.291951 0.949126
v -1.058442 2.739713 0.802720
vn 0.005344 0.299331 0.954134
v -1.138456 2.699713 0.794831
vn -0.065610 0.321616 0.944594
v -1.218451 2.699712 0.789275
vn -0.112732 -0.575735 0.809828
v -0.938510 2.739714 0.803565
vn 0.190483 0.057696 0.979994
v -0.958480 2.719714 0.805764
vn -0.090034 0.048554 0.994754
v -1.118504 2.699714 0.790392
vn -0.280953 0.157238 0.946753
v -1.098448 2.719713 0.798776
vn -0.177022 0.378812 0.908386
v -1.198462 1.319713 0.819480
vn -0.053522 0.523300 0.850466
v -1.178461 1.319713 0.831596
vn -0.009224 -0.568290 0.822777
v -1.178462 2.339723 0.860119
vn -0.216474 -0.070714 0.973724
v -1.178460 2.579714 0.798167
vn -0.234621 -0.017442 0.971931
v -1.178457 2.599714 0.798562
vn 0.155974 -0.469996 0.868778
v -1.178461 1.287098 0.822951
vn -0.079911 0.599282 0.796540
v -1.038462 2.414067 0.822951
vn -0.063725 0.367039 0.928020
v -0.938468 2.439734 0.812972
vn -0.612477 0.285268 0.737220
v -1.146413 1.199717 0.822955
vn 0.574067 -0.319811 0.753769
v -1.140449 1.299713 0.822951
vn 0.206291 -0.495145 0.843964
v -1.038463 2.359721 0.857136
vn 0.142621 -0.315589 0.938117
v -1.018461 2.319712 0.809511
vn -0.463043 0.199052 0.863695
v -1.118465 1.259712 0.822959
vn -0.455448 0.242962 0.856467
v -1.038465 1.319714 0.860361
vn -0.461852 0.221430 0.858872
v -1.058458 1.339711 0.835588
vn -0.402617 0.296473 0.866027
v -1.018452 1.361658 0.862941
vn -0.307959 0.370016 0.876498
v -1.058449 1.359707 0.829957
vn -0.061912 -0.004987 0.998069
v -0.778461 2.039697 0.806985
vn -0.127086 0.092774 0.987544
v -0.858482 1.739714 0.810161
vn -0.075371 0.052567 0.995769
v -1.018452 1.559720 0.807787
vn -0.088880 -0.023301 0.995770
v -0.778473 2.239706 0.807899
vn -0.055996 0.039275 0.997658
v -0.758464 1.919709 0.807731
vn -0.016688 0.046038 0.998800
v -0.818461 1.799713 0.807745
vn -0.311537 0.092140 0.945756
v -0.758477 1.859706 0.810151
vn -0.024963 -0.015537 0.999568
v -1.038451 1.539719 0.808369
vn 0.065066 -0.381128 0.922230
v -0.938462 2.339716 0.811705
vn 0.000750 -0.496527 0.868021
v -0.978460 2.339713 0.816332
vn 0.058053 -0.415821 0.907592
v -0.998462 2.339714 0.811817
vn -0.089742 0.516979 0.851281
v -1.118483 2.680070 0.801274
vn 0.022746 0.304325 0.952297
v -1.138461 2.679713 0.812870
vn -0.346028 -0.320701 0.881712
v -1.158461 2.679713 0.810859
vn -0.478941 -0.097182 0.872451
v -0.958457 2.919711 0.062885
vn -0.279902 0.306873 0.909661
v -0.938456 2.949751 0.062881
vn -0.278047 -0.599040 0.750893
v -0.938460 2.899709 0.061266
vn -0.242620 0.188583 0.951615
v -1.098463 1.159714 0.878956
vn 0.353501 -0.177912 0.918360
v -1.138459 1.299713 0.819179
vn 0.070410 0.193070 0.978655
v -1.078462 1.419714 0.802953
vn -0.019441 0.414852 0.909681
v -1.058460 1.414245 0.802952
vn 0.490914 -0.146134 0.858865
v -1.096914 1.439713 0.802949
vn 0.065191 0.099442 0.992906
v -1.018461 2.379713 0.860663
vn -0.128786 -0.060765 0.989809
v -1.118460 2.639714 0.812073
vn 0.040667 -0.001118 0.999172
v -1.058465 2.679711 0.817272
vn -0.044919 0.103958 0.993567
v -1.118461 2.659713 0.812551
vn -0.218801 0.187644 0.957557
v -1.078463 2.699713 0.818719
vn -0.056640 0.328069 0.942954
v -1.058468 2.719709 0.816053
vn 0.281476 -0.132716 0.950346
v -1.026950 1.219713 0.862953
vn 0.072498 -0.506491 0.859192
v -0.858461 2.359703 0.810106
vn -0.085819 -0.015213 0.996195
v -0.758460 2.279741 0.812948
vn 0.016467 -0.567969 0.822885
v -0.598466 2.399711 0.811933
vn -0.578428 0.472541 0.664926
v -1.002987 1.419714 0.822952
vn -0.482721 0.169171 0.859280
v -0.982258 1.399714 0.862953
vn -0.246527 0.747194 0.617191
v -1.038463 1.417129 0.802952
vn -0.246169 0.187924 0.950834
v -0.938466 2.659799 0.810753
vn -0.026646 0.290671 0.956452
v -0.938460 2.699714 0.802982
vn -0.275106 -0.138696 0.951357
v -0.938463 1.379714 0.872895
vn -0.358670 -0.167004 0.918404
v -0.938463 1.419711 0.879980
vn 0.329135 -0.649755 0.685192
v -1.018461 2.359713 0.842951
vn -0.048184 0.044180 0.997861
v -0.878463 2.399728 0.859491
vn 0.116092 0.308322 0.944172
v -0.838465 2.459722 0.812970
vn -0.209741 0.648284 0.731940
v -0.858462 2.419714 0.848042
vn 0.059905 -0.213858 0.975026
v -0.998464 2.379724 0.859904
vn -0.124795 -0.029464 0.991745
v -0.858465 2.399729 0.860123
vn -0.195159 0.047733 0.979609
v -0.758461 2.479709 0.808685
vn -0.109914 0.131200 0.985244
v -0.738470 2.479822 0.813634
vn 0.121635 0.298174 0.946730
v -0.818462 2.452495 0.803005
vn -0.617118 0.386328 0.685505
v -0.943699 1.499701 0.862927
vn -0.597123 0.288322 0.748542
v -0.945312 1.519719 0.842962
vn -0.610657 0.181125 0.770903
v -0.984209 1.459713 0.822949
vn -0.706137 0.152236 0.691517
v -0.982260 1.419716 0.862957
vn -0.758671 0.263894 0.595632
v -0.987767 1.439714 0.822946
vn -0.321520 0.270300 0.907504
v -0.878470 1.659718 0.816210
vn -0.394324 0.113983 0.911875
v -0.978455 1.519709 0.824500
vn -0.362119 -0.024065 0.931821
v -0.998466 1.499716 0.816840
vn 0.036710 -0.696564 0.716555
v -0.978460 2.349400 0.822956
vn -0.237379 0.293170 0.926122
v -0.878454 1.459711 0.912221
vn -0.171260 -0.317030 0.932825
v -0.858462 1.399713 0.911548
vn -0.218366 0.357601 0.907986
v -0.878464 1.499715 0.886933
vn -0.154891 -0.096465 0.983211
v -0.858460 1.559712 0.882947
vn -0.270976 0.276686 0.921964
v -0.925900 2.959712 0.062945
vn -0.477763 0.427093 0.767681
v -0.858428 1.600931 0.862917
vn -0.531677 0.328174 0.780782
v -0.818471 1.699719 0.829004
vn 0.004343 0.245462 0.969396
v -0.498462 2.959702 0.808857
vn -0.043445 -0.024826 0.998747
v -0.898463 2.739749 0.810981
vn -0.006472 0.013188 0.999892
v -0.583465 2.624767 0.812725
vn 0.014083 0.509553 0.860324
v -0.658463 2.979708 0.808089
vn 0.017890 0.020169 0.999637
v -0.458462 2.959705 0.808899
vn 0.045346 0.208529 0.976964
v -0.378461 2.499716 0.816268
vn -0.025537 0.207932 0.977810
v -0.618464 2.499778 0.814469
vn 0.083319 0.022728 0.996264
v -0.358473 2.499745 0.815412
vn -0.317199 -0.786712 0.529594
v -0.918461 2.904242 0.082945
vn -0.119943 -0.772117 0.624058
v -0.818462 2.896116 0.082950
vn -0.209470 -0.745234 0.633047
v -0.818462 2.899715 0.087187
vn 0.045300 0.034908 0.998363
v -0.938463 2.719712 0.790352
vn -0.572127 -0.044065 0.818980
v -0.935379 2.919713 0.082951
vn -0.278498 0.483531 0.829842
v -0.898462 2.939713 0.082950
vn -0.266894 0.419013 0.867869
v -0.898462 2.959714 0.071382
vn -0.255162 -0.331035 0.908465
v -0.858463 1.345275 0.882956
vn -0.023182 -0.243095 0.969725
v -0.818457 1.379709 0.903046
vn -0.009485 -0.999829 -0.015881
v -0.798449 2.880822 0.322951
vn 0.035123 -0.999375 -0.004051
v -0.758539 2.881631 0.242952
vn 0.587875 0.799628 -0.122462
v -0.578445 1.179802 0.462920
vn -0.061492 0.410304 0.909873
v -0.798461 1.519714 0.886421
vn 0.161796 0.020816 0.986605
v -0.818462 1.557348 0.882953
vn -0.036540 0.214990 0.975932
v -0.838467 1.582874 0.882955
vn -0.264455 0.018478 0.964221
v -0.827227 1.599719 0.882958
vn 0.179288 -0.395849 0.900644
v -0.798455 1.599709 0.886195
vn -0.156286 -0.740257 0.653907
v -0.858462 2.379713 0.842951
vn 0.122512 -0.876838 0.464915
v -0.858462 2.367488 0.822951
vn 0.278104 0.939780 -0.198673
v -0.598397 1.173154 0.662959
vn 0.174919 0.984491 -0.013466
v -0.575579 1.179598 0.482949
vn 0.482412 0.808382 -0.337337
v -0.578400 1.169568 0.682963
vn 0.055099 0.199713 0.978304
v -0.758471 1.499719 0.907194
vn -0.331626 0.605487 0.723470
v -0.739275 1.539704 0.890352
vn -0.336116 0.868874 0.363434
v -0.738464 1.559720 0.862962
vn 0.058571 0.931733 0.358389
v -0.758464 1.558698 0.862957
vn 0.433950 0.879575 0.195027
v -0.765478 1.559715 0.862955
vn -0.599924 0.331357 0.728213
v -0.765167 1.799720 0.822961
vn -0.013620 -0.068691 0.997545
v -0.738451 1.279706 0.893309
vn 0.100190 -0.083753 0.991437
v -0.778463 1.399713 0.902943
vn -0.648663 0.408780 0.641978
v -0.761136 1.759716 0.862955
vn -0.548094 0.440343 0.711119
v -0.813100 1.659716 0.862955
vn -0.576399 0.262830 0.773747
v -0.832202 1.619702 0.882936
vn -0.922861 0.154896 0.352613
v -0.745160 1.799711 0.862948
vn -0.678500 0.680173 0.277495
v -0.738442 1.828339 0.862936
vn -0.711764 0.380107 0.590687
v -0.740779 1.839723 0.822960
vn -0.609207 0.102180 0.786401
v -0.758469 1.759717 0.865291
vn -0.486503 0.450247 0.748727
v -0.738483 1.844632 0.822960
vn 0.040832 -0.664813 0.745893
v -0.838461 2.379714 0.855725
vn 0.092513 -0.897909 0.430350
v -0.838461 2.370806 0.842951
vn -0.097189 0.585249 0.805008
v -0.818463 2.419718 0.852791
vn 0.069465 -0.159483 0.984754
v -0.818462 2.399713 0.862950
vn 0.102614 -0.460317 0.881804
v -0.758461 2.399716 0.863972
vn 0.035370 -0.962380 -0.269394
v -0.538105 3.177490 0.282429
vn 0.171222 0.683413 -0.709669
v -0.678463 1.199704 0.662953
vn -0.023173 0.640281 -0.767791
v -0.758461 1.220789 0.682951
vn 0.600655 0.051903 0.797822
v -0.778464 1.579714 0.870013
vn 0.151911 -0.054005 0.986918
v -0.758460 1.659712 0.890714
vn -0.068328 0.499973 0.863342
v -0.726840 2.439712 0.862950
vn -0.000331 0.734734 0.678356
v -0.718463 2.459721 0.824227
vn -0.082164 0.594065 0.800210
v -0.698462 2.443261 0.862951
vn -0.023634 0.008618 0.999684
v -0.418459 3.059735 0.048192
vn -0.064516 0.989450 0.129718
v -0.618463 2.939747 0.055480
vn 0.258847 0.332428 0.906912
v -0.478458 2.959692 0.056103
vn -0.023634 0.008619 0.999683
v -0.378460 2.959715 0.050000
vn -0.151934 0.281056 0.947588
v -0.718444 1.539696 0.898391
vn 0.091380 0.123489 0.988130
v -0.598437 1.579709 0.892948
vn 0.194776 0.146971 0.969774
v -0.638457 1.579711 0.898126
vn -0.097078 0.609068 0.787154
v -0.658457 1.599711 0.899520
vn -0.736145 0.633079 0.239379
v -0.790231 1.739713 0.862951
vn 0.017017 -0.704653 0.709348
v -0.698461 2.859715 0.043273
vn 0.042293 -0.849170 0.526423
v -0.714397 2.879715 0.062951
vn -0.045160 -0.821921 0.567809
v -0.778462 2.877592 0.062951
vn 0.890309 -0.144433 0.431843
v -0.772233 1.579713 0.862950
vn 0.766669 -0.489933 0.414950
v -0.698465 1.703761 0.862952
vn 0.493316 -0.260900 0.829802
v -0.690340 1.739716 0.882948
vn -0.421788 0.324128 0.846780
v -0.738462 1.739713 0.880556
vn 0.012378 0.004274 0.999914
v -0.578441 1.959720 0.814060
vn -0.055990 -0.011916 0.998360
v -0.698460 2.079741 0.818032
vn 0.029449 -0.002844 0.999562
v -0.458497 2.119717 0.815559
vn 0.037247 -0.993083 0.111349
v -0.698505 2.887899 0.082953
vn -0.149942 -0.985229 -0.082709
v -0.758309 2.888589 0.182948
vn 0.403375 -0.915035 0.000347
v -0.518409 2.905818 0.482949
vn 0.167608 -0.985757 0.013837
v -0.558419 2.901812 0.602951
vn 0.387859 -0.880514 -0.272508
v -0.558480 2.899938 0.637699
vn 0.466690 -0.883734 -0.034849
v -0.478498 2.906682 0.302950
vn 0.066228 -0.987663 0.141903
v -0.498394 2.907698 0.562950
vn -0.001539 0.581608 0.813468
v -0.738464 2.979724 0.807749
vn 0.012744 0.929661 0.368196
v -0.718461 2.989271 0.782952
vn 0.831281 0.541878 0.123856
v -0.777088 1.559715 0.842950
vn 0.799419 -0.126850 0.587230
v -0.765675 1.579714 0.822950
vn 0.157214 0.760206 0.630374
v -0.758461 1.559713 0.825691
vn 0.215995 0.341358 0.914779
v -0.758461 1.571254 0.822955
vn 0.333083 0.161926 0.928889
v -0.758462 1.579716 0.817867
vn 0.593360 -0.391155 0.703507
v -0.703746 1.679718 0.822939
vn 0.333930 -0.209636 0.918990
v -0.718456 1.639710 0.808788
vn -0.183067 -0.014587 0.982992
v -0.725090 1.759713 0.882953
vn 0.377135 -0.420010 0.825446
v -0.670725 1.779713 0.882952
vn -0.106598 -0.070328 0.991812
v -0.698462 1.799713 0.889949
vn -0.085870 0.015684 0.996183
v -0.718461 1.799713 0.892480
vn -0.032781 -0.022887 0.999200
v -0.378463 2.339698 0.812303
vn 0.065597 -0.012677 0.997766
v -0.378478 2.199741 0.811242
vn 0.047654 -0.478085 0.877020
v -0.558471 2.399735 0.811905
vn 0.171912 -0.657547 0.733538
v -0.458464 2.439727 0.857527
vn 0.024109 -0.501340 0.864914
v -0.678457 2.419688 0.866548
vn 0.136856 -0.624530 0.768916
v -0.438460 2.433241 0.822920
vn 0.320213 -0.876750 0.358850
v -0.718460 2.399702 0.842958
vn -0.500978 0.677080 0.539058
v -0.658463 1.593479 0.822954
vn -0.027284 0.023813 0.999344
v -0.638434 1.659714 0.815731
vn -0.242313 0.710897 0.660235
v -0.738463 1.566693 0.822961
vn -0.322167 0.473459 0.819783
v -0.641050 1.619710 0.822939
vn 0.006545 0.085953 0.996278
v -0.618442 1.659708 0.816494
vn 0.183001 0.781461 0.596515
v -0.558460 1.634581 0.822940
vn 0.282896 0.241784 0.928176
v -0.538471 1.639721 0.814080
vn 0.601140 0.605604 0.521416
v -0.538462 1.622531 0.822950
vn -0.450231 0.827124 0.336390
v -0.698462 1.574356 0.882951
vn -0.278752 0.959271 -0.045797
v -0.718460 1.576780 0.842951
vn -0.505131 0.079461 0.859377
v -0.738462 1.759713 0.877043
vn -0.801846 0.384517 0.457372
v -0.742796 1.819714 0.882952
vn -0.472877 0.312249 0.823947
v -0.738463 1.819714 0.887264
vn -0.491638 0.685832 0.536588
v -0.698464 1.839717 0.872556
vn 0.050432 0.485351 0.872864
v -0.678487 1.868455 0.822254
vn 0.070231 0.932293 0.354821
v -0.678460 1.859712 0.872561
vn 0.340539 0.731193 0.591092
v -0.678461 1.855675 0.882950
vn 0.024071 -0.111195 0.993507
v -0.741052 2.421736 0.863409
vn -0.127640 0.661805 0.738731
v -0.698463 2.464245 0.822954
vn -0.071071 0.684231 0.725794
v -0.618463 2.479718 0.822956
vn 0.144977 -0.297015 0.943803
v -0.678462 1.259714 0.886697
vn 0.196736 -0.500033 0.843363
v -0.618463 1.239715 0.862947
vn 0.326378 -0.397020 0.857818
v -0.578463 1.279714 0.877175
vn 0.213120 -0.281542 0.935582
v -0.550220 1.319714 0.883107
vn -0.235562 0.960061 0.150975
v -0.578461 1.627055 0.842950
vn -0.511240 0.849223 0.132112
v -0.654164 1.599710 0.842951
vn -0.192527 0.888009 0.417580
v -0.578461 1.624332 0.882950
vn 0.211424 0.773570 0.597402
v -0.638462 1.596929 0.882951
vn -0.446783 0.894641 0.001484
v -0.658461 1.597475 0.842950
vn -0.266562 0.962411 0.052065
v -0.698461 1.578277 0.842951
vn 0.954502 -0.161629 0.250604
v -0.638463 1.773773 0.822945
vn 0.039882 0.010792 0.999146
v -0.638491 1.819709 0.821982
vn -0.112477 0.313691 0.942840
v -0.678461 2.439713 0.868720
vn -0.105180 0.617030 0.779879
v -0.638461 2.459711 0.862960
vn 0.783083 -0.459549 0.419041
v -0.658463 1.773696 0.862950
vn -0.003533 0.170404 0.985368
v -0.678460 1.819713 0.905244
vn 0.810559 -0.212388 0.545788
v -0.646950 1.799713 0.882951
vn -0.025380 0.305454 0.951869
v -0.518462 2.459724 0.867302
vn 0.376358 -0.533124 0.757716
v -0.578460 1.259710 0.861613
vn 0.577149 0.216502 0.787417
v -0.640079 1.819711 0.821982
vn 0.920629 0.268049 0.283886
v -0.640302 1.819713 0.862951
vn 0.272437 -0.019493 0.961976
v -0.378471 1.879714 0.809322
vn 0.439419 -0.456941 0.773380
v -0.418461 1.779719 0.810175
vn 0.532125 -0.165753 0.830282
v -0.376749 1.839716 0.804421
vn 0.793378 -0.429523 0.431348
v -0.387209 1.799716 0.804516
vn 0.341357 -0.086713 0.935925
v -0.370085 1.859716 0.804346
vn 0.485039 0.622542 0.614148
v -0.418461 2.482899 0.862949
vn 0.827441 -0.151789 0.540649
v -0.404787 2.459714 0.862948
vn 0.196687 0.972116 0.127692
v -0.558461 1.631254 0.842951
vn 0.182928 0.927418 -0.326240
v -0.498463 2.988185 0.782951
vn -0.243038 0.480257 0.842785
v -0.578463 1.619712 0.890162
vn 0.164449 0.870797 -0.463325
v -0.558465 2.950049 0.742953
vn 0.281768 0.914156 -0.291421
v -0.594429 2.959712 0.742957
vn 0.258551 0.802697 -0.537429
v -0.498462 2.939713 0.742950
vn 0.755388 0.429589 -0.494815
v -0.498462 2.956092 0.762949
vn 0.182776 0.119417 0.975875
v -0.478496 1.459710 0.877144
vn 0.729524 0.216658 0.648733
v -0.485376 1.539716 0.863169
vn 0.390047 0.625744 0.675505
v -0.538434 1.619715 0.876446
vn 0.343056 -0.296608 0.891255
v -0.458483 1.359719 0.871713
vn 0.801542 0.205495 0.561518
v -0.478457 1.579713 0.868368
vn 0.219854 0.578340 0.785613
v -0.458443 1.481941 0.863043
vn 0.584953 -0.513526 0.627791
v -0.438460 1.759712 0.801776
vn 0.413737 -0.134139 0.900460
v -0.478460 1.679713 0.801138
vn 0.611163 -0.278822 0.740768
v -0.438460 1.719711 0.797014
vn -0.031631 -0.256452 0.966039
v -0.498465 1.639715 0.802931
vn 0.534016 -0.113622 0.837805
v -0.478466 1.619716 0.799616
vn 0.159876 0.857060 0.489784
v -0.438462 2.493017 0.842952
vn 0.192545 0.769462 0.608978
v -0.438462 2.499715 0.832518
vn 0.083618 0.995054 -0.053632
v -0.578459 2.944239 0.242948
vn 0.245632 0.967096 -0.066253
v -0.521270 2.939704 0.222952
vn 0.391793 0.378954 0.838387
v -0.478462 2.941021 0.062948
vn 0.650680 0.743051 -0.156493
v -0.565120 1.159716 0.422951
vn 0.631046 0.766153 -0.121616
v -0.558473 1.166532 0.482954
vn 0.249832 -0.544865 0.800442
v -0.518456 1.259706 0.833234
vn 0.567380 -0.644185 0.512939
v -0.438456 1.359707 0.855029
vn 0.814797 -0.305953 0.492442
v -0.417212 1.379717 0.862966
vn 0.470049 -0.188413 0.862296
v -0.458463 2.899713 0.057469
vn 0.516975 0.057266 0.854083
v -0.464096 2.919715 0.062932
vn 0.429160 0.901967 -0.047720
v -0.578464 2.951798 0.602951
vn 0.041712 0.857165 0.513351
v -0.547628 2.939706 0.622951
vn 0.982183 -0.127183 -0.138349
v -0.519492 2.919715 0.642951
vn 0.486491 0.872902 -0.037005
v -0.538461 1.622490 0.862950
vn -0.060028 0.473512 0.878740
v -0.258463 2.959710 0.052837
vn 0.623666 -0.493611 0.606126
v -0.518461 2.879714 0.078041
vn 0.524630 -0.417291 0.742045
v -0.498462 2.899713 0.079273
vn 0.230214 0.973114 0.007173
v -0.567769 2.959669 0.362952
vn 0.474540 0.880233 0.001422
v -0.518463 2.937318 0.482950
vn 0.325981 0.944848 0.031603
v -0.578469 2.946565 0.562948
vn -0.199431 0.974667 -0.101253
v -0.498464 2.927523 0.542950
vn 0.126656 0.986931 0.099628
v -0.518458 2.922632 0.582952
vn 0.465053 0.857740 -0.219108
v -0.478461 2.939713 0.304115
vn 0.736951 0.674251 0.047834
v -0.467595 2.939721 0.322952
vn 0.475453 0.670039 -0.570081
v -0.478464 2.926889 0.522949
vn 0.420641 0.886796 -0.191450
v -0.498465 2.937971 0.262952
vn 0.550541 0.073394 0.831575
v -0.498461 2.919717 0.613579
vn -0.285967 0.869009 0.403789
v -0.498462 2.925900 0.582951
vn -0.192279 -0.186087 0.963535
v -0.478461 2.919714 0.607926
vn 0.962355 0.148556 0.227605
v -0.408845 1.439713 0.862942
vn 0.565959 0.726866 0.389045
v -0.438458 1.485224 0.862974
vn 0.711482 0.607120 -0.353833
v -0.503345 1.579713 0.842951
vn 0.822703 0.480798 0.303303
v -0.498462 1.572386 0.822951
vn 0.929307 0.211073 -0.303046
v -0.478461 1.579713 0.860219
vn 0.931725 0.286257 -0.223484
v -0.492892 1.559713 0.842950
vn 0.167611 -0.600372 0.781959
v -0.418651 2.438829 0.822964
vn 0.689586 -0.151247 0.708234
v -0.514411 2.919713 0.622951
vn 0.694851 -0.636460 0.334816
v -0.458462 2.919714 0.602951
vn 0.315334 0.407233 0.857162
v -0.458462 2.939713 0.616546
vn 0.424202 0.848569 -0.316202
v -0.473368 2.919716 0.722950
vn 0.170935 -0.962789 -0.209328
v -0.438465 3.184040 0.322940
vn 0.169349 -0.953907 -0.247754
v -0.433824 3.179668 0.342946
vn -0.069092 -0.542354 -0.837305
v -0.518478 1.559712 0.782977
vn 0.778409 0.141575 -0.611584
v -0.495749 1.519713 0.802954
vn 0.506366 0.168671 -0.845662
v -0.458467 1.399713 0.820489
vn 0.173158 0.503203 -0.846642
v -0.478472 1.339713 0.802967
vn 0.948848 -0.029576 0.314344
v -0.411586 1.420058 0.862950
vn 0.058746 0.360934 -0.930739
v -0.458468 1.359713 0.819046
vn 0.809101 -0.224339 -0.543164
v -0.498467 1.539713 0.800446
vn 0.874344 -0.009158 0.485221
v -0.489634 1.579713 0.802952
vn 0.912130 -0.040048 0.407940
v -0.478463 1.599712 0.799614
vn 0.959935 0.277239 0.040783
v -0.491482 1.559713 0.822951
vn 0.974034 -0.151647 -0.168112
v -0.506025 2.919707 0.482950
vn 0.772259 -0.475099 -0.421779
v -0.458462 2.919715 0.542951
vn 0.970956 -0.175950 -0.162130
v -0.464664 2.919715 0.302951
vn 0.903487 0.086098 0.419880
v -0.508452 2.919713 0.102951
vn 0.674536 0.097944 0.731716
v -0.493613 2.919713 0.082951
vn 0.927971 0.311480 -0.204571
v -0.498462 2.919712 0.176949
vn 0.995240 -0.039365 -0.089147
v -0.512063 2.919715 0.122951
vn 0.207286 0.599007 -0.773449
v -0.458462 2.968073 0.782948
vn 0.257129 0.756549 -0.601264
v -0.445894 2.919713 0.742952
vn 0.364715 -0.509577 0.779304
v -0.478460 1.259712 0.822953
vn 0.150457 -0.833881 -0.531042
v -0.498461 1.545445 0.782948
vn 0.397555 -0.359502 -0.844221
v -0.498462 1.559713 0.772951
vn 0.805789 0.580365 -0.117814
v -0.458463 1.494756 0.842950
vn 0.894416 0.315567 -0.316919
v -0.483829 1.539713 0.822952
vn -0.966194 0.095956 -0.239294
v -0.488530 1.619713 0.782951
vn -0.157256 0.223102 -0.962027
v -0.498461 1.599713 0.772950
vn 0.451822 -0.136821 -0.881554
v -0.478461 1.619713 0.772952
vn 0.917721 -0.397226 0.000426
v -0.518462 2.906616 0.122951
vn 0.752589 -0.599620 -0.272149
v -0.498463 2.889713 0.202951
vn 0.920721 -0.272515 -0.279299
v -0.488464 2.899714 0.202951
vn -0.004912 0.736922 -0.675960
v -0.478461 2.939713 0.530275
vn 0.897091 0.407982 -0.169642
v -0.450433 2.939713 0.562951
vn -0.549733 0.835338 -0.002058
v -0.494224 2.939713 0.562951
vn 0.886983 -0.300589 -0.350582
v -0.488394 1.559713 0.782951
vn 0.887674 -0.276849 -0.367952
v -0.464226 1.679713 0.782951
vn -0.393651 -0.268506 -0.879172
v -0.498461 1.639713 0.772949
vn 0.508088 -0.061947 -0.859075
v -0.478461 1.679714 0.774339
vn 0.961587 0.024637 -0.273391
v -0.480982 2.919712 0.262951
vn -0.197388 0.979104 -0.048930
v -0.478461 2.949186 0.562951
vn 0.394515 0.812785 0.428648
v -0.458462 2.947391 0.602951
vn -0.001051 0.015188 0.999884
v -0.478465 2.959704 0.808878
vn 0.774211 0.158085 0.612867
v -0.422242 1.359712 0.822949
vn 0.470109 -0.251027 0.846158
v -0.418463 1.279713 0.813284
vn 0.888252 -0.373030 -0.268062
v -0.376312 1.319713 0.802951
vn 0.481490 0.607151 0.632088
v -0.398461 1.359713 0.810286
vn 0.508807 -0.301439 0.806381
v -0.418462 1.259713 0.805807
vn 0.947800 0.247196 0.201417
v -0.376770 1.339713 0.802953
vn 0.617307 -0.783338 0.072890
v -0.428007 1.359713 0.842951
vn -0.034368 0.525076 -0.850361
v -0.418462 1.339713 0.774954
vn 0.097594 0.905385 -0.413224
v -0.418462 1.365491 0.802952
vn 0.412694 0.898044 -0.152319
v -0.398462 1.362704 0.802951
vn 0.451281 0.240817 -0.859275
v -0.398462 1.339713 0.776930
vn 0.723870 -0.136262 -0.676346
v -0.398462 1.819712 0.775699
vn 0.803838 -0.304989 -0.510711
v -0.391185 1.799712 0.782945
vn 0.691641 -0.445134 -0.568761
v -0.428918 1.759712 0.782946
vn 0.854977 -0.292735 -0.428160
v -0.429649 1.719713 0.782950
vn 0.071063 0.514860 -0.854324
v -0.438462 1.379713 0.814015
vn 0.798584 0.485901 -0.355196
v -0.429594 1.379713 0.822951
vn 0.373256 -0.265587 0.888900
v -0.415517 2.439713 0.822971
vn 0.867275 -0.215243 -0.448892
v -0.391447 1.299713 0.782951
vn 0.829049 -0.376827 0.413134
v -0.415609 1.259713 0.802951
vn 0.927069 -0.299044 0.226089
v -0.378448 1.317686 0.803474
vn -0.086933 0.952538 0.291743
v -0.218460 2.954138 0.082949
vn -0.086933 0.952538 0.291744
v -0.218463 2.959715 0.064739
# 567 vertices, 0 vertices normals


usemtl material_0
vt 0.953633 0.021365
vt 0.956190 0.020159
vt 0.955952 0.017274
f 52/1/52 103/2/103 104/3/104
vt 0.833793 0.011754
vt 0.840792 0.005824
vt 0.821861 0.002829
f 81/4/81 182/5/182 183/6/183
vt 0.820533 0.014893
f 183/6/183 80/7/80 81/4/81
vt 0.817468 0.010577
f 183/6/183 175/8/175 80/7/80
vt 0.837098 0.013830
f 81/4/81 184/9/184 182/5/182
vt 0.817225 0.012769
f 175/8/175 181/10/181 80/7/80
vt 0.849901 0.014158
vt 0.847359 0.005705
f 247/11/247 214/12/214 182/5/182
f 182/5/182 184/9/184 247/11/247
vt 0.996609 0.182861
vt 0.989453 0.178724
vt 0.997000 0.169756
f 224/13/224 223/14/223 257/15/257
vt 0.989014 0.170292
f 223/14/223 258/16/258 257/15/257
vt 0.864017 0.002984
vt 0.859989 0.011491
f 215/17/215 214/12/214 40/18/40
f 214/12/214 247/11/247 40/18/40
vt 0.895264 0.234281
vt 0.899104 0.231221
vt 0.903628 0.223171
f 265/19/265 267/20/267 266/21/266
vt 0.853103 0.014269
f 247/11/247 268/22/268 40/18/40
vt 0.856561 0.014893
f 268/22/268 39/23/39 40/18/40
vt 0.898460 0.234811
f 265/19/265 269/24/269 267/20/267
vt 0.991650 0.153328
vt 0.995575 0.150912
vt 0.997829 0.162662
f 273/25/273 274/26/274 275/27/275
vt 0.990056 0.167606
f 275/27/275 276/28/276 273/25/273
vt 0.997025 0.165674
f 275/27/275 277/29/277 276/28/276
f 277/29/277 257/15/257 276/28/276
f 257/15/257 258/16/258 276/28/276
vt 0.989014 0.139220
f 274/26/274 273/25/273 88/30/88
vt 0.962888 0.202393
vt 0.963909 0.197259
vt 0.959891 0.201056
f 320/31/320 321/32/321 46/33/46
vt 0.960770 0.197120
f 321/32/321 322/34/322 46/33/46
vt 0.957764 0.197769
f 322/34/322 44/35/44 46/33/46
vt 0.969925 0.013509
vt 0.951533 0.014790
f 104/3/104 324/36/324 288/37/288
vt 0.964599 0.021008
f 104/3/104 327/38/327 324/36/324
vt 0.946364 0.021644
f 288/37/288 328/39/328 104/3/104
vt 0.934326 0.020707
f 288/37/288 287/40/287 328/39/328
vt 0.939096 0.024572
f 287/40/287 329/41/329 328/39/328
f 328/39/328 52/1/52 104/3/104
vt 0.971464 0.020329
f 327/38/327 330/42/330 324/36/324
vt 0.975956 0.019425
f 330/42/330 331/43/331 324/36/324
vt 0.977541 0.013573
f 331/43/331 332/44/332 324/36/324
vt 0.964823 0.021539
f 327/38/327 333/45/333 330/42/330
vt 0.978413 0.013519
f 331/43/331 334/46/334 332/44/332
vt 0.905484 0.232703
vt 0.904846 0.236063
vt 0.914439 0.237549
f 337/47/337 338/48/338 339/49/339
f 337/47/337 269/24/269 338/48/338
f 337/47/337 267/20/267 269/24/269
f 337/47/337 266/21/266 267/20/267
vt 0.906645 0.223190
f 337/47/337 272/50/272 266/21/266
vt 0.944828 0.026508
vt 0.946508 0.030423
vt 0.951069 0.029976
f 100/51/100 101/52/101 344/53/344
f 344/53/344 328/39/328 100/51/100
f 328/39/328 329/41/329 100/51/100
vt 0.941964 0.030518
f 329/41/329 102/54/102 100/51/100
vt 0.920701 0.233881
vt 0.917039 0.222340
f 337/47/337 345/55/345 270/56/270
f 270/56/270 272/50/272 337/47/337
vt 0.922779 0.227257
f 345/55/345 346/57/346 270/56/270
vt 0.925346 0.234148
f 345/55/345 347/58/347 346/57/346
vt 0.956314 0.026666
f 52/1/52 344/53/344 108/59/108
f 52/1/52 328/39/328 344/53/344
vt 0.958080 0.024677
f 108/59/108 107/60/107 52/1/52
f 107/60/107 103/2/103 52/1/52
vt 0.959283 0.019484
f 107/60/107 356/61/356 103/2/103
f 104/3/104 103/2/103 356/61/356
vt 0.963794 0.026279
f 107/60/107 363/62/363 327/38/327
f 327/38/327 356/61/356 107/60/107
vt 0.961025 0.028357
f 107/60/107 45/63/45 363/62/363
f 363/62/363 333/45/333 327/38/327
vt 0.997673 0.568796
vt 0.996826 0.569580
vt 0.996826 0.565128
f 323/64/323 322/65/322 376/66/376
f 45/63/45 108/59/108 344/53/344
vt 0.967693 0.026718
f 383/67/383 363/62/363 45/63/45
vt 0.921695 0.205791
vt 0.904447 0.213693
vt 0.940247 0.217053
f 389/68/389 390/69/390 391/70/391
vt 0.928102 0.206542
f 391/70/391 256/71/256 389/68/389
vt 0.901487 0.208205
f 389/68/389 392/72/392 390/69/390
vt 0.954303 0.207801
f 391/70/391 109/73/109 256/71/256
vt 0.947270 0.212814
f 391/70/391 393/74/393 109/73/109
vt 0.957646 0.208897
f 393/74/393 110/75/110 109/73/109
vt 0.970934 0.200143
vt 0.967777 0.193581
f 321/32/321 402/76/402 403/77/403
f 321/32/321 320/31/320 402/76/402
vt 0.964073 0.190686
f 403/77/403 396/78/396 321/32/321
vt 0.960641 0.191227
f 396/78/396 378/79/378 321/32/321
vt 0.966536 0.024790
f 333/45/333 404/80/404 330/42/330
f 333/45/333 363/62/363 404/80/404
f 363/62/363 383/67/383 404/80/404
vt 0.974272 0.022020
f 330/42/330 404/80/404 405/81/405
vt 0.973665 0.026417
f 404/80/404 383/67/383 386/82/386
f 386/82/386 405/81/405 404/80/404
vt 0.908432 0.581299
vt 0.903801 0.580617
vt 0.903076 0.581299
f 386/83/386 406/84/406 405/85/405
vt 0.981011 0.023576
f 407/86/407 334/46/334 331/43/331
vt 0.987011 0.017483
f 407/86/407 408/87/408 334/46/334
vt 0.985515 0.024298
f 407/86/407 409/88/409 408/87/408
vt 0.974632 0.022947
f 331/43/331 406/89/406 407/86/407
vt 0.984902 0.025822
f 407/86/407 410/90/410 409/88/409
f 331/43/331 405/81/405 406/89/406
vt 0.950218 0.218018
f 393/74/393 391/70/391 411/91/411
vt 0.953642 0.216290
f 411/91/411 339/92/339 393/74/393
vt 0.981599 0.196319
vt 0.991971 0.192734
vt 0.978880 0.193199
f 116/93/116 418/94/418 419/95/419
vt 0.992026 0.199127
f 116/93/116 420/96/420 418/94/418
vt 0.981356 0.199737
f 116/93/116 421/97/421 420/96/420
vt 0.978102 0.193254
f 419/95/419 422/98/422 116/93/116
vt 0.974297 0.200099
f 422/98/422 23/99/23 116/93/116
vt 0.970940 0.193699
f 422/98/422 423/100/423 23/99/23
f 423/100/423 402/76/402 23/99/23
f 423/100/423 403/77/403 402/76/402
vt 0.723389 0.010986
vt 0.741990 0.010986
vt 0.731497 0.004440
f 395/101/395 424/102/424 113/103/113
vt 0.957764 0.186768
vt 0.983824 0.186768
vt 0.976360 0.186319
f 395/104/395 425/105/425 424/106/424
vt 0.926118 0.227075
vt 0.928417 0.235677
vt 0.935436 0.233758
f 412/107/412 426/108/426 427/109/427
f 412/107/412 347/58/347 426/108/426
f 412/107/412 346/57/346 347/58/347
vt 0.979876 0.030518
f 407/86/407 429/110/429 410/90/410
vt 0.975465 0.027864
f 407/86/407 385/111/385 429/110/429
vt 0.954611 0.237007
vt 0.939377 0.227243
f 427/109/427 431/112/431 413/113/413
f 413/113/413 412/107/412 427/109/427
vt 0.913463 0.218018
f 391/70/391 390/69/390 431/114/431
vt 0.927824 0.237549
f 431/112/431 427/109/427 391/115/391
vt 0.896784 0.217817
f 390/69/390 440/116/440 431/114/431
vt 0.977798 0.190283
f 394/117/394 422/98/422 419/95/419
vt 0.981836 0.189335
f 419/95/419 397/118/397 394/117/394
f 397/118/397 419/95/419 418/94/418
vt 0.995347 0.189458
f 418/94/418 399/119/399 397/118/397
vt 0.995273 0.192739
f 418/94/418 442/120/442 399/119/399
vt 0.986695 0.202393
vt 0.991823 0.200454
f 420/96/420 353/121/353 444/122/444
vt 0.847300 0.522705
vt 0.813754 0.520845
vt 0.809326 0.522705
f 398/123/398 455/124/455 436/125/436
vt 0.956000 0.226427
f 413/113/413 431/112/431 131/126/131
vt 0.971316 0.236282
vt 0.968492 0.232331
f 431/112/431 440/127/440 460/128/460
vt 0.968730 0.230356
vt 0.959147 0.227914
f 460/128/460 461/129/461 68/130/68
vt 0.997934 0.198663
f 442/120/442 420/96/420 451/131/451
f 442/120/442 418/94/418 420/96/420
vt 0.998007 0.196428
f 451/131/451 475/132/475 442/120/442
f 420/96/420 444/122/444 451/131/451
vt 0.686016 0.522705
vt 0.695936 0.520984
vt 0.676514 0.521514
f 530/133/530 538/134/538 537/135/537
vt 0.695111 0.517501
vt 0.686191 0.518558
f 538/134/538 456/136/456 459/137/459
f 459/137/459 537/135/537 538/134/538
vt 0.996826 0.571542
vt 0.997457 0.574871
vt 0.996826 0.577393
f 545/138/545 551/139/551 468/140/468
vt 0.703676 0.519436
f 538/134/538 457/141/457 456/136/456
vt 0.704168 0.522029
f 538/134/538 559/142/559 457/141/457
vt 0.897626 0.208407
vt 0.895264 0.215320
f 562/143/562 441/144/441 390/69/390
vt 0.710156 0.521516
vt 0.709647 0.518148
f 558/145/558 455/146/455 457/141/457
f 457/141/457 559/142/559 558/145/558
vt 0.713999 0.517489
vt 0.718598 0.522705
vt 0.719004 0.519533
f 436/147/436 557/148/557 438/149/438
f 436/147/436 558/145/558 557/148/557
f 436/147/436 455/146/455 558/145/558
vt 0.970811 0.234135
f 461/129/461 460/128/460 29/150/29
vt 0.898153 0.208379
f 390/69/390 392/72/392 497/151/497
f 390/69/390 497/151/497 562/143/562
f 431/112/431 460/128/460 68/130/68
f 431/112/431 68/130/68 131/126/131
vt 0.917886 0.235530
f 339/49/339 411/152/411 337/47/337
f 411/152/411 345/55/345 337/47/337
vt 0.943991 0.581299
vt 0.941353 0.579127
vt 0.938232 0.581299
f 217/153/217 190/154/190 188/155/188
vt 0.587649 0.863295
vt 0.587963 0.879525
vt 0.591166 0.876173
f 80/156/80 34/157/34 81/158/81
vt 0.139074 0.019045
vt 0.138961 0.026547
vt 0.142082 0.021398
f 55/159/55 12/160/12 57/161/57
vt 0.348389 0.702393
vt 0.355733 0.702393
vt 0.351479 0.700544
f 13/162/13 55/163/55 57/164/57
vt 0.173925 0.057861
vt 0.172299 0.054484
vt 0.169860 0.057861
f 82/165/82 15/166/15 35/167/35
vt 0.702056 0.708852
vt 0.699524 0.705806
vt 0.697784 0.710205
f 38/168/38 15/169/15 17/170/17
vt 0.153076 0.048374
vt 0.155467 0.050049
vt 0.157641 0.047524
f 39/171/39 18/172/18 40/173/40
vt 0.159947 0.050049
f 83/174/83 40/173/40 18/172/18
vt 0.737137 0.727932
vt 0.734823 0.722513
vt 0.734156 0.726764
f 63/175/63 86/176/86 87/177/87
vt 0.746826 0.693403
vt 0.753691 0.695012
vt 0.749783 0.698391
f 41/178/41 88/179/88 89/180/89
vt 0.442196 0.921530
vt 0.438925 0.921668
vt 0.442250 0.924819
f 90/181/90 65/182/65 91/183/91
vt 0.416246 0.925136
vt 0.399888 0.941631
vt 0.406778 0.941642
f 92/184/92 67/185/67 93/186/93
vt 0.181930 0.448486
vt 0.179983 0.444920
vt 0.177899 0.448486
f 42/187/42 94/188/94 95/189/95
vt 0.176514 0.444800
f 95/189/95 94/188/94 43/190/43
vt 0.904325 0.698486
vt 0.903403 0.694906
vt 0.900076 0.698486
f 43/191/43 94/192/94 97/193/97
vt 0.531982 0.698486
vt 0.538813 0.698486
vt 0.535323 0.695223
f 98/194/98 46/195/46 99/196/99
vt 0.168701 0.128174
vt 0.173345 0.128174
vt 0.171347 0.124818
f 100/197/100 47/198/47 101/199/101
vt 0.894038 0.694244
vt 0.891357 0.698486
vt 0.895928 0.698486
f 100/200/100 102/201/102 47/202/47
vt 0.458749 0.934052
vt 0.454222 0.934110
vt 0.455543 0.937434
f 44/203/44 99/204/99 46/205/46
vt 0.176514 0.518799
vt 0.180204 0.518799
vt 0.179075 0.513913
f 107/206/107 108/207/108 45/208/45
vt 0.592302 0.934558
vt 0.591363 0.931365
vt 0.588987 0.931366
f 109/209/109 110/210/110 49/211/49
vt 0.128336 0.291009
vt 0.125732 0.296143
vt 0.145883 0.296143
f 111/212/111 112/213/112 51/214/51
vt 0.149170 0.303955
vt 0.149170 0.299215
vt 0.151480 0.301536
f 113/215/113 114/216/114 22/217/22
vt 0.926920 0.717569
vt 0.921818 0.714718
vt 0.918701 0.718017
f 23/218/23 115/219/115 116/220/116
vt 0.180107 0.429646
vt 0.177362 0.432861
vt 0.181559 0.432861
f 119/221/119 58/222/58 120/223/120
vt 0.176514 0.428751
f 119/221/119 121/224/121 58/222/58
vt 0.430178 0.973716
vt 0.429994 0.963991
vt 0.426795 0.967305
f 122/225/122 120/226/120 59/227/59
vt 0.433301 0.967191
f 120/226/120 122/225/122 123/228/123
vt 0.433254 0.963871
f 123/228/123 119/229/119 120/226/120
vt 0.173311 0.112549
vt 0.170871 0.109178
vt 0.168701 0.112549
f 121/230/121 119/231/119 123/232/123
vt 0.123350 0.322086
vt 0.120201 0.325604
vt 0.120550 0.321909
f 129/233/129 50/234/50 130/235/130
vt 0.612569 0.973241
vt 0.612347 0.976558
vt 0.615880 0.976435
f 131/236/131 68/237/68 132/238/132
vt 0.847466 0.710205
vt 0.839615 0.706866
vt 0.840955 0.710064
f 70/239/70 137/240/137 138/241/138
vt 0.113038 0.431689
vt 0.114145 0.431487
vt 0.112903 0.432127
f 27/242/27 139/243/139 140/244/140
vt 0.113310 0.432232
f 139/243/139 71/245/71 140/244/140
vt 0.465245 0.710205
vt 0.468910 0.709617
vt 0.467990 0.706648
f 151/246/151 152/247/152 29/248/29
vt 0.136538 0.163847
vt 0.140303 0.162883
vt 0.134600 0.159920
f 153/249/153 154/250/154 30/251/30
vt 0.597367 0.856228
vt 0.613761 0.862418
vt 0.616898 0.855816
f 169/252/169 170/253/170 159/254/159
vt 0.620214 0.859212
f 170/253/170 172/255/172 159/254/159
vt 0.473630 0.855321
vt 0.457700 0.875229
vt 0.516229 0.870865
f 167/256/167 173/257/173 75/258/75
vt 0.441024 0.852664
vt 0.437993 0.865819
f 168/259/168 76/260/76 173/257/173
f 173/257/173 167/256/167 168/259/168
vt 0.454444 0.875286
f 76/260/76 174/261/174 173/257/173
vt 0.558372 0.860207
vt 0.562097 0.886277
vt 0.571562 0.869791
f 166/262/166 176/263/176 177/264/177
vt 0.542448 0.880138
f 166/262/166 178/265/178 176/263/176
vt 0.526011 0.871605
f 166/262/166 179/266/179 178/265/178
vt 0.568135 0.860035
f 177/264/177 171/267/171 166/262/166
vt 0.428464 0.879061
vt 0.444743 0.878722
f 185/268/185 186/269/186 76/260/76
vt 0.428158 0.862795
f 76/260/76 77/270/77 185/268/185
vt 0.441550 0.882040
f 185/268/185 187/271/187 186/269/186
vt 0.420275 0.872720
f 77/270/77 188/272/188 185/268/185
f 186/269/186 174/261/174 76/260/76
vt 0.421656 0.862879
f 77/270/77 189/273/189 188/272/188
vt 0.418642 0.875977
f 188/272/188 190/274/190 185/268/185
vt 0.522631 0.864136
f 74/275/74 75/258/75 179/266/179
f 179/266/179 166/262/166 74/275/74
vt 0.581364 0.872973
vt 0.578005 0.866442
f 177/264/177 13/276/13 12/277/12
vt 0.578245 0.879488
f 177/264/177 191/278/191 13/276/13
vt 0.574633 0.859968
f 12/277/12 10/279/10 177/264/177
f 10/279/10 171/267/171 177/264/177
vt 0.582842 0.869691
f 13/276/13 57/280/57 12/277/12
vt 0.577945 0.863185
f 12/277/12 31/281/31 10/279/10
vt 0.132551 0.018609
vt 0.135710 0.026611
f 11/282/11 31/283/31 55/159/55
f 31/283/31 12/160/12 55/159/55
vt 0.597597 0.869317
vt 0.613877 0.868973
f 170/253/170 192/284/192 193/285/193
f 170/253/170 169/252/169 192/284/192
vt 0.610802 0.878818
f 192/284/192 194/286/194 193/285/193
vt 0.601212 0.888810
f 192/284/192 195/287/195 194/286/194
vt 0.614289 0.891834
f 195/287/195 196/288/196 194/286/194
vt 0.620905 0.898244
f 195/287/195 197/289/197 196/288/196
vt 0.633997 0.901239
f 197/289/197 198/290/198 196/288/196
vt 0.164795 0.367515
vt 0.166688 0.370818
vt 0.164795 0.374268
f 208/291/208 209/292/209 188/293/188
vt 0.418456 0.866229
f 188/272/188 189/273/189 208/294/208
vt 0.584353 0.860008
vt 0.584464 0.866581
f 80/156/80 180/295/180 210/296/210
vt 0.587602 0.859973
f 80/156/80 181/297/181 180/295/180
f 210/296/210 34/157/34 80/156/80
vt 0.623576 0.865561
f 170/253/170 193/285/193 211/298/211
f 211/298/211 172/255/172 170/253/170
vt 0.626830 0.865503
f 211/298/211 212/299/212 172/255/172
vt 0.595989 0.882463
f 182/300/182 195/287/195 192/284/192
vt 0.594232 0.863571
f 192/284/192 183/301/183 182/300/182
vt 0.597025 0.888953
f 182/300/182 214/302/214 195/287/195
vt 0.601518 0.905094
f 214/302/214 215/303/215 195/287/195
vt 0.153076 0.146101
vt 0.154679 0.151611
vt 0.158041 0.151001
f 217/304/217 188/305/188 209/306/209
vt 0.159524 0.145746
f 209/306/209 213/307/213 217/304/217
vt 0.588149 0.889279
f 191/278/191 218/308/218 34/157/34
vt 0.699951 0.729207
vt 0.713346 0.729736
vt 0.711984 0.719205
f 191/309/191 219/310/219 218/311/218
f 34/157/34 13/276/13 191/278/191
vt 0.508545 0.710205
vt 0.521969 0.710205
vt 0.516315 0.702614
f 34/312/34 210/313/210 13/314/13
vt 0.522462 0.706632
f 210/313/210 55/315/55 13/314/13
vt 0.408933 0.879440
vt 0.418907 0.892448
vt 0.422123 0.889018
f 220/316/220 221/317/221 222/318/222
vt 0.396383 0.879862
f 220/316/220 14/319/14 221/317/221
vt 0.111368 0.268128
vt 0.116937 0.277331
vt 0.110107 0.282052
f 220/320/220 216/321/216 14/322/14
vt 0.425791 0.895588
f 221/317/221 223/323/223 222/318/222
vt 0.425383 0.888933
f 223/323/223 224/324/224 222/318/222
vt 0.536915 0.932306
f 75/258/75 225/325/225 178/265/178
vt 0.487851 0.920214
f 75/258/75 226/326/226 225/325/225
f 75/258/75 173/257/173 226/326/226
vt 0.458074 0.894728
f 173/257/173 227/327/227 226/326/226
vt 0.569462 0.931702
f 225/325/225 228/328/228 178/265/178
vt 0.517450 0.935926
f 226/326/226 229/329/229 225/325/225
vt 0.497740 0.926531
f 226/326/226 230/330/230 229/329/229
f 178/265/178 179/266/179 75/258/75
vt 0.507684 0.936118
f 230/330/230 231/331/231 229/329/229
vt 0.454757 0.891538
f 173/257/173 232/332/232 227/327/227
f 173/257/173 186/269/186 232/332/232
f 173/257/173 174/261/174 186/269/186
vt 0.581745 0.892429
f 176/263/176 219/333/219 191/278/191
vt 0.585243 0.905392
f 176/263/176 233/334/233 219/333/219
f 191/278/191 177/264/177 176/263/176
vt 0.585116 0.898908
f 233/334/233 234/335/234 219/333/219
vt 0.585059 0.895633
f 234/335/234 235/336/235 219/333/219
vt 0.415703 0.895816
f 35/337/35 221/317/221 14/319/14
vt 0.392669 0.883261
f 14/319/14 242/338/242 35/337/35
vt 0.419020 0.899004
f 35/337/35 38/339/38 221/317/221
vt 0.168701 0.053972
f 35/167/35 15/166/15 38/340/38
f 190/274/190 220/316/220 222/318/222
f 222/318/222 185/268/185 190/274/190
vt 0.415385 0.876049
f 190/274/190 243/341/243 220/316/220
vt 0.435112 0.885368
vt 0.434283 0.888638
f 244/342/244 224/324/224 245/343/245
f 244/342/244 185/268/185 224/324/224
f 185/268/185 222/318/222 224/324/224
vt 0.438310 0.882306
f 185/268/185 244/342/244 246/344/246
vt 0.123951 0.261935
vt 0.121826 0.264893
vt 0.121826 0.251427
f 246/345/246 187/346/187 185/347/185
vt 0.591213 0.879494
vt 0.591461 0.892488
f 184/348/184 218/308/218 247/349/247
f 184/348/184 34/157/34 218/308/218
f 184/348/184 81/158/81 34/157/34
vt 0.633510 0.875205
f 248/350/248 194/286/194 196/288/196
vt 0.402667 0.894636
f 253/351/253 35/337/35 242/338/242
vt 0.412511 0.899121
f 253/351/253 82/352/82 35/337/35
f 176/263/176 228/328/228 233/334/233
f 176/263/176 178/265/178 228/328/228
vt 0.588742 0.918337
f 228/328/228 254/353/254 233/334/233
f 228/328/228 49/211/49 254/353/254
vt 0.576033 0.934860
f 228/328/228 255/354/255 49/211/49
f 255/354/255 109/209/109 49/211/49
vt 0.596046 0.960516
f 255/354/255 256/355/256 109/209/109
vt 0.435324 0.897739
f 257/356/257 245/343/245 224/324/224
vt 0.955684 0.702393
vt 0.949137 0.701273
vt 0.946045 0.702393
f 257/357/257 259/358/259 245/359/245
vt 0.627243 0.888350
f 157/360/157 196/288/196 198/290/198
vt 0.428965 0.908592
vt 0.432095 0.901360
f 223/323/223 262/361/262 258/362/258
vt 0.415830 0.902297
f 223/323/223 17/363/17 262/361/262
vt 0.709264 0.710205
f 223/364/223 38/168/38 17/170/17
vt 0.435467 0.908504
f 262/361/262 263/365/263 258/362/258
f 223/323/223 221/317/221 38/339/38
vt 0.717276 0.727862
vt 0.715059 0.721449
f 219/310/219 235/366/235 264/367/264
f 264/367/264 218/311/218 219/310/219
vt 0.715922 0.717192
f 264/367/264 247/368/247 218/311/218
vt 0.595147 0.915195
vt 0.605076 0.921300
f 215/303/215 265/369/265 266/370/266
vt 0.594909 0.902138
f 215/303/215 40/371/40 265/369/265
vt 0.149170 0.306471
vt 0.150674 0.309924
vt 0.149170 0.319580
f 40/372/40 83/373/83 265/374/265
vt 0.608578 0.934233
vt 0.608653 0.937508
f 270/375/270 271/376/271 197/289/197
f 197/289/197 266/370/266 270/375/270
f 197/289/197 215/303/215 266/370/266
f 197/289/197 195/287/195 215/303/215
vt 0.603971 0.924529
f 266/370/266 272/377/272 270/375/270
vt 0.474767 0.917234
f 227/327/227 278/378/278 226/326/226
vt 0.451670 0.901434
f 227/327/227 279/379/279 278/378/278
vt 0.448362 0.898203
f 227/327/227 280/380/280 279/379/279
vt 0.586686 0.898910
f 235/336/235 234/335/234 281/381/281
vt 0.720875 0.726128
f 281/382/281 264/367/264 235/366/235
vt 0.719082 0.717898
f 268/383/268 264/367/264 281/382/281
f 268/383/268 247/368/247 264/367/264
vt 0.442130 0.918296
vt 0.432428 0.921726
f 282/384/282 263/365/263 283/385/283
vt 0.435350 0.901299
f 282/384/282 276/386/276 263/365/263
f 283/385/283 65/182/65 282/384/282
f 276/386/276 258/362/258 263/365/263
f 65/182/65 90/181/90 282/384/282
vt 0.448663 0.918053
vt 0.448484 0.907329
f 282/384/282 284/387/284 273/388/273
f 273/388/273 276/386/276 282/384/282
vt 0.458438 0.917809
f 284/387/284 88/389/88 273/388/273
vt 0.458491 0.921107
f 284/387/284 285/390/285 88/389/88
vt 0.441890 0.900672
vt 0.451755 0.906912
f 275/391/275 274/392/274 279/379/279
f 279/379/279 280/380/280 275/391/275
vt 0.726770 0.729736
vt 0.725377 0.719754
f 233/393/233 86/176/86 18/394/18
f 233/393/233 87/177/87 86/176/86
f 18/394/18 281/382/281 233/393/233
vt 0.729339 0.717316
f 86/176/86 83/395/83 18/394/18
vt 0.589623 0.911872
f 233/334/233 254/353/254 87/396/87
f 18/394/18 268/383/268 281/382/281
vt 0.738820 0.719438
f 86/176/86 265/397/265 83/395/83
f 281/381/281 234/335/234 233/334/233
vt 0.585426 0.694580
vt 0.582248 0.693625
vt 0.578857 0.694580
f 18/398/18 39/399/39 268/400/268
f 279/379/279 274/392/274 88/389/88
f 88/389/88 278/378/278 279/379/279
vt 0.465014 0.920655
f 88/389/88 41/401/41 278/378/278
vt 0.465218 0.920892
f 41/401/41 287/402/287 278/378/278
vt 0.481448 0.926933
f 287/402/287 288/403/288 278/378/278
vt 0.617362 0.968266
vt 0.637069 0.977657
vt 0.632715 0.962278
f 54/404/54 9/405/9 291/406/291
vt 0.612989 0.996020
vt 0.626072 0.999025
f 132/238/132 294/407/294 149/408/149
vt 0.612267 0.956972
f 295/409/295 131/236/131 132/238/132
vt 0.637331 0.904416
f 260/410/260 198/290/198 197/289/197
vt 0.613056 0.999268
f 294/407/294 296/411/296 149/408/149
f 262/361/262 283/385/283 263/365/263
vt 0.423596 0.921757
f 262/361/262 304/412/304 283/385/283
vt 0.429303 0.928254
f 304/412/304 305/413/305 283/385/283
vt 0.452163 0.931004
vt 0.458229 0.927620
f 309/414/309 310/415/310 285/390/285
f 285/390/285 284/387/284 309/414/309
vt 0.462322 0.924289
f 310/415/310 311/416/311 285/390/285
vt 0.465097 0.926066
f 310/415/310 312/417/312 311/416/311
vt 0.465181 0.930761
f 310/415/310 313/418/313 312/417/312
vt 0.741129 0.724183
f 86/176/86 63/175/63 314/419/314
f 314/419/314 265/397/265 86/176/86
vt 0.740543 0.727835
f 63/175/63 315/420/315 314/419/314
vt 0.741988 0.719986
f 314/419/314 269/421/269 265/397/265
vt 0.007156 0.582021
vt 0.036519 0.584627
vt 0.039765 0.584069
f 316/422/316 317/423/317 308/424/308
vt 0.003996 0.585419
f 316/422/316 318/425/318 317/423/317
f 91/183/91 309/414/309 284/387/284
vt 0.449012 0.937667
f 91/183/91 319/426/319 309/414/309
f 284/387/284 90/181/90 91/183/91
f 319/426/319 46/205/46 309/414/309
f 284/387/284 282/384/282 90/181/90
vt 0.164795 0.472436
vt 0.165980 0.479162
vt 0.164795 0.479736
f 46/427/46 98/428/98 309/429/309
vt 0.458651 0.937281
vt 0.458795 0.936137
f 322/430/322 323/431/323 44/203/44
vt 0.461737 0.921090
f 89/432/89 285/390/285 311/416/311
f 89/432/89 88/389/88 285/390/285
f 41/401/41 311/416/311 287/402/287
vt 0.746826 0.698486
f 41/178/41 89/180/89 311/433/311
vt 0.497890 0.935272
f 288/403/288 324/434/324 230/330/230
f 230/330/230 226/326/226 288/403/288
f 226/326/226 278/378/278 288/403/288
vt 0.413284 0.941526
f 92/184/92 325/435/325 305/413/305
f 92/184/92 93/186/93 325/435/325
f 305/413/305 304/412/304 92/184/92
vt 0.439121 0.931362
f 43/436/43 319/426/319 91/183/91
vt 0.435934 0.934647
f 43/436/43 97/437/97 319/426/319
vt 0.435805 0.928173
f 91/183/91 95/438/95 43/436/43
f 91/183/91 65/182/65 95/438/95
f 65/182/65 283/385/283 95/438/95
f 283/385/283 305/413/305 95/438/95
vt 0.432616 0.931463
f 305/413/305 42/439/42 95/438/95
vt 0.432681 0.934699
f 305/413/305 326/440/326 42/439/42
vt 0.468334 0.925196
f 287/402/287 312/417/312 329/441/329
f 287/402/287 311/416/311 312/417/312
vt 0.744375 0.723343
f 335/442/335 269/421/269 314/419/314
vt 0.743960 0.725798
f 314/419/314 336/443/336 335/442/335
vt 0.748336 0.720906
f 269/421/269 335/442/335 338/444/338
vt 0.453355 0.930965
f 310/415/310 309/414/309 98/445/98
vt 0.476793 0.695289
vt 0.473389 0.698486
vt 0.481767 0.698486
f 98/446/98 99/447/99 310/448/310
vt 0.462003 0.933998
f 310/415/310 343/449/343 313/418/313
f 310/415/310 44/203/44 343/449/343
f 310/415/310 99/204/99 44/203/44
f 44/203/44 323/431/323 343/449/343
vt 0.327736 0.698486
vt 0.322925 0.694256
vt 0.321045 0.698486
f 329/450/329 313/451/313 102/452/102
f 329/441/329 312/417/312 313/418/313
vt 0.433177 0.960694
vt 0.455648 0.944016
f 58/453/58 352/454/352 326/440/326
vt 0.436494 0.963885
f 58/453/58 121/455/121 352/454/352
vt 0.462532 0.963390
f 121/455/121 353/456/353 352/454/352
f 326/440/326 325/435/325 58/453/58
f 352/454/352 319/426/319 326/440/326
f 326/440/326 305/413/305 325/435/325
vt 0.462405 0.956904
f 353/456/353 354/457/354 352/454/352
f 319/426/319 97/437/97 326/440/326
vt 0.265173 0.710205
vt 0.263939 0.706161
vt 0.250732 0.710205
f 354/458/354 355/459/355 352/460/352
f 97/437/97 42/439/42 326/440/326
vt 0.899170 0.694443
f 97/193/97 94/192/94 42/461/42
vt 0.092195 0.220219
vt 0.085995 0.232559
vt 0.086858 0.225303
f 360/462/360 344/463/344 47/464/47
vt 0.092048 0.243704
f 360/462/360 361/465/361 344/463/344
vt 0.088276 0.249391
f 361/465/361 362/466/362 344/463/344
vt 0.086469 0.220860
f 47/464/47 313/467/313 360/462/360
vt 0.084175 0.228094
f 344/463/344 101/468/101 47/464/47
vt 0.090784 0.219697
f 313/467/313 343/469/343 360/462/360
vt 0.082764 0.223635
f 47/464/47 102/470/102 313/467/313
vt 0.658651 0.698486
vt 0.654440 0.696195
vt 0.649170 0.698486
f 104/471/104 356/472/356 327/473/327
vt 0.524506 0.965118
vt 0.543666 0.945250
f 229/329/229 364/474/364 365/475/365
f 365/475/365 225/325/225 229/329/229
vt 0.550908 0.984150
f 364/474/364 366/476/366 365/475/365
f 228/328/228 365/475/365 255/354/255
f 228/328/228 225/325/225 365/475/365
vt 0.180278 0.573486
vt 0.177066 0.570096
vt 0.176514 0.573486
f 376/477/376 360/478/360 323/479/323
vt 0.093340 0.217945
f 360/462/360 343/469/343 323/480/323
vt 0.462087 0.935856
vt 0.458852 0.937103
vt 0.460732 0.937055
f 377/481/377 378/482/378 379/483/379
vt 0.172190 0.182861
vt 0.169363 0.178782
vt 0.168701 0.182861
f 377/484/377 376/485/376 378/486/378
vt 0.462114 0.937005
f 379/483/379 380/487/380 377/481/377
vt 0.098486 0.239975
f 360/462/360 381/488/381 361/465/361
vt 0.098455 0.220842
f 360/462/360 377/489/377 381/488/381
vt 0.095036 0.243538
f 381/488/381 114/490/114 361/465/361
vt 0.095575 0.217049
f 360/462/360 376/491/376 377/489/377
vt 0.097890 0.243888
f 381/488/381 22/492/22 114/490/114
vt 0.472008 0.943288
f 377/481/377 380/487/380 382/493/382
vt 0.101155 0.233169
f 382/494/382 381/488/381 377/489/377
vt 0.091977 0.046143
vt 0.076533 0.038966
vt 0.081755 0.045662
f 344/495/344 362/496/362 45/497/45
vt 0.075000 0.045277
f 362/496/362 383/498/383 45/497/45
vt 0.069415 0.037682
f 362/496/362 384/499/384 383/498/383
vt 0.067466 0.042989
f 384/499/384 385/500/385 383/498/383
vt 0.068340 0.046143
f 385/500/385 386/501/386 383/498/383
f 365/475/365 366/476/366 256/355/256
f 256/355/256 255/354/255 365/475/365
vt 0.586954 0.996487
f 366/476/366 387/502/387 256/355/256
vt 0.564180 0.996904
f 366/476/366 388/503/388 387/502/387
vt 0.596173 0.967022
f 387/502/387 389/504/389 256/355/256
vt 0.578857 0.698486
vt 0.589016 0.698486
vt 0.583286 0.697944
f 341/505/341 112/506/112 111/507/111
vt 0.163235 0.460205
vt 0.158517 0.447180
vt 0.153076 0.460205
f 341/508/341 342/509/342 112/510/112
vt 0.464655 0.953254
vt 0.475502 0.956277
f 394/511/394 395/512/395 382/493/382
vt 0.460051 0.940322
f 382/493/382 396/513/396 394/511/394
f 382/493/382 380/487/380 396/513/396
vt 0.468977 0.956007
f 394/511/394 397/514/397 395/512/395
vt 0.475561 0.959533
f 397/514/397 398/515/398 395/512/395
vt 0.471650 0.969396
f 397/514/397 399/516/399 398/515/398
vt 0.472556 0.972590
f 399/516/399 400/517/400 398/515/398
f 380/487/380 379/483/379 396/513/396
vt 0.469750 0.972686
f 399/516/399 401/518/401 400/517/400
f 396/513/396 379/483/379 378/482/378
vt 0.173322 0.026611
vt 0.172074 0.023216
vt 0.168701 0.026611
f 405/519/405 331/520/331 330/521/330
vt 0.509341 0.949160
f 408/522/408 364/474/364 229/329/229
vt 0.505280 0.939476
f 229/329/229 334/523/334 408/522/408
f 229/329/229 231/331/231 334/523/334
vt 0.504474 0.939117
f 231/331/231 332/524/332 334/523/334
vt 0.606231 0.944107
f 412/525/412 295/409/295 271/376/271
vt 0.608994 0.957073
f 412/525/412 413/526/413 295/409/295
vt 0.605433 0.940873
f 271/376/271 346/527/346 412/525/412
f 271/376/271 270/375/270 346/527/346
vt 0.410221 0.951313
f 67/185/67 414/528/414 93/186/93
vt 0.407172 0.961022
f 67/185/67 415/529/415 414/528/414
f 414/528/414 58/453/58 325/435/325
vt 0.413790 0.967474
f 414/528/414 416/530/416 58/453/58
vt 0.420380 0.971975
f 416/530/416 417/531/417 59/227/59
f 325/435/325 93/186/93 414/528/414
vt 0.929826 0.718018
vt 0.923749 0.713537
f 402/532/402 355/533/355 23/218/23
vt 0.255983 0.705988
f 402/534/402 352/460/352 355/459/355
vt 0.461364 0.947088
vt 0.455593 0.940589
f 402/535/402 320/536/320 352/454/352
f 355/533/355 115/219/115 23/218/23
vt 0.223238 0.698486
vt 0.219226 0.692397
vt 0.215576 0.698486
f 406/537/406 385/538/385 407/539/407
vt 0.222121 0.693940
f 406/537/406 386/540/386 385/538/385
vt 0.483419 0.949650
vt 0.478550 0.945626
f 113/541/113 381/542/381 395/512/395
f 381/542/381 382/493/382 395/512/395
vt 0.482586 0.946412
f 113/541/113 22/543/22 381/542/381
vt 0.098919 0.246180
vt 0.091870 0.256816
f 113/544/113 428/545/428 362/466/362
vt 0.098937 0.258540
f 113/544/113 424/546/424 428/545/428
f 362/466/362 361/465/361 113/544/113
vt 0.087977 0.256625
f 428/545/428 384/547/384 362/466/362
f 361/465/361 114/490/114 113/544/113
vt 0.063232 0.040955
f 429/548/429 385/500/385 384/499/384
vt 0.088669 0.261375
vt 0.082764 0.261590
f 384/547/384 430/549/430 429/550/429
f 384/547/384 428/545/428 430/549/430
vt 0.003444 0.567924
vt 0.000732 0.585751
f 316/422/316 111/551/111 51/552/51
vt 0.006747 0.568411
f 316/422/316 341/553/341 111/551/111
f 51/552/51 318/425/318 316/422/316
vt 0.410550 0.967462
f 415/529/415 432/554/432 416/530/416
f 416/530/416 414/528/414 415/529/415
vt 0.097283 0.264893
vt 0.091262 0.264782
f 424/546/424 433/555/433 434/556/434
f 434/556/434 428/545/428 424/546/424
f 434/556/434 430/549/430 428/545/428
vt 0.494055 0.955960
vt 0.501531 0.955812
vt 0.501527 0.955554
f 424/557/424 425/558/425 433/559/433
vt 0.120054 0.050443
vt 0.120415 0.058597
vt 0.111299 0.058468
f 408/560/408 409/561/409 434/562/434
vt 0.110107 0.052191
f 434/562/434 433/563/433 408/560/408
vt 0.116449 0.065674
vt 0.110107 0.062694
f 434/562/434 429/564/429 430/565/430
f 434/562/434 409/561/409 429/564/429
vt 0.120217 0.060397
f 409/561/409 410/566/410 429/564/429
vt 0.512104 0.997866
f 435/567/435 366/476/366 364/474/364
f 435/567/435 388/503/388 366/476/366
vt 0.495708 0.991669
f 364/474/364 436/568/436 435/567/435
f 364/474/364 425/558/425 436/568/436
f 425/558/425 398/515/398 436/568/436
f 425/558/425 395/512/395 398/515/398
f 364/474/364 408/522/408 425/558/425
vt 0.505605 0.998245
f 436/568/436 437/569/437 435/567/435
vt 0.499064 0.996665
f 436/568/436 438/570/438 437/569/437
f 408/522/408 433/559/433 425/558/425
vt 0.508880 0.999268
f 437/569/437 439/571/439 435/567/435
vt 0.744328 0.696850
vt 0.735107 0.698486
vt 0.735107 0.694105
f 390/572/390 441/573/441 440/574/440
vt 0.658398 0.694580
vt 0.651448 0.692222
vt 0.649170 0.694580
f 427/575/427 426/576/426 391/577/391
vt 0.156683 0.174541
vt 0.154708 0.170783
vt 0.153076 0.175049
f 421/578/421 355/579/355 354/580/354
vt 0.157870 0.170860
f 421/578/421 115/581/115 355/579/355
vt 0.159992 0.175049
f 421/578/421 116/582/116 115/581/115
vt 0.469864 0.966456
vt 0.465221 0.956780
f 420/583/420 421/584/421 353/456/353
f 421/584/421 354/457/354 353/456/353
vt 0.443387 0.983189
vt 0.456398 0.981761
f 121/455/121 449/585/449 450/586/450
f 450/586/450 353/456/353 121/455/121
f 121/455/121 122/225/122 449/585/449
vt 0.469241 0.972951
f 450/586/450 451/587/451 353/456/353
vt 0.427182 0.986722
f 122/225/122 452/588/452 449/585/449
vt 0.462923 0.982790
f 450/586/450 453/589/453 451/587/451
f 122/225/122 417/531/417 452/588/452
vt 0.447079 0.986317
f 449/585/449 454/590/454 450/586/450
vt 0.469105 0.966504
f 451/587/451 444/591/444 353/456/353
f 121/455/121 123/228/123 122/225/122
f 122/225/122 59/227/59 417/531/417
vt 0.479259 0.982170
vt 0.492399 0.988437
f 398/515/398 456/592/456 455/593/455
f 398/515/398 400/517/400 456/592/456
vt 0.485895 0.988535
f 456/592/456 457/594/457 455/593/455
vt 0.472688 0.979045
f 400/517/400 458/595/458 456/592/456
vt 0.469498 0.982343
f 458/595/458 459/596/459 456/592/456
vt 0.469372 0.975853
f 400/517/400 50/597/50 458/595/458
f 413/526/413 131/236/131 295/409/295
vt 0.036627 0.587763
vt 0.046379 0.586633
f 308/424/308 466/598/466 465/599/465
f 308/424/308 317/423/317 466/598/466
vt 0.414068 0.980326
f 137/600/137 452/588/452 417/531/417
vt 0.110650 0.022705
vt 0.102434 0.018755
vt 0.095603 0.022705
f 137/601/137 70/602/70 452/603/452
vt 0.410760 0.977089
f 417/531/417 467/604/467 137/600/137
f 417/531/417 432/554/432 467/604/467
vt 0.121826 0.202765
vt 0.123870 0.210528
vt 0.121826 0.214111
f 417/605/417 416/606/416 432/607/432
vt 0.094975 0.018525
f 70/602/70 468/608/468 452/603/452
vt 0.090576 0.017179
f 468/608/468 469/609/469 452/603/452
vt 0.440359 0.994512
f 491/610/491 449/585/449 452/588/452
vt 0.447675 0.989558
f 491/610/491 492/611/492 449/585/449
vt 0.113607 0.318739
vt 0.116817 0.317380
vt 0.116485 0.327806
f 493/612/493 494/613/494 401/614/401
vt 0.112866 0.330786
f 401/614/401 442/615/442 493/612/493
vt 0.116110 0.331299
f 401/614/401 399/616/399 442/615/442
vt 0.986335 0.705199
vt 0.977295 0.708310
vt 0.989262 0.708989
f 493/617/493 475/618/475 495/619/495
vt 0.110107 0.327653
f 493/612/493 442/615/442 475/620/475
vt 0.989708 0.704848
f 495/619/495 496/621/496 493/617/493
vt 0.602952 0.989699
vt 0.601982 0.986494
f 387/502/387 497/622/497 392/623/392
f 392/623/392 389/504/389 387/502/387
vt 0.106201 0.455018
vt 0.109797 0.462320
vt 0.112276 0.482814
f 504/624/504 505/625/505 506/626/506
vt 0.106201 0.491455
f 506/626/506 507/627/507 504/624/504
vt 0.123893 0.478598
f 505/625/505 491/628/491 506/626/506
vt 0.122987 0.481606
f 491/628/491 508/629/508 506/626/506
vt 0.110884 0.489136
f 506/626/506 509/630/509 507/627/507
vt 0.109819 0.459038
f 504/624/504 510/631/510 505/625/505
f 401/614/401 130/235/130 50/234/50
f 401/614/401 494/613/494 130/235/130
vt 0.120375 0.317581
f 494/613/494 511/632/511 130/235/130
vt 0.118176 0.330108
f 50/234/50 400/633/400 401/614/401
vt 0.182115 0.542236
vt 0.179605 0.539428
vt 0.177582 0.542236
f 511/634/511 512/635/512 130/636/130
vt 0.116812 0.315043
f 494/613/494 513/637/513 511/632/511
vt 0.977431 0.710205
vt 0.989171 0.710205
f 495/619/495 451/638/451 453/639/453
f 495/619/495 475/618/475 451/638/451
vt 0.836670 0.710205
f 137/240/137 523/640/523 138/241/138
vt 0.410892 0.983546
f 137/600/137 467/604/467 523/641/523
vt 0.146401 0.002291
vt 0.145264 0.000878
vt 0.149786 0.003736
f 524/642/524 510/643/510 504/644/504
vt 0.147342 0.004805
f 504/644/504 525/645/525 524/642/524
vt 0.110251 0.311675
vt 0.113517 0.303254
vt 0.116707 0.311675
f 450/646/450 526/647/526 527/648/527
vt 0.110107 0.301487
f 450/646/450 454/649/454 526/647/526
vt 0.113583 0.315104
f 527/648/527 496/650/496 450/646/450
f 527/648/527 513/637/513 496/650/496
f 513/637/513 494/613/494 496/650/496
f 494/613/494 493/612/493 496/650/496
vt 0.171895 0.012983
vt 0.171859 0.017569
vt 0.173643 0.014204
f 129/651/129 528/652/528 529/653/529
vt 0.168701 0.014895
f 129/651/129 130/654/130 528/652/528
vt 0.173608 0.018799
f 528/652/528 530/655/530 529/653/529
vt 0.117771 0.467906
f 526/656/526 491/628/491 505/625/505
vt 0.122003 0.470284
f 526/656/526 492/657/492 491/628/491
vt 0.114033 0.459720
f 505/625/505 527/658/527 526/656/526
vt 0.808091 0.710205
vt 0.811942 0.707860
vt 0.809720 0.703885
f 537/659/537 511/660/511 513/661/513
vt 0.805420 0.706472
f 513/661/513 510/662/510 537/659/537
vt 0.113796 0.456268
f 513/663/513 527/658/527 510/631/510
vt 0.805519 0.709444
f 510/662/510 524/664/524 537/659/537
f 527/658/527 505/625/505 510/631/510
vt 0.106201 0.417475
vt 0.110514 0.418903
vt 0.108245 0.427226
f 530/665/530 539/666/539 538/667/538
vt 0.145264 0.004894
vt 0.148397 0.011017
vt 0.145918 0.014893
f 537/668/537 529/669/529 530/670/530
vt 0.110518 0.426181
f 539/666/539 540/671/540 538/667/538
f 537/668/537 525/645/525 529/669/529
f 537/668/537 524/642/524 525/645/525
vt 0.157192 0.030387
vt 0.153076 0.034424
vt 0.159719 0.034424
f 496/672/496 453/673/453 450/674/450
vt 0.153209 0.033199
f 496/672/496 495/675/495 453/673/453
vt 0.818305 0.710205
vt 0.815281 0.709396
f 459/676/459 512/677/512 537/659/537
f 512/677/512 511/660/511 537/659/537
vt 0.169301 0.018799
f 459/678/459 528/652/528 130/654/130
vt 0.176514 0.538412
f 130/636/130 512/635/512 459/679/459
vt 0.176514 0.612549
vt 0.179766 0.608980
vt 0.177054 0.607987
f 458/680/458 528/681/528 459/682/459
vt 0.181394 0.612549
f 458/680/458 539/683/539 528/681/528
vt 0.181394 0.607986
f 539/683/539 530/684/530 528/681/528
vt 0.612790 0.986337
f 132/238/132 68/237/68 461/685/461
vt 0.041594 0.003920
vt 0.031982 0.007080
vt 0.051784 0.007080
f 461/686/461 294/687/294 132/688/132
vt 0.610861 0.989584
f 461/685/461 152/689/152 294/407/294
vt 0.094981 0.013301
vt 0.113130 0.017651
vt 0.107105 0.009671
f 545/690/545 523/691/523 546/692/546
vt 0.099059 0.004426
vt 0.094034 0.009045
f 547/693/547 548/694/548 545/690/545
vt 0.110328 0.008381
f 523/691/523 549/695/549 546/692/546
vt 0.096068 0.005033
f 547/693/547 550/696/550 548/694/548
f 523/691/523 545/690/545 70/602/70
vt 0.109354 0.020906
f 70/602/70 138/697/138 523/691/523
f 545/690/545 468/608/468 70/602/70
vt 0.573696 0.707731
vt 0.583302 0.705009
vt 0.576818 0.702461
f 552/698/552 509/699/509 553/700/553
vt 0.584076 0.710205
f 552/698/552 507/701/507 509/699/509
vt 0.573904 0.701260
f 553/700/553 554/702/554 552/698/552
vt 0.571045 0.706040
f 554/702/554 555/703/555 552/698/552
vt 0.178514 0.531804
vt 0.176514 0.534424
vt 0.181375 0.534424
f 454/704/454 492/705/492 526/706/526
f 454/590/454 449/585/449 492/611/492
vt 0.109196 0.452393
vt 0.106504 0.450023
vt 0.109000 0.441438
f 556/707/556 557/708/557 558/709/558
f 558/709/558 71/245/71 556/707/556
vt 0.106201 0.435579
f 558/709/558 559/710/559 71/245/71
f 559/710/559 140/244/140 71/245/71
f 559/710/559 538/667/538 140/244/140
f 538/667/538 540/671/540 140/244/140
f 540/671/540 27/242/27 140/244/140
vt 0.585146 0.700048
vt 0.581020 0.701429
f 509/699/509 506/711/506 560/712/560
f 560/712/560 553/700/553 509/699/509
vt 0.115151 0.487079
f 506/626/506 508/629/508 561/713/561
vt 0.113139 0.486693
f 561/713/561 560/714/560 506/626/506
vt 0.153076 0.595134
vt 0.155455 0.596924
vt 0.156846 0.593774
f 561/715/561 545/716/545 553/717/553
vt 0.580420 0.700062
f 553/700/553 560/712/560 561/718/561
vt 0.159404 0.595781
f 545/716/545 548/719/548 553/717/553
vt 0.159670 0.594520
f 548/719/548 554/720/554 553/717/553
vt 0.168701 0.635986
vt 0.173312 0.635986
vt 0.171066 0.633449
f 561/721/561 551/722/551 545/723/545
vt 0.121128 0.487779
f 561/713/561 508/629/508 469/724/469
vt 0.117015 0.490421
f 469/724/469 551/725/551 561/713/561
vt 0.094739 0.016010
f 469/609/469 468/608/468 551/726/551
f 388/503/388 439/571/439 296/411/296
f 388/503/388 435/567/435 439/571/439
f 296/411/296 387/502/387 388/503/388
vt 0.603105 0.990206
f 296/411/296 562/727/562 387/502/387
f 562/727/562 497/622/497 387/502/387
f 296/411/296 152/689/152 562/727/562
f 296/411/296 294/407/294 152/689/152
vt 0.606332 0.988668
f 152/689/152 151/728/151 562/727/562
vt 0.463903 0.703224
f 151/246/151 29/248/29 441/729/441
vt 0.461670 0.710205
f 441/729/441 562/730/562 151/246/151
vt 0.468264 0.703327
f 29/248/29 440/731/440 441/729/441
vt 0.471122 0.706998
f 29/248/29 460/732/460 440/731/440
vt 0.472104 0.708562
f 29/248/29 152/247/152 461/733/461
vt 0.135780 0.165271
f 154/250/154 153/249/153 563/734/563
vt 0.141076 0.167236
f 563/734/563 564/735/564 154/250/154
vt 0.103458 0.003806
vt 0.099466 0.004692
f 546/692/546 563/736/563 565/737/565
vt 0.110252 0.007738
f 546/692/546 564/738/564 563/736/563
f 546/692/546 549/695/549 564/738/564
vt 0.131305 0.167236
f 563/734/563 30/251/30 565/739/565
f 563/734/563 153/249/153 30/251/30
vt 0.130777 0.160959
vt 0.128139 0.165744
f 565/739/565 555/740/555 550/741/550
f 565/739/565 30/251/30 555/740/555
vt 0.572780 0.710205
f 30/742/30 552/698/552 555/703/555
f 550/696/550 547/693/547 565/737/565
vt 0.164144 0.596924
f 550/743/550 554/720/554 548/719/548
vt 0.125732 0.161543
f 550/741/550 555/740/555 554/744/554
vt 0.989270 0.718018
vt 0.995914 0.718018
vt 0.991949 0.712654
f 556/745/556 437/746/437 438/747/438
vt 0.989014 0.714479
f 438/747/438 557/748/557 556/745/556
f 319/426/319 352/454/352 320/536/320
f 319/426/319 320/536/320 46/205/46
f 271/376/271 295/409/295 149/408/149
f 295/409/295 132/238/132 149/408/149
vt 0.430571 0.993334
vt 0.437152 0.994126
f 452/588/452 469/749/469 508/750/508
f 452/588/452 508/750/508 491/610/491
f 545/690/545 546/692/546 565/737/565
f 545/690/545 565/737/565 547/693/547
f 416/530/416 59/227/59 120/226/120
f 416/530/416 120/226/120 58/453/58
vt 0.628360 0.946898
f 271/376/271 54/404/54 1/751/1
vt 0.629558 0.924095
f 8/752/8 197/289/197 271/376/271
f 54/404/54 149/408/149 9/405/9
f 271/376/271 1/751/1 8/752/8
f 1/751/1 54/404/54 291/406/291
vt 0.635684 0.904463
f 56/753/56 260/410/260 197/289/197
vt 0.625232 0.911169
f 56/753/56 197/289/197 156/754/156
vt 0.623899 0.883519
f 7/755/7 196/288/196 157/360/157
vt 0.953214 0.706975
vt 0.959984 0.710205
vt 0.956375 0.706925
f 423/756/423 396/757/396 403/758/403
vt 0.140390 0.507654
vt 0.130230 0.509500
vt 0.125732 0.518799
f 211/759/211 193/760/193 194/761/194
vt 0.148855 0.518799
f 194/761/194 248/762/248 211/759/211
vt 0.078234 0.009668
vt 0.071395 0.004242
vt 0.066707 0.012988
f 6/763/6 277/764/277 280/765/280
vt 0.067783 0.022201
f 280/765/280 232/766/232 6/763/6
vt 0.068905 0.006414
f 277/764/277 275/767/275 280/765/280
vt 0.063232 0.022705
f 280/765/280 227/768/227 232/766/232
vt 0.017140 0.012301
vt 0.010940 0.004371
vt 0.010627 0.012308
f 110/769/110 338/770/338 5/771/5
vt 0.020630 0.004570
f 110/769/110 339/772/339 338/770/338
vt 0.027205 0.007678
f 110/769/110 393/773/393 339/772/339
vt 0.016917 0.014893
f 5/771/5 49/774/49 110/769/110
vt 0.004007 0.014893
f 5/771/5 254/775/254 49/774/49
vt 0.004085 0.012450
f 5/771/5 315/776/315 254/775/254
vt 0.000732 0.012901
f 315/776/315 63/777/63 254/775/254
vt 0.165844 0.496084
vt 0.164795 0.499268
vt 0.164795 0.492354
f 63/778/63 87/779/87 254/780/254
vt 0.874709 0.709833
vt 0.868448 0.706899
vt 0.867920 0.710205
f 180/781/180 55/782/55 210/783/210
vt 0.874849 0.708124
f 180/781/180 11/784/11 55/782/55
vt 0.633545 0.710205
vt 0.646566 0.710205
vt 0.636771 0.700082
f 158/785/158 159/786/159 212/787/212
vt 0.284351 0.702393
vt 0.279612 0.701928
vt 0.270264 0.702393
f 159/788/159 172/789/172 212/790/212
vt 0.133206 0.664090
vt 0.125732 0.671741
vt 0.131093 0.677290
f 216/791/216 220/792/220 3/793/3
vt 0.126436 0.678955
f 220/792/220 243/794/243 3/793/3
vt 0.137903 0.303955
vt 0.142778 0.302846
vt 0.142670 0.302236
f 3/795/3 243/796/243 217/797/217
vt 0.136620 0.299835
f 217/797/217 213/798/213 3/795/3
vt 0.144509 0.301625
f 217/797/217 243/796/243 190/799/190
vt 0.083922 0.022705
vt 0.083436 0.018130
f 186/800/186 187/801/187 6/763/6
f 6/763/6 232/766/232 186/800/186
vt 0.085433 0.015525
f 187/801/187 246/802/246 6/763/6
vt 0.083194 0.008384
f 246/802/246 245/803/245 6/763/6
vt 0.085153 0.011112
f 246/802/246 244/804/244 245/803/245
vt 0.080383 0.006714
f 245/803/245 259/805/259 6/763/6
vt 0.075353 0.003257
f 6/763/6 257/806/257 277/764/277
f 6/763/6 259/805/259 257/806/257
vt 0.007272 0.009530
f 315/776/315 5/771/5 336/807/336
vt 0.004208 0.008638
f 336/807/336 314/808/314 315/776/315
vt 0.007372 0.006999
f 5/771/5 338/770/338 335/809/335
f 335/809/335 336/807/336 5/771/5
vt 0.617920 0.710205
vt 0.625534 0.703656
vt 0.618117 0.705400
f 231/810/231 324/811/324 332/812/332
vt 0.631730 0.710205
f 231/810/231 230/813/230 324/811/324
vt 0.723389 0.698486
vt 0.727839 0.694362
vt 0.730050 0.696754
f 378/814/378 322/815/322 321/816/321
vt 0.723389 0.694355
f 378/814/378 376/817/376 322/815/322
vt 0.946253 0.710205
vt 0.946045 0.706918
f 394/818/394 423/756/423 422/819/422
f 394/818/394 396/757/396 423/756/423
vt 0.153076 0.268799
vt 0.163276 0.268799
vt 0.159866 0.265054
f 411/820/411 391/821/391 347/822/347
vt 0.155284 0.265793
f 347/822/347 345/823/345 411/820/411
vt 0.163206 0.265566
f 391/821/391 426/824/426 347/822/347
vt 0.145271 0.240722
vt 0.148514 0.256992
vt 0.155072 0.240776
f 78/825/78 79/826/79 33/827/33
vt 0.174594 0.270075
vt 0.177852 0.273334
vt 0.177854 0.266827
f 36/828/36 16/829/16 37/830/37
vt 0.812449 0.831299
vt 0.811134 0.822126
vt 0.808665 0.820210
f 20/831/20 61/832/61 21/833/21
vt 0.899156 0.888294
vt 0.879639 0.893799
vt 0.895911 0.892563
f 62/834/62 84/835/84 85/836/85
vt 0.727295 0.737549
vt 0.727295 0.730270
vt 0.729510 0.733199
f 64/837/64 21/838/21 61/839/61
vt 0.902422 0.892574
f 62/834/62 85/836/85 96/840/96
vt 0.817476 0.781880
vt 0.818674 0.790994
vt 0.821292 0.784823
f 48/841/48 105/842/105 106/843/106
vt 0.925197 0.888218
vt 0.918687 0.888280
vt 0.921950 0.891537
f 117/844/117 24/845/24 118/846/118
vt 0.737010 0.822831
vt 0.742908 0.815053
vt 0.734315 0.820800
f 125/847/125 25/848/25 126/849/126
vt 0.733476 0.851949
vt 0.733068 0.858433
vt 0.739817 0.855778
f 127/850/127 66/851/66 128/852/128
vt 0.067094 0.163330
vt 0.065756 0.159451
vt 0.063232 0.163330
f 133/853/133 26/854/26 134/855/134
vt 0.335342 0.237549
vt 0.333235 0.230417
vt 0.324951 0.237549
f 135/856/135 69/857/69 136/858/136
vt 0.068536 0.128269
vt 0.064851 0.128320
vt 0.067257 0.132080
f 141/859/141 142/860/142 72/861/72
vt 0.063232 0.132080
f 142/860/142 143/862/143 72/861/72
vt 0.057404 0.109542
vt 0.055420 0.112549
vt 0.058958 0.112549
f 144/863/144 28/864/28 145/865/145
vt 0.074830 0.220191
vt 0.070191 0.220272
vt 0.074755 0.222392
f 146/866/146 73/867/73 147/868/147
vt 0.314364 0.280518
vt 0.316691 0.277564
vt 0.312143 0.276240
f 142/869/142 141/870/141 148/871/148
vt 0.269005 0.234283
vt 0.282028 0.296143
vt 0.278761 0.233839
f 53/872/53 149/873/149 150/874/150
vt 0.138754 0.276514
vt 0.119209 0.253728
f 160/875/160 79/826/79 161/876/161
vt 0.132239 0.240716
f 79/826/79 162/877/162 161/876/161
f 79/826/79 78/825/78 162/877/162
vt 0.565573 0.596969
vt 0.562127 0.577470
vt 0.529799 0.600582
f 163/878/163 165/879/165 32/880/32
vt 0.187628 0.234291
f 37/830/37 199/881/199 33/827/33
f 33/827/33 79/826/79 37/830/37
vt 0.190887 0.270107
f 37/830/37 200/882/200 199/881/199
vt 0.168087 0.270074
f 79/826/79 201/883/201 37/830/37
vt 0.155050 0.276556
f 79/826/79 160/875/160 202/884/202
vt 0.979049 0.940674
vt 0.968852 0.939308
vt 0.965576 0.940674
f 37/885/37 204/886/204 200/887/200
f 201/883/201 36/828/36 37/830/37
vt 0.184361 0.273338
vt 0.187608 0.270076
f 37/830/37 205/888/205 204/889/204
vt 0.158289 0.276539
vt 0.161569 0.273315
f 202/884/202 206/890/206 207/891/207
vt 0.158311 0.279775
f 202/884/202 236/892/236 206/890/206
vt 0.063232 0.186768
vt 0.066722 0.184114
vt 0.063602 0.182171
f 202/893/202 237/894/237 236/895/236
vt 0.068465 0.186768
f 202/893/202 238/896/238 237/894/237
vt 0.568762 0.590416
vt 0.571969 0.585494
f 165/879/165 239/897/239 240/898/240
f 165/879/165 163/878/163 239/897/239
vt 0.572050 0.593640
f 163/878/163 241/899/241 239/897/239
vt 0.158333 0.286380
vt 0.171356 0.292897
vt 0.168108 0.279890
f 248/900/248 157/901/157 249/902/249
vt 0.158334 0.283128
f 249/902/249 250/903/250 248/900/248
vt 0.164856 0.276641
f 249/902/249 251/904/251 250/903/250
vt 0.168106 0.273377
f 249/902/249 252/905/252 251/904/251
f 251/904/251 207/891/207 206/890/206
f 207/891/207 251/904/251 252/905/252
f 252/905/252 201/883/201 207/891/207
vt 0.184376 0.286386
f 249/902/249 198/906/198 16/829/16
f 198/906/198 205/888/205 16/829/16
vt 0.187626 0.283105
f 198/906/198 260/907/260 205/888/205
vt 0.187614 0.276582
f 260/907/260 261/908/261 205/888/205
f 205/888/205 37/830/37 16/829/16
f 16/829/16 36/828/36 252/905/252
f 252/905/252 249/902/249 16/829/16
f 36/828/36 201/883/201 252/905/252
vt 0.571921 0.580622
vt 0.571826 0.570861
f 165/879/165 19/909/19 60/910/60
f 165/879/165 240/898/240 19/909/19
vt 0.573997 0.583853
f 240/898/240 286/911/286 19/909/19
vt 0.239708 0.273346
vt 0.259241 0.234293
vt 0.194139 0.270096
f 155/912/155 289/913/289 290/914/290
vt 0.233200 0.231036
f 289/913/289 292/915/292 290/914/290
vt 0.265751 0.234292
f 149/873/149 53/872/53 293/916/293
vt 0.190884 0.234288
f 292/915/292 84/917/84 290/914/290
vt 0.187632 0.284760
vt 0.194141 0.295336
vt 0.207157 0.291248
f 56/918/56 156/919/156 8/920/8
f 84/917/84 200/882/200 290/914/290
f 84/917/84 199/881/199 200/882/200
f 290/914/290 260/907/260 56/918/56
vt 0.213669 0.231032
vt 0.207159 0.231031
f 96/921/96 85/922/85 84/917/84
vt 0.801101 0.696108
vt 0.820880 0.702393
vt 0.804508 0.692919
f 241/923/241 164/924/164 297/925/297
vt 0.591648 0.599966
f 241/899/241 163/878/163 164/926/164
vt 0.820802 0.693709
f 164/924/164 298/927/298 297/925/297
vt 0.820798 0.692804
f 298/927/298 299/928/299 297/925/297
vt 0.053620 0.218018
vt 0.051623 0.214795
vt 0.049461 0.218018
f 205/929/205 300/930/300 204/931/204
vt 0.187591 0.273283
f 205/888/205 261/908/261 300/932/300
vt 0.801558 0.691309
f 241/923/241 297/925/297 301/933/301
vt 0.797607 0.693825
f 301/933/301 239/934/239 241/923/241
vt 0.578489 0.587052
f 240/898/240 302/935/302 286/911/286
vt 0.572513 0.590367
f 240/898/240 301/936/301 302/935/302
vt 0.578460 0.583803
f 302/935/302 303/937/303 286/911/286
vt 0.061321 0.065674
vt 0.057546 0.061173
vt 0.055420 0.065674
f 240/938/240 239/939/239 301/940/301
vt 0.196045 0.218018
vt 0.205347 0.218018
vt 0.198037 0.214723
f 261/941/261 290/942/290 300/943/300
f 261/908/261 260/907/260 290/914/290
vt 0.043701 0.215150
vt 0.046355 0.217032
f 300/930/300 290/944/290 200/945/200
f 200/945/200 204/931/204 300/930/300
f 19/909/19 286/911/286 303/937/303
vt 0.815793 0.821564
vt 0.801014 0.814339
f 64/946/64 306/947/306 21/833/21
vt 0.803756 0.800049
f 64/946/64 307/948/307 306/947/306
f 306/947/306 20/831/20 21/833/21
vt 0.840294 0.702393
vt 0.837652 0.697856
vt 0.827314 0.698117
f 357/949/357 358/950/358 359/951/359
f 359/951/359 164/924/164 357/949/357
f 359/951/359 298/927/298 164/924/164
vt 0.824138 0.778746
f 359/952/359 48/841/48 106/843/106
vt 0.827128 0.785177
f 106/843/106 298/953/298 359/952/359
vt 0.825764 0.690821
f 106/954/106 299/928/299 298/927/298
vt 0.811743 0.773395
vt 0.809577 0.792225
f 48/841/48 367/955/367 368/956/368
f 368/956/368 105/842/105 48/841/48
vt 0.815853 0.772418
f 48/841/48 358/957/358 367/955/367
f 48/841/48 359/952/359 358/957/358
vt 0.748838 0.807294
vt 0.742193 0.826787
f 306/947/306 369/958/369 370/959/370
vt 0.738791 0.831299
f 370/959/370 371/960/371 306/947/306
vt 0.772582 0.776272
f 306/947/306 134/961/134 369/958/369
f 306/947/306 307/948/307 134/961/134
f 307/948/307 367/955/367 134/961/134
vt 0.761452 0.780065
f 134/961/134 372/962/372 369/958/369
f 307/948/307 368/956/368 367/955/367
f 369/958/369 25/848/25 370/959/370
f 25/848/25 125/847/125 370/959/370
vt 0.767996 0.776870
f 134/961/134 26/963/26 372/962/372
vt 0.738339 0.815661
f 369/958/369 373/964/373 25/848/25
vt 0.908932 0.892584
vt 0.912176 0.888250
f 62/834/62 374/965/374 375/966/375
f 62/834/62 96/840/96 374/965/374
vt 0.921953 0.892602
f 374/965/374 292/967/292 24/845/24
f 24/845/24 375/966/375 374/965/374
f 292/967/292 118/846/118 24/845/24
vt 0.236411 0.229395
vt 0.259196 0.229565
f 117/968/117 289/913/289 443/969/443
vt 0.947998 0.893799
f 117/844/117 292/967/292 289/970/289
f 117/844/117 118/846/118 292/967/292
vt 0.913364 0.706299
vt 0.907702 0.684905
vt 0.901590 0.695639
f 117/971/117 443/972/443 445/973/445
vt 0.903803 0.701280
f 445/973/445 446/974/446 117/971/117
vt 0.898365 0.686315
f 443/972/443 447/975/447 445/973/445
vt 0.858617 0.772705
vt 0.852517 0.771891
vt 0.848389 0.772705
f 443/976/443 448/977/448 447/978/447
vt 0.761990 0.866218
vt 0.759316 0.856797
f 462/979/462 463/980/463 128/852/128
vt 0.731201 0.870361
f 128/852/128 349/981/349 462/979/462
f 128/852/128 66/851/66 349/981/349
vt 0.643575 0.584375
vt 0.646848 0.586172
vt 0.646820 0.583137
f 127/982/127 464/983/464 350/984/350
vt 0.649221 0.589616
f 350/984/350 464/983/464 471/985/471
vt 0.884379 0.694315
f 446/974/446 445/973/445 69/986/69
vt 0.883545 0.706299
f 69/986/69 472/987/472 446/974/446
vt 0.810698 0.940674
vt 0.803872 0.940035
vt 0.797607 0.940674
f 69/988/69 473/989/473 472/990/472
vt 0.732617 0.828299
vt 0.733035 0.828027
vt 0.738428 0.828105
f 69/991/69 474/992/474 473/993/473
vt 0.682626 0.582780
vt 0.656426 0.566762
vt 0.663097 0.582975
f 476/994/476 348/995/348 351/996/351
vt 0.640433 0.596205
vt 0.650171 0.592865
vt 0.643656 0.592917
f 477/997/477 470/998/470 478/999/478
vt 0.781478 0.866394
vt 0.801571 0.859051
vt 0.785525 0.854822
f 479/1000/479 480/1001/480 144/1002/144
vt 0.813930 0.869737
f 479/1000/479 481/1003/481 480/1001/480
vt 0.811565 0.856166
f 481/1003/481 482/1004/482 480/1001/480
vt 0.817900 0.859571
f 481/1003/481 483/1005/483 482/1004/482
vt 0.772901 0.850903
f 144/1002/144 484/1006/484 479/1000/479
vt 0.776063 0.849388
f 144/1002/144 485/1007/485 484/1006/484
vt 0.784849 0.851691
f 144/1002/144 145/1008/145 485/1007/485
vt 0.808512 0.852768
f 482/1004/482 486/1009/486 480/1001/480
vt 0.766039 0.853557
f 462/979/462 484/1006/484 487/1010/487
f 462/979/462 479/1000/479 484/1006/484
f 487/1010/487 463/980/463 462/979/462
vt 0.820392 0.870361
vt 0.824009 0.865250
f 481/1003/481 472/1011/472 473/1012/473
f 473/1012/473 483/1005/483 481/1003/481
vt 0.823082 0.856630
f 473/1012/473 488/1013/488 483/1005/483
vt 0.818070 0.856534
f 488/1013/488 489/1014/489 483/1005/483
vt 0.822354 0.853409
f 488/1013/488 490/1015/490 489/1014/489
vt 0.734354 0.824938
vt 0.733222 0.822153
f 498/1016/498 126/849/126 488/1017/488
f 498/1016/498 125/847/125 126/849/126
f 498/1016/498 370/959/370 125/847/125
vt 0.731201 0.819450
f 126/849/126 490/1018/490 488/1017/488
vt 0.731734 0.818828
f 126/849/126 143/1019/143 490/1018/490
vt 0.055420 0.179598
vt 0.055966 0.182861
vt 0.056422 0.179538
f 143/1020/143 499/1021/499 490/1022/490
vt 0.059894 0.182861
f 499/1021/499 500/1023/500 490/1022/490
f 498/1016/498 474/992/474 371/960/371
f 371/960/371 370/959/370 498/1016/498
vt 0.340289 0.230603
f 371/1024/371 69/857/69 135/856/135
f 371/960/371 474/992/474 69/991/69
vt 0.827650 0.860268
vt 0.824452 0.859251
f 473/1012/473 474/1025/474 498/1026/498
f 498/1026/498 488/1013/488 473/1012/473
vt 0.890618 0.685454
f 445/973/445 447/975/447 136/1027/136
f 136/1027/136 69/986/69 445/973/445
vt 0.893039 0.683255
f 447/975/447 501/1028/501 136/1027/136
vt 0.931726 0.600333
vt 0.925225 0.600521
vt 0.922063 0.603869
f 502/1029/502 73/1030/73 146/1031/146
vt 0.932396 0.597064
f 502/1029/502 503/1032/503 73/1030/73
vt 0.318355 0.280310
vt 0.329870 0.273886
vt 0.317777 0.273041
f 373/1033/373 514/1034/514 515/1035/515
vt 0.331209 0.276433
f 373/1033/373 369/1036/369 514/1034/514
f 515/1035/515 141/870/141 373/1033/373
f 515/1035/515 148/871/148 141/870/141
vt 0.926514 0.721924
vt 0.943571 0.719137
vt 0.926950 0.718956
f 369/1037/369 28/1038/28 514/1039/514
vt 0.956512 0.721924
f 369/1037/369 372/1040/372 28/1038/28
vt 0.956991 0.718946
f 372/1040/372 516/1041/516 28/1038/28
vt 0.016727 0.022035
vt 0.019099 0.025236
vt 0.022988 0.024106
f 128/1042/128 517/1043/517 518/1044/518
vt 0.023420 0.017860
f 518/1044/518 127/1045/127 128/1042/128
vt 0.644412 0.589652
f 518/1046/518 464/983/464 127/982/127
f 518/1046/518 471/985/471 464/983/464
vt 0.752191 0.851950
f 128/852/128 463/980/463 519/1047/519
vt 0.962969 0.706299
vt 0.954136 0.704282
vt 0.949951 0.706299
f 519/1048/519 520/1049/520 128/1050/128
f 463/980/463 487/1010/487 519/1047/519
vt 0.016357 0.026611
f 520/1051/520 517/1043/517 128/1042/128
vt 0.801801 0.856425
vt 0.785763 0.852061
f 144/1002/144 514/1052/514 28/1053/28
f 144/1002/144 480/1001/480 514/1052/514
vt 0.894656 0.677976
vt 0.902399 0.685488
vt 0.904484 0.678483
f 522/1054/522 448/1055/448 521/1056/521
f 448/1055/448 443/972/443 521/1056/521
vt 0.174173 0.214262
vt 0.172607 0.218018
vt 0.181055 0.218018
f 517/1057/517 531/1058/531 477/1059/477
vt 0.179341 0.213888
f 477/1059/477 478/1060/478 517/1057/517
vt 0.023818 0.026611
f 478/1061/478 518/1044/518 517/1043/517
vt 0.951150 0.703972
vt 0.954396 0.701958
f 517/1062/517 520/1049/520 531/1063/531
f 531/1063/531 520/1049/520 519/1048/519
vt 0.968085 0.702357
f 519/1048/519 532/1064/532 531/1063/531
vt 0.968056 0.704390
f 519/1048/519 533/1065/533 532/1064/532
f 478/999/478 470/998/470 471/985/471
f 471/985/471 518/1046/518 478/999/478
vt 0.736307 0.818222
f 25/848/25 373/964/373 72/1066/72
f 72/1066/72 126/849/126 25/848/25
vt 0.735716 0.813669
f 373/964/373 141/1067/141 72/1066/72
f 72/1066/72 143/1019/143 126/849/126
vt 0.977779 0.687282
vt 0.977295 0.690674
vt 0.985727 0.686616
f 514/1068/514 480/1069/480 486/1070/486
vt 0.989892 0.684357
f 486/1070/486 515/1071/515 514/1068/514
vt 0.987105 0.688379
f 486/1070/486 534/1072/534 515/1071/515
vt 0.993865 0.686558
f 534/1072/534 535/1073/535 515/1071/515
vt 0.814775 0.856168
f 483/1005/483 489/1014/489 536/1074/536
vt 0.991306 0.757796
vt 0.994695 0.756849
vt 0.989583 0.752334
f 536/1075/536 482/1076/482 483/1077/483
vt 0.217048 0.221586
vt 0.211670 0.225830
vt 0.222000 0.225830
f 133/1078/133 533/1079/533 541/1080/541
vt 0.974296 0.703342
f 133/1081/133 532/1064/532 533/1065/533
vt 0.220984 0.222361
f 541/1080/541 26/1082/26 133/1078/133
vt 0.765583 0.775064
f 541/1083/541 372/962/372 26/963/26
vt 0.962858 0.721164
f 541/1084/541 516/1041/516 372/1040/372
vt 0.756634 0.849899
vt 0.766320 0.850110
f 533/1085/533 487/1010/487 541/1086/541
vt 0.082321 0.221453
vt 0.078857 0.225830
vt 0.093167 0.225830
f 533/1087/533 519/1088/519 487/1089/487
f 541/1086/541 487/1010/487 484/1006/484
vt 0.772970 0.847960
f 484/1006/484 516/1090/516 541/1086/541
vt 0.063232 0.077393
vt 0.066772 0.077393
vt 0.064189 0.073551
f 484/1091/484 485/1092/485 516/1093/516
vt 0.953768 0.716080
vt 0.944684 0.715935
f 28/1038/28 485/1094/485 145/1095/145
f 28/1038/28 516/1041/516 485/1094/485
vt 0.990431 0.760615
vt 0.995539 0.760986
f 482/1076/482 542/1096/542 534/1097/534
f 482/1076/482 536/1075/536 542/1096/542
vt 0.982091 0.735316
vt 0.981201 0.737549
vt 0.985806 0.737549
f 534/1098/534 486/1099/486 482/1100/482
vt 0.988534 0.754963
vt 0.983245 0.760986
f 489/1101/489 543/1102/543 542/1096/542
vt 0.983697 0.755502
f 489/1101/489 490/1103/490 543/1102/543
f 542/1096/542 536/1075/536 489/1101/489
vt 0.981201 0.759574
f 490/1103/490 500/1104/500 543/1102/543
f 447/975/447 448/1055/448 522/1054/522
f 522/1054/522 501/1028/501 447/975/447
vt 0.309326 0.277840
vt 0.310968 0.280518
f 148/871/148 499/1105/499 143/1106/143
f 143/1106/143 142/869/142 148/871/148
vt 0.991963 0.690674
vt 0.999088 0.689771
f 535/1073/535 542/1107/542 543/1108/543
f 535/1073/535 534/1072/534 542/1107/542
vt 0.050428 0.202393
vt 0.049627 0.197976
vt 0.046440 0.198520
f 543/1109/543 499/1110/499 148/1111/148
vt 0.043701 0.202393
f 148/1111/148 535/1112/535 543/1109/543
vt 0.313783 0.272136
f 148/871/148 515/1035/515 535/1113/535
vt 0.052372 0.200797
f 543/1109/543 500/1114/500 499/1110/499
vt 0.915701 0.607379
vt 0.922584 0.623366
f 146/1031/146 340/1115/340 124/1116/124
vt 0.262496 0.234292
f 149/873/149 293/916/293 544/1117/544
f 149/873/149 544/1117/544 289/913/289
vt 0.220179 0.231034
f 292/915/292 374/1118/374 84/917/84
f 374/1118/374 96/921/96 84/917/84
f 79/826/79 202/884/202 207/891/207
f 79/826/79 207/891/207 201/883/201
f 206/890/206 236/892/236 251/904/251
f 236/892/236 250/903/250 251/904/251
vt 0.229942 0.292872
f 1/1119/1 155/912/155 8/920/8
f 155/912/155 149/873/149 289/913/289
f 8/920/8 155/912/155 290/914/290
vt 0.245405 0.288808
f 1/1119/1 291/1120/291 155/912/155
vt 0.260868 0.284744
f 291/1120/291 9/1121/9 155/912/155
f 290/914/290 56/918/56 8/920/8
f 249/902/249 157/901/157 198/906/198
vt 0.166469 0.296143
f 248/900/248 7/1122/7 157/901/157
vt 0.067020 0.139893
vt 0.066058 0.136258
vt 0.063232 0.139893
f 236/1123/236 237/1124/237 250/1125/250
vt 0.340371 0.249268
vt 0.341058 0.246773
vt 0.336462 0.242060
f 566/1126/566 567/1127/567 476/1128/476
vt 0.950004 0.675049
vt 0.966253 0.664929
vt 0.953233 0.664955
f 160/1129/160 212/1130/212 4/1131/4
vt 0.031982 0.081299
vt 0.039291 0.081299
vt 0.036567 0.078656
f 202/1132/202 4/1133/4 238/1134/238
vt 0.949951 0.658780
vt 0.949997 0.671658
f 202/1135/202 203/1136/203 4/1131/4
vt 0.959714 0.654939
vt 0.953217 0.658095
f 248/1137/248 237/1138/237 4/1131/4
f 4/1131/4 212/1130/212 248/1137/248
vt 0.969508 0.664935
f 212/1130/212 211/1139/211 248/1137/248
vt 0.956459 0.654930
f 248/1137/248 250/1140/250 237/1138/237
vt 0.727295 0.695495
vt 0.728062 0.698675
vt 0.727295 0.702393
f 237/1141/237 238/1142/238 4/1143/4
vt 0.903076 0.787733
vt 0.910073 0.789655
vt 0.910517 0.789002
f 340/1144/340 146/1145/146 147/1146/147
vt 0.073289 0.225830
f 2/1147/2 147/868/147 73/867/73
vt 0.963025 0.675049
f 160/1129/160 158/1148/158 212/1130/212
# 978 faces, 1148 coords texture

# End of File
