####
#
# OBJ File Generated by Meshlab
#
####
# Object office_Chair_24.obj
#
# Vertices: 454
# Faces: 857
#
####
mtllib ./office_Chair_24.obj.mtl

vn 0.215327 0.936059 0.278260
v 7.570624 5.916460 0.638087
vn 0.228424 0.944070 0.237810
v 7.570625 5.910722 0.657388
vn 0.405382 0.716265 0.568005
v 7.570623 5.922613 0.617389
vn -0.568396 0.822708 0.008867
v 7.550617 5.916209 0.717389
vn 0.466127 0.397578 0.790352
v 7.550617 5.942613 0.614101
vn -0.218933 0.831365 0.510784
v 7.530622 5.916212 0.657388
vn -0.158056 0.964775 0.210302
v 7.550621 5.911862 0.677388
vn -0.983748 -0.166417 0.067411
v 7.525655 5.842617 0.817395
vn -0.573807 0.793373 0.203237
v 7.530623 5.902611 0.697388
vn -0.785661 0.445053 0.429726
v 7.512073 5.882608 0.697388
vn -0.854430 0.141067 0.500050
v 7.504779 5.862613 0.697388
vn -0.979919 -0.153122 0.127721
v 7.518898 5.862618 0.737390
vn -0.741900 -0.434388 0.510776
v 7.518680 5.682613 0.617390
vn -0.802890 -0.362659 0.473124
v 7.530629 5.682616 0.637384
vn -0.860571 -0.169121 0.480433
v 7.505371 5.842611 0.697390
vn 0.288422 0.127342 0.948998
v 7.550622 5.982615 0.607697
vn 0.162750 0.151793 0.974921
v 7.570623 6.002614 0.604021
vn 0.957540 0.158442 0.240861
v 7.455340 6.023718 1.217895
vn 0.121299 0.766558 0.630615
v 7.530620 5.929217 0.637394
vn -0.019363 0.272742 0.961892
v 7.490620 6.002611 0.617377
vn 0.143268 0.370819 0.917588
v 7.510620 5.942614 0.632238
vn -0.575288 -0.532036 0.621274
v 7.510616 5.671509 0.597389
vn -0.585416 -0.585309 0.560982
v 7.521181 5.622609 0.557393
vn 0.770560 0.637332 0.006703
v 7.430618 6.115940 1.397389
vn -0.681869 -0.226045 0.695671
v 7.490619 5.838492 0.677386
vn -0.565699 -0.365943 0.738966
v 7.488318 5.762610 0.637396
vn 0.896186 -0.104330 -0.431237
v 7.463074 6.002612 1.117387
vn 0.532212 -0.250458 -0.808716
v 7.450622 6.002613 1.104996
vn 0.718377 0.601348 -0.349737
v 7.430630 6.073321 1.137386
vn -0.122204 0.746864 0.653651
v 7.510622 5.913951 0.657384
vn -0.115242 0.460549 0.880121
v 7.470621 5.942613 0.633134
vn 0.816312 -0.183001 -0.547855
v 7.430638 5.762612 0.903553
vn 0.737211 -0.383906 -0.556000
v 7.424492 5.722606 0.917381
vn 0.781255 0.055435 -0.621745
v 7.430630 5.802614 0.899717
vn 0.489970 0.746142 -0.450780
v 7.390621 6.136959 1.397388
vn 0.474534 0.859977 -0.187766
v 7.390642 6.118469 1.337374
vn 0.432317 0.831218 -0.349541
v 7.410610 6.089043 1.137391
vn 0.388587 0.595998 -0.702699
v 7.370629 6.062620 1.079686
vn 0.438155 -0.532106 -0.724489
v 7.390635 5.702602 0.899349
vn 0.561923 -0.547068 -0.620450
v 7.370624 5.583875 0.997385
vn 0.681855 0.666974 0.300365
v 7.404593 6.002611 1.037388
vn 0.497156 0.842807 0.206185
v 7.390616 6.015985 1.037389
vn 0.757749 0.644518 -0.102045
v 7.410604 5.998633 1.017393
vn -0.206989 -0.328316 0.921609
v 7.430623 5.722630 0.592891
vn 0.678590 -0.443079 -0.585831
v 7.370620 5.562615 1.003240
vn 0.126103 -0.002300 -0.992015
v 7.350629 5.942615 0.869769
vn 0.141368 -0.070112 -0.987471
v 7.390621 5.742612 0.883327
vn 0.382629 -0.202691 -0.901394
v 7.410617 5.762608 0.885611
vn 0.397919 0.051681 -0.915964
v 7.374509 5.922605 0.877298
vn 0.235919 -0.115349 0.964903
v 7.370612 5.682614 0.581203
vn 0.531637 0.607948 -0.589713
v 7.370629 5.982617 0.897384
vn 0.545248 0.741046 -0.391862
v 7.370629 6.002620 0.926934
vn 0.561743 0.705928 -0.431405
v 7.310608 6.078309 1.017390
vn 0.262525 -0.532674 -0.804574
v 7.370656 5.682582 0.904738
vn 0.382143 -0.608090 -0.695840
v 7.370633 5.642598 0.938600
vn 0.207062 0.353997 -0.912037
v 7.350626 5.962619 0.874134
vn 0.160905 0.647915 -0.744524
v 7.350630 5.982613 0.886051
vn 0.049386 0.828376 -0.557992
v 7.270622 6.082618 1.004928
vn 0.156250 0.939105 -0.306051
v 7.370607 6.099357 1.137399
vn -0.185122 0.757989 -0.625445
v 7.230620 6.072391 0.997384
vn -0.224553 0.672780 -0.704942
v 7.230622 6.062614 0.986160
vn -0.244823 -0.628179 -0.738548
v 7.295454 5.922607 0.877354
vn -0.069892 0.035902 -0.996908
v 7.310631 5.959698 0.877401
vn -0.252579 0.338484 -0.906439
v 7.310637 5.962603 0.877414
vn -0.350879 -0.033396 -0.935825
v 7.290861 5.922608 0.879596
vn 0.124322 -0.077246 0.989231
v 7.310609 5.582620 0.623692
vn -0.155769 -0.321398 -0.934045
v 7.330616 5.693640 0.897306
vn -0.104410 -0.472484 -0.875133
v 7.330621 5.682611 0.902257
vn -0.287355 -0.161308 -0.944143
v 7.302289 5.722609 0.897344
vn 0.103764 -0.784347 -0.611583
v 7.330620 5.562605 0.997381
vn 0.173437 -0.681483 -0.710986
v 7.330620 5.580222 0.977376
vn -0.064470 -0.580068 -0.812013
v 7.270618 5.602602 0.956287
vn -0.228940 0.717343 -0.658031
v 7.161252 6.062610 1.017394
vn -0.288135 0.505327 -0.813402
v 7.175365 6.042613 0.997380
vn -0.134315 0.749987 -0.647672
v 7.150627 6.062606 1.019410
vn 0.680729 0.642284 -0.352249
v 7.330637 6.082819 1.077377
vn 0.208152 0.977461 -0.035257
v 7.130637 6.099995 1.097376
vn 0.475528 0.833015 -0.282772
v 7.310600 6.096953 1.037404
vn 0.212524 0.951897 -0.220739
v 7.330626 6.088812 1.097386
vn 0.108756 0.828273 -0.549669
v 7.150621 6.084859 1.057388
vn -0.287447 0.533496 -0.795460
v 7.130621 6.082612 1.057388
vn 0.102662 0.980898 -0.165225
v 7.150620 6.113347 1.257372
vn 0.211165 0.762125 -0.612026
v 7.130621 6.112613 1.057388
vn -0.206721 0.960839 -0.184539
v 7.110607 6.112435 1.077398
vn -0.299968 0.215585 -0.929270
v 7.150626 5.962608 0.972445
vn -0.190907 0.367001 -0.910420
v 7.170622 5.998307 0.977389
vn -0.150895 -0.171665 -0.973531
v 7.130616 5.622617 0.973636
vn -0.218804 -0.342593 -0.913649
v 7.210571 5.622611 0.956001
vn -0.033308 -0.466094 -0.884108
v 7.130625 5.612356 0.977405
vn -0.262607 -0.934284 -0.241145
v 7.230621 5.577706 0.997388
vn -0.121505 -0.832748 -0.540155
v 7.230622 5.582616 0.981034
vn -0.165067 -0.862414 -0.478535
v 7.130623 5.602612 0.984299
vn -0.211097 -0.656595 -0.724100
v 7.110621 5.607698 0.977388
vn -0.279990 -0.141839 -0.949467
v 7.101495 5.622616 0.977474
vn -0.287155 -0.245908 -0.925782
v 7.070672 5.642618 0.982469
vn -0.092563 0.186231 -0.978136
v 7.130619 5.982614 0.980088
vn -0.297810 0.120390 -0.947003
v 7.130631 5.922609 0.972620
vn -0.246104 0.028482 -0.968825
v 7.110597 5.882607 0.975459
vn -0.114425 -0.034485 -0.992833
v 7.090663 5.722618 0.975659
vn 0.116947 -0.043930 -0.992166
v 7.070621 5.722614 0.974568
vn -0.189193 0.061461 -0.980015
v 7.090621 5.762613 0.977389
vn 0.053993 -0.330928 -0.942110
v 7.050622 5.692249 0.977388
vn -0.360665 -0.472715 -0.804028
v 7.010622 5.682613 0.987998
vn 0.911420 0.393916 -0.118931
v 7.430627 6.066205 1.337386
vn 0.918270 0.393325 0.045561
v 7.450600 6.042600 1.200443
vn 0.733469 0.655598 -0.179484
v 7.410618 6.102610 1.337389
vn 0.171042 0.963114 -0.207741
v 7.330636 6.130131 1.297374
vn -0.351034 0.843502 0.406545
v 7.519009 5.902613 0.677390
vn -0.560020 0.593333 0.578216
v 7.510622 5.897516 0.677385
vn -0.649415 0.169365 0.741333
v 7.488005 5.862608 0.677384
vn -0.366113 0.445136 0.817200
v 7.490620 5.902610 0.660186
vn -0.412776 -0.092831 0.906090
v 7.370620 5.876190 0.617386
vn -0.420219 -0.077150 0.904137
v 7.423139 5.862613 0.637403
vn 0.003595 0.959951 -0.280144
v 7.290620 6.132303 1.297427
vn 0.076955 0.953874 -0.290175
v 7.150618 6.117045 1.277356
vn 0.064956 0.863300 -0.500493
v 7.230620 6.172562 1.397379
vn 0.515056 0.362168 0.776886
v 7.575827 5.942614 0.597387
vn -0.991604 -0.097122 0.085379
v 7.530577 5.822608 0.837407
vn -0.955115 -0.260865 0.140376
v 7.550605 5.722613 0.717385
vn -0.975275 -0.131862 0.177345
v 7.520005 5.842619 0.737386
vn -0.985406 -0.150301 -0.079901
v 7.533443 5.722616 0.797394
vn 0.834302 0.550887 -0.021526
v 7.450597 6.042599 1.197388
vn 0.955874 -0.088007 0.280285
v 7.453333 6.002614 1.197388
vn 0.999783 0.011458 0.017413
v 7.480621 6.022613 1.197388
vn 0.946166 0.235170 -0.222408
v 7.458189 6.022612 1.177388
vn 0.950697 0.041079 -0.307389
v 7.460220 5.802613 1.017391
vn 0.949238 -0.015776 -0.314164
v 7.461314 5.762613 1.017394
vn 0.897966 0.425964 0.110509
v 7.441892 6.042618 1.277388
vn 0.961169 -0.274949 0.023603
v 7.450630 6.002615 1.214503
vn 0.235039 0.901182 -0.364180
v 7.376772 6.142592 1.397392
vn 0.891948 0.320566 -0.318851
v 7.450680 5.922606 1.021157
vn 0.728848 0.369046 -0.576703
v 7.385864 5.962615 0.897386
vn 0.910323 0.137080 -0.390540
v 7.436505 5.822613 0.917386
vn 0.732003 -0.368126 -0.573285
v 7.330622 6.062614 1.061735
vn 0.298590 0.158327 0.941157
v 7.330624 5.662615 0.598539
vn 0.468651 -0.142629 0.871793
v 7.390640 5.542605 0.574121
vn 0.418389 -0.095940 0.903187
v 7.330608 5.582620 0.617350
vn 0.979161 -0.195456 0.055137
v 7.330620 6.062611 1.057388
vn 0.558788 -0.728326 -0.396608
v 7.323604 6.042612 1.077388
vn -0.039968 -0.764037 -0.643933
v 7.308267 5.562611 0.997386
vn -0.172499 -0.715519 -0.676961
v 7.250622 5.582617 0.977392
vn -0.781396 -0.622797 -0.039289
v 7.250621 5.552613 0.997388
vn -0.522695 0.099435 -0.846701
v 7.270645 5.922611 0.889466
vn -0.496203 0.136004 -0.857488
v 7.210642 5.922620 0.933920
vn -0.399880 -0.062286 -0.914449
v 7.213470 5.782614 0.937511
vn -0.068529 0.081514 0.994313
v 7.290625 5.602613 0.623268
vn -0.172221 0.941358 -0.290146
v 7.210616 6.098434 1.037391
vn -0.057022 0.989694 -0.131357
v 7.190633 6.095772 1.077380
vn -0.141504 0.868257 -0.475507
v 7.150621 6.072418 1.037387
vn 0.154899 0.529739 -0.833896
v 7.130621 6.022612 0.993449
vn 0.031845 -0.021946 -0.999252
v 7.110623 6.002610 0.982013
vn 0.095792 0.070476 -0.992903
v 7.090628 5.982611 0.981527
vn -0.163342 -0.125831 -0.978512
v 7.070628 5.962610 0.983389
vn -0.191751 -0.047711 -0.980283
v 7.050622 5.682613 0.979947
vn 0.130381 -0.130509 -0.982837
v 7.070621 5.662613 0.980539
vn -0.047434 0.740135 -0.670783
v 7.030622 5.742612 0.971334
vn 0.187350 0.090835 -0.978084
v 7.030622 5.722614 0.943476
vn 0.513333 0.154907 -0.844093
v 7.050622 5.722613 0.968756
vn -0.376131 -0.318633 -0.870056
v 7.030622 5.662613 0.988305
vn 0.978132 -0.037095 0.204650
v 7.480167 5.762613 1.037388
vn 0.947827 -0.107568 0.300089
v 7.437669 5.982613 1.217388
vn 0.961425 -0.261966 -0.083879
v 7.460634 6.002628 1.237388
vn 0.979857 0.042484 0.195129
v 7.480012 5.802613 1.037387
vn 0.966372 0.008420 0.257010
v 7.459513 5.782613 1.037381
vn 0.837366 -0.294913 0.460266
v 7.436600 6.022613 1.337388
vn 0.984494 -0.026905 0.173344
v 7.439438 6.042621 1.337391
vn 0.935707 -0.115598 0.333301
v 7.419224 6.102611 1.417390
vn 0.973066 0.224665 0.051663
v 7.440404 6.102612 1.397389
vn 0.900609 -0.256379 0.350960
v 7.439024 6.062603 1.377387
vn 0.813378 -0.505041 0.288705
v 7.458328 6.002633 1.257388
vn 0.946030 -0.201590 0.253749
v 7.439127 6.022613 1.297388
vn 0.930201 0.128918 0.343667
v 7.459794 6.022606 1.277388
vn 0.891990 -0.317029 0.322253
v 7.459615 5.982615 1.197388
vn 0.731873 0.580840 0.356351
v 7.439201 5.942620 1.037384
vn 0.859934 -0.139892 0.490860
v 7.459805 5.742613 1.037386
vn 0.930077 0.328445 0.164563
v 7.459146 5.922609 1.037384
vn 0.884924 0.182368 0.428546
v 7.459350 5.822613 1.037385
vn 0.555577 0.001277 0.831464
v 7.450621 5.782613 1.046248
vn 0.258071 -0.857675 -0.444739
v 7.450621 5.992614 1.117389
vn 0.731222 -0.667209 -0.141939
v 7.459976 5.982614 1.157388
vn -0.451741 -0.373818 0.810055
v 7.450612 5.762606 0.614097
vn -0.226452 -0.281920 0.932331
v 7.430619 5.742626 0.599538
vn -0.324640 -0.246587 0.913129
v 7.410626 5.782616 0.605228
vn 0.616148 -0.636365 0.464115
v 7.430621 5.996467 1.277389
vn 0.640714 -0.686100 0.344604
v 7.410621 6.022609 1.397389
vn 0.454251 -0.798902 0.394224
v 7.410623 6.014749 1.357390
vn 0.579029 -0.778149 0.243331
v 7.430623 5.998409 1.317389
vn 0.099896 -0.932297 0.347626
v 7.410621 5.993600 1.297388
vn 0.936665 -0.202297 0.285893
v 7.460162 5.682616 1.037387
vn 0.066058 -0.908015 -0.413696
v 7.430621 5.993081 1.117388
vn 0.172901 -0.907100 0.383763
v 7.410621 5.975509 1.277388
vn 0.066576 -0.993476 -0.092588
v 7.410621 5.977515 1.157387
vn -0.320597 -0.946429 0.038605
v 7.367965 5.982620 1.217748
vn 0.385695 -0.891903 0.236113
v 7.430621 5.975203 1.257388
vn 0.397761 -0.898864 0.183928
v 7.450621 5.973631 1.197388
vn 0.673833 -0.363464 0.643307
v 7.410621 6.062613 1.441000
vn -0.305838 -0.879546 -0.364503
v 7.390621 5.975198 1.137388
vn -0.187665 -0.906686 -0.377759
v 7.390620 5.996030 1.117387
vn 0.164617 0.298686 -0.940047
v 7.370630 6.042618 1.067409
vn 0.216543 -0.204554 -0.954603
v 7.390627 6.022618 1.067893
vn -0.096440 -0.841854 -0.531020
v 7.390621 6.002611 1.089007
vn -0.198014 -0.341652 -0.918730
v 7.350622 6.042613 1.068071
vn 0.533001 0.245550 0.809700
v 7.430619 5.922612 1.063662
vn 0.367428 0.435155 0.821971
v 7.410621 5.985267 1.057384
vn 0.249464 0.509718 0.823381
v 7.370621 6.007307 1.057389
vn 0.046950 0.997545 -0.051963
v 7.390623 6.162615 1.413781
vn 0.804002 0.588249 -0.086855
v 7.400616 6.142616 1.417393
vn 0.830291 0.508067 0.229094
v 7.420053 6.122616 1.417393
vn 0.834581 0.070454 0.546361
v 7.418018 6.102613 1.437392
vn 0.431509 0.862544 0.264231
v 7.355035 6.162530 1.437406
vn 0.465593 0.689975 0.554218
v 7.390613 6.144898 1.437383
vn -0.183668 -0.796485 -0.576088
v 7.330621 6.034806 1.097388
vn 0.192043 0.709649 0.677877
v 7.350623 6.007976 1.057395
vn 0.542432 0.755072 0.368286
v 7.350636 6.032198 1.037384
vn 0.973771 0.034955 0.224830
v 7.296813 6.042612 1.057388
vn 0.667575 -0.678726 0.306062
v 7.310621 6.052715 1.057387
vn 0.711481 0.541852 0.447427
v 7.339834 6.042627 1.037385
vn -0.322842 -0.853825 0.408358
v 7.390624 5.977787 1.277387
vn -0.406739 -0.874212 0.265174
v 7.370618 5.993817 1.277389
vn -0.419028 -0.902799 0.096793
v 7.371808 5.982204 1.236794
vn 0.322505 -0.927355 0.189746
v 7.290621 6.038256 1.077388
vn 0.428899 0.460193 0.777347
v 7.330621 6.022613 1.057388
vn 0.212268 -0.203915 0.955699
v 7.290621 6.022613 1.062967
vn 0.469446 -0.762379 0.445419
v 7.370642 5.562595 1.026719
vn 0.592808 -0.797882 0.109373
v 7.370621 5.553266 1.017388
vn -0.011816 -0.817996 0.575102
v 7.310621 5.553882 1.017388
vn -0.454369 -0.862175 -0.224060
v 7.350622 6.000418 1.117387
vn -0.391475 -0.855174 -0.339743
v 7.330614 6.016892 1.117386
vn -0.343333 -0.938119 -0.045325
v 7.365207 5.982618 1.197389
vn -0.572297 -0.786158 -0.233308
v 7.370617 5.992870 1.157387
vn -0.371933 0.293154 0.880753
v 7.370624 5.962607 0.605811
vn -0.357370 0.068351 0.931458
v 7.350624 5.902612 0.609771
vn -0.249176 -0.936004 0.248611
v 7.370635 5.998599 1.317372
vn -0.112755 -0.897383 0.426602
v 7.390656 6.020762 1.397355
vn -0.418897 -0.885540 0.200860
v 7.310568 6.025160 1.297447
vn -0.396646 -0.917841 -0.015492
v 7.290619 6.024341 1.177389
vn 0.302656 0.103220 0.947494
v 7.410640 5.902606 1.077194
vn 0.356108 -0.054121 0.932876
v 7.410594 5.702630 1.077821
vn -0.016476 -0.840915 0.540916
v 7.350621 5.575318 1.037388
vn -0.018545 -0.847308 0.530778
v 7.330621 5.575763 1.037388
vn 0.448221 0.840551 -0.304255
v 7.350623 6.167052 1.437397
vn 0.243029 0.948144 0.204840
v 7.330624 6.166903 1.437397
vn 0.404720 0.913911 -0.031111
v 7.310620 6.182612 1.435461
vn 0.796578 0.544024 -0.263630
v 7.296777 6.202611 1.417386
vn 0.266810 0.169091 -0.948800
v 7.270621 6.182613 1.411006
vn 0.081006 0.516523 -0.852433
v 7.230621 6.182605 1.411209
vn 0.044377 0.540123 -0.840415
v 7.210621 6.182595 1.408140
vn 0.105723 -0.873971 -0.474339
v 7.310617 6.031083 1.097391
vn -0.136406 -0.937077 -0.321372
v 7.310624 6.022655 1.110706
vn -0.193371 -0.980541 0.033881
v 7.250621 6.039488 1.157391
vn -0.308831 -0.927597 0.210207
v 7.250593 6.053089 1.317413
vn -0.257272 -0.957214 0.132484
v 7.190622 5.574643 1.017390
vn 0.126090 0.944819 -0.302354
v 7.250622 6.206723 1.417394
vn 0.261905 0.963436 -0.056534
v 7.170622 6.172009 1.397365
vn 0.091473 0.553730 -0.827657
v 7.170621 6.202611 1.414037
vn 0.257887 -0.020192 0.965964
v 7.350624 6.102617 1.477404
vn -0.040029 0.511858 0.858137
v 7.190621 6.182616 1.463862
vn 0.140293 0.399147 0.906090
v 7.310627 6.142624 1.474783
vn 0.128614 -0.508887 0.851171
v 7.370621 6.065451 1.457386
vn -0.073800 -0.768056 0.636116
v 7.370576 6.062502 1.454552
vn -0.255319 -0.847616 0.465145
v 7.270554 6.107428 1.457456
vn -0.134137 -0.341696 0.930189
v 7.330622 6.102614 1.477393
vn -0.198156 -0.827892 0.524718
v 7.210620 6.122606 1.455815
vn 0.228663 0.738236 -0.634603
v 7.150620 6.182527 1.390461
vn -0.107820 0.993935 -0.021652
v 7.150621 6.207830 1.417386
vn -0.176686 0.799623 -0.573921
v 7.130621 6.202613 1.392173
vn -0.016895 -0.987755 -0.155094
v 7.290620 6.030207 1.097388
vn 0.182038 -0.811113 0.555839
v 7.270621 6.024167 1.077390
vn 0.312896 0.400218 0.861349
v 7.350623 6.002607 1.065569
vn 0.188064 0.279717 0.941483
v 7.330620 6.002615 1.073128
vn 0.256958 -0.469195 0.844884
v 7.270620 6.022613 1.076144
vn 0.082073 0.021028 0.996404
v 7.330658 5.982601 1.072093
vn 0.061615 -0.086688 0.994328
v 7.270622 6.002609 1.069855
vn -0.211525 -0.268197 0.939855
v 7.138517 6.142614 1.457388
vn -0.427234 -0.321851 0.844916
v 7.130622 6.142613 1.455088
vn 0.074353 0.877018 -0.474670
v 7.110621 6.182614 1.392763
vn 0.012590 0.564440 -0.825378
v 7.130619 6.182532 1.390408
vn 0.083874 0.877870 -0.471496
v 7.110621 6.150945 1.337393
vn 0.403547 0.870118 -0.282923
v 7.110622 6.131389 1.297390
vn -0.130352 -0.920171 0.369181
v 7.210664 6.082683 1.370558
vn -0.221618 -0.931464 0.288549
v 7.230610 6.062563 1.326772
vn -0.194914 -0.675983 0.710673
v 7.150621 6.122613 1.446166
vn 0.415346 0.907568 -0.061706
v 7.090626 6.112028 1.157385
vn 0.372942 -0.923734 -0.087347
v 7.110622 6.047710 1.217388
vn 0.006552 -0.992545 0.121703
v 7.150628 6.047258 1.197386
vn -0.021694 -0.933076 0.359024
v 7.190619 6.042616 1.097389
vn -0.104602 -0.991063 0.082781
v 7.130621 6.040317 1.097386
vn -0.470196 0.813166 -0.343041
v 7.110621 6.071124 1.037385
vn -0.332895 0.652695 -0.680566
v 7.110621 6.047416 1.017387
vn -0.509243 0.514845 0.689643
v 7.130619 6.182615 1.453493
vn -0.677953 0.685461 0.265563
v 7.130618 6.187557 1.437390
vn -0.652813 -0.147903 0.742940
v 7.102424 6.142611 1.435150
vn -0.591198 0.806139 0.024993
v 7.110619 6.187240 1.397389
vn -0.451314 0.884216 -0.120322
v 7.090624 6.184897 1.377387
vn -0.373955 0.852422 -0.365424
v 7.090621 6.150958 1.337387
vn -0.122856 -0.992415 0.004296
v 7.090619 6.034644 1.217387
vn -0.417881 -0.705541 -0.572352
v 7.070621 5.615965 0.997387
vn -0.235381 0.963425 -0.128094
v 7.090621 6.150631 1.317388
vn -0.056487 0.997425 0.044186
v 7.090621 6.151006 1.297388
vn -0.050184 0.997695 -0.045677
v 7.070615 6.131434 1.157391
vn -0.230123 0.909189 -0.347014
v 7.090616 6.111653 1.097392
vn -0.116263 0.957818 -0.262806
v 7.070618 6.129388 1.137388
vn -0.471318 -0.765039 0.438833
v 7.090620 6.082580 1.371779
vn -0.428853 -0.809234 0.401529
v 7.088793 6.075906 1.357332
vn -0.711017 0.045804 0.701682
v 7.090611 6.142609 1.426798
vn -0.940899 0.338683 0.001474
v 7.065255 6.142615 1.357387
vn -0.669744 -0.482813 0.564212
v 7.085121 6.102613 1.397390
vn -0.941086 0.330923 0.069622
v 7.045646 6.102611 1.237392
vn -0.889260 0.347721 -0.297166
v 7.047537 6.102615 1.137388
vn -0.832632 -0.550028 0.064760
v 7.044032 6.062611 1.217394
vn -0.729567 -0.662753 0.168791
v 7.050610 6.062614 1.257391
vn -0.319973 -0.868750 0.378009
v 7.090620 6.062609 1.337388
vn -0.516914 -0.844419 0.140555
v 7.050621 6.059215 1.197388
vn -0.390111 -0.902015 0.184887
v 7.070621 6.038008 1.197388
vn -0.178347 -0.980344 -0.084364
v 7.090620 6.037821 1.137388
vn -0.911854 -0.390280 -0.127292
v 7.041043 6.062606 1.157388
vn 0.112223 0.957552 -0.265519
v 7.110621 6.032105 0.997388
vn -0.474715 0.868670 -0.141627
v 7.070621 6.032737 1.037388
vn 0.034593 0.062490 -0.997446
v 7.110621 6.022613 0.967558
vn -0.089038 0.063538 -0.994000
v 7.070621 5.982613 0.967514
vn -0.410714 0.560504 -0.719131
v 7.070618 6.002613 0.989392
vn -0.566404 0.391043 -0.725446
v 7.090614 6.022615 0.989206
vn 0.068616 0.871241 -0.486035
v 7.110621 6.032443 0.977388
vn -0.499614 0.751686 0.430528
v 7.070621 6.032594 1.057388
vn 0.035527 -0.675085 -0.736884
v 7.050622 5.634126 0.997388
vn -0.120948 -0.991519 0.047566
v 7.112439 6.042608 1.077388
vn -0.125038 -0.741640 0.659041
v 7.110621 6.042612 1.075301
vn -0.005754 -0.460218 0.887787
v 7.190621 6.022612 1.074802
vn -0.010005 -0.698448 0.715591
v 7.330621 5.582612 1.060888
vn -0.085844 -0.746586 0.659728
v 7.250619 5.582604 1.052169
vn -0.153941 -0.978477 -0.137425
v 7.050621 5.615185 1.017390
vn -0.240118 -0.970721 -0.006620
v 7.070621 5.609506 1.017388
vn -0.156402 -0.584184 0.796409
v 7.202724 5.602608 1.057396
vn -0.290997 -0.931301 0.219088
v 7.150620 5.594764 1.017387
vn -0.627572 0.761118 -0.163865
v 7.047132 6.022614 1.037388
vn -0.564703 0.687056 0.457236
v 7.050622 6.022613 1.052805
vn 0.074496 0.012171 0.997147
v 7.170630 5.902619 1.064338
vn 0.006752 0.016674 0.999838
v 7.210629 5.882623 1.061733
vn 0.253170 -0.125806 0.959207
v 7.390606 5.662624 1.080215
vn -0.001866 0.001289 0.999997
v 7.250628 5.687793 1.076664
vn -0.095115 -0.178307 0.979367
v 7.350619 5.622593 1.074338
vn -0.744410 -0.504886 -0.436971
v 6.972520 5.702613 0.977388
vn -0.247266 -0.551795 -0.796481
v 7.030619 5.622611 0.993818
vn -0.169756 -0.753226 0.635478
v 7.050620 5.622603 1.051782
vn -0.091565 -0.732103 -0.675012
v 7.050622 5.652613 0.977388
vn -0.930264 0.341374 0.134433
v 7.053615 6.122613 1.317385
vn -0.991824 0.028435 0.124407
v 7.054765 6.102618 1.297389
vn -0.756778 0.098027 -0.646280
v 7.070621 6.082612 1.090753
vn -0.513243 -0.565726 -0.645396
v 7.070621 6.052969 1.097387
vn -0.307335 0.949885 -0.057136
v 7.070626 6.130900 1.237386
vn -0.347874 -0.937531 -0.004354
v 7.110621 6.042612 1.077388
vn -0.631784 0.109979 -0.767303
v 7.090621 6.082612 1.069050
vn -0.027437 0.355342 0.934334
v 7.090638 6.162637 0.598849
vn 0.202341 -0.949826 0.238512
v 7.110621 6.033570 1.237388
vn 0.070439 -0.964713 0.253706
v 7.110620 6.053084 1.257386
vn -0.007905 -0.999320 0.036006
v 7.110620 6.054352 1.277384
vn -0.111150 -0.860108 0.497855
v 7.130621 6.080949 1.397387
vn 0.735986 0.071841 -0.673175
v 7.277003 6.182613 1.417388
vn -0.486751 -0.836189 0.252709
v 7.026823 5.622608 1.037389
vn -0.274076 -0.548695 -0.789821
v 7.050622 5.642613 0.988902
vn 0.440643 0.107590 0.891212
v 7.110673 6.142669 0.599178
vn 0.028995 0.935036 -0.353365
v 7.090621 6.152453 1.277388
vn -0.570707 0.594576 0.566368
v 7.090621 6.042613 1.063869
vn -0.228738 -0.911581 0.341614
v 7.270620 5.554126 1.017383
vn -0.303055 -0.878398 0.369560
v 7.250620 5.573842 1.017386
vn 0.821978 -0.533616 0.199012
v 7.439981 5.622620 1.037392
vn 0.538647 -0.803635 0.253042
v 7.390639 5.574627 1.037372
vn 0.468210 0.395200 0.790314
v 7.416210 5.942614 1.057393
vn -0.215632 -0.719449 -0.660224
v 7.010622 5.694397 0.977388
vn -0.586976 0.238493 -0.773679
v 6.990621 5.722613 0.957388
vn 0.003326 -0.059711 -0.998210
v 7.030622 5.642613 1.009229
vn -0.376795 -0.387174 -0.841500
v 7.010620 5.642611 0.988555
vn -0.482328 -0.651764 0.585289
v 7.010619 5.644310 1.057401
vn -0.083053 -0.091586 -0.992328
v 7.050622 5.662613 0.967388
vn -0.722063 -0.101888 -0.684284
v 7.040621 5.662613 0.977388
vn -0.759305 0.650414 0.020439
v 7.065724 6.122614 1.277388
vn -0.488252 0.855355 -0.173140
v 7.070621 6.126090 1.317388
vn -0.371882 -0.817955 -0.438923
v 7.090621 6.049417 1.097388
vn 0.119615 0.946164 -0.300777
v 7.090622 6.132197 1.257388
vn -0.681614 0.730428 -0.043337
v 7.070621 6.127510 1.277388
vn -0.882351 0.417661 -0.216832
v 7.105960 6.062613 1.057388
vn -0.555077 0.709533 -0.434110
v 7.110621 6.067274 1.057388
vn -0.209325 0.174397 -0.962169
v 7.110621 6.082612 1.068090
vn 0.347257 -0.194215 0.917438
v 7.090608 6.122618 0.614068
vn 0.218026 -0.961681 0.166234
v 7.130621 6.057945 1.237394
vn 0.323046 -0.923471 0.206987
v 7.150618 6.053484 1.317389
vn 0.073490 -0.972799 0.219685
v 7.170621 6.064422 1.317387
vn -0.028079 -0.884132 0.466393
v 7.190621 6.102616 1.419158
vn 0.030067 -0.937762 0.345975
v 7.190620 6.078724 1.357395
vn -0.122123 -0.872628 0.472870
v 7.270621 5.577192 1.037388
vn 0.289436 0.838639 -0.461424
v 7.290619 6.172289 1.417393
vn 0.403843 0.108567 -0.908363
v 7.290621 6.182613 1.435291
vn 0.149737 -0.282794 0.947421
v 7.370624 5.622618 1.077339
vn 0.660150 0.264146 0.703157
v 7.413274 5.982612 1.057384
vn 0.785990 0.391790 0.478248
v 7.419406 5.962612 1.037388
vn 0.032328 0.869218 0.493370
v 7.530622 5.923049 0.646876
vn 0.757770 0.651202 -0.041479
v 7.430601 6.078607 1.177388
vn -0.433715 0.153906 0.887809
v 6.930632 5.802637 0.598773
vn -0.001859 -0.045613 0.998958
v 7.010646 6.022678 0.601213
vn -0.108599 0.017672 0.993929
v 6.990810 6.022570 0.599567
vn -0.441413 0.160775 0.882783
v 6.910519 5.761714 0.596169
vn -0.043134 -0.015855 0.998944
v 7.170585 5.562533 0.593948
vn 0.062941 -0.286332 0.956061
v 7.290627 5.485939 0.594333
vn -0.911843 0.271243 -0.308172
v 6.992900 5.882612 1.017388
vn 0.605860 -0.083068 0.791222
v 6.950657 5.662653 0.594031
vn 0.611062 -0.082648 0.787256
v 6.930621 5.642614 0.607479
vn 0.093459 0.017193 0.995475
v 6.950607 5.802620 0.608764
vn 0.508874 -0.092804 0.855824
v 6.968826 5.782635 0.594917
vn -0.089010 0.123839 0.988302
v 7.450669 6.062668 0.600813
vn -0.002493 -0.021119 0.999774
v 7.710654 6.122628 0.602728
vn -0.088332 0.222934 0.970823
v 7.370623 5.982605 0.599079
vn -0.042951 0.121336 0.991682
v 7.270651 5.702658 0.596564
vn -0.002493 -0.021120 0.999774
v 7.630619 6.082608 0.601683
vn -0.099129 -0.040042 0.994269
v 7.190646 5.562645 0.594816
vn -0.241511 -0.163683 0.956494
v 7.350642 5.822639 0.597937
vn -0.027098 -0.154469 0.987626
v 7.390630 5.742628 0.597407
vn -0.001863 0.016491 0.999862
v 7.290651 5.702649 0.596633
vn -0.158459 0.273677 0.948679
v 7.430662 5.982682 0.600106
vn 0.069329 -0.014106 0.997494
v 7.314647 5.702626 0.596512
vn -0.216966 -0.131327 0.967305
v 7.390645 5.782641 0.597910
vn -0.590498 -0.656397 -0.469527
v 6.979421 5.702613 0.997388
vn -0.810259 -0.458886 -0.364560
v 6.961460 5.682614 1.017388
vn -0.915857 0.196087 -0.350365
v 6.964573 5.722613 0.997388
vn -0.589554 -0.736269 -0.332166
v 6.970621 5.674939 1.017388
vn -0.571942 0.642336 -0.510183
v 6.990620 5.727182 0.977387
vn -0.681581 -0.578596 -0.447967
v 6.990619 5.662611 1.009242
vn -0.672756 -0.563459 0.479494
v 6.967093 5.682612 1.057388
vn -0.523403 -0.851976 -0.013631
v 7.030622 5.614823 1.017389
vn -0.147385 -0.355560 0.922960
v 7.010622 5.682615 1.075465
vn -0.462106 -0.109579 0.880029
v 6.970619 5.722613 1.075120
vn -0.889555 -0.384374 -0.246876
v 6.950621 5.702613 1.057389
vn -0.903258 0.262905 -0.339124
v 6.970619 5.742613 1.017387
vn -0.970776 0.083845 0.224865
v 6.950621 5.722613 1.057388
vn -0.870197 0.203309 0.448801
v 6.977137 5.822615 1.057395
vn -0.974450 0.211935 -0.074371
v 6.968713 5.822613 1.037392
vn -0.982818 0.162133 0.088209
v 6.962185 5.762615 1.057382
vn -0.659755 0.059402 0.749129
v 6.970622 5.762613 1.079190
vn -0.529845 0.356160 -0.769685
v 6.990624 5.742613 0.987692
vn -0.585870 0.068550 -0.807500
v 6.990634 5.782611 0.989149
vn -0.138719 -0.244009 0.959800
v 7.010622 5.688467 1.077423
vn -0.053753 -0.036380 0.997891
v 7.010616 5.762608 1.087191
vn -0.333645 0.125177 0.934351
v 6.990628 5.782622 1.084668
vn -0.870920 0.204842 -0.446697
v 6.984383 5.842611 1.017391
vn -0.514458 0.160393 -0.842382
v 7.010633 5.882610 0.988710
vn -0.573828 0.678819 -0.458177
v 7.001890 5.882610 0.997393
vn -0.350266 0.131437 0.927382
v 7.027191 5.942600 1.077192
vn -0.845440 0.416453 0.334363
v 7.010620 5.962613 1.053451
vn -0.915669 0.213891 0.340296
v 6.982109 5.862613 1.057390
vn -0.459730 0.255713 0.850447
v 7.030623 5.962614 1.074849
vn -0.649419 0.468760 0.598765
v 7.030618 5.982614 1.063664
vn -0.953220 0.277155 -0.120654
v 6.983688 5.862613 1.037388
vn -0.909867 0.380257 -0.165973
v 7.008976 5.962610 1.037390
vn -0.652390 0.319377 -0.687303
v 7.050624 5.982612 0.989579
vn -0.833072 0.545592 -0.091217
v 7.030620 6.002612 1.037387
# 454 vertices, 0 vertices normals


usemtl material_0
vt 0.603388 0.020820
vt 0.610444 0.022705
vt 0.607217 0.018433
f 344/1/344 373/2/373 359/3/359
vt 0.991242 0.418210
vt 0.989450 0.411994
vt 0.993632 0.414473
f 346/4/346 376/5/376 347/6/347
vt 0.989928 0.418549
f 376/5/376 346/4/346 377/7/377
vt 0.945818 0.108538
vt 0.942033 0.110258
vt 0.948046 0.112549
f 379/8/379 350/9/350 380/10/380
vt 0.988476 0.412200
vt 0.983739 0.413181
vt 0.986221 0.409420
f 380/11/380 362/12/362 379/13/379
vt 0.915030 0.104277
vt 0.912637 0.102229
vt 0.912296 0.106216
f 351/14/351 381/15/381 363/16/363
vt 0.912984 0.101234
vt 0.914766 0.103171
vt 0.915272 0.100505
f 382/17/382 352/18/352 383/19/383
vt 0.750379 0.605135
vt 0.756886 0.605073
vt 0.753599 0.601845
f 353/20/353 384/21/384 361/22/361
vt 0.566178 0.013594
vt 0.566858 0.018161
vt 0.569987 0.014763
f 364/23/364 390/24/390 365/25/365
vt 0.978649 0.087086
vt 0.978635 0.088015
vt 0.981835 0.087132
f 391/26/391 358/27/358 392/28/392
vt 0.809203 0.630652
vt 0.773273 0.617949
vt 0.773320 0.621178
f 398/29/398 399/30/399 400/31/400
vt 0.809173 0.627396
vt 0.815893 0.633867
f 407/32/407 398/29/398 401/33/401
vt 0.831958 0.627192
vt 0.812404 0.624409
f 407/32/407 405/34/405 408/35/408
vt 0.835244 0.630416
f 407/32/407 406/36/406 405/34/405
f 399/30/399 408/35/408 361/22/361
f 399/30/399 407/32/407 408/35/408
f 399/30/399 398/29/398 407/32/407
vt 0.725379 0.003174
vt 0.720750 0.000774
vt 0.699951 0.003174
f 361/37/361 384/38/384 399/39/399
vt 0.766124 0.546392
vt 0.762616 0.517134
vt 0.755986 0.504165
f 409/40/409 413/41/413 410/42/410
vt 0.847933 0.591252
vt 0.847885 0.587987
vt 0.824981 0.575169
f 402/43/402 414/44/414 412/45/412
vt 0.818300 0.555699
vt 0.805336 0.562324
f 412/45/412 416/46/416 415/47/415
vt 0.824953 0.571913
f 412/45/412 417/48/417 416/46/416
vt 0.779272 0.559304
vt 0.779171 0.549532
f 411/49/411 418/50/418 409/40/409
vt 0.824922 0.568008
f 417/48/417 419/51/419 416/46/416
vt 0.811788 0.555755
f 416/46/416 420/52/420 415/47/415
vt 0.614302 0.016761
f 426/53/426 359/3/359 373/2/373
vt 0.992920 0.120969
vt 0.997943 0.118220
vt 0.998660 0.135135
f 446/54/446 447/55/447 448/56/448
vt 0.992920 0.147705
f 448/56/448 442/57/442 446/54/446
vt 0.998412 0.141651
f 448/56/448 434/58/434 442/57/442
vt 0.993212 0.117654
f 446/54/446 449/59/449 447/55/447
vt 0.994919 0.114398
f 449/59/449 450/60/450 447/55/447
f 400/31/400 384/21/384 353/20/353
f 400/31/400 399/30/399 384/21/384
vt 0.586613 0.015040
vt 0.578458 0.022065
f 334/61/334 333/62/333 344/1/344
vt 0.599852 0.015118
f 344/1/344 332/63/332 334/61/334
vt 0.603223 0.015281
f 344/1/344 331/64/331 332/63/332
f 344/1/344 359/3/359 331/64/331
vt 0.606406 0.015010
f 359/3/359 428/65/428 331/64/331
vt 0.907155 0.108319
vt 0.902281 0.101125
vt 0.899218 0.100092
f 318/66/318 317/67/317 323/68/323
vt 0.905965 0.112231
vt 0.908451 0.112549
f 335/69/335 336/70/336 318/66/318
vt 0.910227 0.109336
f 336/70/336 324/71/324 318/66/318
vt 0.994324 0.381366
vt 0.989023 0.388817
vt 0.989583 0.381136
f 349/72/349 309/73/309 348/74/348
vt 0.996063 0.390800
f 349/72/349 316/75/316 309/73/309
vt 0.997778 0.400426
vt 0.992200 0.404762
f 310/76/310 308/77/308 309/73/309
f 309/73/309 316/75/316 310/76/310
vt 0.995325 0.430874
vt 0.988881 0.425323
f 307/78/307 306/79/306 347/6/347
vt 0.998710 0.406907
f 347/6/347 311/80/311 307/78/307
f 306/79/306 346/4/346 347/6/347
vt 0.989860 0.436768
f 307/78/307 305/81/305 306/79/306
f 347/6/347 308/77/308 311/80/311
f 308/77/308 310/76/310 311/80/311
vt 0.983864 0.389893
vt 0.984424 0.383291
f 309/73/309 302/82/302 301/83/301
f 301/83/301 348/74/348 309/73/309
vt 0.986721 0.405906
vt 0.984169 0.393145
f 308/77/308 350/84/350 300/85/300
f 300/85/300 309/73/309 308/77/308
f 308/77/308 376/5/376 350/84/350
f 308/77/308 347/6/347 376/5/376
f 300/85/300 302/82/302 309/73/309
f 376/5/376 380/11/380 350/84/350
f 376/5/376 377/7/377 380/11/380
vt 0.984578 0.416334
f 377/7/377 299/86/299 380/11/380
vt 0.985253 0.419518
f 377/7/377 298/87/298 299/86/299
f 299/86/299 362/12/362 380/11/380
vt 0.985820 0.422721
f 377/7/377 306/79/306 295/88/295
f 377/7/377 346/4/346 306/79/306
f 295/88/295 298/87/298 377/7/377
vt 0.981862 0.430060
f 306/79/306 294/89/294 295/88/295
vt 0.981201 0.433602
f 305/81/305 293/90/293 294/89/294
f 294/89/294 306/79/306 305/81/305
vt 0.905999 0.100865
f 318/66/318 289/91/289 317/67/317
vt 0.910067 0.099911
f 318/66/318 288/92/288 289/91/289
f 288/92/288 363/16/363 381/15/381
f 288/92/288 318/66/318 363/16/363
f 318/66/318 324/71/324 363/16/363
f 381/15/381 382/17/382 288/92/288
f 352/18/352 382/17/382 381/15/381
vt 0.926583 0.105358
vt 0.929746 0.106195
vt 0.929588 0.105179
f 302/93/302 300/94/300 283/95/283
vt 0.920341 0.102196
f 283/95/283 301/96/301 302/93/302
vt 0.949742 0.107869
vt 0.952759 0.108994
vt 0.952593 0.107997
f 362/97/362 299/98/299 279/99/279
f 279/99/279 379/8/379 362/97/362
vt 0.959566 0.108391
vt 0.966486 0.110213
vt 0.969697 0.105828
f 278/100/278 294/101/294 277/102/277
vt 0.958912 0.111008
f 278/100/278 295/103/295 294/101/294
vt 0.969409 0.108557
f 294/101/294 276/104/276 277/102/277
vt 0.970315 0.108407
f 294/101/294 293/105/293 276/104/276
vt 0.970808 0.104256
f 266/106/266 276/104/276 293/105/293
vt 0.970358 0.103213
f 266/106/266 264/107/264 277/102/277
f 277/102/277 276/104/276 266/106/266
vt 0.975559 0.102474
vt 0.975479 0.100119
f 264/107/264 265/108/265 255/109/255
f 264/107/264 266/106/266 265/108/265
vt 0.971635 0.101810
f 255/109/255 254/110/254 264/107/264
vt 0.579596 0.014087
vt 0.570194 0.020456
f 333/62/333 252/111/252 330/112/330
f 333/62/333 334/61/334 252/111/252
vt 0.997874 0.662275
vt 0.995195 0.660937
vt 0.994251 0.663297
f 267/113/267 248/114/248 249/115/249
vt 0.978782 0.089476
vt 0.975042 0.096241
f 255/109/255 253/116/253 247/117/247
f 255/109/255 265/108/265 253/116/253
vt 0.976168 0.093776
f 253/116/253 246/118/246 247/117/247
vt 0.977445 0.088529
f 253/116/253 245/119/245 246/118/246
vt 0.980117 0.083773
f 253/116/253 244/120/244 245/119/245
vt 0.557230 0.018792
vt 0.557398 0.022705
f 390/24/390 240/121/240 329/122/329
f 329/122/329 330/112/330 390/24/390
f 330/112/330 365/25/365 390/24/390
f 330/112/330 252/111/252 365/25/365
vt 0.554021 0.019005
f 240/121/240 239/123/239 329/122/329
vt 0.792316 0.562437
vt 0.782524 0.559271
f 411/49/411 232/124/232 231/125/231
vt 0.559781 0.014067
f 226/126/226 240/121/240 390/24/390
f 390/24/390 364/23/364 226/126/226
vt 0.550178 0.014757
f 226/126/226 225/127/225 240/121/240
vt 0.550447 0.016785
f 225/127/225 224/128/224 240/121/240
f 358/27/358 244/120/244 392/28/392
f 358/27/358 245/119/245 244/120/244
vt 0.982514 0.084522
f 244/120/244 243/129/243 392/28/392
vt 0.992757 0.659379
f 212/130/212 249/115/249 248/114/248
vt 0.990894 0.663330
f 212/130/212 228/131/228 249/115/249
vt 0.547607 0.019443
f 329/122/329 239/123/239 367/132/367
vt 0.986737 0.663330
vt 0.991166 0.653739
vt 0.981898 0.656974
f 227/133/227 202/134/202 201/135/201
f 227/133/227 212/130/212 202/134/202
vt 0.983959 0.652718
f 202/134/202 200/136/200 201/135/201
f 227/133/227 228/131/228 212/130/212
vt 0.988422 0.652383
f 202/134/202 199/137/199 200/136/200
vt 0.811760 0.552499
vt 0.818242 0.549190
vt 0.814955 0.545957
f 183/138/183 182/139/182 181/140/181
f 183/138/183 416/46/416 182/139/182
f 183/138/183 420/52/420 416/46/416
vt 0.911428 0.094568
vt 0.919866 0.089410
vt 0.914477 0.084564
f 149/141/149 148/142/148 147/143/147
f 247/117/247 254/110/254 255/109/255
vt 0.867121 0.402968
vt 0.850491 0.417192
vt 0.870435 0.414733
f 121/144/121 120/145/120 119/146/119
vt 0.973620 0.093911
vt 0.950217 0.102940
f 116/147/116 115/148/115 264/107/264
vt 0.958518 0.084361
f 116/147/116 114/149/114 115/148/115
f 115/148/115 278/100/278 264/107/264
f 264/107/264 254/110/254 116/147/116
f 115/148/115 279/99/279 278/100/278
f 278/100/278 277/102/277 264/107/264
f 254/110/254 247/117/247 116/147/116
f 247/117/247 246/118/246 116/147/116
vt 0.320031 0.249837
vt 0.311682 0.241618
vt 0.323269 0.235992
f 415/150/415 183/151/183 113/152/113
vt 0.327473 0.244314
f 113/152/113 112/153/112 415/150/415
vt 0.312462 0.244953
f 415/150/415 420/154/420 183/151/183
vt 0.341406 0.241667
vt 0.332439 0.246750
f 231/155/231 232/156/232 113/152/113
vt 0.327025 0.223406
f 113/152/113 111/157/111 231/155/231
f 232/156/232 112/153/112 113/152/113
vt 0.320402 0.224703
f 113/152/113 110/158/110 111/157/111
vt 0.325230 0.219962
f 110/158/110 109/159/109 111/157/111
vt 0.325777 0.218473
f 109/159/109 108/160/108 111/157/111
vt 0.959727 0.079300
f 107/161/107 114/149/114 391/26/391
vt 0.983425 0.080466
f 391/26/391 210/162/210 107/161/107
f 114/149/114 116/147/116 391/26/391
vt 0.982809 0.083299
f 391/26/391 242/163/242 210/162/210
vt 0.983469 0.080669
f 242/163/242 241/164/241 210/162/210
vt 0.987992 0.377952
vt 0.982767 0.380403
f 352/165/352 301/83/301 84/166/84
f 352/165/352 348/74/348 301/83/301
vt 0.981201 0.377495
f 84/166/84 83/167/83 352/165/352
f 283/95/283 300/94/300 350/9/350
vt 0.946988 0.102241
f 350/9/350 82/168/82 283/95/283
f 350/9/350 379/8/379 82/168/82
f 379/8/379 279/99/279 82/168/82
f 279/99/279 115/148/115 82/168/82
vt 0.915533 0.094869
vt 0.914279 0.097349
f 83/169/83 81/170/81 383/19/383
f 383/19/383 352/18/352 83/169/83
vt 0.915026 0.094545
f 83/169/83 80/171/80 81/170/81
vt 0.927228 0.072665
f 82/168/82 79/172/79 148/142/148
f 148/142/148 283/95/283 82/168/82
vt 0.917684 0.071599
f 79/172/79 78/173/78 148/142/148
vt 0.921159 0.097920
f 148/142/148 77/174/77 283/95/283
f 78/173/78 147/143/147 148/142/148
f 77/174/77 301/96/301 283/95/283
vt 0.923899 0.072153
f 79/172/79 76/175/76 78/173/78
vt 0.917950 0.098509
f 77/174/77 84/176/84 301/96/301
vt 0.955821 0.110030
f 279/99/279 299/98/299 298/177/298
f 298/177/298 278/100/278 279/99/279
f 298/177/298 295/103/295 278/100/278
vt 0.901932 0.099094
vt 0.908252 0.094474
vt 0.904835 0.091781
f 150/178/150 75/179/75 74/180/74
f 150/178/150 289/91/289 75/179/75
f 289/91/289 288/92/288 75/179/75
f 150/178/150 323/68/323 317/67/317
vt 0.897295 0.100411
f 150/178/150 319/181/319 323/68/323
f 317/67/317 289/91/289 150/178/150
f 80/171/80 148/142/148 149/141/149
f 80/171/80 77/174/77 148/142/148
f 149/141/149 81/170/81 80/171/80
f 149/141/149 288/92/288 81/170/81
f 149/141/149 75/179/75 288/92/288
vt 0.908289 0.092982
f 149/141/149 73/182/73 75/179/75
f 81/170/81 382/17/382 383/19/383
f 77/174/77 83/169/83 84/176/84
f 77/174/77 80/171/80 83/169/83
f 74/180/74 75/179/75 73/182/73
vt 0.905750 0.082331
vt 0.907886 0.082087
f 61/183/61 147/143/147 60/184/60
f 61/183/61 73/182/73 147/143/147
f 73/182/73 149/141/149 147/143/147
vt 0.935132 0.068571
f 79/172/79 114/149/114 59/185/59
f 79/172/79 82/168/82 114/149/114
f 114/149/114 107/161/107 59/185/59
f 82/168/82 115/148/115 114/149/114
vt 0.910782 0.076385
f 147/143/147 78/173/78 58/186/58
f 58/186/58 60/184/60 147/143/147
vt 0.890924 0.068202
f 61/183/61 58/186/58 57/187/57
vt 0.887451 0.074657
f 57/187/57 64/188/64 61/183/61
f 61/183/61 60/184/60 58/186/58
vt 0.888254 0.069256
f 57/187/57 56/189/56 64/188/64
f 245/119/245 391/26/391 116/147/116
f 116/147/116 246/118/246 245/119/245
f 245/119/245 358/27/358 391/26/391
f 415/150/415 112/153/112 232/156/232
vt 0.913826 0.072133
vt 0.898704 0.065985
f 58/186/58 53/190/53 52/191/52
f 52/191/52 57/187/57 58/186/58
vt 0.893321 0.066153
f 52/191/52 51/192/51 57/187/57
f 58/186/58 78/173/78 53/190/53
f 243/129/243 391/26/391 392/28/392
f 243/129/243 242/163/242 391/26/391
vt 0.916282 0.071709
vt 0.913762 0.065628
f 52/191/52 214/193/214 43/194/43
f 52/191/52 53/190/53 214/193/214
vt 0.916911 0.067815
f 214/193/214 42/195/42 43/194/43
vt 0.916365 0.072261
f 53/190/53 217/196/217 214/193/214
vt 0.919978 0.072821
f 53/190/53 138/197/138 217/196/217
vt 0.916809 0.067091
f 42/195/42 41/198/41 43/194/43
f 78/173/78 76/175/76 138/197/138
f 138/197/138 53/190/53 78/173/78
vt 0.920647 0.073039
f 76/175/76 134/199/134 138/197/138
vt 0.921439 0.072392
vt 0.924716 0.068703
vt 0.921991 0.069739
f 202/200/202 38/201/38 199/202/199
vt 0.936006 0.064186
f 38/201/38 59/185/59 37/203/37
f 38/201/38 79/172/79 59/185/59
f 38/201/38 76/175/76 79/172/79
f 38/201/38 134/199/134 76/175/76
vt 0.967355 0.074419
f 107/161/107 36/204/36 37/203/37
f 37/203/37 59/185/59 107/161/107
vt 0.977145 0.077257
f 107/161/107 130/205/130 36/204/36
f 107/161/107 210/162/210 130/205/130
vt 0.977362 0.075909
f 130/205/130 35/206/35 36/204/36
vt 0.983847 0.077264
f 210/162/210 211/207/211 130/205/130
f 56/189/56 57/187/57 51/192/51
vt 0.334560 0.225928
vt 0.342852 0.231741
f 231/155/231 31/208/31 418/209/418
f 231/155/231 111/157/111 31/208/31
vt 0.344718 0.241170
f 418/209/418 411/210/411 231/155/231
vt 0.328263 0.219964
f 111/157/111 30/211/30 31/208/31
vt 0.892983 0.065812
f 132/212/132 52/191/52 43/194/43
f 132/212/132 51/192/51 52/191/52
vt 0.921883 0.068799
vt 0.936002 0.062865
f 200/213/200 38/201/38 29/214/29
vt 0.928716 0.064463
f 29/214/29 28/215/28 200/213/200
f 38/201/38 37/203/37 29/214/29
vt 0.931029 0.063456
f 29/214/29 27/216/27 28/215/28
f 200/213/200 199/202/199 38/201/38
vt 0.980957 0.074613
vt 0.981003 0.075139
f 35/206/35 206/217/206 207/218/207
f 35/206/35 130/205/130 206/217/206
vt 0.850588 0.436768
vt 0.866844 0.430760
vt 0.853308 0.427334
f 113/219/113 26/220/26 25/221/25
vt 0.305420 0.229233
f 113/152/113 183/151/183 26/222/26
vt 0.307087 0.235797
f 183/151/183 181/223/181 26/222/26
vt 0.849487 0.428326
f 25/221/25 110/224/110 113/219/113
vt 0.973363 0.655215
vt 0.975096 0.658813
f 201/135/201 28/225/28 190/226/190
f 201/135/201 200/136/200 28/225/28
vt 0.972302 0.657579
f 28/225/28 179/227/179 190/226/190
vt 0.967347 0.073115
vt 0.942377 0.064442
f 36/204/36 106/228/106 397/229/397
f 397/229/397 37/203/37 36/204/36
f 397/229/397 29/214/29 37/203/37
vt 0.977790 0.072411
f 106/228/106 35/206/35 24/230/24
f 106/228/106 36/204/36 35/206/35
vt 0.980802 0.074247
f 35/206/35 208/231/208 24/230/24
f 35/206/35 207/218/207 208/231/208
vt 0.333343 0.219692
vt 0.343782 0.221180
f 31/208/31 21/232/21 20/233/20
f 20/233/20 418/209/418 31/208/31
vt 0.354883 0.225836
f 20/233/20 409/234/409 418/209/418
vt 0.330493 0.216877
f 31/208/31 19/235/19 21/232/21
vt 0.971438 0.656016
vt 0.969482 0.662894
f 179/227/179 27/236/27 180/237/180
f 179/227/179 28/225/28 27/236/27
vt 0.341597 0.209037
f 409/234/409 20/233/20 17/238/17
vt 0.338969 0.212751
f 20/233/20 16/239/16 17/238/17
vt 0.851973 0.423882
f 26/220/26 15/240/15 25/221/25
vt 0.879773 0.426299
f 26/220/26 14/241/14 15/240/15
vt 0.880480 0.429805
f 26/220/26 13/242/13 14/241/14
vt 0.882965 0.432762
f 26/220/26 22/243/22 13/242/13
vt 0.847330 0.417976
vt 0.848816 0.424650
f 15/240/15 12/244/12 11/245/11
f 15/240/15 120/145/120 12/244/12
f 11/245/11 110/224/110 15/240/15
f 110/224/110 25/221/25 15/240/15
vt 0.845719 0.425143
vt 0.844154 0.428841
f 110/224/110 10/246/10 109/247/109
f 110/224/110 11/245/11 10/246/10
vt 0.842705 0.425242
f 10/246/10 9/248/9 109/247/109
f 19/235/19 31/208/31 30/211/30
vt 0.892345 0.436748
f 13/242/13 22/243/22 23/249/23
f 15/240/15 14/241/14 119/146/119
f 119/146/119 120/145/120 15/240/15
vt 0.847349 0.404631
f 10/246/10 12/244/12 8/250/8
f 10/246/10 11/245/11 12/244/12
vt 0.326265 0.213207
vt 0.328003 0.216756
f 108/160/108 7/251/7 6/252/6
f 6/252/6 30/211/30 108/160/108
f 30/211/30 111/157/111 108/160/108
vt 0.332497 0.213947
f 16/239/16 21/232/21 5/253/5
f 16/239/16 20/233/20 21/232/21
vt 0.849744 0.400619
f 118/254/118 120/145/120 121/144/121
f 118/254/118 8/250/8 120/145/120
f 8/250/8 12/244/12 120/145/120
vt 0.324987 0.216087
vt 0.326091 0.211922
f 7/251/7 9/255/9 4/256/4
f 7/251/7 108/160/108 9/255/9
vt 0.843414 0.428738
f 108/257/108 109/247/109 9/248/9
vt 0.839916 0.421962
f 4/258/4 9/248/9 10/246/10
vt 0.329312 0.216819
vt 0.328641 0.211411
f 396/259/396 3/260/3 5/253/5
f 5/253/5 19/235/19 396/259/396
f 5/253/5 21/232/21 19/235/19
vt 0.332078 0.210476
f 3/260/3 117/261/117 5/253/5
vt 0.325897 0.210684
f 396/259/396 7/251/7 2/262/2
f 396/259/396 6/252/6 7/251/7
f 16/239/16 5/253/5 117/261/117
vt 0.327221 0.211035
f 2/262/2 1/263/1 396/259/396
f 1/263/1 3/260/3 396/259/396
f 30/211/30 6/252/6 396/259/396
f 30/211/30 396/259/396 19/235/19
vt 0.980116 0.955948
vt 0.986381 0.955955
vt 0.984008 0.951131
f 369/264/369 342/265/342 370/266/370
vt 0.975742 0.964453
vt 0.975700 0.964141
vt 0.979272 0.962044
f 371/267/371 343/268/343 372/269/372
vt 0.972803 0.961320
f 371/267/371 360/270/360 343/268/343
vt 0.973377 0.956640
vt 0.973101 0.958878
vt 0.974849 0.958185
f 374/271/374 345/272/345 375/273/375
vt 0.055987 0.501325
vt 0.053196 0.507080
vt 0.055742 0.506001
f 348/274/348 378/275/378 349/276/349
vt 0.629149 0.706432
vt 0.625732 0.710205
vt 0.625732 0.706160
f 354/277/354 385/278/385 355/279/355
vt 0.256917 0.802845
vt 0.254639 0.811768
vt 0.254639 0.799917
f 386/280/386 356/281/356 387/282/387
vt 0.285240 0.800971
vt 0.276084 0.804725
vt 0.285012 0.811639
f 388/283/388 357/284/357 389/285/389
vt 0.897561 0.887404
vt 0.899845 0.898850
vt 0.906929 0.893545
f 366/286/366 393/287/393 367/288/367
vt 0.342845 0.753174
vt 0.348790 0.752839
vt 0.345141 0.749985
f 394/289/394 368/290/368 395/291/395
vt 0.984978 0.958525
vt 0.987328 0.963347
vt 0.987641 0.957040
f 421/292/421 422/293/422 423/294/423
vt 0.985747 0.963850
f 421/292/421 424/295/424 422/293/422
vt 0.065888 0.190603
vt 0.063232 0.194580
vt 0.066676 0.194580
f 423/296/423 342/297/342 421/298/421
vt 0.063647 0.696849
vt 0.066117 0.701583
vt 0.068352 0.697147
f 423/299/423 425/300/425 342/301/342
vt 0.069062 0.702393
f 425/300/425 370/302/370 342/301/342
vt 0.057506 0.495361
vt 0.054989 0.490244
vt 0.047607 0.495361
f 426/303/426 372/304/372 359/305/359
vt 0.028076 0.628174
vt 0.037466 0.628061
vt 0.032430 0.620304
f 373/306/373 427/307/427 426/308/426
vt 0.036123 0.621544
f 427/307/427 424/309/424 426/308/426
vt 0.050525 0.488869
f 372/304/372 343/310/343 359/305/359
vt 0.047893 0.491867
f 343/310/343 428/311/428 359/305/359
vt 0.038053 0.621518
f 427/307/427 422/312/422 424/309/424
vt 0.904686 0.964705
vt 0.903067 0.958008
vt 0.898132 0.965747
f 427/313/427 429/314/429 430/315/430
vt 0.909227 0.956463
f 427/313/427 373/316/373 429/314/429
vt 0.902092 0.968018
f 430/315/430 431/317/431 427/313/427
vt 0.465272 0.823359
vt 0.455679 0.821912
vt 0.458814 0.825300
f 422/318/422 432/319/432 423/320/423
vt 0.460386 0.815490
f 422/318/422 433/321/433 432/319/432
vt 0.044059 0.628174
f 422/312/422 427/307/427 433/322/433
vt 0.465576 0.734414
vt 0.466816 0.738445
vt 0.465576 0.741455
f 427/323/427 431/324/431 433/325/433
vt 0.443718 0.813614
vt 0.443983 0.816261
vt 0.453661 0.814786
f 434/326/434 435/327/435 436/328/436
vt 0.453417 0.811865
f 436/328/436 437/329/437 434/326/434
vt 0.448139 0.706577
vt 0.441864 0.710205
vt 0.448352 0.710205
f 436/330/436 430/331/430 437/332/437
vt 0.441470 0.705939
f 436/330/436 433/333/433 430/331/430
vt 0.438232 0.706199
f 433/333/433 431/334/431 430/331/430
vt 0.454111 0.827393
f 423/320/423 432/319/432 438/335/438
vt 0.063232 0.702393
f 438/336/438 425/300/425 423/299/423
vt 0.448102 0.825915
f 439/337/439 438/335/438 432/319/432
f 432/319/432 436/328/436 439/337/439
f 432/319/432 433/321/433 436/328/436
vt 0.902129 0.958235
vt 0.890313 0.960943
f 430/315/430 440/338/440 441/339/441
vt 0.891762 0.967194
f 441/339/441 437/340/437 430/315/430
f 430/315/430 429/314/429 440/338/440
vt 0.887853 0.964785
f 441/339/441 442/341/442 437/340/437
vt 0.439781 0.819429
vt 0.431822 0.823796
f 439/337/439 443/342/443 444/343/444
f 439/337/439 435/327/435 443/342/443
f 439/337/439 436/328/436 435/327/435
vt 0.432455 0.822056
f 443/342/443 445/344/445 444/343/444
vt 0.882097 0.968018
f 434/345/434 437/340/437 442/341/442
vt 0.437053 0.815720
vt 0.433240 0.818579
f 443/342/443 451/346/451 404/347/404
f 404/347/404 445/344/445 443/342/443
vt 0.420556 0.811416
vt 0.420460 0.813785
f 404/347/404 447/348/447 452/349/452
vt 0.437391 0.812596
f 404/347/404 448/350/448 447/348/447
f 404/347/404 451/346/451 448/350/448
vt 0.414352 0.822431
f 452/349/452 453/351/453 444/343/444
f 444/343/444 404/347/404 452/349/452
vt 0.413127 0.813562
f 452/349/452 454/352/454 453/351/453
f 444/343/444 445/344/445 404/347/404
vt 0.900570 0.901987
vt 0.893745 0.920151
f 440/338/440 341/353/341 340/354/340
f 340/354/340 441/339/441 440/338/440
vt 0.892772 0.897116
f 341/353/341 339/355/339 340/354/340
f 341/353/341 393/287/393 339/355/339
vt 0.864284 0.933149
vt 0.861185 0.964508
f 441/339/441 338/356/338 446/357/446
f 441/339/441 340/354/340 338/356/338
vt 0.862513 0.940221
f 338/356/338 337/358/337 446/357/446
f 446/357/446 442/341/442 441/339/441
vt 0.416460 0.810185
f 452/349/452 450/359/450 454/352/454
f 452/349/452 447/348/447 450/359/450
vt 0.409094 0.811538
f 450/359/450 336/360/336 454/352/454
vt 0.409117 0.813721
f 336/360/336 335/361/335 454/352/454
vt 0.909051 0.924545
f 333/362/333 341/353/341 440/338/440
vt 0.911283 0.949297
f 440/338/440 344/363/344 333/362/333
vt 0.910555 0.916191
f 333/362/333 330/364/330 341/353/341
vt 0.907684 0.903606
f 330/364/330 329/365/329 341/353/341
f 440/338/440 429/314/429 344/363/344
f 429/314/429 373/316/373 344/363/344
vt 0.842705 0.941373
vt 0.842358 0.954763
f 337/358/337 328/366/328 327/367/327
f 327/367/327 446/357/446 337/358/337
vt 0.857896 0.964639
f 327/367/327 449/368/449 446/357/446
vt 0.282221 0.858432
vt 0.269209 0.856601
vt 0.268887 0.856915
f 328/369/328 326/370/326 327/371/327
vt 0.972569 0.963219
vt 0.972031 0.967600
f 343/268/343 325/372/325 331/373/331
vt 0.975258 0.968018
f 331/373/331 428/374/428 343/268/343
f 343/268/343 360/270/360 325/372/325
vt 0.845442 0.960552
f 449/368/449 327/367/327 324/375/324
vt 0.854768 0.965214
f 324/375/324 450/376/450 449/368/449
vt 0.847754 0.963322
f 324/375/324 336/377/336 450/376/450
vt 0.843115 0.957805
f 327/367/327 363/378/363 324/375/324
vt 0.403076 0.825586
vt 0.405908 0.823139
f 335/361/335 323/379/323 322/380/322
f 453/351/453 454/352/454 335/361/335
vt 0.410130 0.822785
vt 0.412877 0.826748
f 321/381/321 320/382/320 453/351/453
vt 0.404438 0.827393
f 323/379/323 319/383/319 322/380/322
vt 0.406175 0.814524
f 323/379/323 335/361/335 318/384/318
vt 0.258545 0.842593
vt 0.266893 0.847115
vt 0.264702 0.837455
f 316/385/316 315/386/315 314/387/314
vt 0.262566 0.852692
f 316/385/316 349/388/349 315/386/315
vt 0.260832 0.836481
f 314/387/314 313/389/313 316/385/316
vt 0.271818 0.824531
vt 0.269361 0.814564
vt 0.261704 0.826868
f 356/390/356 312/391/312 311/392/311
vt 0.278845 0.818580
f 356/390/356 386/393/386 312/391/312
vt 0.271532 0.827740
f 311/392/311 355/394/355 356/390/356
f 311/392/311 313/389/313 355/394/355
vt 0.260004 0.833134
f 311/392/311 310/395/310 313/389/313
f 310/395/310 316/385/316 313/389/313
vt 0.268961 0.810892
vt 0.269268 0.808371
vt 0.268156 0.803517
f 304/396/304 303/397/303 307/398/307
vt 0.969098 0.964441
vt 0.968725 0.967717
f 297/399/297 332/400/332 331/373/331
f 331/373/331 325/372/325 297/399/297
vt 0.268312 0.834591
f 313/389/313 296/401/296 355/394/355
f 313/389/313 314/387/314 296/401/296
vt 0.271847 0.831641
f 296/401/296 354/402/354 355/394/355
vt 0.040857 0.069580
vt 0.040907 0.067336
vt 0.031573 0.069580
f 305/403/305 292/404/292 293/405/293
vt 0.033724 0.062664
f 292/404/292 291/406/291 293/405/293
vt 0.035680 0.060888
f 292/404/292 290/407/290 291/406/291
vt 0.272496 0.853682
vt 0.281932 0.854103
vt 0.277081 0.837783
f 287/408/287 286/409/286 285/410/285
f 285/410/285 315/386/315 287/408/287
f 285/410/285 314/387/314 315/386/315
vt 0.271052 0.834265
f 285/410/285 284/411/284 314/387/314
vt 0.630619 0.710025
vt 0.633381 0.707367
vt 0.637480 0.708528
f 284/412/284 296/413/296 314/414/314
vt 0.265854 0.852997
f 315/386/315 378/415/378 287/408/287
f 315/386/315 349/388/349 378/415/378
vt 0.268921 0.856586
f 378/415/378 351/416/351 287/408/287
vt 0.842349 0.954786
vt 0.842285 0.954498
vt 0.841920 0.951760
f 351/417/351 326/418/326 287/419/287
f 351/417/351 327/367/327 326/418/326
f 351/417/351 363/378/363 327/367/327
vt 0.047607 0.502598
vt 0.048480 0.507080
f 378/275/378 381/420/381 351/421/351
vt 0.051308 0.500238
f 378/275/378 352/422/352 381/420/381
f 378/275/378 348/274/348 352/422/352
vt 0.268191 0.797398
vt 0.278682 0.795605
f 305/423/305 357/284/357 282/424/282
f 305/423/305 307/398/307 357/284/357
f 307/398/307 303/397/303 357/284/357
f 354/277/354 296/413/296 284/412/284
f 284/412/284 385/278/385 354/277/354
vt 0.976069 0.973264
vt 0.973389 0.975830
vt 0.988327 0.975830
f 386/425/386 387/426/387 304/427/304
f 304/396/304 312/391/312 386/393/386
vt 0.281656 0.818336
vt 0.291382 0.817432
f 387/428/387 285/410/285 281/429/281
vt 0.274214 0.830885
f 387/428/387 385/430/385 285/410/285
f 281/429/281 389/285/389 387/428/387
f 389/285/389 357/284/357 387/428/387
f 357/284/357 304/396/304 387/428/387
f 387/428/387 356/390/356 385/430/385
f 357/284/357 303/397/303 304/396/304
vt 0.288276 0.809579
f 281/429/281 280/431/280 389/285/389
f 385/430/385 284/411/284 285/410/285
f 356/390/356 355/394/355 385/430/385
vt 0.531982 0.735915
vt 0.534038 0.741455
vt 0.535254 0.741287
f 290/432/290 275/433/275 274/434/274
vt 0.041026 0.061979
f 290/407/290 292/404/292 275/435/275
vt 0.843071 0.927933
f 337/358/337 338/356/338 273/436/273
f 273/436/273 328/366/328 337/358/337
vt 0.844114 0.917739
f 338/356/338 272/437/272 273/436/273
vt 0.839867 0.928705
f 273/436/273 271/438/271 328/366/328
vt 0.840932 0.918457
f 272/437/272 270/439/270 273/436/273
vt 0.840258 0.915201
f 272/437/272 269/440/269 270/439/270
vt 0.294895 0.858643
vt 0.298195 0.855422
f 268/441/268 267/442/267 286/409/286
f 286/409/286 328/369/328 268/441/268
vt 0.839615 0.928773
f 328/366/328 271/438/271 268/443/268
f 286/409/286 287/408/287 328/369/328
f 287/408/287 326/370/326 328/369/328
vt 0.028076 0.067613
f 266/444/266 293/405/293 291/406/291
vt 0.028383 0.062316
f 291/406/291 265/445/265 266/444/266
vt 0.288353 0.794589
f 388/283/388 263/446/263 282/424/282
f 282/424/282 357/284/357 388/283/388
vt 0.308392 0.792955
vt 0.298383 0.795414
f 262/447/262 263/446/263 261/448/261
vt 0.276289 0.792969
f 262/447/262 274/449/274 263/446/263
f 274/449/274 282/424/282 263/446/263
vt 0.315673 0.798426
f 261/448/261 260/450/260 262/447/262
vt 0.315630 0.797867
f 260/450/260 259/451/259 262/447/262
vt 0.274999 0.793266
f 274/449/274 275/452/275 282/424/282
vt 0.566941 0.739773
vt 0.561800 0.735037
vt 0.541230 0.734076
f 262/453/262 258/454/258 257/455/257
f 257/455/257 274/434/274 262/453/262
f 257/455/257 290/432/290 274/434/274
vt 0.570030 0.738888
f 262/453/262 256/456/256 258/454/258
vt 0.549330 0.724495
vt 0.533832 0.728771
f 257/455/257 253/457/253 265/458/265
f 265/458/265 290/432/290 257/455/257
f 265/445/265 291/406/291 290/407/290
vt 0.294709 0.819440
f 285/410/285 251/459/251 281/429/281
vt 0.292533 0.845248
f 285/410/285 250/460/250 251/459/251
f 285/410/285 286/409/286 250/460/250
f 286/409/286 267/442/267 250/460/250
vt 0.301834 0.853774
f 267/442/267 249/461/249 250/460/250
f 388/283/388 261/448/261 263/446/263
f 388/283/388 280/431/280 261/448/261
f 388/283/388 389/285/389 280/431/280
vt 0.559805 0.726526
f 253/457/253 258/454/258 243/462/243
f 253/457/253 257/455/257 258/454/258
vt 0.556668 0.723007
f 243/462/243 244/463/244 253/457/253
vt 0.563699 0.727919
f 258/454/258 242/464/242 243/462/243
vt 0.566779 0.727013
f 258/454/258 241/465/241 242/464/242
vt 0.885722 0.895322
vt 0.853965 0.902313
f 340/354/340 238/466/238 237/467/237
f 237/467/237 338/356/338 340/354/340
f 237/467/237 272/437/272 338/356/338
f 340/354/340 339/355/339 238/466/238
vt 0.299702 0.843001
vt 0.304810 0.824164
f 251/459/251 236/468/236 235/469/235
f 251/459/251 250/460/250 236/468/236
vt 0.319293 0.809220
f 235/469/235 234/470/234 261/448/261
f 261/448/261 280/431/280 235/469/235
f 234/470/234 260/450/260 261/448/261
f 280/431/280 251/459/251 235/469/235
vt 0.315535 0.822532
f 235/469/235 233/471/233 234/470/234
f 280/431/280 281/429/281 251/459/251
vt 0.313094 0.848035
vt 0.313231 0.842056
f 236/468/236 230/472/230 229/473/229
vt 0.305303 0.853106
f 236/468/236 228/474/228 230/472/230
f 236/468/236 249/461/249 228/474/228
f 236/468/236 250/460/250 249/461/249
vt 0.309018 0.853901
f 228/474/228 227/475/227 230/472/230
vt 0.839216 0.925385
vt 0.837824 0.918980
f 223/476/223 270/439/270 222/477/222
f 223/476/223 273/436/273 270/439/270
vt 0.836670 0.926096
f 223/476/223 221/478/221 268/443/268
f 268/443/268 271/438/271 223/476/223
f 271/438/271 273/436/273 223/476/223
vt 0.314938 0.835900
vt 0.315034 0.829033
f 235/469/235 220/479/220 219/480/219
f 235/469/235 236/468/236 220/479/220
f 219/480/219 233/471/233 235/469/235
vt 0.318734 0.829811
f 220/479/220 218/481/218 219/480/219
vt 0.944470 0.814519
vt 0.944451 0.809824
vt 0.939078 0.812475
f 222/482/222 217/483/217 216/484/216
vt 0.938232 0.813748
f 216/484/216 215/485/215 222/482/222
vt 0.946821 0.810421
f 222/482/222 214/486/214 217/483/217
vt 0.948422 0.815220
f 222/482/222 213/487/213 214/486/214
vt 0.839441 0.915297
f 222/477/222 270/439/270 213/488/213
vt 0.255125 0.745361
vt 0.254639 0.741927
vt 0.256078 0.741247
f 270/489/270 269/490/269 213/491/213
vt 0.574094 0.728240
vt 0.567693 0.727431
f 256/456/256 211/492/211 210/493/210
f 210/493/210 258/454/258 256/456/256
vt 0.580501 0.732751
f 256/456/256 209/494/209 211/492/211
f 210/493/210 241/465/241 258/454/258
vt 0.579818 0.728377
f 209/494/209 208/495/208 211/492/211
vt 0.575788 0.726531
f 208/495/208 207/496/207 211/492/211
vt 0.573222 0.723982
f 207/496/207 206/497/206 211/492/211
f 329/365/329 367/288/367 393/287/393
f 393/287/393 341/353/341 329/365/329
vt 0.847499 0.902608
vt 0.838839 0.912102
f 272/437/272 368/498/368 205/499/205
f 272/437/272 237/467/237 368/498/368
vt 0.840923 0.904988
f 368/498/368 204/500/204 205/499/205
f 205/499/205 269/440/269 272/437/272
vt 0.850139 0.899694
f 237/467/237 203/501/203 368/498/368
vt 0.841251 0.904475
f 368/498/368 394/502/394 204/500/204
vt 0.254639 0.738340
f 205/503/205 213/491/213 269/490/269
vt 0.867303 0.972810
vt 0.860148 0.971959
vt 0.862984 0.975680
f 230/504/230 198/505/198 197/506/197
vt 0.873099 0.975830
f 197/506/197 229/507/229 230/504/230
vt 0.575062 0.741455
vt 0.581411 0.738777
f 259/508/259 196/509/196 209/494/209
f 209/494/209 256/456/256 259/508/259
vt 0.635909 0.731404
vt 0.633545 0.733643
vt 0.633545 0.724178
f 256/510/256 262/511/262 259/512/259
vt 0.327069 0.843122
vt 0.324832 0.833409
vt 0.314003 0.838861
f 195/513/195 194/514/194 193/515/193
vt 0.319942 0.848957
f 193/515/193 192/516/192 195/513/195
f 194/514/194 218/481/218 193/515/193
f 193/515/193 229/473/229 192/516/192
vt 0.316519 0.852036
f 229/473/229 197/517/197 192/516/192
vt 0.321979 0.830067
f 194/514/194 191/518/191 218/481/218
vt 0.315504 0.854407
f 227/475/227 198/519/198 230/472/230
vt 0.314821 0.858643
f 227/475/227 201/520/201 198/519/198
vt 0.321943 0.854858
f 201/520/201 190/521/190 198/519/198
vt 0.887319 0.886306
f 189/522/189 238/466/238 339/355/339
f 339/355/339 366/286/366 189/522/189
f 339/355/339 393/287/393 366/286/366
vt 0.321711 0.826220
f 218/481/218 191/518/191 188/523/188
f 188/523/188 219/480/219 218/481/218
vt 0.325053 0.823046
vt 0.322000 0.815934
f 233/471/233 187/524/187 186/525/186
f 233/471/233 188/523/188 187/524/187
f 186/525/186 234/470/234 233/471/233
vt 0.322398 0.809314
f 186/525/186 185/526/185 234/470/234
f 233/471/233 219/480/219 188/523/188
vt 0.324459 0.829442
f 188/523/188 184/527/184 187/524/187
vt 0.321796 0.800904
f 234/470/234 185/526/185 196/528/196
f 196/528/196 260/450/260 234/470/234
f 196/528/196 259/451/259 260/450/260
vt 0.327599 0.849182
f 190/521/190 180/529/180 192/516/192
vt 0.325129 0.855045
f 190/521/190 179/530/179 180/529/180
f 192/516/192 197/517/197 190/521/190
vt 0.856201 0.975830
f 197/506/197 198/505/198 190/531/190
vt 0.871738 0.891422
vt 0.865115 0.891339
f 178/532/178 177/533/177 237/467/237
f 237/467/237 238/466/238 178/532/178
vt 0.849242 0.894875
f 177/533/177 176/534/176 237/467/237
vt 0.877803 0.888465
f 238/466/238 175/535/175 178/532/178
f 238/466/238 189/522/189 175/535/175
f 176/534/176 203/501/203 237/467/237
vt 0.352815 0.752161
vt 0.353235 0.745924
vt 0.349182 0.747962
f 203/536/203 176/537/176 174/538/174
f 174/538/174 368/290/368 203/536/203
f 174/538/174 395/291/395 368/290/368
vt 0.649170 0.858643
vt 0.654872 0.856404
vt 0.654356 0.854485
f 180/539/180 173/540/173 195/541/195
f 195/513/195 192/516/192 180/529/180
vt 0.669319 0.856997
vt 0.672562 0.854061
vt 0.667876 0.851147
f 172/542/172 171/543/171 184/544/184
vt 0.664971 0.855478
f 184/544/184 170/545/170 172/542/172
vt 0.663402 0.849596
f 184/544/184 194/546/194 170/545/170
vt 0.992920 0.865612
vt 0.996926 0.868098
vt 0.992920 0.870361
f 184/547/184 191/548/191 194/549/194
vt 0.997138 0.863716
f 184/547/184 188/550/188 191/548/191
vt 0.687014 0.854630
vt 0.692896 0.858643
vt 0.696149 0.855660
f 169/551/169 168/552/168 167/553/167
vt 0.681048 0.847241
f 167/553/167 186/554/186 169/551/169
vt 0.679782 0.854379
f 186/554/186 166/555/166 169/551/169
vt 0.678305 0.851630
f 186/554/186 165/556/165 166/555/166
vt 0.673720 0.849183
f 186/554/186 187/557/187 165/556/165
vt 0.687344 0.846015
vt 0.696614 0.848602
f 185/558/185 167/553/167 196/559/196
f 185/558/185 186/554/186 167/553/167
vt 0.699020 0.854450
f 167/553/167 209/560/209 196/559/196
vt 0.697664 0.858231
f 167/553/167 208/561/208 209/560/209
vt 0.871461 0.889912
vt 0.867560 0.887363
f 178/532/178 164/562/164 163/563/163
f 163/563/163 177/533/177 178/532/178
vt 0.662079 0.856785
f 162/564/162 170/545/170 194/546/194
vt 0.658139 0.853353
f 194/546/194 161/565/161 162/564/162
f 194/546/194 195/541/195 161/565/161
f 195/541/195 173/540/173 161/565/161
f 187/557/187 171/543/171 165/556/165
f 187/557/187 184/544/184 171/543/171
vt 0.873907 0.885937
f 160/566/160 164/562/164 178/532/178
f 178/532/178 175/535/175 160/566/160
f 304/396/304 311/392/311 312/391/312
f 307/398/307 311/392/311 304/396/304
vt 0.270201 0.796178
f 282/424/282 275/452/275 292/567/292
f 282/424/282 292/567/292 305/423/305
f 322/380/322 321/381/321 335/361/335
f 321/381/321 453/351/453 335/361/335
f 220/479/220 193/515/193 218/481/218
f 229/473/229 193/515/193 236/468/236
f 193/515/193 220/479/220 236/468/236
vt 0.064653 0.641692
vt 0.063232 0.647705
vt 0.066676 0.647705
f 369/568/369 421/569/421 342/570/342
vt 0.982470 0.963455
vt 0.976307 0.959853
f 372/269/372 426/571/426 159/572/159
f 159/572/159 371/267/371 372/269/372
vt 0.037399 0.518134
vt 0.034891 0.514753
vt 0.035090 0.520326
f 158/573/158 157/574/157 156/575/156
vt 0.969956 0.958032
vt 0.973460 0.956566
f 155/576/155 374/271/374 154/577/154
vt 0.974366 0.927930
vt 0.973873 0.931847
vt 0.977280 0.931298
f 320/578/320 153/579/153 453/580/453
vt 0.970932 0.929439
f 153/579/153 320/578/320 152/581/152
vt 0.974316 0.929116
f 152/581/152 320/578/320 321/582/321
vt 0.968430 0.923622
vt 0.967958 0.927348
vt 0.971351 0.926934
f 319/583/319 151/584/151 322/585/322
vt 0.964826 0.926736
f 151/584/151 319/583/319 150/586/150
vt 0.958379 0.747882
vt 0.932196 0.746528
vt 0.946691 0.736100
f 412/587/412 414/588/414 146/589/146
vt 0.949077 0.938834
vt 0.951433 0.926003
vt 0.942377 0.918837
f 145/590/145 144/591/144 143/592/143
vt 0.941046 0.815674
f 222/482/222 215/485/215 139/593/139
vt 0.940744 0.811043
f 217/483/217 138/594/138 216/484/216
vt 0.378815 0.816731
vt 0.371765 0.826486
vt 0.391904 0.818119
f 137/595/137 136/596/136 135/597/135
vt 0.031684 0.555984
vt 0.036514 0.557861
vt 0.032103 0.551983
f 202/598/202 212/599/212 134/600/134
vt 0.360652 0.732822
vt 0.336540 0.735533
vt 0.351971 0.744713
f 133/601/133 132/602/132 131/603/131
vt 0.531982 0.710205
vt 0.538880 0.710205
vt 0.535413 0.706881
f 130/604/130 211/605/211 206/606/206
vt 0.659011 0.857159
f 129/607/129 161/565/161 173/540/173
f 161/565/161 129/607/129 162/564/162
vt 0.616260 0.760195
vt 0.612888 0.759559
vt 0.613563 0.763585
f 171/608/171 172/609/172 128/610/128
vt 0.375505 0.743003
vt 0.377555 0.743643
vt 0.379252 0.745684
f 127/611/127 160/612/160 175/613/175
vt 0.373462 0.745752
f 164/614/164 160/612/160 127/611/127
vt 0.369668 0.743151
vt 0.371772 0.743698
f 126/615/126 163/616/163 164/614/164
vt 0.367679 0.745808
f 177/617/177 163/616/163 126/615/126
vt 0.596863 0.762421
vt 0.599892 0.760577
vt 0.599578 0.759152
f 125/618/125 124/619/124 123/620/123
vt 0.600663 0.765296
f 122/621/122 124/619/124 125/618/125
vt 0.598572 0.772391
vt 0.625030 0.772705
f 128/610/128 397/622/397 106/623/106
vt 0.601153 0.765212
f 128/610/128 105/624/105 397/622/397
vt 0.623902 0.766104
f 106/623/106 104/625/104 128/610/128
vt 0.623205 0.762066
f 104/625/104 166/626/166 128/610/128
vt 0.605935 0.757627
f 128/610/128 172/609/172 162/627/162
f 105/624/105 122/621/122 397/622/397
vt 0.609161 0.757207
f 172/609/172 170/628/170 162/627/162
vt 0.630154 0.763974
f 104/625/104 169/629/169 166/626/166
vt 0.048002 0.366455
vt 0.054479 0.366455
vt 0.054540 0.363195
f 434/630/434 448/631/448 451/632/451
vt 0.047607 0.363230
f 451/632/451 435/633/435 434/630/434
vt 0.051434 0.359929
f 451/632/451 443/634/443 435/633/435
vt 0.979807 0.958426
f 426/571/426 421/292/421 103/635/103
f 426/571/426 424/295/424 421/292/421
f 421/292/421 369/264/369 103/635/103
f 103/635/103 159/572/159 426/571/426
vt 0.977745 0.948479
vt 0.973624 0.955367
f 369/264/369 157/636/157 102/637/102
f 369/264/369 370/266/370 157/636/157
f 102/637/102 103/635/103 369/264/369
vt 0.028353 0.516797
f 156/575/156 157/574/157 370/638/370
vt 0.028076 0.519933
f 370/638/370 425/639/425 156/575/156
vt 0.968089 0.948364
vt 0.970834 0.951911
vt 0.977607 0.950474
f 101/640/101 100/641/100 156/642/156
vt 0.028494 0.522705
vt 0.045117 0.522705
f 156/575/156 438/643/438 101/644/101
vt 0.967579 0.951672
f 101/640/101 99/645/99 100/641/100
vt 0.974149 0.951511
f 100/641/100 158/646/158 156/642/156
f 156/575/156 425/639/425 438/643/438
vt 0.982435 0.940808
vt 0.966473 0.937090
f 444/647/444 98/648/98 101/640/101
vt 0.984340 0.950110
f 101/640/101 439/649/439 444/647/444
f 98/648/98 99/645/99 101/640/101
vt 0.983835 0.953456
f 101/640/101 438/650/438 439/649/439
f 444/647/444 153/579/153 98/648/98
f 444/647/444 453/580/453 153/579/153
vt 0.963804 0.932778
f 153/579/153 97/651/97 98/648/98
vt 0.964491 0.928473
f 153/579/153 96/652/96 97/651/97
f 153/579/153 152/581/152 96/652/96
f 152/581/152 151/584/151 96/652/96
f 152/581/152 322/585/322 151/584/151
f 152/581/152 321/582/321 322/585/322
vt 0.969656 0.960063
f 99/645/99 95/653/95 155/576/155
f 155/576/155 102/637/102 99/645/99
f 102/637/102 100/641/100 99/645/99
f 155/576/155 154/577/154 102/637/102
f 154/577/154 159/572/159 102/637/102
f 159/572/159 103/635/103 102/637/102
f 95/653/95 360/270/360 155/576/155
f 159/572/159 345/272/345 360/270/360
f 360/270/360 371/267/371 159/572/159
f 159/572/159 375/273/375 345/272/345
f 375/273/375 159/572/159 154/577/154
f 154/577/154 374/271/374 375/273/375
f 102/637/102 157/636/157 158/646/158
f 158/646/158 100/641/100 102/637/102
vt 0.964483 0.960565
vt 0.962813 0.961699
f 297/399/297 94/654/94 93/655/93
f 297/399/297 95/653/95 94/654/94
f 297/399/297 325/372/325 95/653/95
f 325/372/325 360/270/360 95/653/95
f 345/272/345 155/576/155 360/270/360
f 345/272/345 374/271/374 155/576/155
vt 0.888656 0.852923
vt 0.872079 0.852176
vt 0.878069 0.858643
f 92/656/92 91/657/91 252/658/252
vt 0.885182 0.858230
f 252/658/252 334/659/334 92/656/92
vt 0.892016 0.851840
f 334/659/334 93/660/93 92/656/92
vt 0.898395 0.858470
f 334/659/334 332/661/332 93/660/93
vt 0.898655 0.855061
f 332/661/332 297/662/297 93/660/93
vt 0.871881 0.854948
f 91/657/91 90/663/90 252/658/252
vt 0.868567 0.858034
f 90/663/90 365/664/365 252/658/252
vt 0.959642 0.960903
vt 0.959414 0.962698
f 93/655/93 89/665/89 92/666/92
vt 0.947167 0.955560
vt 0.959833 0.959485
f 99/645/99 88/667/88 87/668/87
f 99/645/99 145/590/145 88/667/88
f 99/645/99 98/648/98 145/590/145
f 98/648/98 144/591/144 145/590/145
f 87/668/87 95/653/95 99/645/99
f 87/668/87 94/654/94 95/653/95
vt 0.958273 0.925947
vt 0.961104 0.928826
f 96/652/96 86/669/86 85/670/85
f 85/670/85 97/651/97 96/652/96
f 93/655/93 87/668/87 89/665/89
f 93/655/93 94/654/94 87/668/87
f 144/591/144 97/651/97 85/670/85
f 144/591/144 98/648/98 97/651/97
vt 0.957803 0.924634
f 74/671/74 86/669/86 150/586/150
f 86/669/86 96/652/96 150/586/150
f 96/652/96 151/584/151 150/586/150
vt 0.066076 0.284255
vt 0.063232 0.288330
vt 0.066548 0.288330
f 81/672/81 288/673/288 382/674/382
vt 0.866565 0.847030
vt 0.859026 0.854747
vt 0.868923 0.851390
f 72/675/72 140/676/140 141/677/141
vt 0.856201 0.850633
f 72/675/72 71/678/71 140/676/140
vt 0.864627 0.858643
f 140/676/140 364/679/364 141/677/141
vt 0.939860 0.961222
vt 0.943039 0.962100
vt 0.937197 0.956214
f 141/680/141 91/681/91 72/682/72
f 91/681/91 92/666/92 72/682/72
vt 0.926902 0.959890
vt 0.926382 0.964155
vt 0.929994 0.964586
f 71/683/71 70/684/70 140/685/140
vt 0.934511 0.937006
vt 0.929335 0.940667
f 69/686/69 68/687/68 72/682/72
f 72/682/72 88/667/88 69/686/69
f 72/682/72 92/666/92 88/667/88
f 92/666/92 89/665/89 88/667/88
f 89/665/89 87/668/87 88/667/88
vt 0.929552 0.939021
f 69/686/69 67/688/67 68/687/68
vt 0.930420 0.726129
f 403/689/403 146/589/146 414/588/414
vt 0.930420 0.749268
f 414/588/414 402/690/402 403/689/403
vt 0.945703 0.731608
f 403/689/403 66/691/66 146/589/146
vt 0.939253 0.917113
f 145/590/145 65/692/65 69/686/69
f 145/590/145 143/592/143 65/692/65
f 69/686/69 88/667/88 145/590/145
vt 0.936616 0.912895
f 144/591/144 74/671/74 64/693/64
f 144/591/144 86/669/86 74/671/74
f 64/693/64 143/592/143 144/591/144
f 144/591/144 85/670/85 86/669/86
vt 0.936579 0.913151
vt 0.938543 0.916722
f 64/693/64 63/694/63 62/695/62
vt 0.949300 0.920281
f 74/671/74 61/696/61 64/693/64
vt 0.960059 0.925840
f 74/671/74 73/697/73 61/696/61
f 141/677/141 90/663/90 91/657/91
vt 0.867727 0.855781
f 141/677/141 142/698/142 90/663/90
vt 0.050120 0.257086
vt 0.047607 0.260986
vt 0.052825 0.260986
f 365/699/365 90/700/90 142/701/142
vt 0.930202 0.911679
f 56/702/56 63/694/63 64/693/64
vt 0.921818 0.948352
f 72/682/72 68/687/68 55/703/55
f 55/703/55 71/683/71 72/682/72
vt 0.922829 0.940233
f 68/687/68 54/704/54 55/703/55
vt 0.947386 0.728937
vt 0.958154 0.736148
f 146/589/146 137/705/137 135/706/135
f 135/706/135 412/587/412 146/589/146
vt 0.960126 0.745147
f 135/706/135 417/707/417 412/587/412
f 146/589/146 66/691/66 137/705/137
vt 0.040125 0.551520
vt 0.035600 0.554414
vt 0.039353 0.556180
f 221/708/221 139/709/139 248/710/248
vt 0.041942 0.554305
f 248/710/248 267/711/267 221/708/221
f 139/709/139 212/599/212 248/710/248
f 139/709/139 134/600/134 212/599/212
vt 0.035236 0.550234
f 139/709/139 216/712/216 134/600/134
vt 0.037851 0.549584
f 139/709/139 215/713/215 216/712/216
vt 0.031861 0.551496
f 216/712/216 138/714/138 134/600/134
vt 0.043866 0.550542
f 267/711/267 268/715/268 221/708/221
vt 0.379062 0.813410
vt 0.363907 0.809251
f 136/596/136 66/716/66 403/717/403
f 136/596/136 137/595/137 66/716/66
vt 0.964211 0.732611
vt 0.962218 0.741868
f 135/706/135 50/718/50 419/719/419
f 419/719/419 417/707/417 135/706/135
vt 0.925769 0.915191
vt 0.917704 0.929789
f 65/692/65 49/720/49 48/721/48
f 48/721/48 69/686/69 65/692/65
vt 0.920704 0.931637
f 48/721/48 47/722/47 69/686/69
f 47/722/47 67/688/67 69/686/69
f 65/692/65 62/695/62 49/720/49
vt 0.930001 0.912861
f 62/695/62 46/723/46 49/720/49
f 46/723/46 63/694/63 56/702/56
f 46/723/46 62/695/62 63/694/63
vt 0.703857 0.706221
vt 0.710402 0.705605
vt 0.709247 0.710205
f 223/724/223 222/725/222 139/726/139
vt 0.703857 0.709684
f 139/726/139 221/727/221 223/724/223
vt 0.919507 0.966915
vt 0.919834 0.964175
f 225/728/225 70/684/70 45/729/45
vt 0.929210 0.968018
f 225/728/225 226/730/226 70/684/70
vt 0.975052 0.727813
vt 0.974343 0.734991
f 44/731/44 416/732/416 50/718/50
f 416/732/416 419/719/419 50/718/50
vt 0.977857 0.729506
f 44/731/44 182/733/182 416/732/416
vt 0.920198 0.961500
f 40/734/40 45/729/45 70/684/70
f 70/684/70 71/683/71 40/734/40
f 71/683/71 55/703/55 40/734/40
vt 0.050824 0.102074
vt 0.047607 0.104736
vt 0.054122 0.104729
f 224/735/224 367/736/367 239/737/239
vt 0.057378 0.104736
f 239/737/239 240/738/240 224/735/224
vt 0.394681 0.825105
f 50/739/50 135/597/135 136/596/136
vt 0.919943 0.937346
f 67/688/67 47/722/47 39/740/39
f 39/740/39 54/704/54 67/688/67
f 54/704/54 68/687/68 67/688/67
vt 0.028076 0.557861
f 202/598/202 134/600/134 38/741/38
vt 0.340699 0.734082
vt 0.362358 0.731145
f 49/742/49 133/601/133 34/743/34
f 49/742/49 132/602/132 133/601/133
vt 0.333379 0.736134
f 49/742/49 56/744/56 132/602/132
f 49/720/49 46/723/46 56/702/56
vt 0.332764 0.737093
f 56/744/56 51/745/51 132/602/132
vt 0.951072 0.814706
f 214/486/214 213/487/213 205/746/205
vt 0.953504 0.810687
f 205/746/205 42/747/42 214/486/214
vt 0.398404 0.750183
vt 0.395058 0.749457
vt 0.399522 0.753174
f 45/748/45 40/749/40 224/750/224
vt 0.400425 0.751977
f 224/750/224 225/751/225 45/748/45
vt 0.383794 0.742019
vt 0.374385 0.733941
vt 0.395414 0.747576
f 55/752/55 33/753/33 366/754/366
f 366/754/366 40/749/40 55/752/55
vt 0.376418 0.737739
f 55/752/55 54/755/54 33/753/33
vt 0.399459 0.752520
f 366/754/366 367/756/367 40/749/40
vt 0.374440 0.735049
f 54/755/54 39/757/39 33/753/33
f 367/756/367 224/750/224 40/749/40
vt 0.366294 0.731334
vt 0.368313 0.731595
f 48/758/48 34/743/34 32/759/32
vt 0.914795 0.927767
f 48/721/48 49/720/49 34/760/34
vt 0.338479 0.748362
f 43/761/43 131/603/131 132/602/132
f 43/761/43 174/538/174 131/603/131
f 174/538/174 176/537/176 131/603/131
vt 0.956559 0.811450
f 205/746/205 41/762/41 42/747/42
vt 0.958302 0.815477
f 205/746/205 204/763/204 41/762/41
vt 0.367904 0.733047
f 47/764/47 32/759/32 33/753/33
f 33/753/33 39/757/39 47/764/47
f 47/764/47 48/758/48 32/759/32
vt 0.958360 0.808932
vt 0.958892 0.815631
vt 0.962202 0.814503
f 43/765/43 394/766/394 395/767/395
f 43/765/43 41/762/41 394/766/394
vt 0.966626 0.815674
f 395/767/395 174/768/174 43/765/43
f 41/762/41 204/763/204 394/766/394
vt 0.634847 0.771890
f 24/769/24 104/625/104 106/623/106
vt 0.387932 0.745591
f 33/753/33 189/770/189 366/754/366
f 33/753/33 32/759/32 189/770/189
f 131/603/131 177/617/177 126/615/126
f 126/615/126 133/601/133 131/603/131
f 126/615/126 127/611/127 133/601/133
f 127/611/127 32/759/32 133/601/133
f 127/611/127 189/770/189 32/759/32
f 131/603/131 176/537/176 177/617/177
f 127/611/127 175/613/175 189/770/189
f 32/759/32 34/743/34 133/601/133
f 126/615/126 164/614/164 127/611/127
vt 0.592016 0.772705
vt 0.586670 0.760806
f 29/771/29 125/618/125 27/772/27
f 29/771/29 397/622/397 125/618/125
vt 0.592578 0.756883
f 125/618/125 180/773/180 27/772/27
f 397/622/397 122/621/122 125/618/125
vt 0.598996 0.755796
f 125/618/125 173/774/173 180/773/180
f 125/618/125 123/620/123 173/774/173
vt 0.602344 0.758834
f 123/620/123 129/775/129 173/774/173
vt 0.930454 0.710205
vt 0.934089 0.707853
vt 0.930420 0.707044
f 167/776/167 24/777/24 208/778/208
vt 0.935129 0.710205
f 167/776/167 168/779/168 24/777/24
vt 0.919324 0.753128
vt 0.909298 0.764893
vt 0.925880 0.764893
f 44/780/44 22/781/22 26/782/26
vt 0.925712 0.757698
f 26/782/26 181/783/181 44/780/44
vt 0.982487 0.728387
f 181/784/181 182/733/182 44/731/44
vt 0.603412 0.761629
f 162/627/162 129/775/129 18/785/18
vt 0.622695 0.759233
f 166/626/166 165/786/165 171/608/171
f 171/608/171 128/610/128 166/626/166
vt 0.634415 0.769332
f 169/629/169 24/769/24 168/787/168
f 169/629/169 104/625/104 24/769/24
f 18/785/18 129/775/129 123/620/123
f 123/620/123 124/619/124 18/785/18
f 18/785/18 124/619/124 122/621/122
f 122/621/122 105/624/105 18/785/18
f 64/693/64 62/695/62 65/692/65
f 64/693/64 65/692/65 143/592/143
f 128/610/128 162/627/162 18/785/18
f 128/610/128 18/785/18 105/624/105
# 857 faces, 787 coords texture

# End of File
