# Blender v2.91.2 OBJ File: ''
# www.blender.org
mtllib bin_1.mtl
o bin_1_part_2.003_85fc032eaee04650914faeb8ddd6a71e.004_part_2.003_.023
v 18.648748 -11.245944 0.164016
v 18.631821 -11.245820 0.211081
v 18.648993 -11.222248 0.164048
v 18.907621 -11.316297 0.000057
v 18.648981 -11.269269 0.000007
v 18.954645 -11.269269 0.000088
v 18.648973 -11.175213 0.000054
v 18.929224 -11.104691 0.000160
v 18.719522 -11.057658 0.000130
v 18.860584 -11.057669 0.000165
v 18.743027 -11.057649 0.000147
v 18.884109 -11.081168 0.000160
v 18.570795 -11.198734 0.399171
v 18.593603 -11.198735 0.375659
v 18.594770 -11.269235 0.422688
v 18.572657 -11.269269 0.446200
v 18.625456 -11.300549 0.446194
v 18.578444 -11.269271 0.451983
v 18.569708 -11.245758 0.469712
v 18.592857 -11.269225 0.352151
v 18.590977 -11.245758 0.328637
v 18.622841 -11.245758 0.305124
v 18.625446 -11.292796 0.348346
v 18.649057 -11.342699 0.305145
v 18.672541 -11.386830 0.446200
v 18.645130 -11.316333 0.493221
v 18.623125 -11.292788 0.305122
v 18.632795 -11.292827 0.469709
v 18.625404 -11.283898 0.469709
v 18.607729 -11.222253 0.305124
v 18.616188 -11.222248 0.281612
v 18.701630 -11.339918 0.211066
v 18.696014 -11.363293 0.281612
v 18.614906 -11.245696 0.258105
v 18.614683 -11.222250 0.234588
v 18.614536 -11.245638 0.234609
v 18.742891 -11.348987 0.022957
v 18.666916 -11.269207 0.022987
v 18.655405 -11.245778 0.022971
v 18.639631 -11.175216 0.187561
v 18.645584 -11.151700 0.258097
v 18.696007 -11.363318 0.496328
v 18.695986 -11.386967 0.472814
v 18.674683 -11.175225 0.046481
v 18.667538 -11.175217 0.022979
v 18.662846 -11.128196 0.469712
v 18.672491 -11.081171 0.495269
v 18.625467 -11.128196 0.495022
v 18.695997 -11.081149 0.469708
v 18.695992 -11.081143 0.475404
v 18.766573 -11.365034 0.022986
v 18.743029 -11.082844 0.022980
v 18.659121 -11.128210 0.422696
v 18.685703 -11.081203 0.375669
v 18.667078 -11.128193 0.446198
v 18.719530 -11.406385 0.469719
v 18.719519 -11.077317 0.328636
v 18.766539 -11.067632 0.234583
v 18.743034 -11.043566 0.493228
v 18.743032 -11.071510 0.258100
v 18.709997 -11.081164 0.328630
v 18.790056 -11.057674 0.273122
v 18.813574 -11.045304 0.305131
v 18.790073 -11.366851 0.022967
v 18.790054 -11.081171 0.219025
v 18.766542 -11.081170 0.221014
v 18.837152 -11.063609 0.282158
v 18.837084 -11.034146 0.274379
v 18.840178 -11.034146 0.281611
v 18.837080 -11.034146 0.281611
v 18.601955 -11.242130 0.422686
v 18.601957 -11.269269 0.469712
v 18.719519 -11.275347 0.328636
v 18.679106 -11.269272 0.375662
v 18.693066 -11.292764 0.352162
v 18.672491 -11.057659 0.475696
v 18.790054 -11.010635 0.272226
v 18.828180 -11.034148 0.258100
v 18.813566 -11.045537 0.258097
v 18.919119 -11.316295 0.446198
v 18.884104 -11.357978 0.446198
v 18.931126 -11.359019 0.493224
v 18.942133 -11.034109 0.469711
v 18.884104 -11.034146 0.503080
v 18.954651 -11.081163 0.497112
v 18.954641 -11.245758 0.281611
v 18.970959 -11.269260 0.281615
v 18.978310 -11.222318 0.258079
v 18.978155 -11.245758 0.305124
v 18.978155 -11.047190 0.446198
v 18.954641 -11.057659 0.457092
v 18.983541 -11.081175 0.446197
v 18.954634 -11.043920 0.422685
v 19.003599 -11.175221 0.352149
v 18.991140 -11.222244 0.399169
v 18.983255 -11.175220 0.281610
v 18.982237 -11.151707 0.352148
v 19.008669 -11.269310 0.399159
v 19.012644 -11.222245 0.422682
v 19.008886 -11.269348 0.422662
v 18.743048 -11.014140 0.522023
v 18.672483 -11.014832 0.493213
v 18.625467 -11.014861 0.446201
v 18.648979 -11.015669 0.281613
v 18.696012 -11.015732 0.234609
v 18.648973 -11.015202 0.422663
v 18.601959 -11.245759 0.477897
v 18.574446 -11.175220 0.469711
v 18.570717 -11.151708 0.446198
v 18.601959 -11.151707 0.478044
v 18.591593 -11.128195 0.446198
v 18.601955 -11.175222 0.295379
v 18.648968 -11.292785 0.479497
v 18.625467 -11.269270 0.495818
v 18.648985 -11.316291 0.495889
v 18.616085 -11.104683 0.422687
v 18.622293 -11.175211 0.281607
v 18.600060 -11.104684 0.469712
v 18.627003 -11.069658 0.470194
v 18.625471 -11.151708 0.499592
v 18.601017 -11.128393 0.473913
v 18.601957 -11.104682 0.471603
v 18.672489 -11.034156 0.477786
v 18.637335 -11.034146 0.446198
v 18.635576 -11.057669 0.469711
v 18.648956 -11.151699 0.216042
v 18.648994 -11.098857 0.234586
v 18.648994 -11.089054 0.305126
v 18.649000 -11.081176 0.296142
v 18.648954 -11.154369 0.187561
v 18.619215 -11.151707 0.281611
v 18.623125 -11.104676 0.328635
v 18.648983 -11.081173 0.312068
v 18.659319 -11.034155 0.352151
v 18.672495 -11.066320 0.305124
v 18.766550 -11.037647 0.493226
v 18.668621 -11.034141 0.422685
v 18.719519 -10.994192 0.234582
v 18.790052 -10.991480 0.258085
v 18.766541 -10.994216 0.258088
v 18.719582 -11.386674 0.306534
v 18.743021 -11.353900 0.446197
v 18.658375 -11.269260 0.446199
v 18.719534 -11.386812 0.481234
v 18.639378 -11.151708 0.493218
v 18.658205 -11.245757 0.446195
v 18.660694 -11.175219 0.446193
v 18.662136 -11.175222 0.164049
v 18.672489 -11.164855 0.164050
v 18.672485 -11.168558 0.140542
v 18.669439 -11.057656 0.281613
v 18.672493 -11.057657 0.278346
v 18.743038 -11.339802 0.333757
v 18.667257 -11.245757 0.399172
v 18.672493 -11.238376 0.328636
v 18.692745 -11.222243 0.258100
v 18.685215 -11.175224 0.258101
v 18.662886 -11.198732 0.352147
v 18.696001 -11.175220 0.240781
v 18.665108 -11.175212 0.399168
v 18.692732 -11.128209 0.258108
v 18.695988 -11.097516 0.352147
v 18.672491 -11.167636 0.211073
v 18.672491 -11.151707 0.228895
v 18.695993 -11.064042 0.281614
v 18.683628 -11.128197 0.234589
v 18.681953 -11.104683 0.305123
v 18.695997 -11.089481 0.328637
v 18.719521 -11.034147 0.262374
v 18.719519 -11.059106 0.281611
v 18.790024 -11.388593 0.211082
v 18.813559 -11.402932 0.422676
v 18.743040 -11.410270 0.469719
v 18.766527 -11.292800 0.302140
v 18.766550 -11.345039 0.305135
v 18.756727 -11.269294 0.281592
v 18.719521 -11.243245 0.258095
v 18.719519 -11.222246 0.234587
v 18.712299 -11.175223 0.234578
v 18.696005 -11.139951 0.093512
v 18.685499 -11.152741 0.140537
v 18.696009 -11.139967 0.140533
v 18.684546 -11.151710 0.070000
v 18.837086 -11.049660 0.469720
v 18.907610 -11.010769 0.516764
v 18.860598 -11.047495 0.493209
v 18.732443 -11.386830 0.493224
v 18.790039 -11.372588 0.070003
v 18.743029 -11.010633 0.250396
v 18.766544 -11.010632 0.273665
v 18.790056 -11.410345 0.497999
v 18.766542 -11.386834 0.496152
v 18.790052 -11.354905 0.446197
v 18.813566 -11.386829 0.478268
v 18.813568 -11.377901 0.469712
v 18.758505 -11.057658 0.234586
v 18.764122 -11.034149 0.211075
v 18.837120 -11.057570 0.311420
v 18.860580 -11.060678 0.469703
v 18.860586 -11.389704 0.422687
v 18.884098 -11.394895 0.469711
v 18.813566 -11.410340 0.481423
v 18.884060 -11.326208 0.022983
v 18.766548 -11.346752 0.328627
v 18.790054 -11.048894 0.211075
v 18.766541 -11.034149 0.209889
v 18.907646 -11.026715 0.493194
v 18.837044 -11.372572 0.211086
v 18.907579 -11.371931 0.399185
v 18.813560 -11.374657 0.187563
v 18.813560 -11.367792 0.375665
v 18.837086 -11.376189 0.469704
v 18.884121 -11.307071 0.375644
v 18.907608 -11.346732 0.422696
v 18.766550 -11.339567 0.300911
v 18.917519 -11.339803 0.422692
v 18.920729 -11.269274 0.375658
v 18.813568 -11.104683 0.254544
v 18.813566 -11.100560 0.258098
v 18.766539 -11.128192 0.234583
v 18.837086 -11.036943 0.211063
v 18.813566 -11.034146 0.161177
v 18.788284 -11.034151 0.164050
v 18.854118 -11.034141 0.234589
v 18.865448 -11.034143 0.211076
v 18.790058 -11.034150 0.162339
v 18.860577 -11.351294 0.187563
v 18.941202 -11.292822 0.140533
v 18.925047 -11.292795 0.022973
v 18.884190 -11.104577 0.278409
v 18.837177 -11.068575 0.258095
v 18.860586 -11.151705 0.258099
v 18.813566 -11.175220 0.244683
v 18.837080 -11.057658 0.302963
v 18.837128 -11.058819 0.305370
v 18.884092 -11.386806 0.478173
v 18.907623 -11.346023 0.328634
v 18.931126 -11.363313 0.494523
v 18.907618 -11.198734 0.197756
v 18.907621 -11.175214 0.225790
v 18.813568 -11.198151 0.237058
v 18.926685 -11.198727 0.211068
v 18.924253 -11.128087 0.446206
v 18.978180 -11.151706 0.496272
v 18.943380 -11.175212 0.446207
v 18.837086 -11.057648 0.187552
v 18.813566 -11.057658 0.152293
v 18.817759 -11.034146 0.305124
v 18.835577 -11.034146 0.328636
v 18.985968 -11.316274 0.446209
v 18.931082 -11.369556 0.446215
v 18.963198 -11.316176 0.352184
v 18.988281 -11.292751 0.375672
v 18.954645 -11.311723 0.328639
v 19.001646 -11.302177 0.446205
v 18.989109 -11.269362 0.375631
v 18.860596 -11.069405 0.187553
v 18.909679 -11.081161 0.187559
v 18.884109 -11.072822 0.117022
v 18.837086 -11.069421 0.117026
v 18.860588 -11.069408 0.093511
v 18.909588 -11.034144 0.234587
v 18.954647 -11.102453 0.211063
v 18.931128 -11.093781 0.187563
v 18.907633 -11.010473 0.254899
v 18.912355 -11.010482 0.258112
v 18.931128 -11.109244 0.164054
v 18.916611 -11.128093 0.328631
v 18.931089 -11.117875 0.375667
v 18.907719 -11.128083 0.234580
v 18.942913 -11.269227 0.022989
v 18.919376 -11.269270 0.399175
v 18.923975 -11.316295 0.469711
v 18.907614 -11.287622 0.305124
v 18.931120 -11.251123 0.305126
v 18.884096 -11.305807 0.328649
v 18.942896 -11.245761 0.399172
v 18.907602 -11.104693 0.070001
v 18.939205 -11.151705 0.022969
v 18.954659 -11.175215 0.091557
v 18.919718 -11.175216 0.328631
v 18.954668 -11.198728 0.350258
v 18.939619 -11.198742 0.328630
v 18.940454 -11.128195 0.140537
v 18.960489 -11.151701 0.164043
v 18.961674 -11.128203 0.187565
v 18.889219 -11.034149 0.305124
v 18.954624 -11.049956 0.328638
v 18.912193 -11.034143 0.258097
v 18.931128 -11.050732 0.352148
v 18.961390 -11.034145 0.375665
v 18.938108 -11.057659 0.352149
v 18.960953 -11.057658 0.399172
v 18.954670 -11.012846 0.305129
v 18.931137 -11.010531 0.281618
v 18.974966 -11.222281 0.187557
v 18.948442 -11.245753 0.022977
v 18.978155 -11.299326 0.493222
v 18.978155 -11.292782 0.494727
v 18.983986 -11.269272 0.493226
v 18.978168 -11.269274 0.496217
v 18.944731 -11.292784 0.469705
v 18.921404 -11.222240 0.211077
v 18.960533 -11.222249 0.422684
v 18.945356 -11.222239 0.446224
v 18.980005 -11.104692 0.281614
v 18.978161 -11.104681 0.328636
v 18.907618 -11.010632 0.267803
v 18.907890 -11.034143 0.262060
v 18.978199 -11.018050 0.352148
v 18.933903 -11.034105 0.399174
v 19.001656 -11.175220 0.497402
v 19.001652 -11.245756 0.499230
v 18.963722 -11.198733 0.164048
v 18.962908 -11.175219 0.140537
v 18.954641 -11.104681 0.153941
v 18.963552 -11.104681 0.164049
v 18.962866 -11.104682 0.187562
v 18.979691 -11.104683 0.234587
v 18.978155 -11.075118 0.352150
v 18.983311 -11.081168 0.352149
v 18.967190 -11.057664 0.422685
v 18.954641 -11.053785 0.399173
v 19.005777 -11.104678 0.422697
v 18.981445 -11.081170 0.399172
v 19.001669 -11.104681 0.399173
v 18.988546 -11.222242 0.281613
v 18.963865 -11.198732 0.258098
v 18.985903 -11.198737 0.281612
v 18.978159 -11.175219 0.258099
v 18.978157 -11.128195 0.269898
v 18.954641 -11.128197 0.234587
v 19.005342 -11.128190 0.446202
v 19.032988 -11.175218 0.446204
v 19.036226 -11.222247 0.446199
v 18.766560 -11.314570 0.281612
v 18.886660 -11.034145 0.281613
v 18.719521 -11.111777 0.093510
v 18.743025 -11.097627 0.046483
v 18.719522 -11.090866 0.070001
v 18.807671 -11.292794 0.281607
v 18.772406 -11.057663 0.187560
v 18.813570 -11.079390 0.140538
v 18.743031 -11.151709 0.184899
v 18.696007 -11.167380 0.234585
v 18.749798 -11.128195 0.140530
v 18.743032 -11.124142 0.117022
v 18.813572 -11.222247 0.229045
v 18.758356 -11.151704 0.211077
v 18.813564 -11.245765 0.237572
v 18.744576 -11.175215 0.211080
v 18.837082 -11.273252 0.258101
v 18.837091 -11.077692 0.022974
v 18.860588 -11.292784 0.301738
v 18.766542 -11.104683 0.211074
v 18.790064 -11.086960 0.140539
v 18.860596 -11.076414 0.022971
v 18.813568 -10.987114 0.222090
v 18.860588 -11.010634 0.237800
v 18.907616 -11.254522 0.234586
v 18.884108 -11.222249 0.191626
v 18.907618 -11.222250 0.193082
v 18.897783 -11.010631 0.281612
vt 0.981620 0.576842
vt 0.983564 0.569118
vt 0.985038 0.577325
vt 0.926581 0.384019
vt 0.922717 0.387808
vt 0.918813 0.395111
vt 0.997605 0.539261
vt 0.995601 0.543237
vt 0.985996 0.534215
vt 0.987944 0.530244
vt 0.979580 0.530029
vt 0.987610 0.529358
vt 0.991914 0.526912
vt 0.985090 0.545574
vt 0.988280 0.549833
vt 0.985619 0.553882
vt 0.979253 0.545967
vt 0.969667 0.552099
vt 0.963658 0.528636
vt 0.976562 0.522280
vt 0.978782 0.552918
vt 0.980515 0.526455
vt 0.982345 0.526578
vt 0.990122 0.554242
vt 0.989161 0.558102
vt 0.964861 0.567752
vt 0.962926 0.555850
vt 0.985506 0.561401
vt 0.988572 0.565673
vt 0.985193 0.565188
vt 0.957764 0.598232
vt 0.974839 0.599253
vt 0.979070 0.599643
vt 0.992882 0.574424
vt 0.996905 0.563581
vt 0.966107 0.521225
vt 0.962332 0.524531
vt 0.988246 0.597457
vt 0.988417 0.601189
vt 0.989425 0.604736
vt 0.975791 0.602812
vt 0.188232 0.010986
vt 0.199665 0.010938
vt 0.199123 0.006168
vt 0.968926 0.653203
vt 0.975284 0.656083
vt 0.965576 0.659424
vt 0.976805 0.650735
vt 0.977152 0.651583
vt 0.907765 0.352383
vt 0.922671 0.364824
vt 0.926821 0.361061
vt 0.220793 0.010986
vt 0.926783 0.364887
vt 0.965576 0.646452
vt 0.969731 0.637419
vt 0.968049 0.649426
vt 0.957764 0.524821
vt 0.971585 0.628176
vt 0.972741 0.611034
vt 0.987220 0.650915
vt 0.970805 0.616101
vt 0.970049 0.628825
vt 0.978914 0.615163
vt 0.984870 0.618305
vt 0.973852 0.607258
vt 0.970897 0.609098
vt 0.985179 0.613451
vt 0.219483 0.003174
vt 0.219987 0.003174
vt 0.219482 0.003174
vt 0.456835 0.065002
vt 0.449951 0.073486
vt 0.457494 0.073486
vt 0.501357 0.227871
vt 0.496826 0.233643
vt 0.505043 0.230389
vt 0.253577 0.122304
vt 0.244757 0.118128
vt 0.248054 0.122958
vt 0.487167 0.096297
vt 0.485107 0.100830
vt 0.490116 0.100830
vt 0.298623 0.062463
vt 0.305398 0.063499
vt 0.303661 0.061759
vt 0.341458 0.164338
vt 0.349406 0.167659
vt 0.341046 0.174511
vt 0.173547 0.247917
vt 0.178308 0.249268
vt 0.178761 0.240535
vt 0.488126 0.183222
vt 0.485107 0.186768
vt 0.493738 0.186767
vt 0.504188 0.096664
vt 0.500732 0.100830
vt 0.506268 0.100830
vt 0.533000 0.443856
vt 0.538497 0.440941
vt 0.530063 0.439643
vt 0.170317 0.244922
vt 0.171964 0.243744
vt 0.170840 0.239356
vt 0.166209 0.245458
vt 0.157127 0.222499
vt 0.165240 0.215784
vt 0.145489 0.221772
vt 0.156570 0.226615
vt 0.166074 0.207925
vt 0.169281 0.215806
vt 0.169880 0.208259
vt 0.544472 0.652703
vt 0.544476 0.675660
vt 0.548302 0.679491
vt 0.541971 0.147705
vt 0.540582 0.143226
vt 0.532792 0.146650
vt 0.531982 0.147705
vt 0.476481 0.175293
vt 0.473389 0.178955
vt 0.479885 0.178955
vt 0.500732 0.575992
vt 0.504390 0.575697
vt 0.502845 0.570698
vt 0.267623 0.168464
vt 0.278917 0.175049
vt 0.278870 0.164065
vt 0.275226 0.160917
vt 0.514044 0.568419
vt 0.519020 0.571824
vt 0.274685 0.156137
vt 0.263229 0.167346
vt 0.517522 0.565007
vt 0.522179 0.566835
vt 0.250147 0.163994
vt 0.251499 0.170714
vt 0.255701 0.175049
vt 0.522915 0.194978
vt 0.520263 0.198486
vt 0.526285 0.198486
vt 0.526849 0.192799
vt 0.507611 0.233643
vt 0.521205 0.195602
vt 0.524170 0.397705
vt 0.529941 0.397705
vt 0.526137 0.395339
vt 0.530443 0.397131
vt 0.270272 0.151352
vt 0.247384 0.162933
vt 0.278255 0.151870
vt 0.277639 0.144985
vt 0.501859 0.581299
vt 0.520147 0.576755
vt 0.523803 0.575406
vt 0.522601 0.570394
vt 0.278875 0.155378
vt 0.278506 0.151743
vt 0.473389 0.147705
vt 0.481081 0.147705
vt 0.478735 0.142818
vt 0.532982 0.571145
vt 0.526243 0.568940
vt 0.526334 0.569350
vt 0.525488 0.319580
vt 0.517001 0.316074
vt 0.508545 0.319580
vt 0.403076 0.088790
vt 0.404428 0.092368
vt 0.403076 0.096924
vt 0.239991 0.170927
vt 0.243004 0.158218
vt 0.231821 0.162751
vt 0.247496 0.170428
vt 0.236164 0.158390
vt 0.239200 0.150203
vt 0.250530 0.148098
vt 0.249098 0.146980
vt 0.231591 0.159045
vt 0.504125 0.319580
vt 0.495405 0.317903
vt 0.489014 0.319580
vt 0.497894 0.314781
vt 0.492696 0.315188
vt 0.254989 0.151765
vt 0.247495 0.159543
vt 0.251654 0.146842
vt 0.257859 0.138753
vt 0.249916 0.143283
vt 0.533371 0.579788
vt 0.537028 0.577202
vt 0.540684 0.576403
vt 0.534500 0.581299
vt 0.539630 0.339379
vt 0.531771 0.345853
vt 0.543576 0.346924
vt 0.528076 0.346924
vt 0.268923 0.137594
vt 0.277342 0.142672
vt 0.521551 0.648906
vt 0.525374 0.648903
vt 0.533026 0.645076
vt 0.164795 0.127786
vt 0.171610 0.130649
vt 0.174318 0.125907
vt 0.165996 0.103914
vt 0.457764 0.522705
vt 0.469047 0.522705
vt 0.458239 0.522108
vt 0.223389 0.121038
vt 0.223814 0.130792
vt 0.234033 0.133061
vt 0.233148 0.115488
vt 0.226325 0.135986
vt 0.226766 0.117823
vt 0.229754 0.095656
vt 0.234061 0.111924
vt 0.236945 0.101394
vt 0.390971 0.007080
vt 0.371859 0.004591
vt 0.371826 0.007080
vt 0.224073 0.112601
vt 0.227435 0.161652
vt 0.227165 0.159477
vt 0.223389 0.160245
vt 0.239101 0.094640
vt 0.235363 0.093912
vt 0.228108 0.094740
vt 0.229714 0.091278
vt 0.246237 0.142351
vt 0.245630 0.142202
vt 0.533262 0.489483
vt 0.528375 0.491689
vt 0.532675 0.493726
vt 0.461670 0.186767
vt 0.471778 0.186768
vt 0.467277 0.183746
vt 0.528076 0.495361
vt 0.566328 0.561767
vt 0.557404 0.558159
vt 0.555627 0.561767
vt 0.565052 0.558379
vt 0.251452 0.133273
vt 0.241563 0.113413
vt 0.252692 0.114062
vt 0.264908 0.114233
vt 0.266374 0.106696
vt 0.250240 0.107034
vt 0.269508 0.107664
vt 0.244217 0.102621
vt 0.242231 0.094684
vt 0.461670 0.034424
vt 0.465708 0.034424
vt 0.465369 0.026707
vt 0.268586 0.100007
vt 0.255842 0.093589
vt 0.252443 0.090051
vt 0.260705 0.092395
vt 0.461670 0.093018
vt 0.465668 0.093018
vt 0.465238 0.073932
vt 0.438548 0.458866
vt 0.442215 0.456007
vt 0.439582 0.454633
vt 0.434326 0.460205
vt 0.443462 0.454535
vt 0.450281 0.460205
vt 0.459169 0.459013
vt 0.449295 0.454031
vt 0.459765 0.460173
vt 0.446619 0.456669
vt 0.462330 0.241455
vt 0.452945 0.238745
vt 0.449951 0.241455
vt 0.438129 0.114061
vt 0.439638 0.112091
vt 0.436243 0.109563
vt 0.437516 0.108210
vt 0.286765 0.044596
vt 0.280672 0.044659
vt 0.288622 0.043805
vt 0.280926 0.044735
vt 0.544078 0.491072
vt 0.554994 0.495361
vt 0.551772 0.486041
vt 0.555443 0.487794
vt 0.283515 0.047968
vt 0.291705 0.045999
vt 0.290407 0.045218
vt 0.289380 0.040133
vt 0.282673 0.052101
vt 0.283655 0.062582
vt 0.288613 0.058366
vt 0.556074 0.487590
vt 0.564185 0.492176
vt 0.286668 0.052070
vt 0.290088 0.053554
vt 0.185992 0.140475
vt 0.187872 0.105830
vt 0.176141 0.098879
vt 0.172563 0.099215
vt 0.259199 0.128145
vt 0.256706 0.135986
vt 0.262715 0.124466
vt 0.265414 0.118918
vt 0.552318 0.218018
vt 0.544998 0.215493
vt 0.543701 0.218018
vt 0.269762 0.116232
vt 0.438135 0.575239
vt 0.430355 0.572985
vt 0.430637 0.575458
vt 0.441645 0.572595
vt 0.446530 0.116455
vt 0.430420 0.116455
vt 0.497086 0.522705
vt 0.492452 0.520577
vt 0.489014 0.522705
vt 0.293927 0.056213
vt 0.513804 0.683284
vt 0.502391 0.690989
vt 0.529168 0.691836
vt 0.525304 0.687122
vt 0.472944 0.538330
vt 0.467976 0.536163
vt 0.457764 0.538330
vt 0.540618 0.684610
vt 0.543701 0.559334
vt 0.460133 0.210205
vt 0.455593 0.209557
vt 0.449951 0.210205
vt 0.446278 0.076031
vt 0.442648 0.077870
vt 0.447457 0.081299
vt 0.441589 0.074364
vt 0.440576 0.079658
vt 0.173806 0.142423
vt 0.187466 0.163530
vt 0.181170 0.172102
vt 0.184323 0.171516
vt 0.187977 0.171224
vt 0.286300 0.065701
vt 0.290970 0.063143
vt 0.293980 0.064812
vt 0.295000 0.061289
vt 0.437807 0.074828
vt 0.430420 0.079687
vt 0.435400 0.081299
vt 0.398753 0.143838
vt 0.391109 0.150589
vt 0.398591 0.151611
vt 0.389018 0.143327
vt 0.393895 0.137279
vt 0.392297 0.137944
vt 0.399844 0.149184
vt 0.295298 0.061113
vt 0.294691 0.066545
vt 0.312053 0.097314
vt 0.308041 0.124030
vt 0.319344 0.126657
vt 0.307914 0.098397
vt 0.304085 0.124123
vt 0.239198 0.003174
vt 0.227034 0.001661
vt 0.223389 0.003174
vt 0.195810 0.105575
vt 0.199047 0.097634
vt 0.187233 0.096215
vt 0.183407 0.093802
vt 0.208610 0.174632
vt 0.204369 0.170999
vt 0.371826 0.151611
vt 0.253115 0.135756
vt 0.376509 0.594453
vt 0.378505 0.604410
vt 0.384628 0.601851
vt 0.371826 0.601044
vt 0.381359 0.594279
vt 0.375238 0.604736
vt 0.376839 0.594250
vt 0.540345 0.361898
vt 0.535922 0.361611
vt 0.535184 0.365364
vt 0.543269 0.366455
vt 0.194033 0.140277
vt 0.204057 0.109200
vt 0.190383 0.144284
vt 0.377581 0.141825
vt 0.391180 0.134400
vt 0.348464 0.153560
vt 0.362779 0.158325
vt 0.346221 0.163527
vt 0.370243 0.145337
vt 0.369675 0.149813
vt 0.344327 0.162991
vt 0.340576 0.150569
vt 0.563986 0.432861
vt 0.563097 0.432172
vt 0.559326 0.432861
vt 0.459549 0.038330
vt 0.455774 0.031371
vt 0.454971 0.031690
vt 0.516464 0.210205
vt 0.512767 0.202083
vt 0.508545 0.210205
vt 0.449951 0.038330
vt 0.386908 0.594150
vt 0.383104 0.586143
vt 0.379599 0.586709
vt 0.385708 0.601849
vt 0.389183 0.597923
vt 0.390624 0.594055
vt 0.379836 0.586424
vt 0.198696 0.144233
vt 0.213928 0.152093
vt 0.212101 0.171217
vt 0.409378 0.010196
vt 0.407265 0.018469
vt 0.413829 0.020658
vt 0.418451 0.011556
vt 0.424735 0.017662
vt 0.420459 0.026611
vt 0.313456 0.091592
vt 0.306898 0.089594
vt 0.307356 0.093566
vt 0.406982 0.026611
vt 0.413034 0.020904
vt 0.516357 0.397705
vt 0.522488 0.397705
vt 0.519945 0.395268
vt 0.307799 0.097398
vt 0.307951 0.097034
vt 0.369785 0.064998
vt 0.367920 0.064607
vt 0.369158 0.057729
vt 0.530897 0.366455
vt 0.524170 0.361858
vt 0.205465 0.121087
vt 0.356391 0.172277
vt 0.350254 0.174526
vt 0.341309 0.175049
vt 0.426455 0.000941
vt 0.421508 0.002525
vt 0.428514 0.016583
vt 0.284059 0.078200
vt 0.281821 0.080601
vt 0.286649 0.083188
vt 0.289121 0.119840
vt 0.279983 0.128150
vt 0.305496 0.128174
vt 0.281469 0.119143
vt 0.388509 0.590226
vt 0.385026 0.584584
vt 0.521394 0.108205
vt 0.518639 0.104232
vt 0.516357 0.108643
vt 0.522058 0.108643
vt 0.517050 0.104500
vt 0.487054 0.041866
vt 0.485108 0.046143
vt 0.489741 0.046143
vt 0.488721 0.041935
vt 0.310436 0.094118
vt 0.488901 0.167125
vt 0.485107 0.171142
vt 0.492797 0.171143
vt 0.487920 0.167330
vt 0.564141 0.381179
vt 0.563232 0.382080
vt 0.569256 0.382080
vt 0.461670 0.171142
vt 0.465834 0.167884
vt 0.461719 0.170641
vt 0.469360 0.171143
vt 0.218246 0.101871
vt 0.207575 0.101410
vt 0.215228 0.117276
vt 0.219925 0.113682
vt 0.477677 0.288330
vt 0.471757 0.281358
vt 0.465576 0.288330
vt 0.214186 0.121253
vt 0.466352 0.285097
vt 0.475363 0.282429
vt 0.162369 0.204103
vt 0.162052 0.207865
vt 0.392771 0.590078
vt 0.400596 0.589829
vt 0.395920 0.578497
vt 0.389084 0.578699
vt 0.392219 0.574782
vt 0.396911 0.597705
vt 0.408786 0.593372
vt 0.404643 0.589684
vt 0.394771 0.601131
vt 0.395448 0.601635
vt 0.405804 0.585786
vt 0.290582 0.100816
vt 0.508191 0.503174
vt 0.500398 0.500683
vt 0.489014 0.503174
vt 0.297259 0.092771
vt 0.292069 0.085561
vt 0.367920 0.073486
vt 0.207514 0.093749
vt 0.199295 0.096432
vt 0.414101 0.004563
vt 0.451604 0.196347
vt 0.455757 0.185027
vt 0.470523 0.147705
vt 0.467438 0.143267
vt 0.465520 0.143503
vt 0.461670 0.147705
vt 0.543701 0.124268
vt 0.550894 0.124268
vt 0.547689 0.121572
vt 0.217804 0.175049
vt 0.372556 0.280459
vt 0.376795 0.282348
vt 0.382532 0.273603
vt 0.381970 0.270638
vt 0.377727 0.285806
vt 0.372430 0.291827
vt 0.346535 0.142166
vt 0.340576 0.139231
vt 0.350228 0.146876
vt 0.448078 0.431348
vt 0.443478 0.435733
vt 0.458863 0.436546
vt 0.444318 0.430633
vt 0.109452 0.231191
vt 0.102831 0.222441
vt 0.098389 0.229845
vt 0.404196 0.559160
vt 0.395936 0.559450
vt 0.401594 0.570603
vt 0.114421 0.219419
vt 0.289883 0.108789
vt 0.284755 0.099901
vt 0.277934 0.103380
vt 0.279755 0.099695
vt 0.408556 0.581833
vt 0.121548 0.227938
vt 0.116367 0.237375
vt 0.125893 0.224188
vt 0.129391 0.228307
vt 0.146332 0.246293
vt 0.151073 0.243107
vt 0.138976 0.245262
vt 0.154629 0.243678
vt 0.457496 0.474579
vt 0.462971 0.478212
vt 0.458202 0.474889
vt 0.447187 0.473703
vt 0.466625 0.474728
vt 0.483133 0.007080
vt 0.480447 0.003686
vt 0.477295 0.007080
vt 0.543701 0.538330
vt 0.554596 0.538330
vt 0.547826 0.537018
vt 0.123803 0.201354
vt 0.130821 0.212923
vt 0.146638 0.206777
vt 0.154647 0.200856
vt 0.104218 0.207123
vt 0.104480 0.203417
vt 0.215806 0.171488
vt 0.142269 0.213899
vt 0.218640 0.129500
vt 0.371826 0.292236
vt 0.384126 0.292236
vt 0.385142 0.292068
vt 0.388951 0.291025
vt 0.403510 0.030611
vt 0.404505 0.030992
vt 0.403076 0.034424
vt 0.382466 0.286143
vt 0.387437 0.274161
vt 0.551556 0.463348
vt 0.547607 0.471924
vt 0.566855 0.471924
vt 0.566952 0.468015
vt 0.274757 0.094733
vt 0.450120 0.444580
vt 0.438937 0.439780
vt 0.274170 0.114636
vt 0.435356 0.438035
vt 0.434326 0.444580
vt 0.100904 0.202899
vt 0.144491 0.233204
vt 0.132765 0.232912
vt 0.135143 0.244957
vt 0.152079 0.233922
vt 0.489150 0.089146
vt 0.489792 0.093018
vt 0.490741 0.093018
vt 0.138657 0.249079
vt 0.140175 0.249268
vt 0.442153 0.481556
vt 0.446977 0.482394
vt 0.443108 0.480327
vt 0.503969 0.358643
vt 0.492399 0.350520
vt 0.491053 0.358643
vt 0.392372 0.279193
vt 0.404129 0.287732
vt 0.399259 0.276413
vt 0.393671 0.291902
vt 0.388686 0.290954
vt 0.274572 0.128174
vt 0.126571 0.216548
vt 0.122437 0.220012
vt 0.123552 0.231717
vt 0.125286 0.231731
vt 0.408637 0.584071
vt 0.409980 0.589507
vt 0.409938 0.585680
vt 0.412600 0.597089
vt 0.412920 0.604736
vt 0.155480 0.239038
vt 0.154801 0.242455
vt 0.155619 0.237984
vt 0.162661 0.242802
vt 0.166535 0.243051
vt 0.162539 0.243521
vt 0.167603 0.234885
vt 0.162042 0.247008
vt 0.163208 0.238700
vt 0.163751 0.234602
vt 0.158541 0.246246
vt 0.517049 0.444580
vt 0.516357 0.437847
vt 0.530872 0.444580
vt 0.535472 0.438060
vt 0.141792 0.217922
vt 0.145839 0.217936
vt 0.146189 0.214103
vt 0.141628 0.221504
vt 0.142895 0.229267
vt 0.136923 0.229102
vt 0.568790 0.085205
vt 0.565341 0.081254
vt 0.563232 0.085205
vt 0.129083 0.232086
vt 0.136877 0.232522
vt 0.171723 0.231441
vt 0.179847 0.228785
vt 0.469482 0.104736
vt 0.474894 0.104736
vt 0.469620 0.094707
vt 0.180609 0.224655
vt 0.172669 0.223437
vt 0.173346 0.215797
vt 0.174058 0.203413
vt 0.181868 0.213296
vt 0.181368 0.204913
vt 0.489014 0.350339
vt 0.403076 0.025836
vt 0.489014 0.346924
vt 0.506285 0.346924
vt 0.500103 0.340551
vt 0.257554 0.135246
vt 0.261428 0.131868
vt 0.279485 0.158826
vt 0.535258 0.571759
vt 0.139570 0.245385
vt 0.142500 0.245988
vt 0.456353 0.045340
vt 0.449951 0.050049
vt 0.458594 0.050049
vt 0.438750 0.580742
vt 0.446432 0.584976
vt 0.443143 0.582194
vt 0.297008 0.060473
vt 0.474353 0.081299
vt 0.471782 0.074177
vt 0.469482 0.081299
vt 0.379499 0.590482
vt 0.435039 0.601008
vt 0.431237 0.596974
vt 0.423541 0.604736
vt 0.450635 0.585971
vt 0.444776 0.569303
vt 0.430007 0.569923
vt 0.424858 0.562627
vt 0.455223 0.041276
vt 0.426373 0.570309
vt 0.422694 0.581585
vt 0.414795 0.573849
vt 0.418789 0.570321
vt 0.430420 0.584112
vt 0.434367 0.583327
vt 0.442120 0.452003
vt 0.444157 0.448469
vt 0.449951 0.128174
vt 0.451689 0.125575
vt 0.451030 0.124094
vt 0.405190 0.370254
vt 0.390487 0.374414
vt 0.401232 0.382080
vt 0.389737 0.370876
vt 0.501805 0.441337
vt 0.497435 0.441212
vt 0.489014 0.444580
vt 0.458419 0.119233
vt 0.453862 0.123865
vt 0.459566 0.128174
vt 0.456421 0.114046
vt 0.396832 0.361117
vt 0.404006 0.365263
vt 0.388296 0.360470
vt 0.384797 0.366404
vt 0.469482 0.046143
vt 0.474808 0.046142
vt 0.474714 0.038659
vt 0.449781 0.599952
vt 0.393232 0.351626
vt 0.379272 0.360131
vt 0.372871 0.350939
vt 0.494038 0.241455
vt 0.486832 0.238882
vt 0.481201 0.241455
vt 0.394360 0.356566
vt 0.424852 0.592866
vt 0.429154 0.596807
vt 0.419716 0.588617
vt 0.500718 0.436532
vt 0.509422 0.440390
vt 0.506027 0.444580
vt 0.421182 0.596181
vt 0.365236 0.193252
vt 0.355917 0.197282
vt 0.366334 0.198486
vt 0.431256 0.593011
vt 0.438536 0.604296
vt 0.449568 0.603445
vt 0.384143 0.582623
vt 0.381995 0.582581
vt 0.514417 0.442288
vt 0.539921 0.104805
vt 0.539795 0.108643
vt 0.543950 0.108643
vt 0.455052 0.587745
vt 0.453782 0.604736
vt 0.418856 0.590419
vt 0.417503 0.591076
vt 0.421916 0.593534
vt 0.422079 0.593878
vt 0.505341 0.370361
vt 0.502452 0.369183
vt 0.500732 0.370361
vt 0.300355 0.071918
vt 0.309000 0.069674
vt 0.297500 0.066079
vt 0.309036 0.067481
vt 0.386782 0.582567
vt 0.374775 0.373790
vt 0.380536 0.381368
vt 0.376768 0.382080
vt 0.341642 0.193307
vt 0.340453 0.198486
vt 0.353889 0.193941
vt 0.351757 0.190430
vt 0.310408 0.070843
vt 0.316570 0.069590
vt 0.374419 0.356494
vt 0.371826 0.362061
vt 0.392395 0.563276
vt 0.390686 0.559657
vt 0.529107 0.116455
vt 0.526531 0.113497
vt 0.524170 0.116455
vt 0.338404 0.195291
vt 0.336670 0.197717
vt 0.486417 0.089006
vt 0.485107 0.093018
vt 0.444207 0.478206
vt 0.452236 0.483643
vt 0.443711 0.474895
vt 0.509904 0.346924
vt 0.525995 0.346924
vt 0.521041 0.342156
vt 0.508545 0.339990
vt 0.374005 0.380522
vn -0.9409 0.0102 -0.3384
vn -0.0002 -0.0004 1.0000
vn -0.6553 -0.4300 -0.6210
vn -0.6480 -0.4301 -0.6286
vn -0.6500 -0.4303 -0.6264
vn -0.6574 -0.4299 -0.6189
vn -0.4594 -0.7754 -0.4332
vn -0.5533 -0.6226 0.5534
vn -0.9961 -0.0657 -0.0592
vn -0.4515 -0.6493 -0.6119
vn -0.5056 -0.5988 -0.6212
vn -0.8995 -0.4368 0.0131
vn -0.8772 -0.4787 -0.0378
vn -0.8597 -0.4692 0.2022
vn -0.6914 -0.7203 -0.0570
vn -0.5848 -0.8110 0.0157
vn -0.8864 -0.4605 0.0475
vn -0.9291 -0.1486 0.3388
vn -0.7026 -0.5814 0.4103
vn -0.9976 -0.0121 0.0678
vn -0.9996 0.0015 0.0271
vn -0.8050 -0.5177 -0.2897
vn -0.5547 -0.3566 -0.7518
vn -0.7130 -0.6467 -0.2710
vn -0.7671 -0.5153 -0.3821
vn -0.9799 -0.1121 0.1652
vn -0.9860 -0.0059 0.1664
vn -0.9985 -0.0061 0.0536
vn -0.9992 0.0226 0.0320
vn -0.9999 0.0064 0.0158
vn -0.8258 -0.5423 -0.1550
vn -0.7240 -0.6895 0.0205
vn -0.8966 -0.4408 -0.0428
vn -0.9373 -0.0124 -0.3484
vn -0.8433 -0.0836 -0.5310
vn -0.8059 0.0046 -0.5920
vn -0.9063 0.2690 -0.3260
vn -0.5835 -0.5953 0.5524
vn -0.6292 -0.5478 0.5514
vn -0.9778 0.0105 -0.2095
vn -0.9597 0.2773 -0.0450
vn -0.9441 0.1623 0.2871
vn -0.9630 -0.0002 0.2696
vn -0.7703 0.1324 0.6238
vn -0.7348 -0.3605 0.5745
vn 0.4882 -0.4919 0.7209
vn 0.6536 -0.4605 0.6007
vn 0.0020 -1.0000 0.0004
vn -0.6299 -0.6001 0.4931
vn -0.4307 0.3520 0.8310
vn -0.7044 0.4224 0.5705
vn -0.0008 0.6714 0.7410
vn 0.8257 -0.5569 -0.0900
vn 0.8088 -0.5698 0.1455
vn -0.5277 -0.7133 0.4613
vn 0.4289 -0.8950 0.1223
vn 0.3131 -0.9382 0.1476
vn 0.6438 -0.7620 -0.0700
vn 0.1229 -0.9916 -0.0408
vn 0.6238 -0.7816 0.0010
vn 0.3677 -0.9105 0.1892
vn 0.3191 -0.9390 0.1284
vn 0.2281 -0.9673 0.1107
vn -0.2557 -0.8867 0.3852
vn 0.0596 -0.7066 0.7051
vn -0.1994 -0.8558 0.4773
vn -0.7719 -0.5726 -0.2761
vn 0.0000 -1.0000 0.0000
vn 0.0000 -1.0000 -0.0001
vn 0.0000 -1.0000 -0.0002
vn -0.0218 0.7421 0.6700
vn 0.3527 -0.8104 -0.4677
vn 0.7253 -0.2211 0.6519
vn 0.5443 0.5367 0.6447
vn -0.1959 0.2517 -0.9478
vn -0.6038 0.5071 0.6150
vn 0.4201 0.5375 0.7312
vn 0.4787 0.3324 0.8126
vn 0.6348 0.4406 -0.6348
vn 0.4064 -0.8183 -0.4064
vn 0.3964 0.0628 0.9159
vn -0.2349 0.9027 0.3605
vn 0.8484 -0.4694 -0.2447
vn 0.7238 0.6576 -0.2087
vn 0.9968 -0.0795 -0.0094
vn -0.0115 -0.9999 0.0093
vn -0.0112 -0.9999 0.0033
vn -0.0097 -1.0000 -0.0003
vn -0.4270 -0.7384 0.5220
vn -0.4541 -0.7666 0.4540
vn -0.4642 -0.6367 0.6158
vn -0.2331 -0.3197 0.9184
vn -0.9973 0.0670 0.0293
vn -0.9938 -0.0797 0.0780
vn -0.2460 0.0165 0.9691
vn -0.2887 -0.0015 0.9574
vn -0.6226 0.5528 -0.5538
vn -0.5947 0.5599 -0.5769
vn -0.6030 0.5353 0.5915
vn -0.6156 0.5063 0.6040
vn -0.9946 0.0582 -0.0865
vn -0.9778 -0.1503 -0.1457
vn -0.8925 0.3429 -0.2931
vn -0.4776 -0.7656 0.4310
vn -0.4698 -0.7697 0.4323
vn -0.4700 -0.7693 0.4328
vn -0.4778 -0.7658 0.4303
vn -0.4754 -0.7620 -0.4397
vn -0.4753 -0.3934 0.7870
vn -0.4483 0.5036 0.7385
vn -0.4980 0.4954 0.7118
vn -0.2967 0.8489 -0.4374
vn -0.7809 0.5791 -0.2343
vn -0.7887 0.5529 -0.2688
vn -0.7636 0.5910 -0.2602
vn -0.6218 -0.0251 0.7828
vn -0.6756 -0.0011 0.7372
vn -0.7237 -0.2269 0.6517
vn -0.6689 0.1416 0.7298
vn -0.6502 0.1071 0.7522
vn -0.7026 0.0964 0.7050
vn -0.5235 0.6216 0.5827
vn -0.6233 0.4708 0.6244
vn -0.5240 -0.2726 -0.8069
vn -0.0136 -0.9999 -0.0022
vn -0.9063 0.4179 -0.0628
vn -0.9192 0.3928 0.0294
vn -0.8944 0.4415 -0.0717
vn -0.9964 0.0288 -0.0799
vn -0.9981 0.0607 -0.0084
vn -1.0000 0.0017 -0.0001
vn -0.9122 0.4079 -0.0382
vn -0.5781 -0.2146 -0.7873
vn -0.5451 -0.2337 -0.8052
vn -0.6630 -0.0866 -0.7436
vn -0.9953 0.0614 -0.0745
vn -0.9699 -0.1271 0.2077
vn -0.7255 0.5158 -0.4556
vn -0.5717 0.5123 -0.6409
vn -0.7341 0.4482 -0.5101
vn -0.7429 0.5214 -0.4199
vn -0.5524 0.6078 -0.5705
vn -0.5414 0.5379 0.6462
vn -0.5518 0.5416 0.6341
vn 0.0012 -0.0886 0.9961
vn -0.1247 0.1011 0.9870
vn -0.0759 -0.0883 0.9932
vn -0.2318 -0.1645 0.9587
vn -0.1234 0.4906 0.8626
vn -0.7976 0.5940 0.1051
vn -0.8787 0.4729 -0.0657
vn -0.7753 0.5774 -0.2559
vn -0.7960 0.5600 -0.2299
vn 0.1126 -0.9676 -0.2260
vn -0.5023 -0.8148 -0.2894
vn -0.5184 -0.8369 -0.1755
vn -0.4936 -0.4868 0.7207
vn 0.5512 0.5559 0.6222
vn 0.5511 0.5568 0.6215
vn 0.5512 0.5541 0.6238
vn 0.5514 0.5514 0.6261
vn 0.6842 0.2436 0.6874
vn 0.8267 0.3221 0.4612
vn 0.9042 -0.0319 0.4258
vn 0.9496 0.0342 0.3117
vn 0.9610 0.0068 0.2764
vn 0.4165 -0.0292 0.9087
vn 0.5390 -0.0452 0.8411
vn -0.4945 0.4939 -0.7153
vn -0.6874 0.3075 -0.6580
vn -0.7033 0.7023 -0.1105
vn 0.9755 -0.1325 0.1756
vn 0.8071 -0.2932 0.5125
vn 0.3737 0.4423 0.8153
vn 0.5535 0.1589 0.8175
vn -0.7147 0.2071 -0.6680
vn -0.7607 0.6238 -0.1792
vn -0.5923 0.7280 0.3452
vn -0.5096 -0.5294 -0.6782
vn -0.4796 -0.6022 -0.6382
vn -0.6512 -0.4006 -0.6445
vn -0.6155 -0.4918 0.6159
vn -0.6182 -0.3803 0.6879
vn 0.7002 0.7084 0.0886
vn 0.6999 0.7087 0.0890
vn 0.7022 0.7067 0.0864
vn 0.7046 0.7046 0.0838
vn 0.9219 0.2770 0.2709
vn 0.9405 0.1974 0.2764
vn 0.9819 0.0070 0.1890
vn 0.9267 0.3604 0.1065
vn 0.9405 0.1506 0.3045
vn 0.9644 0.0853 0.2503
vn 0.8411 0.1347 0.5238
vn 0.9976 0.0304 -0.0623
vn 0.9789 0.1828 0.0918
vn 0.9950 -0.0352 0.0934
vn 0.9815 0.0300 0.1890
vn 0.9924 0.0798 0.0932
vn 0.9395 -0.1275 -0.3180
vn 0.9482 -0.3101 0.0684
vn 0.9692 -0.1550 0.1914
vn 0.9447 -0.3090 0.1099
vn 0.8990 -0.0991 0.4267
vn 0.8960 -0.0678 0.4388
vn 0.8840 -0.1007 0.4565
vn -0.7537 0.6159 0.2294
vn 0.5476 0.8331 -0.0782
vn 0.4499 0.8915 0.0527
vn 0.3422 0.7005 -0.6262
vn 0.5843 0.2528 -0.7711
vn 0.2714 0.6237 -0.7330
vn 0.6272 0.7402 -0.2424
vn 0.2700 0.3187 -0.9086
vn 0.4792 -0.0145 -0.8776
vn 0.8727 -0.3889 -0.2953
vn 0.6887 0.1698 0.7049
vn 0.0001 -0.0000 1.0000
vn -0.5883 0.6081 0.5331
vn 0.3478 0.6789 -0.6467
vn 0.2991 0.6310 -0.7158
vn -0.8752 -0.4837 0.0016
vn -0.6911 -0.7170 0.0913
vn -0.9112 -0.4111 0.0258
vn -0.8980 -0.4376 -0.0445
vn 0.2422 -0.5982 -0.7639
vn 0.3026 -0.5101 -0.8051
vn 0.1623 -0.6170 -0.7700
vn 0.4899 -0.8250 -0.2817
vn 0.1609 -0.7543 -0.6365
vn -0.6693 -0.3227 -0.6693
vn -0.0251 -0.5270 -0.8495
vn -0.6883 -0.3354 -0.6433
vn 0.1270 -0.6056 -0.7856
vn -0.1028 -0.9931 -0.0559
vn -0.1202 -0.9919 -0.0416
vn -0.1689 -0.9034 -0.3941
vn -0.1461 -0.8844 -0.4433
vn 0.5454 0.2622 0.7961
vn 0.5407 0.2608 0.7998
vn 0.5459 0.2624 0.7957
vn 0.5401 0.2607 0.8002
vn 0.7755 0.0365 0.6303
vn 0.5372 0.6709 0.5112
vn 0.5817 0.7404 0.3367
vn 0.5815 0.7407 0.3365
vn 0.5812 0.7410 0.3363
vn 0.5819 0.7402 0.3369
vn 0.3516 0.8521 0.3878
vn 0.5679 0.7223 0.3947
vn 0.3552 0.0547 0.9332
vn 0.6430 0.2250 0.7321
vn 0.5050 0.6438 0.5750
vn -0.7722 0.6354 0.0003
vn -0.7356 0.6771 0.0198
vn 0.9430 -0.1556 0.2941
vn 0.5286 0.8014 -0.2799
vn 0.8427 -0.5096 -0.1738
vn 0.2041 -0.9728 0.1096
vn -0.0375 -0.9319 -0.3609
vn -0.6490 -0.7094 -0.2748
vn 0.0356 -0.7958 0.6045
vn 0.1018 -0.7284 0.6776
vn -0.6536 0.4433 0.6134
vn -0.1231 -0.8156 0.5653
vn -0.2987 -0.5954 0.7458
vn -0.1873 -0.3491 0.9182
vn -0.2416 -0.6841 0.6882
vn -0.2916 -0.4850 0.8245
vn -0.6254 -0.3955 0.6727
vn -0.4800 -0.8717 -0.0990
vn -0.4101 -0.9109 -0.0460
vn -0.4569 -0.8298 -0.3205
vn -0.4843 -0.8183 -0.3096
vn -0.5551 -0.8190 0.1455
vn -0.0766 -0.9897 -0.1208
vn 0.1511 -0.5644 -0.8116
vn 0.4630 -0.5062 -0.7276
vn 0.4365 -0.2159 -0.8734
vn 0.5832 -0.5590 -0.5894
vn -0.4708 -0.4094 0.7815
vn -0.0594 -0.7201 0.6913
vn -0.1205 -0.7296 0.6732
vn -0.1905 0.7760 0.6013
vn 0.0179 0.8386 0.5444
vn 0.2274 0.7684 0.5982
vn -0.0461 0.6913 0.7211
vn -0.0507 0.6901 0.7219
vn -0.0461 0.6909 0.7215
vn -0.0000 1.0000 0.0013
vn -0.9071 -0.1690 -0.3856
vn -0.5338 0.1063 -0.8389
vn -0.6745 -0.3500 -0.6501
vn -0.7442 -0.4078 -0.5291
vn -0.0688 -0.9975 -0.0166
vn -0.4707 -0.8812 0.0439
vn -0.4241 -0.9045 0.0451
vn 0.1541 -0.6122 0.7755
vn 0.1787 -0.9642 -0.1958
vn 0.2688 -0.9556 -0.1205
vn 0.0198 -0.9919 -0.1251
vn -0.0008 -1.0000 -0.0013
vn 0.3969 -0.9178 0.0112
vn 0.0213 0.9977 0.0649
vn 0.3053 0.9449 0.1186
vn 0.2968 0.9524 0.0695
vn 0.6135 0.6143 -0.4963
vn 0.1966 0.8844 -0.4234
vn 0.4722 0.8305 -0.2954
vn 0.0001 1.0000 -0.0002
vn 0.3483 0.6125 0.7096
vn 0.5728 0.1090 0.8124
vn 0.3266 0.3942 0.8590
vn 0.2878 -0.9520 -0.1047
vn 0.3209 -0.9419 -0.0995
vn 0.2662 -0.9463 -0.1833
vn 0.3138 -0.9208 -0.2317
vn 0.4296 -0.8973 -0.1017
vn 0.4233 0.9057 -0.0244
vn 0.4264 0.9042 -0.0231
vn 0.4224 0.9061 -0.0248
vn 0.4273 0.9038 -0.0227
vn -0.0502 0.6906 0.7215
vn -0.4694 0.5457 0.6942
vn -0.5352 0.6221 0.5714
vn 0.1792 0.9523 0.2468
vn -0.4097 0.5863 0.6989
vn -0.5096 0.4933 0.7049
vn -1.0000 0.0000 -0.0001
vn -0.8740 -0.3173 0.3681
vn -0.5372 0.4947 0.6831
vn -0.8173 -0.5285 0.2296
vn -0.2427 0.9554 0.1681
vn 0.0337 0.9540 0.2978
vn -0.2459 0.9678 0.0538
vn -0.6065 0.7786 -0.1611
vn -0.0651 0.9953 -0.0714
vn -0.0981 0.9940 -0.0474
vn -0.0001 1.0000 0.0005
vn 0.4084 -0.9093 -0.0803
vn 0.5696 -0.8207 -0.0438
vn 0.4426 -0.8906 -0.1042
vn 0.6295 -0.7722 -0.0867
vn 0.3945 -0.9122 -0.1110
vn -0.3182 0.1155 0.9410
vn -0.3104 -0.2408 0.9196
vn -0.2086 -0.1354 0.9686
vn -0.3313 -0.1306 0.9344
vn -0.1601 -0.9668 0.1993
vn 0.2580 -0.1904 0.9472
vn 0.6625 -0.4889 0.5675
vn -0.4330 -0.8671 0.2465
vn -0.9996 -0.0285 0.0052
vn -0.2765 -0.6948 0.6639
vn 0.1028 0.2588 0.9605
vn 0.2880 0.1273 0.9491
vn 0.5694 -0.8064 -0.1597
vn 0.4180 -0.8413 -0.3428
vn -0.2797 0.9445 0.1722
vn -0.2898 0.9441 0.1568
vn 0.0470 0.7419 0.6689
vn -0.5468 0.6219 0.5606
vn -0.4308 0.2616 0.8637
vn 0.0585 -0.7648 0.6416
vn 0.2971 -0.6270 0.7202
vn -0.1122 -0.3136 0.9429
vn -0.4092 -0.6990 0.5865
vn -0.6272 -0.6975 0.3466
vn -0.5961 -0.7001 0.3930
vn -0.7163 -0.2907 0.6344
vn -0.3783 -0.8072 0.4531
vn 0.8305 0.4181 -0.3681
vn 0.8142 0.2052 -0.5432
vn 0.6693 0.4994 0.5500
vn 1.0000 0.0005 0.0005
vn 0.0771 -0.0283 0.9966
vn 0.7138 0.4447 -0.5410
vn 0.2171 -0.0819 -0.9727
vn -0.9561 0.2565 0.1416
vn -0.9948 0.0291 -0.0973
vn -0.9970 -0.0757 0.0145
vn -0.8294 0.4315 0.3548
vn 0.6650 -0.6850 -0.2977
vn 0.6317 -0.7598 -0.1538
vn 0.7574 -0.6265 -0.1840
vn 0.5451 -0.7871 -0.2887
vn 0.6796 -0.6888 -0.2525
vn 0.8621 -0.4886 -0.1347
vn 0.5533 -0.7584 -0.3445
vn 0.5140 -0.5719 -0.6394
vn 0.7586 -0.6515 -0.0081
vn 0.7687 -0.0286 -0.6390
vn 0.2328 0.9720 0.0305
vn 0.0721 0.9971 -0.0243
vn 0.0719 0.9948 0.0724
vn 0.3523 0.6622 -0.6614
vn 0.1289 0.5379 -0.8331
vn 0.5759 0.5787 -0.5774
vn 0.4983 0.8467 -0.1864
vn 0.3678 0.6229 -0.6904
vn 0.2560 0.5118 -0.8201
vn -0.0736 0.7484 -0.6591
vn 0.4495 0.6031 -0.6590
vn 0.4412 0.7497 -0.4931
vn -0.6716 -0.7356 0.0888
vn -0.6715 -0.7361 0.0851
vn -0.6717 -0.7355 0.0885
vn -0.7180 -0.6945 0.0467
vn 0.6661 -0.7446 -0.0433
vn -0.6717 -0.7354 0.0893
vn -0.6462 -0.7607 0.0610
vn 0.3474 -0.8972 -0.2727
vn 0.3055 -0.9464 -0.1049
vn 0.5925 -0.5822 0.5568
vn 0.4111 -0.9041 0.1165
vn 0.5813 -0.7970 -0.1641
vn 0.5350 -0.8360 -0.1222
vn 0.5769 -0.5494 0.6044
vn 0.5036 -0.1594 0.8491
vn -0.1713 -0.3728 0.9120
vn -0.0519 -0.0292 0.9982
vn -0.4519 0.6460 -0.6153
vn -0.6961 0.5848 -0.4164
vn 0.7374 -0.5593 0.3788
vn 0.6950 -0.6950 0.1843
vn 0.6028 -0.7394 0.2999
vn -0.9988 0.0367 0.0313
vn -0.9983 0.0070 -0.0574
vn -0.9588 0.2034 0.1980
vn -0.9780 -0.0524 0.2020
vn -0.8406 0.5414 0.0155
vn -0.6552 0.7519 -0.0738
vn -0.7544 0.6540 0.0572
vn -0.7182 0.6956 0.0191
vn -0.7063 0.7067 -0.0407
vn 0.9027 0.3272 0.2795
vn 0.4576 0.8778 0.1417
vn 0.8314 0.5557 0.0032
vn -0.6605 -0.3935 0.6395
vn -0.9500 -0.0626 0.3060
vn -0.6741 -0.5702 0.4695
vn 0.7271 0.6611 -0.1854
vn 0.7191 0.6867 -0.1062
vn 0.8411 0.4908 -0.2273
vn 0.8412 0.4908 -0.2271
vn 0.8407 0.4913 -0.2278
vn 0.5582 0.7400 -0.3752
vn 0.8415 0.4904 -0.2268
vn 0.8561 0.3434 -0.3862
vn 0.2004 0.9748 0.0980
vn 0.1635 0.9670 0.1952
vn 0.4081 0.4111 -0.8151
vn 0.6763 -0.2529 -0.6919
vn 0.8192 -0.4130 -0.3980
vn 0.4450 -0.7414 0.5024
vn 0.4587 -0.3924 0.7972
vn 0.9259 -0.3522 -0.1365
vn 0.8814 -0.4596 -0.1092
vn 0.9210 -0.3778 -0.0945
vn 0.9729 -0.2291 -0.0318
vn 0.7922 -0.6004 -0.1090
vn 0.9830 -0.1774 -0.0467
vn 0.6602 -0.6569 -0.3641
vn -0.3450 0.2718 0.8984
vn -0.4645 0.3660 0.8064
vn -0.3327 -0.2114 0.9191
vn 0.7559 -0.1467 0.6381
vn 0.4565 -0.0565 0.8879
vn -0.6348 0.6352 0.4400
vn -0.6731 0.5943 0.4401
vn -0.5297 0.4678 0.7075
vn -0.9878 0.1115 0.1087
vn -0.9622 0.2162 0.1658
vn -0.8146 -0.1222 0.5669
vn -0.9366 0.3364 0.0981
vn -0.8720 0.4404 0.2137
vn -0.7483 -0.6583 0.0822
vn -0.7604 -0.6432 0.0894
vn -0.9934 -0.0655 0.0939
vn -0.9930 -0.0197 0.1168
vn -0.9439 -0.3290 -0.0304
vn -0.9629 -0.2657 -0.0482
vn -0.9171 -0.3722 -0.1428
vn -0.8399 -0.0355 -0.5415
vn 0.9813 0.0964 0.1669
vn 0.9815 0.1517 -0.1169
vn 0.8710 -0.2049 0.4465
vn 0.7352 0.6045 -0.3068
vn 0.7385 0.6280 -0.2455
vn 0.8167 0.5699 -0.0905
vn 0.9181 0.3948 0.0359
vn 0.6677 -0.1691 0.7250
vn 0.8984 -0.0067 0.4391
vn 0.9939 -0.0068 -0.1101
vn 0.0104 -0.9999 -0.0104
vn 0.7646 -0.5553 0.3272
vn 0.6936 -0.7145 0.0917
vn -0.5453 0.7608 -0.3519
vn -0.9989 0.0225 0.0410
vn -0.6598 -0.0274 0.7510
vn -0.6812 0.0190 0.7319
vn -0.5203 0.4246 0.7410
vn -0.5602 -0.5287 0.6377
vn -0.6991 0.2314 0.6765
vn -0.5985 -0.0504 0.7995
vn 0.8859 0.4622 0.0392
vn 0.9824 0.0782 -0.1695
vn 0.9776 0.0960 -0.1873
vn 0.9777 -0.1302 -0.1647
vn 0.9526 0.2584 -0.1604
vn 0.7480 -0.0759 -0.6594
vn 0.8205 -0.4355 -0.3703
vn -0.3702 0.7762 -0.5104
vn -0.4076 0.6253 -0.6655
vn -0.0000 1.0000 -0.0000
vn 0.3238 0.9428 -0.0792
vn 0.3247 0.9455 0.0239
vn 0.1327 0.9900 -0.0475
vn 0.0891 0.9960 -0.0004
vn 0.8228 0.3539 -0.4447
vn 0.3455 0.7926 0.5024
vn 0.5899 0.5028 -0.6319
vn 0.5696 0.5741 0.5882
vn 0.5030 0.8540 -0.1332
vn 0.3923 0.8999 -0.1906
vn 0.5180 0.8443 -0.1372
vn 0.7105 0.6489 -0.2722
vn 0.6659 0.6434 0.3777
vn 0.8261 0.3128 0.4687
vn 0.9055 0.3660 0.2147
vn 0.9046 0.3959 0.1579
vn 0.4782 0.8765 -0.0558
vn 0.7101 0.7034 -0.0316
vn 0.8374 0.5453 -0.0373
vn 0.8577 0.5142 0.0061
vn 0.7609 0.6481 0.0302
vn 0.7515 0.6465 -0.1313
vn 0.6585 0.6940 -0.2910
vn 0.5366 0.5654 0.6264
vn 0.3963 0.6453 0.6531
vn 0.7974 -0.4431 -0.4096
vn 0.9687 -0.2421 -0.0545
vn 0.4156 -0.7283 -0.5448
vn 0.7160 -0.6257 -0.3094
vn 0.8521 0.5219 -0.0401
vn 0.9030 0.4297 -0.0014
vn 0.6661 0.4083 -0.6242
vn 0.9120 0.1026 -0.3971
vn 0.8546 -0.5193 -0.0013
vn 0.9873 -0.0938 -0.1281
vn 0.9759 0.0532 -0.2115
vn 0.8244 0.1377 -0.5490
vn 0.9714 0.1093 -0.2106
vn 0.6670 -0.4054 -0.6251
vn 0.9051 0.4202 -0.0650
vn 0.9663 0.2246 -0.1254
vn 0.9878 -0.0500 0.1477
vn 0.9703 -0.1938 0.1451
vn 0.9983 -0.0507 0.0291
vn 0.9944 0.0980 -0.0393
vn 0.9967 0.0802 -0.0123
vn 0.9797 -0.0149 -0.1997
vn 0.9991 -0.0152 0.0396
vn 0.9944 -0.0977 0.0390
vn 0.9972 -0.0751 -0.0067
vn 0.6228 -0.6634 -0.4147
vn 0.6647 -0.7082 -0.2378
vn 0.8071 0.4099 0.4250
vn 0.7933 0.2580 0.5515
vn 0.5617 0.5888 0.5812
vn 0.7624 0.4483 0.4666
vn 0.6205 0.5668 -0.5419
vn 0.8726 0.1382 -0.4685
vn 0.7050 -0.0560 -0.7070
vn 0.8857 -0.3832 -0.2620
vn 0.8088 -0.4028 0.4285
vn 0.8455 -0.3658 0.3891
vn -0.4150 0.0804 0.9063
vn 0.6252 -0.6953 0.3545
vn 0.3973 -0.4957 0.7723
vn 0.9991 -0.0347 -0.0235
vn 0.9992 -0.0321 -0.0221
vn 0.9992 -0.0323 -0.0223
vn 0.9991 -0.0352 -0.0237
vn 0.5324 0.3129 -0.7865
vn 0.7378 0.0184 -0.6748
vn 0.7053 0.0487 -0.7072
vn 0.7115 0.2651 -0.6507
vn 0.7389 0.2754 -0.6149
vn 0.9971 0.0594 -0.0482
vn 0.9799 -0.1852 0.0744
vn 0.9677 -0.1869 -0.1690
vn 0.5455 0.4691 -0.6946
vn 0.5291 0.4807 -0.6993
vn 0.8515 0.0585 0.5211
vn 0.8347 0.0143 0.5505
vn 1.0000 0.0005 0.0006
vn 1.0000 0.0005 0.0007
vn 1.0000 0.0010 0.0009
vn 1.0000 0.0004 0.0011
vn 0.9935 0.1116 -0.0219
vn 0.9935 0.1118 -0.0219
vn 0.9935 0.1117 -0.0219
vn 0.9935 0.1119 -0.0219
vn -0.9465 0.0191 0.3220
vn -0.9466 0.0189 0.3220
vn -0.9466 0.0188 0.3220
vn -0.9466 0.0187 0.3220
vn -0.3889 0.3130 0.8665
vn -0.3888 0.3134 0.8664
vn -0.6419 -0.7511 0.1543
vn -0.6419 -0.7511 0.1544
vn -0.6421 -0.7510 0.1539
vn -0.6420 -0.7511 0.1540
vn 0.0002 1.0000 0.0003
vn 0.0001 1.0000 0.0002
vn 0.0001 1.0000 0.0001
vn -0.7081 0.1979 -0.6778
vn 0.6606 0.5609 0.4990
vn -0.5841 -0.4708 -0.6612
vn 0.3415 -0.6445 0.6841
vn 0.4506 0.6713 -0.5885
vn -0.3044 0.9476 0.0974
vn -0.3021 0.9480 0.0999
vn -0.3016 0.9481 0.1003
vn -0.8109 0.5473 -0.2071
vn -0.4944 0.7358 0.4627
vn -0.6101 0.3507 -0.7105
vn -0.8542 0.4911 0.1707
vn -0.9015 0.4297 -0.0515
vn -0.9227 0.3824 -0.0487
vn -0.7722 0.6351 0.0198
vn -0.9097 0.2543 -0.3284
vn -0.3044 0.7903 0.5318
vn -0.2123 0.9715 0.1056
vn -0.0697 0.9958 0.0589
vn -0.1923 0.8789 0.4365
vn -0.2083 0.9520 0.2241
vn -0.3188 0.9478 0.0004
vn 0.2919 0.0923 -0.9520
vn 0.5498 0.6228 -0.5566
vn 0.8946 0.2828 -0.3461
vn 0.9167 -0.1467 0.3718
vn 0.7833 0.3851 0.4880
vn 0.0563 0.2876 0.9561
vn 0.0553 0.3404 0.9387
vn -0.8591 0.5034 0.0918
vn 0.5862 0.0902 0.8052
vn 0.4015 0.6931 0.5986
vn 0.3727 0.7738 0.5122
vn 0.2863 0.5941 0.7517
vn -0.5152 0.4302 0.7413
vn -0.6670 0.5567 0.4952
vn 0.1703 0.7606 0.6265
vn 0.1009 0.7419 0.6628
vn 0.2922 0.6339 0.7161
vn 0.1413 0.6671 0.7314
vn 0.3207 0.6956 0.6428
vn -0.1098 0.9304 0.3498
vn 0.1390 0.9270 0.3484
vn -0.2916 0.5726 0.7662
vn -0.4269 0.8528 0.3008
vn 0.4636 0.8857 0.0236
vn -0.3079 0.5814 0.7531
vn -0.1837 0.8565 0.4823
vn -0.8911 0.4122 -0.1897
vn -0.9660 0.2015 0.1621
vn -0.9085 0.4104 0.0789
vn -0.8534 0.1486 0.4996
vn -0.9710 0.1691 0.1689
vn -0.6726 0.6985 0.2443
vn -0.7700 0.4515 0.4508
vn -0.5963 -0.4542 0.6619
vn -0.2585 0.9656 -0.0273
vn -0.5614 0.8118 -0.1606
vn -0.5131 0.6887 -0.5124
vn -0.0540 0.9936 -0.0987
vn -0.6802 0.6641 0.3103
vn -0.3051 0.9474 0.0966
vn -0.6654 0.2855 -0.6897
vn -0.3751 0.3664 -0.8515
vn -0.6874 0.5136 0.5135
vn 0.0777 -0.3882 0.9183
vn 0.0000 0.7515 0.6597
vn -0.0367 0.6711 0.7405
vn -0.0463 0.8456 0.5318
vn -0.0419 0.7718 0.6345
vn -0.9316 -0.1204 -0.3430
vn -0.9656 -0.1004 -0.2398
vn -0.9894 0.0566 -0.1337
vn -0.3535 0.5961 -0.7209
vn -0.6601 -0.5318 0.5305
vn -0.0455 -0.6161 -0.7863
vn -0.6483 -0.5795 -0.4938
vn -0.5534 -0.4947 -0.6701
vn -0.6458 0.2750 -0.7123
vn 0.0688 -0.5925 -0.8026
vn -0.0445 -0.6877 -0.7247
vn -0.1515 0.4703 -0.8694
vn -0.0134 0.3815 -0.9243
vn -0.0462 0.3531 -0.9344
vn 0.0839 0.6414 0.7626
vn 0.0943 0.8201 0.5644
vn -0.0878 0.8907 0.4460
vn -0.0380 0.7888 0.6135
vn 0.3245 -0.5288 0.7843
vn 0.4496 -0.2819 0.8476
vn 0.4463 0.3049 0.8413
vn 0.3772 0.7542 -0.5375
vn 0.7967 0.2878 -0.5315
vn 0.2230 0.7517 -0.6207
vn -0.8611 0.2937 -0.4149
vn -0.1301 0.8432 0.5217
vn -0.1289 0.8977 0.4213
vn 0.5721 0.8162 -0.0810
vn 0.3641 0.9128 0.1850
vn 0.4535 0.8265 -0.3337
vn 0.6111 0.6116 0.5024
vn -0.5678 0.1282 0.8131
vn -0.7880 -0.1201 0.6038
vn -0.0606 -0.1946 0.9790
vn 0.8075 -0.1312 0.5750
vn 0.6452 -0.3051 0.7005
vn 0.0030 -0.9949 -0.1010
vn 0.0030 -1.0000 0.0022
vn 0.8996 -0.4255 -0.0980
vn -0.8140 0.5262 0.2459
vn -0.8138 0.5265 0.2458
vn -0.8147 0.5251 0.2461
vn -0.8149 0.5247 0.2462
vn -0.6255 0.6160 0.4789
vn -0.7683 0.6322 -0.0996
vn -0.7684 0.6322 -0.0996
vn -0.7684 0.6322 -0.0995
vn -0.7684 0.6321 -0.0995
vn -0.5800 -0.2571 0.7730
vn -0.5800 -0.2572 0.7730
vn -0.5800 -0.2570 0.7730
usemtl 85fc032eaee04650914faeb8ddd6a71e_013.jpg
s 1
f 1/1/1 2/2/1 3/3/1
f 10/4/2 12/5/2 8/6/2
f 13/7/3 14/8/4 15/9/5
f 15/9/5 16/10/6 13/7/3
f 15/9/7 17/11/7 16/10/7
f 18/12/8 19/13/8 16/10/8
f 13/7/9 16/10/9 19/13/9
f 20/14/10 21/15/10 22/16/10
f 22/16/11 23/17/11 20/14/11
f 23/17/12 24/18/12 25/19/12
f 25/19/13 17/11/13 23/17/13
f 25/19/14 26/20/14 17/11/14
f 17/11/15 15/9/15 23/17/15
f 15/9/16 20/14/16 23/17/16
f 23/17/17 27/21/17 24/18/17
f 26/20/18 28/22/18 17/11/18
f 28/22/19 29/23/19 17/11/19
f 21/15/20 20/14/20 14/8/20
f 20/14/21 15/9/21 14/8/21
f 22/16/22 30/24/22 31/25/22
f 22/16/23 21/15/23 30/24/23
f 27/21/24 32/26/24 33/27/24
f 27/21/25 34/28/25 32/26/25
f 34/28/26 22/16/26 31/25/26
f 34/28/27 27/21/27 22/16/27
f 27/21/28 23/17/28 22/16/28
f 31/25/29 35/29/29 34/28/29
f 35/29/30 36/30/30 34/28/30
f 1/1/31 37/31/31 32/26/31
f 1/1/32 38/32/32 37/31/32
f 1/1/33 39/33/33 38/32/33
f 2/2/34 40/34/34 3/3/34
f 2/2/35 35/29/35 40/34/35
f 2/2/36 36/30/36 35/29/36
f 31/25/37 30/24/37 41/35/37
f 26/20/38 25/19/38 42/36/38
f 25/19/39 43/37/39 42/36/39
f 1/1/40 3/3/40 44/38/40
f 44/38/41 39/33/41 1/1/41
f 44/38/42 45/39/42 39/33/42
f 39/33/43 7/40/43 5/41/43
f 39/42/44 45/43/44 7/44/44
f 5/41/45 38/32/45 39/33/45
f 46/45/46 47/46/46 48/47/46
f 46/45/47 49/48/47 47/46/47
f 49/48/48 50/49/48 47/46/48
f 37/31/49 38/32/49 5/41/49
f 45/50/50 52/51/50 9/52/50
f 9/53/51 7/44/51 45/43/51
f 52/51/52 11/54/52 9/52/52
f 53/55/53 54/56/53 49/48/53
f 49/48/54 46/45/54 55/57/54
f 56/58/55 43/37/55 25/19/55
f 57/59/56 58/60/56 59/61/56
f 59/61/57 54/56/57 57/59/57
f 59/61/58 49/48/58 54/56/58
f 57/59/59 60/62/59 58/60/59
f 59/61/60 50/49/60 49/48/60
f 54/56/61 61/63/61 57/59/61
f 59/61/62 62/64/62 63/65/62
f 59/61/63 58/60/63 62/64/63
f 62/64/64 58/60/64 65/66/64
f 58/60/65 66/67/65 65/66/65
f 63/65/66 62/64/66 67/68/66
f 32/26/67 34/28/67 2/2/67
f 32/26/67 2/2/67 1/1/67
f 68/69/68 69/70/69 70/71/70
usemtl 85fc032eaee04650914faeb8ddd6a71e_014.jpg
f 29/72/71 71/73/71 18/74/71
f 18/75/72 71/76/72 72/77/72
f 73/78/73 74/79/73 75/80/73
f 76/81/74 47/82/74 50/83/74
f 77/84/75 78/85/75 79/86/75
f 80/87/76 81/88/76 82/89/76
f 83/90/77 84/91/77 85/92/77
f 86/93/78 87/94/78 88/95/78
f 86/96/79 89/97/79 87/98/79
f 86/99/80 88/100/80 89/101/80
f 90/102/81 91/103/81 92/104/81
f 90/102/82 93/105/82 91/103/82
f 94/106/83 95/107/83 96/108/83
f 94/106/84 96/108/84 97/109/84
f 98/110/85 99/111/85 100/112/85
f 104/113/86 106/114/87 103/115/88
f 17/116/89 29/117/89 18/118/89
f 18/118/90 16/119/90 17/116/90
f 18/120/91 72/121/91 19/122/91
f 72/123/92 107/124/92 19/125/92
f 13/126/93 19/127/93 108/128/93
f 108/128/94 109/129/94 13/126/94
f 107/124/95 108/130/95 19/125/95
f 107/124/96 110/131/96 108/130/96
f 13/126/97 109/129/97 111/132/97
f 111/132/98 14/133/98 13/126/98
f 109/134/99 110/131/99 111/135/99
f 109/134/100 108/130/100 110/131/100
f 14/133/101 111/132/101 112/136/101
f 112/136/102 30/137/102 14/133/102
f 30/137/103 21/138/103 14/133/103
f 29/139/104 113/140/105 114/141/106
f 114/141/106 72/142/107 29/139/104
f 72/77/108 71/76/108 29/143/108
f 29/139/109 28/144/109 113/140/109
f 28/145/110 26/146/110 113/147/110
f 26/146/111 115/148/111 113/147/111
f 112/136/112 116/149/112 117/150/112
f 112/136/113 111/132/113 116/149/113
f 111/132/114 118/151/114 116/149/114
f 118/151/115 119/152/115 116/149/115
f 107/124/116 114/153/116 120/154/116
f 120/154/117 110/131/117 107/124/117
f 107/124/118 72/123/118 114/153/118
f 120/154/119 48/155/119 110/131/119
f 48/155/120 121/156/120 110/131/120
f 121/157/121 122/158/121 118/151/121
f 123/159/122 124/160/122 125/161/122
f 119/162/123 118/163/123 122/164/123
f 33/165/124 24/166/124 27/167/124
f 34/168/125 36/169/125 2/170/125
f 35/171/126 41/172/126 40/173/126
f 35/171/127 31/174/127 41/172/127
f 41/172/128 126/175/128 40/173/128
f 41/172/129 127/176/129 126/175/129
f 41/172/130 128/177/130 127/176/130
f 128/177/131 129/178/131 127/176/131
f 126/175/132 130/179/132 40/173/132
f 30/180/133 117/181/133 41/182/133
f 30/180/134 112/183/134 117/181/134
f 117/181/135 131/184/135 41/182/135
f 117/150/136 116/149/136 132/185/136
f 132/185/137 131/186/137 117/150/137
f 131/186/138 132/185/138 128/177/138
f 128/177/139 41/172/139 131/186/139
f 132/185/140 133/187/140 128/177/140
f 132/185/141 134/188/141 133/187/141
f 134/188/142 135/189/142 133/187/142
f 48/155/143 47/190/143 76/191/143
f 76/191/144 121/156/144 48/155/144
f 122/164/145 76/191/145 123/192/145
f 122/164/146 121/156/146 76/191/146
f 76/191/147 50/193/147 123/192/147
f 50/194/148 59/195/148 123/196/148
f 59/195/149 136/197/149 123/196/149
f 116/149/150 137/198/150 134/188/150
f 134/188/151 132/185/151 116/149/151
f 116/149/152 125/199/152 137/198/152
f 116/149/153 119/152/153 125/199/153
f 139/200/154 140/201/154 138/202/154
f 24/203/155 33/204/155 141/205/155
f 141/205/156 25/206/156 24/203/156
f 26/207/157 42/208/157 115/209/157
f 115/210/158 42/211/159 142/212/160
f 142/212/160 143/213/161 115/210/158
f 42/211/162 144/214/162 142/212/162
f 143/213/163 113/215/163 115/210/163
f 145/216/164 146/217/164 147/218/164
f 145/216/165 113/215/165 146/217/165
f 113/215/166 143/213/166 146/217/166
f 114/219/167 145/220/167 120/221/167
f 114/222/168 113/215/168 145/216/168
f 148/223/169 130/179/169 149/224/169
f 148/223/170 40/173/170 130/179/170
f 149/224/171 150/225/171 148/223/171
f 147/218/172 55/226/172 46/227/172
f 46/227/173 145/216/173 147/218/173
f 46/227/174 120/228/174 145/216/174
f 48/229/175 120/228/175 46/227/175
f 129/178/176 151/230/176 152/231/176
f 152/231/177 127/176/177 129/178/177
f 129/178/178 135/189/178 151/230/178
f 137/232/179 124/233/179 106/234/179
f 137/235/180 125/236/180 124/237/180
f 124/233/181 103/238/181 106/234/181
f 103/239/182 123/240/182 102/241/182
f 103/239/183 124/242/183 123/240/183
f 142/212/184 153/243/185 75/80/186
f 75/80/186 143/213/187 142/212/184
f 75/80/188 74/79/188 143/213/188
f 154/244/189 143/213/189 74/79/189
f 154/244/190 146/217/190 143/213/190
f 74/79/191 155/245/191 154/244/191
f 155/245/192 156/246/192 157/247/192
f 157/247/193 158/248/193 155/245/193
f 156/246/194 159/249/194 157/247/194
f 158/248/195 160/250/195 154/244/195
f 154/244/196 155/245/196 158/248/196
f 160/250/197 147/218/197 146/217/197
f 146/217/198 154/244/198 160/250/198
f 160/250/199 53/251/199 147/218/199
f 53/252/200 55/253/200 147/254/200
f 158/248/201 161/255/201 162/256/201
f 158/248/202 157/247/202 161/255/202
f 162/256/203 160/250/203 158/248/203
f 162/256/204 53/251/204 160/250/204
f 162/256/205 54/257/205 53/251/205
f 162/256/206 61/258/206 54/257/206
f 45/259/207 44/260/207 52/261/207
f 130/262/208 126/263/208 163/264/208
f 163/264/209 149/265/209 130/262/209
f 126/263/210 164/266/210 163/264/210
f 127/267/211 165/268/211 161/269/211
f 127/267/212 152/270/212 165/268/212
f 161/269/213 166/271/213 127/267/213
f 166/271/214 126/263/214 127/267/214
f 166/271/215 164/266/215 126/263/215
f 49/272/216 55/273/216 53/274/216
f 167/275/217 165/276/217 135/277/217
f 135/277/218 128/278/218 167/275/218
f 135/189/219 129/178/219 128/177/219
f 167/279/220 133/280/220 168/281/220
f 167/279/221 128/282/221 133/280/221
f 134/283/222 106/234/222 104/284/222
f 134/283/223 137/232/223 106/234/223
f 104/284/224 135/285/224 134/283/224
f 104/284/225 151/286/225 135/285/225
f 135/287/226 57/288/226 61/289/226
f 61/289/227 168/281/227 135/287/227
f 168/281/228 133/280/228 135/287/228
f 61/289/229 162/290/229 168/281/229
f 152/291/230 105/292/230 169/293/230
f 152/294/231 104/284/231 105/295/231
f 169/293/232 165/296/232 152/291/232
f 152/294/233 151/286/233 104/284/233
f 169/293/234 170/297/234 165/296/234
f 141/205/235 171/298/235 172/299/235
f 172/299/236 25/206/236 141/205/236
f 172/299/237 173/300/237 25/206/237
f 173/300/238 56/301/238 25/206/238
f 73/78/239 153/243/240 174/302/241
f 73/78/239 75/80/242 153/243/240
f 153/243/243 175/303/243 174/302/243
f 174/302/244 176/304/244 73/78/244
f 155/245/245 177/305/246 156/246/247
f 155/245/245 73/78/248 177/305/246
f 73/78/249 176/304/249 177/305/249
f 155/245/250 74/79/250 73/78/250
f 178/306/251 179/307/251 159/308/251
f 159/249/252 156/246/252 178/309/252
f 156/246/253 177/305/253 178/309/253
f 180/310/254 181/311/254 182/312/254
f 180/310/255 183/313/255 181/311/255
f 161/314/256 165/276/256 167/275/256
f 167/275/257 162/315/257 161/314/257
f 167/316/258 168/317/258 162/318/258
f 135/287/259 165/296/259 170/297/259
f 170/297/260 57/288/260 135/287/260
f 170/297/261 60/319/261 57/288/261
f 184/320/262 185/321/262 101/322/262
f 101/322/263 136/323/263 184/320/263
f 184/324/264 186/325/264 185/326/264
f 101/322/265 123/327/265 136/323/265
f 101/328/266 102/241/266 123/240/266
f 186/329/267 84/330/267 185/331/267
f 43/332/268 144/333/268 42/334/268
f 43/332/269 56/335/269 144/333/269
f 56/335/270 187/336/270 144/333/270
f 32/337/271 188/338/271 171/298/271
f 32/337/272 37/339/272 188/338/272
f 171/298/273 141/205/273 32/337/273
f 141/205/274 33/204/274 32/337/274
f 37/339/275 51/340/275 188/338/275
f 51/340/276 64/341/276 188/338/276
f 169/293/277 138/342/277 189/343/277
f 169/293/278 105/292/278 138/342/278
f 138/342/279 140/344/279 189/343/279
f 140/344/280 190/345/280 189/343/280
f 173/346/281 191/347/281 192/348/281
f 192/348/282 187/336/282 173/346/282
f 187/336/283 56/335/283 173/346/283
f 192/349/284 142/350/284 144/351/284
f 192/349/285 193/352/285 142/350/285
f 192/349/286 194/353/286 193/352/286
f 194/353/287 195/354/288 193/352/289
f 144/351/290 187/355/290 192/349/290
f 196/356/291 189/343/291 197/357/291
f 196/356/292 169/293/292 189/343/292
f 196/356/293 60/319/293 169/293/293
f 60/319/294 170/297/294 169/293/294
f 63/358/295 184/359/295 59/360/295
f 63/358/296 198/361/296 184/359/296
f 198/361/297 199/362/297 184/359/297
f 184/363/298 136/364/298 59/365/298
f 200/366/299 201/367/299 202/368/299
f 202/368/300 172/299/300 200/366/300
f 202/368/301 173/300/301 172/299/301
f 202/368/302 191/369/302 173/300/302
f 4/370/303 203/371/303 64/341/303
f 142/350/304 193/352/304 204/372/304
f 204/373/305 153/243/305 142/212/305
f 204/373/306 175/303/306 153/243/306
f 197/374/307 77/375/307 79/376/307
f 197/374/308 189/377/308 77/375/308
f 79/376/309 205/378/309 197/374/309
f 189/377/310 190/379/310 77/375/310
f 205/378/311 206/380/311 197/374/311
f 191/381/312 202/382/312 194/383/312
f 194/383/313 192/384/313 191/381/313
f 208/385/314 209/386/314 172/299/314
f 172/299/315 171/298/315 208/385/315
f 209/386/316 200/366/316 172/299/316
f 171/298/317 210/387/317 208/385/317
f 171/298/318 188/338/318 210/387/318
f 211/388/319 193/352/320 212/389/321
f 211/388/319 204/372/322 193/352/320
f 193/352/289 195/354/288 212/389/323
f 213/390/324 211/391/324 214/392/324
f 213/390/325 215/393/325 211/391/325
f 215/393/326 204/394/326 211/391/326
f 214/392/327 216/395/327 213/390/327
f 216/395/328 217/396/328 213/390/328
f 215/397/329 175/398/329 204/399/329
f 65/400/330 218/401/330 219/402/330
f 65/403/331 220/404/331 218/405/331
f 65/400/332 219/402/332 62/406/332
f 205/378/333 221/407/333 222/408/333
f 222/408/334 223/409/334 205/378/334
f 205/378/335 79/376/335 221/407/335
f 79/376/336 78/410/336 221/407/336
f 78/410/337 224/411/337 221/407/337
f 224/411/338 225/412/338 221/407/338
f 222/408/339 226/413/339 223/409/339
f 203/371/340 227/414/340 188/338/340
f 203/371/341 228/415/341 227/414/341
f 227/414/342 210/387/342 188/338/342
f 203/371/343 229/416/343 228/415/343
f 188/338/344 64/341/344 203/371/344
f 230/417/345 231/418/345 218/419/345
f 218/419/346 232/420/346 230/417/346
f 218/419/347 233/421/347 232/420/347
f 218/419/348 220/422/348 233/421/348
f 62/423/349 231/424/349 67/425/349
f 62/426/350 219/427/350 231/418/350
f 219/427/351 218/419/351 231/418/351
f 63/428/352 67/429/352 234/430/352
f 67/425/353 235/431/353 234/432/353
f 201/433/354 236/434/354 212/435/354
f 212/436/355 202/382/355 201/437/355
f 212/436/356 194/383/356 202/382/356
f 212/389/323 195/354/288 194/353/287
f 227/414/357 237/438/357 208/385/357
f 208/385/358 210/387/358 227/414/358
f 214/392/359 212/439/359 81/88/359
f 214/392/360 211/391/360 212/439/360
f 212/439/361 236/440/361 81/88/361
f 236/440/362 82/89/362 81/88/362
f 236/440/363 238/441/363 82/89/363
f 239/442/364 240/443/364 232/420/364
f 232/420/365 241/444/365 239/442/365
f 232/420/366 233/421/366 241/444/366
f 239/445/367 242/446/367 240/447/367
f 243/448/368 244/449/368 186/450/368
f 186/450/369 199/362/369 243/448/369
f 243/448/370 245/451/370 244/449/370
f 186/450/371 184/359/371 199/362/371
f 246/452/372 222/408/372 221/407/372
f 246/452/373 247/453/373 222/408/373
f 70/454/374 248/455/374 234/456/374
f 234/456/375 68/457/375 70/454/375
f 248/455/376 63/458/376 234/456/376
f 248/459/377 249/460/377 198/461/377
f 198/461/378 63/462/378 248/459/378
f 69/463/379 234/432/379 235/431/379
f 235/464/380 249/465/380 69/466/380
f 235/464/381 198/467/381 249/465/381
f 69/468/382 68/469/382 234/470/382
f 69/471/69 248/472/68 70/473/70
f 69/471/69 249/474/68 248/472/68
f 209/386/383 250/475/383 251/476/383
f 209/386/384 252/477/384 250/475/384
f 252/477/385 253/478/385 250/475/385
f 209/386/386 237/438/386 252/477/386
f 209/386/387 208/385/387 237/438/387
f 253/479/388 100/480/388 250/481/388
f 237/438/389 254/482/389 252/477/389
f 100/480/390 255/483/390 250/481/390
f 253/479/391 98/484/391 100/480/391
f 253/485/392 256/486/392 98/110/392
f 257/487/393 258/488/393 259/489/393
f 259/489/394 260/490/394 257/487/394
f 259/489/395 261/491/395 260/490/395
f 225/412/396 262/492/396 258/488/396
f 258/488/397 257/487/397 225/412/397
f 262/492/398 263/493/398 258/488/398
f 263/493/399 264/494/399 258/488/399
f 225/412/400 265/495/400 262/492/400
f 257/487/401 246/452/401 225/412/401
f 246/452/402 221/407/402 225/412/402
f 265/495/403 266/496/403 262/492/403
f 264/494/404 267/497/404 258/488/404
f 268/498/405 199/362/406 198/361/407
f 268/498/408 243/448/408 199/362/408
f 268/499/409 269/500/409 243/501/409
f 198/361/407 230/502/410 268/498/405
f 230/502/411 270/503/411 268/498/411
f 200/366/412 251/476/412 201/367/412
f 200/366/413 209/386/413 251/476/413
f 251/504/414 236/434/414 201/433/414
f 251/476/415 238/505/415 236/506/415
f 227/414/416 254/482/416 237/438/416
f 227/414/417 228/415/417 254/482/417
f 232/420/418 270/507/418 230/417/418
f 232/420/419 240/443/419 270/507/419
f 186/329/420 85/508/420 84/330/420
f 186/329/421 244/509/421 85/508/421
f 80/510/422 216/511/422 214/512/422
f 214/512/423 81/513/423 80/510/423
f 229/514/424 6/515/424 271/516/424
f 229/416/425 4/370/425 6/517/425
f 229/416/426 203/371/426 4/370/426
f 216/518/427 80/519/427 272/520/427
f 272/520/428 217/521/428 216/518/428
f 80/519/429 273/522/429 272/520/429
f 80/519/430 82/523/430 273/522/430
f 274/524/431 217/396/431 275/525/431
f 274/524/432 276/526/432 217/396/432
f 217/527/433 277/528/433 275/529/433
f 276/526/434 213/390/434 217/396/434
f 217/527/435 272/530/435 277/528/435
f 278/531/436 279/532/436 8/533/436
f 8/534/437 12/535/437 278/536/437
f 278/531/438 280/537/438 279/532/438
f 269/538/439 281/539/439 282/540/439
f 269/538/440 268/498/440 281/539/440
f 281/539/441 283/541/441 282/540/441
f 259/489/442 258/488/442 284/542/442
f 284/543/443 278/531/443 259/544/443
f 284/543/444 280/537/445 278/531/446
f 258/488/447 267/497/447 284/542/447
f 284/543/444 285/545/448 280/537/445
f 284/543/449 286/546/449 285/545/449
f 287/547/450 288/548/450 289/549/450
f 287/547/451 290/550/451 288/548/451
f 290/551/452 291/552/452 292/553/452
f 290/551/453 287/554/453 291/552/453
f 291/552/454 293/555/454 292/553/454
f 84/556/455 207/557/455 185/558/455
f 84/559/456 83/560/456 207/561/456
f 228/562/457 296/563/457 87/564/457
f 87/564/458 254/565/458 228/562/458
f 228/562/459 297/566/459 296/563/459
f 228/562/460 271/567/460 297/566/460
f 228/415/461 229/416/461 271/568/461
f 296/563/462 88/569/462 87/564/462
f 87/570/463 252/477/463 254/482/463
f 82/523/464 238/571/464 298/572/464
f 298/572/465 273/522/465 82/523/465
f 298/572/466 299/573/466 273/522/466
f 298/572/467 300/574/467 299/573/467
f 300/575/468 301/576/468 299/577/468
f 272/520/469 302/578/469 277/579/469
f 272/520/470 273/522/470 302/578/470
f 273/522/471 299/573/471 302/578/471
f 275/580/472 283/581/472 242/582/472
f 242/582/473 303/583/473 275/580/473
f 275/584/474 282/540/474 283/541/474
f 275/529/475 277/528/475 282/585/475
f 277/528/476 304/586/476 282/585/476
f 240/447/477 242/446/477 283/541/477
f 283/541/478 281/539/478 240/447/478
f 270/503/479 281/539/479 268/498/479
f 270/503/480 240/447/480 281/539/480
f 245/451/481 282/540/481 304/587/481
f 245/451/482 269/538/482 282/540/482
f 245/451/483 243/448/483 269/538/483
f 304/586/484 305/588/484 245/589/484
f 279/532/485 297/566/485 6/590/485
f 6/590/486 8/533/486 279/532/486
f 297/566/487 271/567/487 6/590/487
f 289/549/488 288/548/488 306/591/488
f 306/591/489 263/592/489 289/549/489
f 263/592/490 262/593/490 289/549/490
f 288/548/491 307/594/491 306/591/491
f 308/595/492 309/596/492 289/597/492
f 289/549/493 266/598/493 308/599/493
f 289/549/494 262/593/494 266/598/494
f 266/600/495 295/601/495 308/602/495
f 238/603/496 250/604/496 298/605/496
f 238/505/497 251/476/497 250/475/497
f 305/588/498 304/586/498 277/528/498
f 277/579/499 302/578/499 305/606/499
f 305/606/500 312/607/500 245/608/500
f 305/606/501 313/609/501 312/607/501
f 305/606/502 301/610/502 313/609/502
f 312/611/503 244/449/503 245/451/503
f 305/606/504 302/578/504 301/610/504
f 302/578/505 299/573/505 301/610/505
f 280/537/506 314/612/506 296/563/506
f 296/563/507 297/566/507 280/537/507
f 297/566/508 279/532/508 280/537/508
f 280/537/509 315/613/509 314/612/509
f 280/537/510 285/545/510 315/613/510
f 284/543/511 316/614/511 317/615/511
f 317/615/512 286/546/512 284/543/512
f 267/497/513 264/494/513 316/616/513
f 316/616/514 284/542/514 267/497/514
f 316/616/515 318/617/515 317/618/515
f 316/616/516 264/494/516 318/617/516
f 264/494/517 263/493/517 318/617/517
f 263/493/518 319/619/518 318/617/518
f 263/493/519 306/620/519 319/619/519
f 320/621/520 307/594/520 288/548/520
f 288/548/521 292/622/521 320/621/521
f 320/621/522 321/623/522 307/594/522
f 288/548/523 290/550/523 292/622/523
f 320/621/524 293/624/524 322/625/524
f 320/621/525 292/622/525 293/624/525
f 293/624/526 323/626/526 322/625/526
f 323/626/527 93/105/527 322/625/527
f 85/92/528 92/104/528 91/103/528
f 85/92/529 324/627/529 92/104/529
f 91/103/530 83/90/530 85/92/530
f 91/103/531 93/105/531 83/90/531
f 93/105/532 311/628/532 83/90/532
f 324/627/533 325/629/533 92/104/533
f 325/629/534 322/625/534 92/104/534
f 325/629/535 320/621/535 322/625/535
f 325/629/536 321/623/536 320/621/536
f 324/627/537 326/630/537 325/629/537
f 93/105/538 323/626/538 311/628/538
f 311/628/539 323/626/539 291/631/539
f 323/626/540 293/624/540 291/631/540
f 252/632/541 89/101/541 253/633/541
f 252/632/542 87/634/542 89/101/542
f 89/101/543 327/635/543 253/633/543
f 89/101/544 88/100/544 327/635/544
f 296/563/545 328/636/545 88/569/545
f 296/563/546 314/612/546 328/636/546
f 328/636/547 329/637/547 88/569/547
f 329/637/548 327/638/548 88/569/548
f 330/639/549 328/636/549 314/612/549
f 314/612/550 315/613/550 330/639/550
f 330/639/551 331/640/551 96/108/551
f 330/639/552 332/641/552 331/640/552
f 96/108/553 329/637/553 330/639/553
f 329/642/554 328/643/554 330/644/554
f 330/639/555 285/545/555 332/641/555
f 330/639/556 315/613/556 285/545/556
f 286/546/557 318/645/557 332/641/557
f 332/641/558 285/545/558 286/546/558
f 286/546/559 317/615/559 318/645/559
f 96/108/560 331/640/560 307/594/560
f 307/594/561 97/109/561 96/108/561
f 307/594/562 321/623/562 97/109/562
f 321/623/563 325/629/563 97/109/563
f 331/640/564 306/591/564 307/594/564
f 331/640/565 319/646/565 306/591/565
f 319/646/566 331/640/566 332/641/566
f 332/641/567 318/645/567 319/646/567
f 85/92/568 333/647/568 324/627/568
f 85/92/569 244/648/569 333/647/569
f 244/649/570 312/650/570 333/651/570
f 312/652/571 334/653/571 333/647/571
f 322/625/572 93/105/572 90/102/572
f 90/102/573 92/104/573 322/625/573
f 100/112/574 99/111/574 335/654/574
f 335/654/575 255/655/575 100/112/575
f 255/655/576 313/656/576 298/657/576
f 255/655/577 335/654/577 313/656/577
f 313/609/578 300/574/578 298/572/578
f 298/605/579 250/604/579 255/658/579
f 313/659/580 301/576/580 300/575/580
f 327/638/581 95/107/582 256/486/583
f 256/486/583 253/485/584 327/638/581
f 95/660/585 333/661/585 334/662/585
f 334/653/586 99/111/586 95/107/586
f 334/653/587 335/654/587 99/111/587
f 99/111/588 98/110/588 95/107/588
f 98/110/589 256/486/589 95/107/589
f 94/106/590 326/630/590 333/647/590
f 333/647/591 95/107/591 94/106/591
f 326/630/592 324/627/592 333/647/592
f 97/109/593 325/629/593 326/630/593
f 326/630/594 94/106/594 97/109/594
f 335/654/595 334/653/595 312/652/595
f 312/652/596 313/656/596 335/654/596
f 175/303/597 215/663/598 174/302/599
f 215/663/598 336/664/600 174/302/599
f 327/638/601 329/637/602 95/107/603
f 329/637/602 96/108/604 95/107/603
f 110/665/605 121/157/606 111/132/607
f 121/157/606 118/151/608 111/132/607
f 119/162/609 123/192/609 125/666/610
f 122/164/609 123/192/609 119/162/609
f 67/425/611 231/424/612 230/502/611
f 198/361/613 235/431/614 230/502/611
f 235/431/614 67/425/611 230/502/611
f 289/549/615 309/667/615 287/547/616
f 309/667/615 337/668/617 287/547/616
f 148/669/618 3/670/618 40/671/618
f 338/672/619 339/673/619 340/674/619
f 60/319/620 196/356/620 58/675/620
f 336/676/621 341/677/621 174/678/621
f 342/679/622 206/380/622 205/378/622
f 260/680/623 343/681/624 257/682/625
f 52/683/626 44/684/626 183/313/626
f 183/313/627 339/673/627 52/683/627
f 183/313/628 340/674/628 339/673/628
f 183/313/629 180/310/629 340/674/629
f 44/684/630 150/685/630 183/313/630
f 44/684/631 3/686/631 150/685/631
f 150/685/632 181/311/632 183/313/632
f 3/670/633 148/669/633 150/687/633
f 149/688/634 344/689/634 182/312/634
f 149/688/635 345/690/635 344/689/635
f 149/688/636 163/691/636 345/690/636
f 344/689/637 346/692/637 182/312/637
f 346/692/638 347/693/638 182/312/638
f 347/693/639 180/310/639 182/312/639
f 164/266/640 166/271/640 345/694/640
f 345/694/641 163/264/641 164/266/641
f 345/694/642 166/271/642 161/269/642
f 161/269/643 157/695/643 345/694/643
f 157/696/644 159/697/644 345/698/644
f 178/699/645 348/700/645 349/701/645
f 178/699/646 350/702/646 348/700/646
f 349/703/647 351/704/647 178/705/647
f 351/706/648 179/707/648 178/708/648
f 351/706/649 344/709/649 345/698/649
f 345/698/650 179/707/650 351/706/650
f 345/698/651 159/697/651 179/707/651
f 338/672/652 180/310/652 347/693/652
f 338/672/653 340/674/653 180/310/653
f 176/710/654 350/702/654 178/699/654
f 178/699/655 177/711/655 176/710/655
f 176/710/656 341/712/656 350/702/656
f 341/712/657 352/713/657 350/702/657
f 176/714/658 174/715/658 341/716/658
f 339/673/659 347/693/659 353/717/659
f 339/673/660 338/672/660 347/693/660
f 215/718/661 354/719/661 341/712/661
f 215/718/662 213/720/662 354/719/662
f 213/721/663 276/722/663 354/723/663
f 341/712/664 336/724/664 215/718/664
f 354/719/665 352/713/665 341/712/665
f 342/725/666 223/726/666 346/692/666
f 346/692/667 355/727/667 342/725/667
f 346/692/668 344/689/668 355/727/668
f 344/728/669 349/703/669 355/729/669
f 349/703/670 220/730/670 355/729/670
f 342/725/671 205/731/671 223/726/671
f 344/728/672 351/704/672 349/703/672
f 349/732/673 233/733/673 220/734/673
f 356/735/674 261/736/674 353/717/674
f 353/717/675 347/693/675 356/735/675
f 356/735/676 260/680/676 261/736/676
f 261/736/677 357/737/677 353/717/677
f 347/693/678 346/692/678 356/735/678
f 356/735/679 343/681/624 260/680/623
f 356/738/680 223/409/680 226/413/680
f 356/738/681 346/739/681 223/409/681
f 355/729/682 220/730/682 65/740/682
f 65/741/683 66/742/683 355/743/683
f 11/744/684 353/717/684 10/745/684
f 11/744/685 52/683/685 353/717/685
f 52/683/686 339/673/686 353/717/686
f 353/717/687 357/737/687 10/745/687
f 66/746/688 196/747/688 197/748/688
f 197/748/689 342/725/689 66/746/689
f 342/725/690 355/727/690 66/746/690
f 197/748/691 206/749/691 342/725/691
f 66/750/692 58/751/692 196/752/692
f 358/753/693 359/754/693 78/85/693
f 78/85/694 139/755/694 358/753/694
f 78/85/695 77/84/695 139/755/695
f 359/754/696 224/756/696 78/85/696
f 77/84/697 140/344/697 139/755/697
f 77/84/698 190/345/698 140/344/698
f 356/738/699 247/453/699 343/757/699
f 356/738/700 226/413/700 247/453/700
f 226/413/701 222/408/701 247/453/701
f 350/702/702 352/713/702 360/758/702
f 360/758/703 361/759/703 350/702/703
f 352/713/704 354/719/704 360/758/704
f 360/758/705 362/760/705 361/759/705
f 361/761/706 239/762/706 241/763/706
f 241/763/707 348/764/707 361/761/707
f 348/700/708 350/702/708 361/759/708
f 343/757/709 246/452/709 257/487/709
f 343/757/710 247/453/710 246/452/710
f 225/765/711 359/754/711 265/766/711
f 225/765/712 224/756/712 359/754/712
f 354/719/713 276/767/713 274/768/713
f 274/768/714 360/758/714 354/719/714
f 278/536/715 357/769/715 261/491/715
f 278/536/716 12/535/716 357/769/716
f 261/491/717 259/489/717 278/536/717
f 12/535/718 10/770/718 357/769/718
f 303/771/719 242/772/719 239/773/719
f 239/762/720 362/774/720 303/775/720
f 239/762/721 361/761/721 362/774/721
f 309/596/722 308/595/722 363/776/722
f 363/776/723 337/777/723 309/596/723
f 363/778/724 295/601/724 294/779/724
f 363/778/725 308/602/725 295/601/725
f 287/554/726 337/780/726 363/778/726
f 275/781/727 303/782/728 360/783/729
f 360/783/729 274/784/730 275/781/727
f 303/785/731 362/760/731 360/758/731
f 182/312/732 181/311/733 149/688/734
f 181/311/733 150/685/735 149/688/734
f 349/732/736 348/764/737 241/763/736
f 349/732/736 241/763/736 233/733/738
l 294 310
