# Blender v2.91.2 OBJ File: ''
# www.blender.org
mtllib toilet_chair_2.mtl
o toilet_chair_2_part_2.003_85fc032eaee04650914faeb8ddd6a71e.004_part_2.003_.025
v 18.531422 -12.727036 -0.000747
v 18.507904 -12.821085 -0.000799
v 18.531420 -12.797576 0.010080
v 18.507906 -13.138506 0.422686
v 18.531420 -13.126750 0.443131
v 18.531420 -13.129817 0.446198
v 18.531830 -12.844089 -0.000692
v 18.648987 -13.173739 0.581679
v 18.625427 -13.173819 0.601447
v 18.648979 -13.150270 0.603077
v 18.672518 -13.271669 0.822414
v 18.813585 -13.270727 0.822387
v 18.790056 -13.263359 0.822403
v 18.884146 -13.269175 0.587244
v 18.841713 -13.269460 0.587248
v 18.860588 -13.244313 0.587320
v 18.907618 -13.161815 0.399172
v 18.907618 -13.103237 0.387417
v 18.942209 -13.126750 0.399173
v 18.919432 -13.126750 0.422686
v 18.919374 -13.103237 0.399174
v 18.931147 -13.079715 0.422617
v 18.931133 -13.042192 0.422672
v 18.954641 -13.043399 0.422686
v 18.947390 -13.103237 0.422687
v 18.963423 -13.103237 0.446198
v 18.938978 -13.126750 0.446198
v 18.978151 -12.797581 -0.001576
v 19.001247 -12.774585 -0.000763
v 18.555174 -12.773759 -0.000698
v 18.954638 -12.774069 -0.001594
v 18.978155 -12.750549 -0.000642
v 18.907644 -13.269130 0.610765
v 18.907631 -13.269456 0.681315
v 18.904400 -13.269908 0.775363
v 18.860609 -13.270306 0.798885
v 18.601965 -13.272141 0.822427
v 18.531462 -13.271418 0.563716
v 18.759291 -13.270013 0.587256
v 18.531361 -13.272193 0.728386
v 18.523912 -13.271467 0.563712
v 18.572418 -13.272116 0.775372
v 18.672483 -13.271026 0.681325
v 18.672527 -13.271072 0.692687
v 18.531446 -13.271809 0.648507
v 18.837091 -13.269507 0.589720
v 18.765156 -13.270404 0.681310
v 18.742992 -13.270347 0.634314
v 18.879618 -13.269857 0.728339
v 18.719538 -13.270685 0.676351
v 18.719501 -13.270393 0.610797
v 18.696012 -13.270866 0.681314
v 18.462811 -13.103237 0.587272
v 18.468014 -13.126751 0.610785
v 18.531420 -13.126785 0.625635
v 18.507906 -13.150261 0.623728
v 18.601957 -13.197286 0.599823
v 18.520184 -13.197284 0.610785
v 18.531418 -13.150177 0.623456
v 18.578444 -13.220799 0.599180
v 18.648979 -13.197284 0.599586
v 18.601942 -13.177734 0.775343
v 18.695980 -13.192212 0.751831
v 18.649008 -13.125028 0.634356
v 18.531412 -13.126753 0.728349
v 18.507931 -13.085611 0.657843
v 18.672510 -13.131122 0.634304
v 18.554941 -12.844673 0.480345
v 18.554926 -13.056217 0.480419
v 18.554935 -13.103288 0.476065
v 18.601959 -13.229686 0.704837
v 18.549686 -13.220790 0.728354
v 18.648985 -13.244301 0.694222
v 18.625463 -13.220807 0.681316
v 18.531422 -13.173774 0.759150
v 18.578442 -13.220798 0.779978
v 18.554932 -13.150237 0.446166
v 18.578442 -13.138066 0.422671
v 18.601952 -13.162087 0.422780
v 18.554928 -13.136669 0.422673
v 18.766548 -13.150270 0.603673
v 18.696009 -13.173744 0.581246
v 18.790047 -13.134658 0.634293
v 18.884106 -13.155096 0.610720
v 18.860556 -13.125177 0.634391
v 18.642763 -12.750551 0.422677
v 18.625469 -12.797575 0.413118
v 18.592886 -12.774061 0.446189
v 18.672491 -13.220792 0.780713
v 18.743010 -13.220730 0.775406
v 18.743055 -13.197385 0.755983
v 18.696005 -13.218901 0.634297
v 18.766542 -13.232452 0.634298
v 18.743029 -13.231895 0.657809
v 18.696001 -13.198743 0.610778
v 18.719521 -13.244306 0.675205
v 18.672491 -13.230691 0.657813
v 18.625467 -13.214223 0.657810
v 18.719521 -13.209529 0.587271
v 18.648981 -12.744335 0.422677
v 18.719519 -12.750549 0.411882
v 18.719522 -12.774064 0.412457
v 18.743029 -12.727037 0.422674
v 18.790056 -12.774062 0.412040
v 18.837078 -12.821089 0.411192
v 18.790056 -13.197287 0.598460
v 18.743029 -13.211731 0.587272
v 18.860580 -13.190232 0.775392
v 18.931128 -13.147241 0.728354
v 18.931145 -13.106158 0.657782
v 18.790020 -13.220649 0.786369
v 18.961710 -13.103061 0.634387
v 18.813532 -13.220648 0.797322
v 18.813566 -13.244310 0.810008
v 18.790056 -13.220800 0.592812
v 18.860592 -13.244308 0.790645
v 18.907631 -13.169535 0.751868
v 18.874645 -13.220796 0.610749
v 18.896143 -13.244305 0.751852
v 18.931128 -13.173770 0.743163
v 18.860588 -12.844602 0.411311
v 18.884096 -12.821096 0.412980
v 18.907619 -12.891624 0.389462
v 18.907616 -12.938651 0.412006
v 18.907618 -12.915138 0.388223
v 18.907391 -13.152146 0.446207
v 18.912062 -13.150262 0.446198
v 18.907606 -13.079731 0.405500
v 18.935703 -13.079807 0.473325
v 18.531422 -13.103236 0.627829
v 18.507893 -13.115276 0.399076
v 18.545053 -13.220803 0.610785
v 18.554918 -13.120243 0.399098
v 18.531420 -13.109945 0.422686
v 18.601965 -13.134485 0.399228
v 18.648979 -13.153566 0.446169
v 18.719515 -13.103345 0.335934
v 18.860586 -13.126749 0.401989
v 18.860577 -13.150476 0.424035
v 18.766546 -13.220797 0.610788
v 18.884096 -13.092093 0.399199
v 18.601965 -12.868143 0.402678
v 18.531433 -12.844610 0.435848
v 18.531410 -12.917182 0.422671
v 18.554914 -12.938626 0.402151
v 18.507887 -12.904494 0.446183
v 18.531412 -12.938646 0.412120
v 18.507904 -12.938649 0.422683
v 18.790064 -12.844596 0.414443
v 18.907602 -13.009195 0.411871
v 18.766569 -12.915126 0.395157
v 18.860569 -13.056222 0.399225
v 18.766556 -12.868110 0.408598
v 18.413851 -13.103370 0.381762
v 18.554920 -13.079730 0.358376
v 18.719534 -13.079732 0.312093
v 18.719513 -13.101162 0.328589
v 18.437368 -13.056214 0.369666
v 18.484385 -13.009197 0.352114
v 18.860571 -13.159927 0.446133
v 18.484398 -12.915135 0.436092
v 18.484392 -12.951381 0.422686
v 18.507906 -13.009189 0.360750
v 18.578442 -13.056208 0.361468
v 18.531420 -13.006975 0.375660
v 18.531425 -12.985680 0.393357
v 18.507910 -12.935614 0.399173
v 18.719505 -12.868087 0.404307
v 18.719498 -13.056215 0.331728
v 18.860598 -13.103231 0.397830
v 18.889761 -13.150261 0.399173
v 18.884104 -13.161539 0.446252
v 18.907606 -12.985675 0.411916
v 18.719519 -13.249967 0.587278
v 18.507908 -13.103239 0.460106
v 18.531422 -13.101414 0.634294
v 18.507896 -13.067329 0.610793
v 18.507906 -13.032708 0.555788
v 18.507917 -12.985757 0.476384
v 18.531425 -12.844604 0.464548
v 18.696005 -13.269089 0.775375
v 18.719519 -12.727039 0.467079
v 18.790056 -12.739261 0.469707
v 18.790056 -13.277933 0.798882
v 18.860579 -12.821100 0.388540
v 18.860582 -12.797582 0.413275
v 18.931128 -13.120012 0.634296
v 18.907629 -13.197295 0.631998
v 18.884106 -13.197286 0.612443
v 18.931114 -13.182551 0.610765
v 18.907623 -13.236990 0.704837
v 18.907619 -13.210958 0.657810
v 18.919079 -13.197301 0.728345
v 18.931128 -12.844599 0.424281
v 18.931137 -12.868104 0.440565
v 18.907612 -12.821096 0.429631
v 18.945992 -13.009281 0.473910
v 18.931131 -13.032737 0.477684
v 18.954641 -13.032700 0.505379
v 18.966026 -13.032696 0.399176
v 18.984592 -12.962163 0.352149
v 18.985819 -13.009187 0.446199
v 18.989185 -13.032697 0.422689
v 18.978155 -12.774064 0.029879
v 18.484379 -13.150258 0.689644
v 18.484390 -13.158586 0.681322
v 18.484400 -12.985676 0.464521
v 18.486471 -12.891623 0.446196
v 18.507908 -13.093672 0.469713
v 18.484398 -13.056212 0.557265
v 18.491142 -13.150257 0.634297
v 18.481874 -12.938649 0.375660
v 18.507902 -12.891625 0.328634
v 18.498760 -12.962163 0.329975
v 18.484385 -12.938648 0.392203
v 18.516678 -12.915137 0.281609
v 18.507906 -12.940366 0.422686
v 18.510113 -13.173772 0.704836
v 18.524652 -13.173774 0.751857
v 18.507906 -12.962163 0.316902
v 18.518509 -12.962163 0.328636
v 18.531418 -13.244314 0.569690
v 18.554930 -13.230101 0.587273
v 18.578444 -13.244315 0.570667
v 18.531422 -13.230303 0.587273
v 18.547789 -13.197287 0.728347
v 18.545561 -13.197287 0.704835
v 18.519703 -13.197281 0.681321
v 18.533472 -13.220803 0.751856
v 18.557779 -13.244325 0.775359
v 18.860594 -12.797598 0.483601
v 18.884108 -13.126808 0.475387
v 18.931131 -12.891665 0.480607
v 18.625477 -12.774121 0.482120
v 18.519356 -12.985676 0.352150
v 18.625467 -12.762374 0.469710
v 18.578459 -13.229846 0.704853
v 18.813570 -12.774058 0.412962
v 18.648981 -12.748384 0.469733
v 18.719519 -12.732618 0.469707
v 18.813566 -12.745765 0.469712
v 18.837082 -12.750544 0.467098
v 18.869154 -12.774053 0.469740
v 18.766541 -13.267834 0.768712
v 18.931150 -13.150280 0.602452
v 18.837074 -12.739896 0.446203
v 18.907618 -12.821088 0.469710
v 18.937901 -12.844602 0.446197
v 18.900705 -13.244317 0.704839
v 18.940378 -13.173780 0.728343
v 18.938528 -12.891625 0.469712
v 18.967981 -13.126745 0.610787
v 18.945265 -12.985678 0.375659
v 18.954643 -12.938654 0.294971
v 18.954638 -13.044090 0.399175
v 18.945023 -12.938651 0.305124
v 18.931129 -12.962162 0.414392
v 18.954639 -12.976303 0.375662
v 18.918571 -12.915139 0.399175
v 18.938137 -12.891624 0.446198
v 18.958277 -12.915139 0.446200
v 18.959650 -12.962162 0.446196
v 18.959604 -13.056212 0.446198
v 18.954643 -13.067839 0.493222
v 18.978151 -13.035586 0.446198
v 18.978153 -13.032702 0.507846
v 18.978153 -13.075124 0.493224
v 18.978153 -13.040888 0.422689
v 18.978159 -13.019353 0.493223
v 18.978155 -12.985674 0.434451
v 18.978153 -12.915140 0.328635
v 18.978155 -12.974786 0.422686
v 18.978157 -12.938646 0.287367
v 18.978155 -13.088621 0.469711
v 18.531416 -13.244312 0.609213
v 18.625467 -13.244311 0.591373
v 18.648979 -13.228659 0.634296
v 18.552469 -13.244311 0.657811
v 18.507906 -13.005717 0.352151
v 18.625467 -13.246586 0.587269
v 18.539261 -13.267848 0.657809
v 18.569368 -13.220799 0.704834
v 18.643337 -13.267864 0.610781
v 18.578444 -13.267857 0.661724
v 18.578445 -13.244314 0.662773
v 18.625465 -13.244309 0.625678
v 18.637735 -13.244312 0.610784
v 18.648979 -13.267825 0.606721
v 18.664946 -13.220798 0.587274
v 18.601965 -12.868143 0.402678
v 18.554914 -12.938626 0.402151
v 18.766569 -12.915126 0.395157
v 18.719534 -13.079732 0.312093
v 18.578442 -13.056208 0.361468
v 18.696007 -12.985674 0.362415
v 18.719505 -12.868087 0.404307
v 18.719498 -13.056215 0.331728
vt 0.655446 0.327636
vt 0.640179 0.323650
vt 0.643960 0.327507
vt 0.466035 0.020744
vt 0.468650 0.016770
vt 0.469079 0.016539
vt 0.636395 0.327505
vt 0.970349 0.332713
vt 0.969177 0.336527
vt 0.965410 0.332926
vt 0.996826 0.632080
vt 0.996826 0.609120
vt 0.998051 0.612941
vt 0.981993 0.293584
vt 0.982391 0.300476
vt 0.978537 0.297651
vt 0.404334 0.171143
vt 0.404432 0.162154
vt 0.398753 0.165505
vt 0.402426 0.164794
vt 0.402501 0.161774
vt 0.400583 0.157271
vt 0.400637 0.151276
vt 0.396809 0.151443
vt 0.397908 0.161009
vt 0.395264 0.160257
vt 0.399210 0.164038
vt 0.297434 0.741281
vt 0.292655 0.733604
vt 0.286002 0.725931
vt 0.309000 0.718358
vt 0.309000 0.720207
vt 0.323187 0.703101
vt 0.335848 0.703550
vt 0.336602 0.703150
vt 0.324083 0.718413
vt 0.320505 0.710750
vt 0.347272 0.718501
vt 0.342684 0.726138
vt 0.346688 0.733806
vt 0.316662 0.717577
vt 0.316696 0.706908
vt 0.312829 0.718371
vt 0.962938 0.362549
vt 0.961373 0.352236
vt 0.965149 0.355832
vt 0.972932 0.340115
vt 0.972851 0.353394
vt 0.964958 0.352013
vt 0.976625 0.343710
vt 0.972553 0.332476
vt 0.982338 0.459648
vt 0.980933 0.475195
vt 0.958905 0.468119
vt 0.971049 0.448275
vt 0.957764 0.444789
vt 0.959556 0.471972
vt 0.996826 0.320451
vt 0.997408 0.354877
vt 0.996826 0.362549
vt 0.297513 0.722103
vt 0.288992 0.725890
vt 0.305171 0.720418
vt 0.301355 0.718282
vt 0.979613 0.448297
vt 0.987014 0.456036
vt 0.473968 0.017850
vt 0.474689 0.020272
vt 0.479935 0.021818
vt 0.471653 0.020320
vt 0.960220 0.329265
vt 0.964382 0.313823
vt 0.969985 0.325074
vt 0.959753 0.310134
vt 0.963611 0.294672
vt 0.957764 0.298769
vt 0.959519 0.333142
vt 0.647802 0.331423
vt 0.997596 0.459810
vt 0.447969 0.105001
vt 0.450733 0.112829
vt 0.456020 0.108075
vt 0.997767 0.471270
vt 0.987400 0.471310
vt 0.986916 0.482810
vt 0.982121 0.482840
vt 0.312865 0.710671
vt 0.324344 0.710727
vt 0.320502 0.714539
vt 0.312883 0.706825
vt 0.316663 0.717367
vt 0.309022 0.714495
vt 0.301371 0.714450
vt 0.971591 0.324814
vt 0.974619 0.320906
vt 0.446965 0.104002
vt 0.435493 0.105256
vt 0.435459 0.108994
vt 0.431683 0.101138
vt 0.423981 0.108932
vt 0.416265 0.116419
vt 0.972841 0.331957
vt 0.973578 0.320510
vt 0.977247 0.324069
vt 0.977369 0.320252
vt 0.960258 0.491088
vt 0.971448 0.309555
vt 0.974745 0.317064
vt 0.984345 0.501739
vt 0.959578 0.502490
vt 0.974254 0.513332
vt 0.961039 0.513664
vt 0.988493 0.490359
vt 0.957764 0.518799
vt 0.990003 0.494092
vt 0.993944 0.494130
vt 0.975294 0.309333
vt 0.982264 0.301224
vt 0.991547 0.501925
vt 0.979412 0.509453
vt 0.995128 0.502009
vt 0.998109 0.494184
vt 0.997330 0.490319
vt 0.973330 0.295577
vt 0.980146 0.289750
vt 0.992136 0.509308
vt 0.986562 0.508009
vt 0.978749 0.513364
vt 0.412406 0.120146
vt 0.408610 0.116315
vt 0.404719 0.128290
vt 0.404622 0.135096
vt 0.404689 0.132084
vt 0.404316 0.168128
vt 0.403558 0.167823
vt 0.404439 0.157834
vt 0.399768 0.155696
vt 0.957764 0.352461
vt 0.976095 0.349127
vt 0.462772 0.022543
vt 0.469056 0.022598
vt 0.466149 0.018563
vt 0.476252 0.023298
vt 0.485889 0.017497
vt 0.485041 0.029599
vt 0.507505 0.020721
vt 0.510747 0.019186
vt 0.974235 0.313140
vt 0.408258 0.160031
vt 0.454477 0.124452
vt 0.465939 0.119732
vt 0.465863 0.131736
vt 0.462038 0.135777
vt 0.469674 0.128999
vt 0.465848 0.135494
vt 0.469659 0.135189
vt 0.974302 0.313012
vt 0.423879 0.120123
vt 0.404528 0.146368
vt 0.427634 0.132016
vt 0.412136 0.154325
vt 0.427681 0.124086
vt 0.461907 0.159683
vt 0.435184 0.160955
vt 0.435134 0.163862
vt 0.484799 0.162879
vt 0.481054 0.155700
vt 0.473493 0.148689
vt 0.512599 0.016628
vt 0.484518 0.030518
vt 0.449285 0.024817
vt 0.469652 0.148392
vt 0.458107 0.155805
vt 0.465806 0.147547
vt 0.465809 0.143593
vt 0.469697 0.135439
vt 0.435345 0.124267
vt 0.972775 0.316822
vt 0.976599 0.312840
vt 0.412069 0.161878
vt 0.412032 0.165504
vt 0.435120 0.163981
vt 0.435193 0.156585
vt 0.407257 0.169316
vt 0.513276 0.022624
vt 0.515664 0.016577
vt 0.516604 0.023334
vt 0.517617 0.015769
vt 0.404560 0.142610
vt 0.458107 0.155805
vt 0.439069 0.144383
vt 0.435184 0.160955
vt 0.462038 0.135777
vt 0.454477 0.124452
vt 0.435345 0.124267
vt 0.427634 0.132016
vt 0.435193 0.156585
vt 0.457764 0.553955
vt 0.495027 0.553955
vt 0.464191 0.550609
vt 0.392043 0.506088
vt 0.388556 0.513167
vt 0.392496 0.516731
vt 0.453272 0.426890
vt 0.459434 0.428955
vt 0.457146 0.422317
vt 0.445434 0.178955
vt 0.436821 0.166727
vt 0.430420 0.178955
vt 0.231923 0.005876
vt 0.223389 0.007670
vt 0.231459 0.010468
vt 0.485107 0.198486
vt 0.493675 0.198486
vt 0.491577 0.189955
vt 0.433374 0.219020
vt 0.430420 0.225830
vt 0.441904 0.225830
vt 0.485107 0.178955
vt 0.492026 0.178955
vt 0.489148 0.175491
vt 0.549110 0.096544
vt 0.552249 0.100830
vt 0.553917 0.096487
vt 0.502002 0.592822
vt 0.504989 0.599106
vt 0.506701 0.593347
vt 0.430420 0.210205
vt 0.442661 0.210205
vt 0.441096 0.206165
vt 0.467038 0.196615
vt 0.466021 0.191757
vt 0.461670 0.198487
vt 0.512795 0.598476
vt 0.520328 0.601862
vt 0.515819 0.591358
vt 0.559310 0.168587
vt 0.555420 0.171143
vt 0.564159 0.171143
vt 0.437238 0.087856
vt 0.434554 0.084896
vt 0.430826 0.089087
vt 0.429462 0.529663
vt 0.443374 0.527260
vt 0.427555 0.521142
vt 0.477920 0.160446
vt 0.473389 0.163330
vt 0.482532 0.163330
vt 0.540099 0.087391
vt 0.539795 0.093018
vt 0.544424 0.088606
vt 0.536579 0.088789
vt 0.531983 0.093018
vt 0.537608 0.093018
vt 0.532261 0.087538
vt 0.243710 0.186768
vt 0.248261 0.177165
vt 0.234655 0.178616
vt 0.449951 0.298911
vt 0.450417 0.303955
vt 0.458788 0.293552
vt 0.460435 0.303955
vt 0.460979 0.296481
vt 0.453322 0.427981
vt 0.560870 0.406858
vt 0.549386 0.408634
vt 0.558788 0.415372
vt 0.562235 0.404853
vt 0.547607 0.417111
vt 0.528076 0.315459
vt 0.528892 0.319580
vt 0.532665 0.319278
vt 0.533442 0.315333
vt 0.546131 0.319580
vt 0.376833 0.342655
vt 0.380861 0.330859
vt 0.376693 0.335162
vt 0.249169 0.185908
vt 0.255417 0.181974
vt 0.256616 0.180885
vt 0.375500 0.333831
vt 0.385771 0.500593
vt 0.386189 0.506010
vt 0.382143 0.507499
vt 0.407518 0.514439
vt 0.406613 0.518799
vt 0.393692 0.507533
vt 0.078503 0.097546
vt 0.074770 0.095948
vt 0.076399 0.110941
vt 0.080133 0.110312
vt 0.422123 0.488054
vt 0.445203 0.495361
vt 0.435678 0.486146
vt 0.445288 0.490837
vt 0.509973 0.390980
vt 0.500732 0.393799
vt 0.511524 0.393034
vt 0.557126 0.417236
vt 0.500969 0.480178
vt 0.506301 0.479894
vt 0.505769 0.475580
vt 0.501258 0.483643
vt 0.509400 0.477094
vt 0.500732 0.480292
vt 0.566982 0.264893
vt 0.563096 0.261275
vt 0.559326 0.264893
vt 0.566922 0.261234
vt 0.387266 0.326321
vt 0.381678 0.322987
vt 0.387342 0.330164
vt 0.385147 0.334445
vt 0.388676 0.322746
vt 0.390522 0.326246
vt 0.260610 0.186326
vt 0.266971 0.185197
vt 0.266188 0.180124
vt 0.434326 0.428955
vt 0.012014 0.019843
vt 0.061782 0.069580
vt 0.065574 0.016009
vt 0.019727 0.069580
vt 0.027317 0.008360
vt 0.008240 0.058102
vt 0.050264 0.008358
vt 0.410889 0.495361
vt 0.046490 0.005930
vt 0.057954 0.007605
vt 0.435834 0.194580
vt 0.430816 0.183254
vt 0.430420 0.194580
vt 0.443994 0.186321
vt 0.446662 0.194576
vt 0.234431 0.013627
vt 0.250141 0.014893
vt 0.246247 0.008268
vt 0.251347 0.012755
vt 0.270520 0.186767
vt 0.258677 0.185799
vt 0.394762 0.329498
vt 0.397000 0.329066
vt 0.393798 0.318457
vt 0.277537 0.181242
vt 0.070240 0.054208
vt 0.071250 0.019772
vt 0.373951 0.510521
vt 0.371826 0.518799
vt 0.071508 0.015943
vt 0.255495 0.005540
vt 0.412356 0.534424
vt 0.410433 0.532014
vt 0.401911 0.532848
vt 0.403289 0.528839
vt 0.255777 0.013209
vt 0.256883 0.005627
vt 0.002684 0.031288
vt 0.001612 0.042768
vt 0.004181 0.054248
vt 0.003738 0.027463
vt 0.004538 0.023630
vt 0.000732 0.042761
vt 0.008327 0.018417
vt 0.266823 0.014893
vt 0.266219 0.005871
vt 0.531982 0.428955
vt 0.551157 0.428955
vt 0.547295 0.420209
vt 0.535819 0.421304
vt 0.553269 0.178955
vt 0.549592 0.176355
vt 0.543701 0.178955
vt 0.474127 0.444510
vt 0.481544 0.436674
vt 0.470573 0.436788
vt 0.485144 0.444580
vt 0.466272 0.444580
vt 0.271290 0.007925
vt 0.403076 0.010193
vt 0.403960 0.010669
vt 0.403076 0.018799
vt 0.442938 0.215161
vt 0.445850 0.225574
vt 0.465761 0.435361
vt 0.461670 0.440899
vt 0.451700 0.463977
vt 0.455966 0.469321
vt 0.464093 0.471924
vt 0.448561 0.471924
vt 0.445398 0.467555
vt 0.219482 0.013220
vt 0.221042 0.017049
vt 0.219482 0.022705
vt 0.543701 0.264893
vt 0.554022 0.264893
vt 0.551024 0.260288
vt 0.446549 0.215371
vt 0.560915 0.116455
vt 0.558089 0.113726
vt 0.555420 0.116455
vt 0.413092 0.523789
vt 0.396032 0.523834
vt 0.398065 0.528037
vt 0.387424 0.523217
vt 0.386388 0.532815
vt 0.400152 0.533127
vt 0.396686 0.531998
vt 0.547608 0.100830
vt 0.364362 0.232513
vt 0.357056 0.241842
vt 0.358231 0.232240
vt 0.359590 0.249268
vt 0.356201 0.247563
vt 0.362994 0.226823
vt 0.365991 0.227449
vt 0.516032 0.585704
vt 0.500732 0.588815
vt 0.511518 0.599293
vt 0.511324 0.604736
vt 0.524170 0.085205
vt 0.529102 0.085205
vt 0.528810 0.081079
vt 0.519863 0.588748
vt 0.517856 0.586965
vt 0.431260 0.203136
vt 0.438235 0.199612
vt 0.356523 0.220164
vt 0.358579 0.219724
vt 0.015964 0.012159
vt 0.065851 0.007011
vt 0.069674 0.011393
vt 0.062029 0.003032
vt 0.538345 0.598699
vt 0.529608 0.604736
vt 0.438232 0.468487
vt 0.471390 0.198487
vt 0.437910 0.241613
vt 0.431086 0.245361
vt 0.444983 0.245361
vt 0.431867 0.243408
vt 0.444221 0.235999
vt 0.446640 0.240547
vt 0.440991 0.234233
vt 0.435697 0.235174
vt 0.435805 0.242062
vt 0.434532 0.230701
vt 0.430420 0.231259
vt 0.379615 0.533181
vt 0.383089 0.534424
vt 0.382119 0.532102
vt 0.383505 0.523357
vt 0.390140 0.520445
vt 0.518891 0.112551
vt 0.516357 0.116455
vt 0.520091 0.116455
vt 0.378555 0.522851
vt 0.374373 0.532072
vt 0.371826 0.525653
vt 0.362156 0.219912
vt 0.362788 0.215048
vt 0.538404 0.593384
vt 0.522339 0.586190
vt 0.445395 0.200431
vt 0.446680 0.205805
vt 0.420578 0.534424
vt 0.425388 0.529286
vt 0.421405 0.527344
vt 0.415140 0.528864
vt 0.414795 0.524000
vt 0.424250 0.523882
vt 0.516899 0.284648
vt 0.522950 0.284651
vt 0.521474 0.279482
vt 0.055808 0.004568
vt 0.523080 0.288330
vt 0.515777 0.288330
vt 0.426178 0.526629
vt 0.427866 0.531695
vt 0.425043 0.531671
vt 0.433621 0.093018
vt 0.444582 0.093018
vt 0.430420 0.092879
vt 0.362011 0.208057
vt 0.356201 0.201921
vt 0.364354 0.203388
vt 0.542294 0.393799
vt 0.530496 0.388042
vt 0.524170 0.393799
vt 0.543479 0.386253
vt 0.529683 0.386055
vt 0.463819 0.210205
vt 0.470767 0.210205
vt 0.469939 0.204991
vt 0.461670 0.202790
vt 0.366351 0.205065
vt 0.496826 0.139893
vt 0.504457 0.139893
vt 0.499188 0.134248
vt 0.497087 0.137660
vt 0.512451 0.287216
vt 0.516188 0.282378
vt 0.427385 0.524868
vt 0.415370 0.525408
vt 0.451776 0.534424
vt 0.453097 0.532713
vt 0.545292 0.093018
vt 0.450963 0.518799
vt 0.456576 0.508444
vt 0.449951 0.514573
vt 0.462868 0.518452
vt 0.463036 0.513030
vt 0.453364 0.508205
vt 0.479080 0.518799
vt 0.487263 0.516192
vt 0.469717 0.511775
vt 0.543701 0.241455
vt 0.554967 0.241455
vt 0.549981 0.235548
vt 0.467114 0.511599
vt 0.069980 0.012153
vt 0.547607 0.108642
vt 0.553330 0.108642
vt 0.550758 0.105810
vt 0.487312 0.549702
vt 0.482920 0.541107
vt 0.479283 0.548950
vt 0.397818 0.336260
vt 0.402256 0.339603
vt 0.404491 0.335362
vt 0.360110 0.418268
vt 0.362421 0.424408
vt 0.358232 0.425540
vt 0.386064 0.345841
vt 0.391530 0.345342
vt 0.394737 0.337562
vt 0.455495 0.018614
vt 0.453033 0.026420
vt 0.456740 0.026611
vt 0.449951 0.026611
vt 0.479369 0.549508
vt 0.494920 0.549462
vt 0.496245 0.553916
vt 0.446133 0.029117
vt 0.438306 0.025702
vt 0.437828 0.030035
vt 0.444256 0.034424
vt 0.430420 0.034424
vt 0.431458 0.029874
vt 0.434244 0.027790
vt 0.445917 0.033438
vt 0.392706 0.329685
vt 0.516918 0.392644
vt 0.518974 0.389519
vt 0.520363 0.389785
vt 0.522262 0.393799
vt 0.532547 0.556190
vt 0.528335 0.561768
vt 0.539655 0.561768
vt 0.528076 0.556278
vt 0.485653 0.081344
vt 0.485303 0.085187
vt 0.490481 0.085205
vt 0.485107 0.085205
vt 0.349425 0.436022
vt 0.361678 0.437455
vt 0.356700 0.449867
vt 0.348389 0.460205
vt 0.353568 0.422901
vt 0.348389 0.432337
vt 0.359039 0.455829
vt 0.360710 0.456660
vt 0.397172 0.336279
vt 0.359103 0.453657
vt 0.357188 0.449809
vt 0.547936 0.207368
vt 0.553222 0.210205
vt 0.551894 0.205359
vt 0.543701 0.210205
vt 0.549308 0.201807
vt 0.434770 0.026512
vt 0.360824 0.440807
vt 0.362576 0.438227
vt 0.362056 0.436391
vt 0.365645 0.432823
vt 0.402149 0.341406
vt 0.398388 0.332449
vt 0.475338 0.541407
vt 0.473012 0.545761
vt 0.476889 0.548049
vt 0.366682 0.439119
vt 0.475150 0.551959
vt 0.403343 0.346924
vt 0.405499 0.338748
vt 0.467511 0.541359
vt 0.466999 0.543295
vt 0.402965 0.007080
vt 0.398792 0.003557
vt 0.395264 0.007080
vt 0.402505 0.005921
vt 0.547607 0.358643
vt 0.563934 0.358643
vt 0.561633 0.353470
vt 0.550812 0.349707
vt 0.446747 0.022705
vt 0.438560 0.017923
vt 0.430438 0.022705
vt 0.442999 0.016273
vt 0.430420 0.021067
vt 0.447073 0.018800
vt 0.565749 0.417236
vt 0.367920 0.231488
vt 0.369375 0.244498
vt 0.367920 0.249268
vn -0.5201 0.1296 0.8442
vn 0.6957 -0.5078 -0.5080
vn -0.2177 -0.2220 0.9504
vn -0.5284 0.5719 -0.6275
vn 0.0002 -0.0015 1.0000
vn -0.0001 0.0029 -1.0000
vn 0.1956 -0.1930 -0.9615
vn 0.5891 0.5721 0.5707
vn 0.0007 0.0015 -1.0000
vn 0.6267 -0.6516 -0.4274
vn -0.0111 0.9999 0.0031
vn -0.0071 1.0000 0.0044
vn -0.0059 1.0000 0.0048
vn -0.0068 1.0000 0.0043
vn -0.0069 1.0000 0.0042
vn -0.0071 1.0000 0.0051
vn -0.0066 1.0000 0.0051
vn -0.0062 1.0000 0.0064
vn -0.0067 1.0000 0.0044
vn -0.0065 1.0000 0.0042
vn -0.0066 1.0000 0.0046
vn -0.0067 1.0000 0.0042
vn -0.0067 1.0000 0.0048
vn 0.2255 -0.1476 -0.9630
vn -0.1273 0.2859 -0.9498
vn -0.1312 0.1580 -0.9787
vn -0.0050 0.0740 -0.9972
vn -0.0119 0.0928 -0.9956
vn 0.2379 0.8811 0.4088
vn 0.2317 0.8815 0.4115
vn 0.2370 0.8811 0.4093
vn 0.3271 0.8441 0.4248
vn 0.3078 0.8628 0.4010
vn 0.2295 0.8816 0.4124
vn 1.0000 -0.0001 0.0030
vn -0.4814 -0.6473 -0.5910
vn -0.3858 -0.7103 -0.5888
vn -0.2704 -0.1836 -0.9451
vn -0.3571 -0.6982 -0.6205
vn -0.1592 0.5409 0.8259
vn -0.2070 0.2157 0.9543
vn -0.4848 -0.4778 -0.7326
vn -0.0514 -0.8648 -0.4994
vn -0.6250 -0.6760 -0.3903
vn -0.5239 -0.6022 -0.6024
vn -0.0520 0.7671 -0.6394
vn 0.0265 0.8822 -0.4701
vn 0.0651 0.8679 -0.4925
vn -0.0770 0.5807 -0.8105
vn 0.1271 0.8000 -0.5864
vn -0.0067 0.6737 -0.7390
vn 0.1965 0.7629 -0.6159
vn -0.1076 0.7737 -0.6243
vn 0.2842 0.1454 0.9477
vn 0.5527 -0.1834 0.8129
vn -0.5397 0.3757 0.7534
vn -0.5296 0.3518 -0.7719
vn -0.0041 0.6339 0.7734
vn 0.2002 0.4373 0.8768
vn 0.2811 0.5580 0.7808
vn 0.0539 0.6875 0.7242
vn 0.0025 0.6396 0.7687
vn -0.1861 -0.9689 -0.1632
vn -0.1443 -0.7513 -0.6439
vn 0.0402 -0.8383 -0.5437
vn -0.0657 -0.8641 -0.4989
vn -0.1106 -0.9054 -0.4098
vn -0.2876 -0.8213 -0.4926
vn -0.6312 -0.7469 -0.2093
vn 0.1290 -0.7569 -0.6407
vn -0.0074 -0.6054 -0.7959
vn -0.7057 -0.5407 -0.4579
vn -0.5543 -0.5038 -0.6626
vn -0.1533 -0.0242 -0.9879
vn -0.0571 0.2008 -0.9780
vn 0.4351 -0.0219 -0.9001
vn -0.0058 0.2151 -0.9766
vn -0.0059 0.0121 -0.9999
vn -0.2926 0.2927 -0.9103
vn -0.2603 0.0083 -0.9655
vn -0.4117 -0.3129 -0.8559
vn -0.2059 -0.0426 -0.9776
vn 0.0266 0.8843 0.4661
vn 0.0580 0.8905 0.4513
vn 0.1708 0.1925 -0.9663
vn 0.2507 0.1589 -0.9549
vn -0.0165 -0.1766 -0.9842
vn -0.1234 0.9008 0.4162
vn -0.1222 0.9012 0.4159
vn -0.1218 0.9013 0.4158
vn -0.1236 0.9007 0.4165
vn -0.2642 0.8757 0.4041
vn -0.3710 0.8026 0.4671
vn -0.1625 0.6461 0.7458
vn 0.2852 0.8283 0.4823
vn -0.2567 0.7941 0.5509
vn -0.1775 0.6296 0.7564
vn -0.3799 0.4367 0.8155
vn 0.0139 0.2502 -0.9681
vn 0.0650 0.1420 -0.9877
vn 0.0021 0.2335 -0.9723
vn -0.0833 -0.0172 -0.9964
vn -0.4465 0.3376 -0.8287
vn 0.2634 0.2620 0.9284
vn 0.3402 0.2554 0.9050
vn 0.3411 0.4445 0.8283
vn 0.3653 0.2815 0.8873
vn 0.4094 0.3874 0.8260
vn 0.1323 0.4207 0.8975
vn 0.6367 0.4345 -0.6370
vn 0.4807 0.4577 -0.7479
vn 0.4538 0.2695 0.8494
vn 0.5594 0.6512 0.5128
vn 0.3804 0.4508 0.8075
vn 0.0478 0.7005 0.7120
vn -0.1868 0.2542 -0.9490
vn -0.6481 -0.3291 -0.6867
vn -1.0000 0.0001 0.0000
vn 0.5860 -0.5782 0.5677
vn 0.9273 -0.3658 0.0797
vn 0.2894 -0.7209 -0.6297
vn 0.5881 0.4040 -0.7006
vn 0.5108 -0.6073 -0.6086
vn 0.5675 -0.6748 -0.4718
vn 0.5772 -0.6608 -0.4798
vn 0.5233 0.4558 -0.7200
vn 0.6211 0.4781 -0.6211
vn 0.5829 0.5661 -0.5829
vn 0.6135 0.7879 -0.0537
vn 0.7181 0.4944 -0.4897
vn 0.0723 0.0925 -0.9931
vn -0.1660 0.2323 -0.9584
vn -0.1659 0.2323 -0.9584
vn -0.3101 -0.3280 -0.8923
vn -0.0999 -0.9445 0.3129
vn -0.5505 -0.5418 -0.6351
vn 0.4443 -0.5816 -0.6814
vn 0.2242 -0.6633 -0.7139
vn 0.3612 -0.6901 -0.6272
vn -0.5966 0.1874 -0.7803
vn -0.1075 0.6061 -0.7881
vn -0.5633 0.3014 -0.7693
vn -0.2872 0.3791 -0.8797
vn -0.3738 0.1658 -0.9126
vn -0.4511 0.3074 -0.8379
vn -0.6635 0.1338 -0.7361
vn -0.3561 0.4123 -0.8386
vn -0.4599 0.5032 -0.7316
vn 0.0075 -0.8959 -0.4442
vn -0.4276 -0.9039 -0.0130
vn -0.0896 -0.9561 -0.2789
vn -0.0443 -0.0296 -0.9986
vn -0.0443 -0.0494 -0.9978
vn -0.0366 -0.0647 -0.9972
vn 0.2350 0.1827 -0.9547
vn 0.1752 0.0885 -0.9806
vn -0.0358 0.2747 -0.9609
vn 0.1751 0.0886 -0.9806
vn 0.5039 0.0777 -0.8603
vn 0.1936 0.1277 -0.9727
vn 0.5881 0.0015 -0.8088
vn -0.2175 -0.5952 -0.7736
vn -0.1715 0.0502 -0.9839
vn -0.1305 -0.1848 -0.9741
vn -0.1373 -0.2230 -0.9651
vn -0.0272 -0.9030 -0.4288
vn -0.0615 -0.9177 -0.3924
vn -0.0610 -0.9178 -0.3924
vn -0.0611 -0.9178 -0.3924
vn 0.0274 -0.9162 -0.3999
vn 0.1000 -0.9537 -0.2835
vn -0.2104 -0.7014 -0.6810
vn -0.0616 -0.9178 -0.3922
vn -0.1043 -0.9881 -0.1128
vn -0.2646 -0.8777 -0.3996
vn -0.0487 -0.8195 -0.5710
vn 0.0584 0.0724 -0.9957
vn 0.3334 0.2528 -0.9083
vn 0.6843 -0.5634 -0.4630
vn 0.6544 -0.5388 -0.5305
vn 0.4000 0.5854 -0.7052
vn 0.3956 0.5827 -0.7099
vn 0.4004 0.5856 -0.7048
vn 0.3955 0.5825 -0.7102
vn 0.4883 0.3234 -0.8106
vn 0.4828 0.3863 -0.7859
vn -0.6600 -0.5804 -0.4770
vn -0.6823 -0.6000 -0.4178
vn -0.2516 0.3692 -0.8947
vn -0.2129 0.2812 -0.9357
vn -0.3668 0.3447 -0.8641
vn -0.0286 0.0863 -0.9959
vn 0.0136 0.1419 -0.9898
vn 0.1136 0.0858 -0.9898
vn 0.0898 0.1548 -0.9839
vn 0.0875 0.2738 -0.9578
vn -0.5822 -0.0357 -0.8122
vn 0.0979 -0.4769 -0.8735
vn 0.3967 -0.1600 -0.9039
vn 0.4005 -0.0813 -0.9127
vn 0.4315 0.0270 -0.9017
vn 0.4176 0.2530 -0.8727
vn -0.6287 -0.5959 -0.4996
vn -0.6309 -0.5763 -0.5195
vn -0.5496 -0.6420 -0.5345
vn -0.3217 -0.8483 -0.4206
vn -0.2197 -0.1573 -0.9628
vn -0.3716 0.1788 -0.9110
vn -0.1263 -0.1952 -0.9726
vn 0.1386 -0.1725 -0.9752
vn 0.0441 0.0297 -0.9986
vn -0.2072 -0.9455 -0.2514
vn -0.5264 -0.5786 -0.6230
vn -0.0609 -0.9178 -0.3924
vn -0.5355 -0.8278 0.1676
vn 0.3681 -0.9132 -0.1746
vn -0.0192 0.0019 -0.9998
vn -0.2394 0.4108 -0.8797
vn -0.1677 0.2922 -0.9415
vn 0.0129 0.3333 -0.9427
vn -0.2199 0.1540 -0.9633
vn 0.1269 0.3103 -0.9421
vn 0.0199 0.4044 -0.9144
vn 0.0995 0.1985 -0.9750
vn -0.3202 -0.0873 0.9433
vn 0.7034 0.6627 0.2570
vn 0.7800 0.5386 0.3186
vn -0.9307 0.3658 -0.0003
vn 0.8283 0.3554 0.4331
vn 0.1668 0.9820 0.0884
vn -0.6949 0.6112 -0.3788
vn -0.5530 0.6039 -0.5740
vn 0.8757 -0.1415 -0.4616
vn -0.0636 0.8596 -0.5070
vn 0.2719 -0.9048 -0.3276
vn 0.9705 -0.2109 -0.1168
vn -0.6032 -0.4543 -0.6555
vn -0.6577 0.5064 0.5577
vn 0.9078 -0.3703 -0.1970
vn 0.5553 0.6266 -0.5469
vn -0.6253 -0.6250 0.4673
vn 0.6133 -0.6326 0.4730
vn 0.6376 0.6102 0.4702
vn -0.6845 0.5071 0.5238
vn 0.1672 -0.6784 -0.7154
vn 0.6532 0.0702 -0.7540
vn 0.4803 -0.0288 -0.8766
vn 0.8573 0.4955 -0.1398
vn -0.9123 0.1107 -0.3942
vn -0.8110 0.5719 0.1230
vn -0.9633 0.1203 -0.2399
vn -0.4173 0.8908 0.1800
vn -0.2271 0.8986 0.3754
vn -0.2573 0.8199 0.5114
vn -0.3462 -0.9140 -0.2117
vn -0.9188 0.2741 0.2841
vn -0.5901 -0.1311 0.7966
vn -0.6695 0.4070 0.6214
vn -0.7286 -0.4847 0.4840
vn -0.3871 -0.6740 0.6292
vn -0.3803 -0.6732 0.6341
vn -0.3848 -0.6717 0.6330
vn -0.2539 -0.6152 0.7463
vn -0.4219 -0.4869 0.7648
vn 0.6051 -0.5703 0.5555
vn 0.4911 -0.7454 0.4508
vn 0.3744 -0.6571 0.6543
vn 0.1133 0.1876 0.9757
vn -0.4266 0.3149 0.8478
vn -0.7468 0.2314 0.6234
vn -0.5573 -0.0353 0.8295
vn 0.6238 -0.5413 -0.5637
vn 0.6244 -0.5401 -0.5642
vn 0.6243 -0.5405 -0.5640
vn -0.7896 -0.2672 -0.5524
vn 0.0967 0.5643 -0.8199
vn -0.1847 0.3410 -0.9217
vn 0.2209 0.3685 -0.9030
vn 0.0008 -0.0018 -1.0000
vn 0.0133 0.7689 -0.6393
vn 0.0168 0.7712 -0.6363
vn 0.0152 0.7702 -0.6377
vn -0.0067 0.7820 -0.6232
vn -0.6011 -0.7772 0.1859
vn -0.5520 -0.8322 0.0523
vn -0.4724 -0.7121 0.5193
vn -0.8213 -0.0665 -0.5666
vn -0.7739 -0.1451 -0.6165
vn -0.5080 0.2867 0.8122
vn -0.5240 -0.1528 0.8379
vn -0.7261 -0.1362 0.6739
vn 0.1899 0.9450 -0.2664
vn 0.1790 0.8903 -0.4188
vn 0.0092 -0.0242 0.9997
vn 0.0003 -0.0249 0.9997
vn 0.0078 -0.0243 0.9997
vn -0.0081 -0.0167 0.9998
vn -0.0081 -0.0165 0.9998
vn 0.0101 -0.0242 0.9997
vn -0.0080 -0.0171 0.9998
vn -0.0074 -0.0207 0.9998
vn -0.0850 0.0004 0.9964
vn 0.2755 -0.0199 0.9611
vn 0.1131 -0.0807 0.9903
vn 0.9862 0.1334 0.0979
vn 0.9847 0.1481 0.0922
vn 0.9829 0.1478 0.1095
vn -0.5998 0.5859 0.5450
vn -0.6030 0.5790 0.5487
vn -0.6026 0.5805 0.5476
vn -0.7236 0.5742 0.3831
vn 0.0031 1.0000 -0.0002
vn -0.6034 0.5789 0.5484
vn -0.8819 -0.4645 -0.0808
vn 0.0066 -0.9304 0.3665
vn -0.4741 -0.8173 -0.3275
vn -0.8457 0.0516 0.5311
vn -0.1383 -0.0724 0.9877
vn -0.0385 -0.5629 0.8256
vn -0.0195 -0.6541 0.7562
vn -0.1885 -0.7380 0.6480
vn 0.2733 -0.5167 0.8114
vn -0.0478 -0.6419 0.7653
vn -0.3911 0.9163 0.0865
vn 0.0391 0.0571 -0.9976
vn 0.0349 0.0550 -0.9979
vn 0.0380 0.0565 -0.9977
vn 0.0339 0.0545 -0.9979
vn -0.7058 0.7058 0.0608
vn -0.5111 0.8591 0.0280
vn -0.3971 0.6663 0.6311
vn 0.0240 0.2588 0.9656
vn 0.0244 0.2595 0.9654
vn 0.0230 0.2566 0.9662
vn 0.0186 0.2475 0.9687
vn -0.1145 0.5138 0.8503
vn 0.0925 0.3352 0.9376
vn 0.1819 0.4052 0.8960
vn 0.0401 0.4259 0.9039
vn 0.2404 0.4260 0.8722
vn -0.2173 0.9725 0.0837
vn 0.0388 0.9544 -0.2960
vn -0.0704 0.9962 -0.0521
vn -0.0132 0.9988 0.0481
vn 0.7210 0.5890 -0.3649
vn 0.0953 -0.0933 0.9911
vn 0.0749 -0.0734 0.9945
vn -0.2198 -0.2441 0.9445
vn -0.6337 0.7388 -0.2291
vn -0.8630 -0.2155 -0.4570
vn 0.2306 0.8331 -0.5028
vn 0.5945 0.6885 -0.4155
vn -0.6086 0.1689 0.7753
vn -0.7580 0.1388 0.6373
vn 0.7543 -0.0268 -0.6560
vn -0.0229 -0.0408 -0.9989
vn -0.1432 -0.2468 -0.9584
vn 0.9149 -0.3542 -0.1934
vn -0.5564 0.7436 -0.3708
vn 0.0173 0.8948 -0.4461
vn 0.2256 0.8681 0.4422
vn 0.5098 0.5737 -0.6411
vn 0.2855 0.5602 -0.7776
vn 0.4981 0.5070 -0.7035
vn 0.5751 0.0988 -0.8121
vn 0.7339 0.4222 -0.5321
vn 0.5822 0.5892 -0.5603
vn 0.5982 -0.5574 -0.5757
vn -0.5692 -0.5723 -0.5903
vn 0.7741 0.6331 -0.0003
vn 0.7476 0.6615 -0.0590
vn 0.5243 0.7588 0.3865
vn 0.6132 0.7899 -0.0003
vn 0.6679 0.7151 -0.2062
vn 0.8248 -0.1268 0.5511
vn 0.7326 -0.1127 0.6713
vn 0.9164 -0.3636 0.1672
vn 0.7253 -0.6848 0.0706
vn 0.8029 -0.5910 0.0781
vn 0.8361 -0.2339 0.4961
vn 0.1849 -0.5897 0.7862
vn 0.6726 -0.6091 0.4203
vn -0.1917 0.7113 -0.6762
vn -0.0448 0.5979 -0.8003
vn 0.7773 0.3406 0.5289
vn 0.3932 0.2669 0.8799
vn 0.4194 0.3424 0.8407
vn 0.4169 -0.4327 0.7994
vn 0.4171 -0.4327 0.7993
vn 0.4242 -0.4307 0.7966
vn 0.4140 -0.4739 0.7772
vn 0.4164 -0.4329 0.7995
vn 0.7973 -0.6012 -0.0534
vn 0.8314 -0.5493 0.0835
vn 0.7412 -0.6712 0.0096
vn 0.3542 -0.2336 -0.9055
vn 0.1308 -0.8763 -0.4637
vn -0.9332 -0.2526 -0.2557
vn -0.5043 -0.7193 -0.4777
vn -0.4990 -0.3913 -0.7732
vn -0.5901 -0.5983 -0.5420
vn -0.5496 0.6100 -0.5708
vn -0.6936 0.0014 -0.7204
vn -0.5827 0.5828 -0.5665
vn -0.2704 -0.3610 -0.8925
vn 0.1028 0.0019 -0.9947
vn 0.5750 -0.5819 -0.5751
vn 0.8819 0.1559 -0.4449
vn 0.8528 0.1975 -0.4834
vn 0.7066 0.0372 -0.7067
vn 0.6334 0.0032 -0.7738
vn 0.9361 -0.1999 -0.2893
vn 0.7641 -0.0047 -0.6451
vn 0.6394 0.5475 -0.5398
vn 0.7443 0.0218 -0.6675
vn 0.9998 0.0051 -0.0166
vn 0.7228 0.3167 0.6142
vn 0.7594 0.6505 -0.0125
vn 0.8573 0.2987 0.4194
vn 0.9714 0.0214 0.2367
vn 0.8136 0.2833 0.5077
vn -0.3399 0.6171 -0.7097
vn -0.2936 0.6928 -0.6587
vn -0.4298 0.7778 -0.4586
vn 0.7593 -0.4905 -0.4276
vn 0.6652 -0.7441 -0.0611
vn 0.6211 -0.7736 -0.1258
vn 0.6594 -0.5929 -0.4623
vn -0.7438 -0.2186 0.6317
vn -0.6768 -0.1328 0.7241
vn -0.0992 -0.3250 0.9405
vn -0.1003 -0.3243 0.9406
vn -0.0987 -0.3254 0.9404
vn -0.1005 -0.3242 0.9406
vn 0.1036 -0.9702 0.2188
vn 0.1061 -0.9939 0.0291
vn -0.0513 -0.9983 0.0294
vn -0.1248 0.7792 0.6142
vn -0.0268 0.8673 0.4970
vn -0.0705 0.7367 0.6726
vn 0.7925 0.0231 0.6095
vn 0.8379 0.0751 0.5406
vn 0.6957 0.2036 0.6889
vn 0.8200 0.1314 0.5571
vn -0.7476 0.5609 0.3557
vn -0.7029 0.5832 0.4072
vn -0.6391 0.6390 0.4282
vn 0.2931 0.9192 -0.2629
vn 0.2836 0.9433 -0.1723
vn 0.8064 0.4341 0.4017
vn -0.2565 0.8398 -0.4784
vn -0.0006 1.0000 -0.0007
vn -0.2596 -0.8375 0.4808
vn -0.7633 -0.6037 -0.2298
vn -0.8788 -0.1934 -0.4363
vn 0.4109 -0.3695 -0.8334
vn 0.5866 -0.7900 0.1783
vn 0.5575 -0.5570 -0.6156
vn 0.6275 -0.5474 -0.5537
vn -0.1064 -0.9380 -0.3299
vn 0.6035 -0.6031 -0.5215
vn 0.5140 -0.6923 -0.5065
vn -0.6326 0.6135 0.4727
vn 1.0000 -0.0001 0.0001
vn 1.0000 -0.0001 0.0003
vn 1.0000 -0.0001 0.0002
vn 0.9848 -0.0559 0.1645
vn 0.9874 -0.0159 0.1574
vn 0.9730 0.1951 0.1237
vn 0.9416 0.3060 0.1407
vn 0.9926 0.1059 -0.0602
vn 0.7710 0.4672 0.4326
vn 0.8850 0.4040 0.2315
vn 0.2523 -0.6219 0.7414
vn -0.0073 0.8428 0.5381
vn 0.3784 0.3436 -0.8595
vn -0.3207 -0.9159 0.2415
vn 0.3559 0.7055 0.6129
vn -0.6659 -0.7040 -0.2470
vn -0.8218 -0.5698 -0.0056
vn -0.8521 -0.5233 -0.0058
vn -0.8882 -0.4509 0.0886
vn -0.0121 0.2624 -0.9649
vn -0.5310 0.0932 -0.8422
vn 0.0231 0.6406 -0.7676
vn 0.3051 -0.2968 -0.9049
vn 0.0203 0.2152 -0.9764
vn 0.2087 0.8554 -0.4740
vn -0.0009 0.2154 -0.9765
vn -0.8188 0.4513 0.3547
vn -0.7982 0.4932 0.3458
vn -0.9882 0.1251 0.0883
vn -0.9638 0.2665 -0.0001
vn -1.0000 0.0000 -0.0000
vn -0.7724 0.4334 0.4642
vn -0.5542 -0.6475 0.5230
vn -0.5561 -0.5631 0.6113
vn 0.6239 -0.5413 -0.5637
vn 0.7402 -0.4230 -0.5226
vn 0.8514 -0.4863 -0.1963
vn 0.4966 -0.5010 -0.7088
vn 0.8640 0.4352 -0.2530
vn 0.9346 0.2271 -0.2737
vn -0.6713 0.7351 0.0947
vn -1.0000 -0.0002 -0.0004
vn 0.0257 0.9991 0.0341
vn 0.0167 0.9991 0.0378
vn 0.0266 0.9991 0.0338
vn 0.0175 0.9969 0.0772
vn 0.0159 0.9991 0.0382
vn -0.0059 0.9981 0.0608
vn -0.4556 0.8902 0.0038
vn -0.6853 -0.6886 0.2368
vn -0.0901 -0.8774 0.4711
vn 0.0067 -0.9456 0.3251
vn -0.1874 -0.0437 0.9813
vn -0.0993 0.0556 0.9935
vn 0.0170 0.7714 -0.6362
vn -0.6020 0.6160 -0.5080
vn -0.1446 0.8978 -0.4159
vn -0.7381 0.4611 -0.4924
vn -0.6069 -0.6115 -0.5077
vn -0.6058 -0.6135 -0.5067
vn -0.6059 -0.6131 -0.5069
vn -0.9924 -0.0800 0.0940
vn -0.6073 -0.6109 -0.5080
vn 0.6175 -0.0302 0.7860
vn 0.6186 -0.0336 0.7850
vn 0.6190 -0.0350 0.7846
vn 0.6172 -0.0290 0.7863
vn 0.7591 0.1806 0.6254
vn 0.5779 0.1374 0.8044
vn 0.7474 -0.2495 0.6158
vn 0.5384 -0.8426 -0.0079
vn 0.4747 -0.6425 0.6016
vn 0.0934 -0.9587 -0.2685
vn 0.2291 -0.7106 0.6653
vn -0.2711 0.2956 -0.9160
vn -0.0050 0.1744 -0.9847
vn 0.4662 -0.8341 -0.2948
vn 0.0332 0.9988 -0.0351
vn 0.0331 0.9979 0.0557
vn -0.0104 0.7549 0.6557
vn 0.0247 0.6900 0.7234
vn 0.6086 0.6942 -0.3845
vn 0.7744 0.4475 -0.4473
vn 0.2023 -0.9748 -0.0943
vn 0.5424 -0.8390 0.0439
vn 0.1953 -0.9410 -0.2766
vn 0.7181 -0.5284 -0.4529
vn 0.2081 0.5609 -0.8013
vn 1.0000 -0.0014 -0.0005
vn 1.0000 -0.0008 0.0000
vn 1.0000 0.0004 0.0013
vn 1.0000 -0.0015 -0.0007
vn 0.9068 0.3929 -0.1529
vn 0.8259 0.5639 0.0028
vn 0.6885 -0.6354 -0.3496
vn 0.6821 -0.6400 -0.3538
vn 0.6873 -0.6363 -0.3504
vn 0.6814 -0.6469 -0.3422
vn 0.6797 -0.6417 -0.3553
vn 0.6266 -0.1979 -0.7538
vn -0.7434 -0.4207 -0.5200
vn 0.6792 0.4710 -0.5629
usemtl 85fc032eaee04650914faeb8ddd6a71e_013.jpg
s 1
f 1/1/1 2/2/1 3/3/1
f 4/4/2 5/5/2 6/6/2
f 7/7/3 3/3/3 2/2/3
f 8/8/4 9/9/4 10/10/4
f 11/11/5 12/12/5 13/13/5
f 14/14/6 15/15/6 16/16/6
f 17/17/7 18/18/7 19/19/7
f 20/20/8 19/19/8 21/21/8
f 22/22/9 23/23/9 24/24/9
f 25/25/10 26/26/10 27/27/10
f 37/28/11 42/29/12 40/30/13
f 42/29/12 43/31/14 40/30/13
f 42/29/12 44/32/15 43/31/14
f 39/33/16 46/34/17 15/35/18
f 39/33/16 47/36/19 46/34/17
f 39/33/16 48/37/20 47/36/19
f 34/38/21 49/39/21 35/40/21
f 48/37/20 50/41/22 47/36/19
f 39/33/16 51/42/23 48/37/20
f 48/37/20 52/43/14 50/41/22
f 54/44/24 55/45/24 56/46/24
f 57/47/25 58/48/25 59/49/25
f 57/47/26 60/50/26 58/48/26
f 9/9/27 61/51/27 57/47/27
f 59/49/28 56/46/28 55/45/28
f 62/52/29 63/53/30 64/54/31
f 64/54/32 65/55/32 62/52/32
f 64/54/33 66/56/33 65/55/33
f 63/53/30 67/57/34 64/54/31
f 68/58/35 69/59/35 70/60/35
f 71/61/36 44/32/36 42/29/36
f 42/29/37 72/62/37 71/61/37
f 71/61/38 73/63/38 44/32/38
f 71/61/39 74/64/39 73/63/39
f 75/65/40 62/52/40 65/55/40
f 75/65/41 76/66/41 62/52/41
f 77/67/42 78/68/42 79/69/42
f 77/67/43 80/70/43 78/68/43
f 77/67/44 5/5/44 80/70/44
f 77/67/45 6/6/45 5/5/45
f 67/71/46 81/72/46 82/73/46
f 67/71/47 83/74/47 81/72/47
f 83/74/48 84/75/48 81/72/48
f 83/74/49 85/76/49 84/75/49
f 82/73/50 10/10/50 67/71/50
f 82/73/51 8/8/51 10/10/51
f 10/10/52 64/77/52 67/71/52
f 10/10/53 59/49/53 64/77/53
f 3/3/54 30/78/54 1/1/54
f 3/3/55 7/7/55 30/78/55
f 37/79/56 62/52/56 76/66/56
f 86/80/57 87/81/57 88/82/57
f 37/79/58 11/83/58 89/84/58
f 89/84/59 62/52/59 37/79/59
f 89/84/60 63/53/60 62/52/60
f 89/84/61 90/85/61 63/53/61
f 90/85/62 91/86/62 63/53/62
f 92/87/63 93/88/63 94/89/63
f 92/87/64 95/90/64 93/88/64
f 94/89/65 96/91/65 92/87/65
f 96/91/66 97/92/66 92/87/66
f 96/91/67 73/63/67 97/92/67
f 73/63/68 98/93/68 97/92/68
f 73/63/69 74/64/69 98/93/69
f 61/51/70 82/73/70 95/94/70
f 61/51/71 8/8/71 82/73/71
f 82/73/72 99/95/72 95/94/72
f 61/51/73 9/9/73 8/8/73
f 100/96/74 101/97/74 102/98/74
f 102/98/75 87/81/75 100/96/75
f 101/97/76 103/99/76 102/98/76
f 103/99/77 104/100/77 102/98/77
f 104/100/78 105/101/78 102/98/78
f 87/81/79 86/80/79 100/96/79
f 73/102/80 96/103/80 52/104/80
f 52/43/81 44/32/81 73/63/81
f 96/103/82 50/105/82 52/104/82
f 52/43/14 43/31/14 44/32/15
f 67/57/83 91/86/83 83/106/83
f 67/57/84 63/53/84 91/86/84
f 81/72/85 106/107/85 107/108/85
f 107/108/86 82/73/86 81/72/86
f 107/108/87 99/95/87 82/73/87
f 83/106/88 108/109/89 85/110/90
f 83/106/88 91/86/91 108/109/89
f 108/109/92 109/111/92 85/110/92
f 109/111/93 110/112/93 85/110/93
f 91/86/94 111/113/94 108/109/94
f 109/111/95 112/114/95 110/112/95
f 111/113/96 113/115/96 108/109/96
f 91/86/97 90/85/97 111/113/97
f 114/116/98 113/115/98 111/113/98
f 84/75/99 16/16/99 106/107/99
f 106/107/100 81/72/100 84/75/100
f 16/16/101 115/117/101 106/107/101
f 16/16/102 46/118/102 115/117/102
f 16/16/103 15/15/103 46/118/103
f 116/119/104 108/109/104 113/115/104
f 116/119/105 117/120/105 108/109/105
f 113/115/106 114/116/106 116/119/106
f 114/116/107 36/121/107 116/119/107
f 114/116/108 12/122/108 36/121/108
f 114/116/109 13/123/109 12/122/109
f 118/124/110 33/125/110 14/14/110
f 14/14/111 16/16/111 118/124/111
f 116/119/112 36/121/112 35/126/112
f 35/126/113 119/127/113 116/119/113
f 117/120/114 120/128/114 109/111/114
f 109/111/115 108/109/115 117/120/115
f 121/129/116 122/130/116 123/131/116
f 123/131/117 124/132/117 121/129/117
f 123/131/118 125/133/118 124/132/118
f 17/17/119 19/19/119 20/20/119
f 20/20/120 126/134/120 17/17/120
f 20/20/121 127/135/121 126/134/121
f 21/21/122 22/22/122 25/25/122
f 25/25/123 20/20/123 21/21/123
f 25/25/124 27/27/124 20/20/124
f 27/27/125 127/135/125 20/20/125
f 21/21/126 128/136/126 22/22/126
f 21/21/127 18/18/127 128/136/127
f 21/21/128 19/19/128 18/18/128
f 26/26/129 22/22/129 129/137/129
f 26/26/130 25/25/130 22/22/130
f 59/49/131 55/45/131 64/77/131
f 55/45/131 130/138/131 64/77/131
f 59/49/132 10/10/133 9/9/133
f 59/49/132 9/9/133 57/47/132
f 132/139/134 58/48/134 60/50/134
f 131/140/135 133/141/135 134/142/135
f 135/143/136 79/69/136 78/68/136
f 79/69/137 135/143/137 136/144/137
f 137/145/138 138/146/138 139/147/138
f 107/108/139 106/107/139 140/148/139
f 115/117/140 140/148/140 106/107/140
f 128/136/141 18/18/141 141/149/141
f 88/82/142 87/81/142 142/150/142
f 142/150/143 143/151/143 88/82/143
f 142/150/144 144/152/144 143/151/144
f 142/150/145 145/153/145 144/152/145
f 144/152/146 146/154/146 143/151/146
f 145/153/147 147/155/147 144/152/147
f 144/152/148 148/156/148 146/154/148
f 99/95/149 140/148/149 93/157/149
f 93/157/150 95/94/150 99/95/150
f 99/95/151 107/108/151 140/148/151
f 149/158/152 121/129/152 124/132/152
f 149/158/153 105/101/153 121/129/153
f 149/158/154 102/98/154 105/101/154
f 150/159/155 151/160/155 149/158/155
f 150/159/156 152/161/156 151/160/156
f 151/160/157 153/162/157 149/158/157
f 150/159/156 128/136/158 152/161/156
f 150/159/159 23/23/159 128/136/159
f 128/136/160 141/149/160 152/161/160
f 23/23/161 22/22/161 128/136/161
f 155/163/162 156/164/162 157/165/162
f 157/165/163 154/166/163 155/163/163
f 154/166/164 158/167/164 155/163/164
f 158/167/165 159/168/165 155/163/165
f 137/145/166 160/169/166 136/144/166
f 137/145/167 139/147/168 160/169/169
f 136/144/170 135/143/170 137/145/170
f 135/143/171 157/170/171 137/145/171
f 135/143/172 133/141/172 157/170/172
f 133/141/173 154/171/173 157/170/173
f 133/141/174 131/140/174 154/171/174
f 135/143/175 78/68/175 133/141/175
f 78/68/176 80/70/176 133/141/176
f 155/163/177 163/172/177 164/173/177
f 155/163/178 159/168/178 163/172/178
f 4/4/179 134/142/179 5/5/179
f 4/4/180 131/140/180 134/142/180
f 164/173/181 165/174/182 166/175/183
f 164/173/181 163/172/184 165/174/182
f 167/176/185 147/155/185 166/175/185
f 167/176/186 144/152/186 147/155/186
f 80/70/187 5/5/187 134/142/187
f 134/142/188 133/141/188 80/70/188
f 164/173/189 156/164/189 155/163/189
f 164/173/190 166/175/190 145/153/190
f 166/175/191 147/155/191 145/153/191
f 168/177/192 87/81/192 102/98/192
f 168/177/193 142/150/193 87/81/193
f 102/98/194 149/158/194 168/177/194
f 149/158/195 153/162/195 168/177/195
f 168/177/196 153/162/196 151/160/196
f 50/105/197 96/103/197 94/178/197
f 94/178/198 47/179/198 50/105/198
f 170/180/199 138/181/199 137/182/199
f 137/182/200 169/183/200 170/180/200
f 169/183/201 152/161/201 170/180/201
f 169/183/202 151/160/202 152/161/202
f 46/118/203 47/179/203 93/157/203
f 93/157/204 115/117/204 46/118/204
f 47/179/205 94/178/205 93/157/205
f 93/157/206 140/148/206 115/117/206
f 18/18/207 171/184/207 138/181/207
f 138/181/208 141/149/208 18/18/208
f 18/18/209 17/17/209 171/184/209
f 138/181/210 170/180/210 141/149/210
f 170/180/211 152/161/211 141/149/211
f 139/147/212 171/185/212 172/186/212
f 139/147/213 138/146/213 171/185/213
f 172/186/214 160/169/169 139/147/168
f 171/185/215 17/187/215 126/188/215
f 126/188/216 172/186/216 171/185/216
f 124/132/217 173/189/217 149/158/217
f 173/189/217 150/159/217 149/158/217
f 294/190/218 295/191/218 293/192/218
f 294/190/219 291/193/219 295/191/219
f 295/191/220 290/194/220 296/195/220
f 295/191/221 291/193/221 290/194/221
f 295/191/222 296/195/222 292/196/222
f 292/196/223 297/197/223 295/191/223
usemtl 85fc032eaee04650914faeb8ddd6a71e_014.jpg
f 39/198/224 38/199/224 174/200/224
f 175/201/225 70/202/225 69/203/225
f 176/204/226 177/205/226 66/206/226
f 178/207/227 69/208/227 179/209/227
f 143/210/228 146/211/228 180/212/228
f 11/213/229 181/214/229 89/215/229
f 103/216/230 182/217/230 183/218/230
f 114/219/231 184/220/231 13/221/231
f 185/222/232 105/223/232 186/224/232
f 35/225/233 49/226/233 119/227/233
f 85/228/234 110/229/234 187/230/234
f 188/231/235 189/232/235 190/233/235
f 191/234/236 192/235/236 193/236/236
f 194/237/237 195/238/237 196/239/237
f 197/240/238 198/241/238 199/242/238
f 200/243/239 201/244/239 202/245/239
f 203/246/240 200/247/240 202/248/240
f 28/249/241 204/250/241 31/251/241
f 29/252/242 204/253/242 28/254/242
f 32/255/243 204/253/243 29/252/243
f 205/256/244 65/257/244 66/258/244
f 54/259/245 53/260/245 55/261/245
f 177/262/246 130/263/246 55/261/246
f 55/261/247 53/260/247 177/262/247
f 177/205/248 176/204/248 130/264/248
f 212/265/249 213/266/249 214/267/249
f 212/265/250 215/268/250 213/266/250
f 213/266/251 216/269/251 214/267/251
f 162/270/252 217/271/252 167/272/252
f 167/272/253 215/273/253 162/270/253
f 167/272/254 213/274/254 215/273/254
f 211/275/255 218/276/255 206/277/255
f 65/257/256 218/278/256 219/279/256
f 65/257/257 205/256/257 218/278/257
f 219/279/258 75/280/258 65/257/258
f 205/281/259 206/277/259 218/276/259
f 175/201/260 4/282/261 6/283/262
f 6/283/263 70/202/263 175/201/263
f 6/283/264 77/284/264 70/202/264
f 210/285/265 69/203/265 178/286/265
f 210/285/266 209/287/266 69/203/266
f 209/287/267 175/201/267 69/203/267
f 146/288/268 208/289/268 207/290/268
f 207/290/269 179/291/269 146/288/269
f 179/292/270 68/293/270 146/294/270
f 68/293/271 180/295/271 146/294/271
f 220/296/272 216/297/273 221/298/274
f 220/299/275 214/267/275 216/269/275
f 148/300/276 161/301/276 146/302/276
f 148/300/277 162/303/277 161/301/277
f 161/301/278 208/304/278 146/302/278
f 148/300/279 217/305/279 162/303/279
f 222/306/280 223/307/281 224/308/282
f 222/306/283 225/309/283 223/307/283
f 218/276/284 226/310/284 219/311/284
f 218/276/285 227/312/285 226/310/285
f 218/276/286 228/313/286 227/312/286
f 229/314/287 226/310/287 72/315/287
f 229/314/288 219/311/288 226/310/288
f 229/316/289 230/317/289 76/318/289
f 76/318/290 75/280/290 229/316/290
f 75/280/291 219/279/291 229/316/291
f 64/319/292 130/264/292 176/204/292
f 176/204/293 66/206/293 64/319/293
f 231/320/294 70/321/295 232/322/296
f 231/320/297 68/323/297 70/321/298
f 232/322/296 233/324/299 231/320/294
f 231/320/297 234/325/300 68/323/297
f 232/322/301 198/326/301 233/324/301
f 68/293/302 179/292/302 69/327/302
f 198/326/303 197/328/303 233/324/303
f 232/322/304 129/329/304 198/326/304
f 221/330/305 167/331/305 235/332/305
f 221/330/306 213/333/306 167/331/306
f 221/330/307 216/334/307 213/333/307
f 68/335/308 234/336/309 88/337/310
f 88/337/311 143/210/311 68/335/311
f 143/210/312 180/212/312 68/335/312
f 234/336/309 236/338/313 88/337/310
f 42/339/314 230/317/314 72/340/314
f 72/315/315 237/341/315 71/342/315
f 230/343/316 229/314/316 72/315/316
f 76/318/317 42/339/317 37/344/317
f 76/318/318 230/317/318 42/339/318
f 136/345/319 232/322/319 70/321/319
f 136/345/320 160/346/320 232/322/320
f 70/202/321 79/347/321 136/348/321
f 70/202/322 77/284/322 79/347/322
f 160/346/323 172/349/323 232/322/323
f 88/337/324 236/338/324 86/350/324
f 104/351/325 238/352/326 105/353/327
f 238/352/326 186/354/328 105/353/327
f 86/350/329 239/355/329 100/356/329
f 86/350/330 236/338/330 239/355/330
f 236/338/331 234/336/331 239/355/331
f 231/320/332 183/357/333 240/358/334
f 240/358/334 234/325/335 231/320/332
f 240/358/336 239/359/336 234/325/336
f 231/320/337 241/360/337 183/357/337
f 231/320/338 242/361/338 241/360/338
f 183/357/339 182/362/339 240/358/339
f 231/320/340 243/363/340 242/361/340
f 100/356/341 239/355/341 240/364/341
f 240/364/342 101/365/342 100/356/342
f 11/366/343 13/367/343 244/368/343
f 244/368/344 181/369/344 11/366/344
f 13/370/345 184/371/345 244/372/345
f 90/373/346 181/374/346 244/375/346
f 90/373/347 89/376/347 181/374/347
f 244/375/348 111/377/348 90/373/348
f 103/378/349 101/365/349 240/364/349
f 240/379/350 182/380/350 103/381/350
f 104/382/351 183/218/351 241/383/351
f 104/382/352 103/216/352 183/218/352
f 184/384/353 114/385/353 111/377/353
f 111/377/354 244/375/354 184/384/354
f 84/386/355 189/387/355 16/388/355
f 84/386/356 190/389/356 189/387/356
f 84/386/357 245/390/357 190/389/357
f 189/391/358 118/392/358 16/393/358
f 238/394/359 241/395/359 246/396/359
f 238/397/360 104/382/360 241/383/360
f 241/398/361 242/399/361 246/400/361
f 186/354/362 246/401/362 196/402/362
f 186/354/363 238/352/363 246/401/363
f 196/402/364 122/403/364 186/354/364
f 196/402/365 195/404/365 122/403/365
f 195/404/366 123/405/366 122/403/366
f 122/403/367 185/406/367 186/354/367
f 121/407/368 185/406/368 122/403/368
f 121/408/369 105/223/369 185/222/369
f 196/409/370 243/410/370 247/411/370
f 196/409/371 246/412/371 243/410/371
f 246/412/372 242/413/372 243/410/372
f 247/411/373 248/414/373 196/409/373
f 248/414/374 194/415/374 196/409/374
f 119/227/375 193/236/375 117/416/375
f 117/416/376 116/417/376 119/227/376
f 119/227/377 191/234/377 193/236/377
f 119/227/378 249/418/378 191/234/378
f 119/227/379 49/226/379 249/418/379
f 49/226/380 34/419/380 249/418/380
f 193/420/381 120/421/381 117/422/381
f 193/236/382 250/423/382 120/424/382
f 84/425/383 187/230/383 245/426/383
f 84/425/384 85/228/384 187/230/384
f 233/427/385 251/428/385 247/411/385
f 247/429/386 231/320/386 233/324/386
f 247/429/387 243/363/387 231/320/387
f 27/430/388 129/329/389 232/322/390
f 232/322/391 127/431/391 27/430/391
f 27/430/388 26/432/392 129/329/389
f 192/235/393 252/433/393 250/423/393
f 192/235/394 190/434/394 252/433/394
f 250/423/395 193/236/395 192/235/395
f 190/389/396 245/390/396 252/435/396
f 192/436/397 188/231/397 190/233/397
f 253/437/398 254/438/398 255/439/398
f 253/437/399 256/440/399 254/438/399
f 255/439/400 150/441/400 253/437/400
f 255/439/401 23/442/401 150/441/401
f 253/437/402 173/443/402 257/444/402
f 253/437/403 150/441/403 173/443/403
f 257/444/404 258/445/404 253/437/404
f 124/446/405 259/447/405 257/444/405
f 257/444/406 173/443/406 124/446/406
f 124/448/407 125/449/407 259/450/407
f 259/450/408 195/404/408 260/451/408
f 259/450/409 123/405/409 195/404/409
f 259/450/410 125/449/410 123/405/410
f 195/404/411 248/452/411 260/451/411
f 195/453/412 194/454/412 248/455/412
f 261/456/413 257/457/413 259/450/413
f 259/450/414 260/451/414 261/456/414
f 261/456/415 262/458/415 257/457/415
f 251/428/416 260/459/416 248/414/416
f 248/414/417 247/411/417 251/428/417
f 251/428/418 261/460/418 260/459/418
f 250/423/419 112/461/419 109/462/419
f 250/423/420 252/433/420 112/461/420
f 109/462/421 120/424/421 250/423/421
f 252/463/422 187/230/422 112/464/422
f 252/463/423 245/426/423 187/230/423
f 187/230/424 110/229/424 112/464/424
f 22/465/425 24/466/425 263/467/425
f 263/467/426 129/468/426 22/465/426
f 263/467/427 264/469/427 129/468/427
f 24/466/428 265/470/428 263/467/428
f 264/471/429 199/472/429 198/473/429
f 198/326/430 129/329/430 264/474/430
f 264/471/431 266/475/432 199/472/433
f 264/471/431 267/476/434 266/475/432
f 268/477/435 265/470/435 24/466/435
f 24/466/436 255/478/436 268/477/436
f 24/466/437 23/479/437 255/478/437
f 269/480/438 197/240/438 199/242/438
f 269/480/439 270/481/439 197/240/439
f 199/242/440 266/482/440 269/480/440
f 233/427/441 262/483/441 261/460/441
f 233/427/442 197/484/442 262/483/442
f 197/484/443 270/485/443 262/483/443
f 261/460/444 251/428/444 233/427/444
f 271/486/445 258/487/445 272/488/445
f 271/486/446 256/489/446 258/487/446
f 256/489/447 253/490/447 258/487/447
f 257/491/448 262/492/448 272/493/448
f 272/493/449 258/494/449 257/491/449
f 262/483/450 270/485/450 272/495/450
f 256/496/451 271/497/451 273/498/451
f 273/498/452 254/499/452 256/496/452
f 264/471/453 274/500/453 267/476/453
f 264/471/454 263/501/454 274/500/454
f 265/470/455 203/502/455 274/503/455
f 274/503/456 263/467/456 265/470/456
f 265/470/457 268/477/457 203/502/457
f 255/478/458 201/244/458 200/243/458
f 255/478/459 254/504/459 201/244/459
f 254/504/460 273/505/460 201/244/460
f 200/243/461 268/477/461 255/478/461
f 200/243/462 203/502/462 268/477/462
f 31/251/463 204/250/463 32/506/463
f 274/507/464 269/508/465 267/509/466
f 274/507/467 203/510/467 269/508/467
f 203/510/468 202/511/468 269/508/468
f 269/508/465 266/512/465 267/509/466
f 201/513/469 271/514/469 272/515/469
f 272/515/470 202/511/470 201/513/470
f 201/516/471 273/517/471 271/518/471
f 272/515/472 270/519/472 202/511/472
f 270/519/473 269/508/473 202/511/473
f 232/322/474 172/349/474 126/520/474
f 232/322/474 126/520/474 127/431/474
f 275/521/475 223/522/475 225/523/475
f 224/524/476 57/525/476 276/526/476
f 98/527/477 277/528/477 97/529/477
f 39/530/478 174/531/478 51/532/478
f 58/533/479 132/534/479 278/535/479
f 278/535/480 228/313/480 58/533/480
f 228/313/481 211/275/481 58/533/481
f 228/313/482 218/276/482 211/275/482
f 58/536/483 56/537/483 59/538/483
f 58/536/484 211/539/484 56/537/484
f 38/199/485 280/540/485 174/200/485
f 38/199/486 224/524/486 280/540/486
f 38/199/487 222/541/487 224/524/487
f 224/524/488 276/526/488 280/540/488
f 38/199/489 41/542/489 222/541/489
f 278/543/490 132/544/490 275/545/490
f 275/545/491 45/546/491 278/543/491
f 275/545/492 41/547/492 45/546/492
f 275/545/493 222/548/493 41/547/493
f 275/545/494 225/549/494 222/548/494
f 45/546/495 281/550/495 278/543/495
f 228/313/496 278/535/496 282/551/496
f 282/551/497 227/312/497 228/313/497
f 220/296/272 221/298/274 235/552/498
f 235/552/499 279/553/499 220/296/499
f 235/552/500 163/554/500 279/553/500
f 235/552/501 165/555/501 163/554/501
f 166/556/502 235/557/502 167/558/502
f 166/556/503 165/559/503 235/557/503
f 167/560/504 148/561/504 144/562/504
f 167/560/505 217/563/505 148/561/505
f 43/564/506 283/565/507 284/566/508
f 284/566/509 40/567/509 43/564/509
f 43/564/506 48/568/510 283/565/507
f 43/564/14 52/569/14 48/568/20
f 284/566/511 281/570/511 40/567/511
f 281/570/512 45/571/512 40/567/512
f 282/551/513 285/572/513 237/341/513
f 282/551/514 278/535/514 285/572/514
f 285/572/515 71/342/515 237/341/515
f 278/573/516 284/566/516 285/574/516
f 278/573/517 281/570/517 284/566/517
f 60/575/518 224/576/282 223/577/281
f 60/575/519 57/578/519 224/576/519
f 223/577/520 132/579/520 60/575/520
f 223/580/521 275/545/521 132/544/521
f 72/315/522 227/312/523 282/551/524
f 72/315/525 226/310/525 227/312/525
f 282/551/524 237/341/526 72/315/522
f 284/566/527 286/581/528 285/574/529
f 284/566/527 283/565/530 286/581/528
f 283/565/531 287/582/531 286/581/531
f 283/565/532 288/583/532 287/582/532
f 287/582/533 289/584/533 286/581/533
f 285/572/534 98/527/534 71/342/534
f 285/572/535 286/585/535 98/527/535
f 98/527/536 74/586/536 71/342/536
f 286/585/537 277/528/537 98/527/537
f 61/587/538 289/588/538 276/526/538
f 276/526/539 57/525/539 61/587/539
f 289/588/540 287/589/540 276/526/540
f 283/565/541 48/568/541 51/532/541
f 51/532/542 288/583/542 283/565/542
f 51/532/543 174/531/543 288/583/543
f 174/531/544 280/590/544 288/583/544
f 280/540/545 276/526/545 287/589/545
f 287/589/546 288/591/546 280/540/546
f 289/592/547 92/593/547 277/528/547
f 277/528/548 286/585/548 289/592/548
f 92/593/549 97/529/549 277/528/549
f 95/594/550 92/595/550 289/588/550
f 289/588/551 61/587/551 95/594/551
f 137/596/552 156/597/553 169/598/554
f 137/596/552 157/599/555 156/597/553
f 118/600/556 249/601/556 34/602/556
f 34/602/557 33/603/557 118/600/557
f 118/604/558 192/605/559 249/606/560
f 118/604/561 188/607/561 192/605/561
f 192/605/559 191/608/562 249/606/560
f 118/604/563 189/609/563 188/607/563
f 214/267/564 220/299/564 279/610/564
f 295/611/565 297/612/565 293/613/565
