####
#
# OBJ File Generated by Meshlab
#
####
# Object fan.obj
#
# Vertices: 464
# Faces: 881
#
####
mtllib ./fan.obj.mtl

vn -0.553025 0.716600 -0.005732
v 31.486797 -8.978176 0.469717
vn -0.956284 1.239137 -0.009912
v 31.486811 -8.977978 0.493228
vn -0.039069 -0.901107 1.418255
v 31.557234 -9.223710 0.000434
vn -0.410024 0.531303 -0.004250
v 31.463268 -8.996146 0.493230
vn -0.531502 -0.182585 2.009695
v 31.721861 -9.505841 -0.001209
vn -0.098036 -1.059205 1.715306
v 31.792397 -9.552868 -0.001912
vn 1.481162 -1.384987 4.003953
v 31.815924 -9.514748 0.022972
vn 1.758945 -1.270055 1.438516
v 31.826065 -9.529356 -0.002326
vn 3.619838 -0.030170 0.093476
v 31.886532 -9.223602 0.187569
vn 3.344757 -3.168829 -0.473541
v 31.886459 -9.225392 0.164057
vn 4.342224 0.755398 -0.934913
v 31.886526 -9.223590 0.161733
vn 3.093844 2.855108 4.359249
v 31.893024 -9.176654 0.023128
vn 1.369771 2.065116 0.828039
v 31.909929 -9.176602 -0.004965
vn 0.040351 0.048649 1.955807
v 31.933397 -8.870933 0.000082
vn -0.226201 3.172153 5.323104
v 32.074562 -9.223686 0.008774
vn 0.024435 -0.275382 4.730223
v 31.980513 -9.224874 0.022985
vn -1.354695 -1.568345 5.605514
v 32.051048 -9.247212 0.009173
vn 4.565258 2.309930 0.378194
v 32.042206 -9.176667 1.010506
vn 4.070955 -1.076970 -1.066791
v 32.022209 -9.176668 0.986993
vn 5.140047 -0.977918 2.350520
v 32.042103 -9.153150 0.986991
vn -0.414972 -1.934683 2.547480
v 32.051056 -9.270716 -0.005514
vn 2.107478 -1.826181 2.304146
v 31.884043 -9.270726 -0.003415
vn -0.760262 -1.415348 4.090317
v 31.745424 -9.247197 -0.002064
vn 0.305058 -2.564839 4.859262
v 31.956951 -9.247220 -0.004264
vn -0.129337 1.354161 3.022329
v 31.698353 -9.129626 -0.005507
vn -0.811110 0.793224 4.049743
v 31.792341 -9.106062 -0.003559
vn 0.066861 0.865654 1.340229
v 31.557261 -9.129566 0.001493
vn -0.261159 0.166497 2.751720
v 31.815908 -8.965019 -0.000235
vn -0.714111 2.576305 5.057612
v 31.768864 -9.129574 -0.002329
vn 0.093590 0.030006 2.605728
v 31.557285 -9.176661 0.031910
vn -0.561298 -0.846948 5.843025
v 31.698364 -9.200161 0.019284
vn -1.074117 -4.537180 3.648764
v 31.745392 -9.208916 0.022958
vn -2.048362 -1.908562 5.188442
v 31.721872 -9.200167 0.022979
vn -1.034531 -0.706750 5.396501
v 31.768442 -9.247202 0.002018
vn 2.011833 -2.272783 4.613459
v 31.862974 -9.270718 0.027841
vn 0.773128 2.075799 2.021850
v 31.933474 -9.176645 -0.006640
vn 0.180321 1.117136 1.732799
v 32.145061 -9.200147 -0.010354
vn 0.783724 -0.116321 1.403238
v 31.886404 -8.823918 0.002360
vn 0.551003 -0.092754 2.625664
v 31.886436 -8.847477 0.000389
vn 0.198087 -0.029400 0.354670
v 31.839439 -8.823982 0.028585
vn 0.595240 -4.506681 3.677723
v 31.862951 -9.251002 0.046497
vn -1.359563 -5.604440 2.290473
v 31.839439 -9.226380 0.070005
vn -2.994333 -4.820536 2.367765
v 31.804436 -9.223707 0.046494
vn 0.761809 3.027635 4.850650
v 31.792414 -9.153153 0.014682
vn 0.987872 4.652064 3.965995
v 31.839439 -9.153151 0.022986
vn 2.275314 -5.280134 -0.093180
v 31.851746 -9.223697 0.093519
vn -2.034795 -5.038735 0.710502
v 31.815929 -9.235393 0.234594
vn 0.790505 -6.056857 -0.707777
v 31.862951 -9.236279 0.234595
vn 3.820407 -4.449805 -0.390093
v 31.886463 -9.230434 0.258106
vn -2.291230 -5.548287 -0.670915
v 31.839439 -9.233318 0.258106
vn -1.106251 -4.189882 0.280072
v 31.839437 -9.253873 0.305132
vn 0.468169 5.407478 0.612750
v 31.839466 -9.188494 0.352158
vn 2.122004 0.633212 1.432564
v 31.899944 -9.223713 0.446209
vn 2.548258 5.384890 -0.137739
v 31.839478 -9.189564 0.258108
vn -0.302486 2.484550 1.923189
v 31.839481 -9.190192 0.446207
vn 2.858759 5.330909 0.433645
v 31.839479 -9.189823 0.211083
vn 1.585549 5.387680 1.062068
v 31.815903 -9.167080 0.140546
vn 4.972571 2.300141 1.333321
v 31.862946 -9.200186 0.081688
vn -0.017472 4.939933 -0.550727
v 31.815899 -9.166588 0.117034
vn 2.800541 5.198852 1.840091
v 31.839357 -9.176786 0.064516
vn -0.969306 5.181208 0.863280
v 31.815901 -9.166619 0.070009
vn 3.852191 2.951080 3.636245
v 31.869150 -9.200246 0.070005
vn -1.006385 5.392889 2.912667
v 31.815928 -9.155405 0.022984
vn 0.101147 -0.270992 0.695758
v 31.886457 -9.247203 0.461574
vn -0.640725 -6.159909 -0.517610
v 31.862955 -9.238841 0.375668
vn 2.421037 -3.025248 3.860878
v 31.862951 -9.223691 0.078268
vn 3.004392 -0.823433 3.980710
v 31.908241 -9.223690 0.046502
vn 1.064043 -0.629603 4.896358
v 31.956999 -9.223685 0.022987
vn -0.002740 -0.628394 4.713470
v 31.958319 -9.223685 0.022986
vn 5.056334 -1.207722 -1.109736
v 31.900736 -9.223689 0.751868
vn 0.489997 -5.271129 -0.578307
v 31.886459 -9.247209 0.775383
vn 1.146905 -5.570671 -0.381236
v 31.862953 -9.252396 0.728356
vn 5.282235 -2.248632 -2.324130
v 31.904757 -9.223691 0.775383
vn 0.600271 -2.889226 -3.098943
v 31.888058 -9.247205 0.775387
vn 2.801014 -1.104417 3.764454
v 31.886461 -9.223693 0.067672
vn 3.187413 4.496924 -2.312988
v 31.886459 -9.204169 0.751868
vn 3.172067 0.362751 -4.458829
v 31.909975 -9.200178 0.771381
vn 3.865622 -2.018195 -3.543831
v 31.909977 -9.204526 0.775375
vn 2.779242 -2.673004 -4.779489
v 31.916183 -9.200848 0.776928
vn -2.029124 2.942956 1.017759
v 31.909929 -8.953560 0.987001
vn 0.995401 2.171229 1.344358
v 31.933487 -8.955666 0.986995
vn 3.845446 2.746446 1.598004
v 31.945269 -8.965054 0.986992
vn -1.957066 -5.486662 -1.444110
v 31.980516 -9.332021 0.869431
vn 1.076734 -2.896908 -4.685300
v 31.957001 -9.294229 0.812087
vn 1.825011 -3.254737 -3.952336
v 32.004032 -9.317745 0.842107
vn -2.664203 -2.477525 -0.519163
v 31.921732 -9.317744 0.845917
vn -0.821456 -3.221753 -4.424882
v 31.933489 -9.294228 0.810650
vn -0.138627 -3.811124 -2.446913
v 32.004032 -9.345783 0.869433
vn 3.985109 -0.588466 -4.402981
v 32.004036 -9.226701 0.822381
vn 3.978189 -0.284107 -3.786082
v 32.036949 -9.270720 0.845887
vn -0.739094 -0.395966 3.346150
v 32.074566 -9.247187 0.028965
vn 0.032867 -0.627504 3.041997
v 32.168621 -9.247243 0.015899
vn -1.386572 1.875348 2.952629
v 31.957001 -9.082618 1.209154
vn 2.065958 3.125582 3.050727
v 32.004025 -9.082616 1.198604
vn 0.465903 4.822564 2.634501
v 31.980513 -9.064435 1.175092
vn -0.047343 -0.329537 0.621168
v 32.215637 -9.294225 -0.005442
vn -2.807099 -4.137897 -0.168330
v 31.980518 -9.381506 1.010506
vn -4.786438 -1.706779 0.996497
v 31.968971 -9.364764 1.010504
vn -3.727414 -4.794252 -0.429529
v 31.980499 -9.329166 0.916449
vn -0.555703 -5.132921 -1.547782
v 32.027542 -9.370514 0.916452
vn -5.142570 -0.614555 2.338425
v 31.980513 -9.364765 1.032259
vn -0.931704 -3.525343 -0.218041
v 32.004025 -9.395116 1.034020
vn -4.559882 -1.481949 1.689050
v 31.989185 -9.364766 1.057530
vn 3.234214 2.121437 4.403954
v 32.004025 -9.129640 1.203935
vn 0.069248 1.407428 4.398067
v 32.004028 -9.153151 1.228714
vn 2.722771 0.639840 2.350662
v 32.031517 -9.106128 1.198605
vn -1.408206 2.225124 -4.140700
v 31.957001 -9.106131 1.116452
vn -2.261856 -0.346966 -3.908445
v 31.956999 -9.082617 1.144874
vn -0.889276 1.346137 -4.572363
v 31.995926 -9.106124 1.128071
vn 1.554517 2.165675 -4.869762
v 32.004032 -9.129639 1.109188
vn -4.150429 2.514695 -1.057398
v 32.021851 -9.106130 1.104556
vn 1.095828 0.113343 -3.022583
v 32.027534 -9.082617 1.128067
vn 4.802009 0.800261 -1.567508
v 32.011864 -9.176668 0.822406
vn 5.165298 2.829368 -1.171069
v 32.022232 -9.200180 0.869430
vn 1.632169 -1.271676 -3.865564
v 31.993673 -9.200174 0.798912
vn 3.024056 -3.272333 -1.994107
v 32.051044 -9.364771 0.916455
vn 3.030360 -1.335447 -0.248917
v 32.077827 -9.388290 1.057525
vn 1.457173 -0.702853 1.555974
v 32.076797 -9.388296 1.081037
vn 2.705867 1.879823 -0.665108
v 32.010670 -9.059103 1.104557
vn 2.572931 2.232406 -0.861970
v 32.029129 -9.082617 1.128067
vn 0.387896 2.691080 4.261001
v 31.980515 -9.059105 1.168951
vn 5.282556 1.419586 0.464832
v 32.037903 -9.106130 1.151579
vn 5.167476 -0.239261 -1.894393
v 32.059612 -9.294234 0.892933
vn 4.645023 0.559999 -1.929437
v 32.054768 -9.270718 0.869426
vn 5.655175 1.081994 0.378782
v 32.036880 -9.223691 0.892942
vn 4.132293 0.568850 -0.343742
v 32.038918 -9.200181 0.916456
vn 5.606347 1.108711 -1.183807
v 32.065174 -9.294232 0.916449
vn 4.236535 -0.177779 0.992630
v 32.019196 -9.223697 0.916458
vn 3.922976 2.342589 -2.691178
v 32.051052 -9.242188 0.986993
vn 3.950057 -0.961584 -1.955832
v 32.064472 -9.223690 1.010507
vn 3.981219 1.343601 0.131428
v 32.017281 -9.223694 0.939970
vn 1.873244 -1.853523 1.507335
v 32.054825 -9.247205 0.986993
vn 0.982791 -1.005567 5.552816
v 32.027534 -9.200178 1.226885
vn 4.209050 -0.870461 2.748303
v 32.071583 -9.247204 1.198602
vn 3.105511 1.611082 4.280612
v 32.037563 -9.176665 1.222116
vn -1.067526 0.338507 5.604064
v 32.004025 -9.176667 1.229594
vn 5.174559 1.400287 2.262203
v 32.031776 -9.129644 1.175091
vn 4.898624 1.721706 0.832679
v 32.070656 -9.176666 1.175092
vn 3.426260 2.780802 -1.556133
v 32.051048 -9.140073 1.151579
vn 4.449478 2.430208 -1.468089
v 32.034382 -9.129640 1.151580
vn 4.716022 0.242917 -0.614742
v 32.074558 -9.200178 1.175092
vn 5.939862 -0.382436 -0.846534
v 32.082458 -9.341257 1.010503
vn 5.478624 1.774164 1.217613
v 32.059124 -9.270711 0.963484
vn 3.572609 2.594259 1.496637
v 32.081280 -9.317746 1.034014
vn 5.860481 1.057427 0.495670
v 32.081059 -9.341255 1.057528
vn 3.677869 -2.260770 2.945557
v 32.074562 -9.364767 1.088050
vn 4.604061 -1.082930 1.776906
v 32.078815 -9.341258 1.104557
vn 4.457037 0.415949 -3.641645
v 32.062160 -9.294230 1.081041
vn 3.179289 4.652235 -1.661938
v 32.051060 -9.309593 1.057529
vn 5.984247 1.076005 -0.180228
v 32.078114 -9.317742 1.128066
vn 3.114272 -0.274741 1.251444
v 32.077110 -9.294241 1.175096
vn -1.574159 -1.190563 4.696218
v 31.792408 -9.247207 0.006267
vn 2.529767 -0.609759 -5.617373
v 31.957001 -9.176667 0.787133
vn 0.097397 -3.141777 2.331917
v 31.864897 -9.251340 0.443745
vn -1.436291 -3.562971 0.231599
v 31.839439 -9.256224 0.422694
vn -1.929983 2.110612 1.573618
v 31.839436 -9.176665 1.017367
vn -0.475034 1.353932 0.599963
v 31.862951 -9.137821 1.034017
vn -1.825631 5.377067 1.764800
v 31.886459 -9.147221 1.010507
vn -4.105595 -3.159551 -2.086163
v 31.916878 -9.294235 0.822410
vn -2.541297 -3.473791 2.268955
v 31.933525 -9.317720 0.887272
vn 0.668083 1.610559 0.502505
v 31.956997 -9.189961 0.869430
vn -2.017576 5.014386 2.459225
v 31.956989 -9.162525 0.845922
vn 1.063100 5.363781 -2.222798
v 31.956985 -9.175074 0.892946
vn -0.697264 0.837245 4.592977
v 31.980513 -9.294225 1.027803
vn -5.004069 -3.223152 1.455574
v 31.949036 -9.294234 0.986991
vn 3.409493 1.899651 1.902384
v 31.973764 -9.059104 0.939968
vn 1.433787 2.472415 -1.080907
v 31.980497 -9.059105 1.046554
vn 0.523111 2.405541 1.701620
v 31.980515 -9.066831 0.939968
vn -0.605467 -0.275338 1.642854
v 31.063549 -8.612316 0.012823
vn -0.007232 -0.076602 1.132331
v 30.943537 -8.800454 -0.000671
vn -0.976265 -0.299759 1.950902
v 31.121956 -8.823952 -0.001121
vn -1.521137 -0.299816 1.043869
v 31.149984 -8.800466 0.046468
vn -1.295200 -0.431568 1.584981
v 31.117569 -8.635885 0.046502
vn -2.835752 4.067494 3.246541
v 31.792414 -9.176667 0.046496
vn 0.558131 3.535743 2.806376
v 31.792414 -9.168037 0.022984
vn -5.138414 -0.086563 1.181235
v 31.787819 -9.200178 0.070009
vn -1.670773 -1.873275 4.755621
v 31.768900 -9.200179 0.038524
vn -4.567812 -0.938953 -0.428376
v 31.786398 -9.200177 0.117034
vn -1.839484 3.326440 0.603936
v 31.792414 -9.166131 0.140546
vn -2.312494 -1.656255 0.204167
v 31.804157 -9.247196 0.751868
vn -2.708714 -0.014383 1.270186
v 31.804161 -9.223667 0.775388
vn -1.853910 4.778932 -0.523433
v 31.839432 -9.189718 0.728355
vn -4.680288 -0.868600 0.265182
v 31.820204 -9.223682 0.681331
vn -1.459774 4.502173 -0.163169
v 31.839441 -9.184172 0.751864
vn -0.363541 3.785759 -1.285509
v 31.839432 -9.188803 0.634305
vn -3.357491 -0.277319 -0.260835
v 31.804506 -9.223695 0.634306
vn -2.526318 0.910242 -2.201304
v 31.815926 -9.213247 0.610793
vn -1.189133 5.693508 -1.815092
v 31.909992 -9.171936 0.892937
vn -3.583562 4.368928 1.664511
v 31.933481 -9.163261 0.798896
vn -4.270628 1.607838 1.782186
v 31.869722 -9.200172 0.822419
vn -5.529714 0.855509 0.070367
v 31.880749 -9.200179 0.869439
vn -0.036032 4.883269 -1.527038
v 31.886454 -9.180979 0.775384
vn -2.734353 3.573005 3.543516
v 31.839436 -9.200172 0.782548
vn -4.415264 2.629992 2.373700
v 31.945868 -9.153161 0.822405
vn -0.865213 -0.651387 1.537678
v 31.815910 -9.223655 0.790474
vn -1.687581 -1.777232 -0.968237
v 31.820805 -9.200172 0.963481
vn -4.561295 -3.906415 -1.004387
v 31.885290 -9.223655 0.916444
vn -3.888856 -4.674016 -0.381662
v 31.909973 -9.251388 0.963477
vn -3.403302 -3.997822 1.553293
v 31.867142 -9.246218 1.034020
vn -5.422344 -0.757688 -2.234148
v 31.877851 -9.200180 0.892938
vn -2.530279 -4.081305 0.811888
v 31.886459 -9.264514 1.034014
vn -2.642198 0.957166 2.226154
v 31.828915 -9.200181 0.446208
vn -4.687097 -0.545202 2.959918
v 31.815926 -9.200179 0.337137
vn 1.717254 4.475391 0.908973
v 31.828245 -9.176668 0.328645
vn -2.688715 1.636222 -2.578979
v 31.837549 -9.176667 0.939969
vn -3.006219 3.916858 -3.324093
v 31.886461 -9.178628 0.892942
vn -1.658690 2.910061 -0.478680
v 31.839437 -9.161924 0.963480
vn -1.283349 0.761871 2.693959
v 31.839434 -9.200177 1.035436
vn -4.754790 3.288800 -0.886423
v 31.896669 -9.129639 0.963477
vn -2.027505 3.943254 -4.038534
v 31.909973 -9.153153 0.926320
vn -1.552378 2.658556 -3.619324
v 31.889074 -9.176669 0.892944
vn -2.419546 -1.944581 2.199223
v 31.843357 -9.223690 1.034027
vn -4.175778 3.213690 2.942188
v 31.909973 -9.135283 1.010508
vn -2.044993 -2.522502 4.539102
v 31.956999 -9.270716 1.077118
vn 0.072300 -4.528109 -0.543236
v 31.956997 -9.282469 1.057534
vn -1.826031 -3.385983 -3.370012
v 31.980513 -9.280210 1.081043
vn -3.728623 -4.581265 0.341533
v 31.887686 -9.247215 0.798898
vn -2.555542 -5.106053 2.055619
v 31.953478 -9.317750 0.892951
vn -3.611152 -4.822289 0.873702
v 31.957008 -9.317733 0.916454
vn -2.187491 -5.295012 0.288871
v 31.933481 -9.265778 1.010505
vn 2.634475 1.843978 -4.715444
v 31.980513 -9.153150 0.922688
vn 0.675842 5.423406 -0.944778
v 31.980511 -9.176658 0.892938
vn 0.799214 0.592517 1.319765
v 32.004028 -9.153161 0.885457
vn -0.261924 -3.462953 -5.012608
v 31.909975 -9.253515 0.798890
vn -0.644487 1.412957 -1.107893
v 31.933489 -9.141397 0.775380
vn -1.527646 2.795201 -4.115875
v 31.909975 -9.194170 0.775380
vn -0.415339 1.499200 -3.941325
v 31.909975 -9.176666 0.787802
vn 0.336484 1.996244 -0.712050
v 31.956999 -9.129641 0.789308
vn 0.239382 4.542910 0.969612
v 31.978237 -9.129640 0.822407
vn -0.018519 -0.128562 -0.107362
v 31.957001 -9.120054 0.798891
vn 4.118716 -2.609803 -0.459903
v 31.956997 -9.256671 1.034014
vn -2.250539 -0.594730 1.525588
v 31.728634 -9.200180 0.046494
vn -0.516705 1.129679 -1.653365
v 31.839434 -9.212935 0.587281
vn 0.120218 5.494361 -1.587044
v 31.839439 -9.213828 0.610790
vn -0.676008 4.033816 -1.489018
v 31.815928 -9.176667 0.316105
vn -0.319522 1.055386 1.547550
v 31.815926 -9.176667 0.340403
vn 3.389337 4.341640 -2.969714
v 31.862955 -9.210051 0.634304
vn 3.560498 4.078814 -0.417445
v 31.886454 -9.200189 0.682958
vn 1.808646 3.310245 -1.167980
v 31.886461 -9.201392 0.657820
vn -4.646873 -1.919350 -3.075722
v 31.924715 -9.012080 0.869431
vn -0.128741 -1.184856 -2.573875
v 31.909975 -8.988565 0.858653
vn 0.055298 3.406945 -4.173045
v 31.933491 -9.012078 0.860662
vn 1.960664 2.898211 -0.300847
v 31.957001 -8.936521 0.892943
vn -1.113216 1.001463 -0.664408
v 31.926100 -8.941542 0.869431
vn 0.183568 0.372736 0.786474
v 31.956995 -8.941542 0.922187
vn -1.392166 -4.598588 -3.335215
v 31.956999 -9.067742 1.128069
vn -3.546028 -1.028022 1.158103
v 31.928139 -9.059101 1.128071
vn -1.685999 -2.615197 -1.093063
v 31.933489 -9.067623 1.104555
vn -1.805757 -0.644780 -3.644139
v 31.933489 -9.082619 0.854953
vn -1.831916 3.776655 -1.926993
v 31.933479 -9.059105 0.869426
vn -1.437875 -3.413450 -0.682101
v 31.955591 -9.059102 0.845922
vn 5.262690 0.617604 -0.032643
v 31.956997 -8.988565 0.929808
vn 2.224373 2.013083 0.194888
v 31.953127 -8.965057 0.939968
vn -4.903943 -0.705114 3.454355
v 31.953451 -9.106128 1.198603
vn -2.291978 1.343337 0.485452
v 31.946445 -9.082617 1.198601
vn -4.472322 4.024352 1.240857
v 31.954493 -9.082617 1.175092
vn 3.788371 1.664507 -0.173804
v 32.017315 -9.059111 0.963482
vn 3.505375 -0.898064 0.545726
v 31.996330 -9.082617 0.963480
vn 5.821827 0.172357 1.121259
v 32.018749 -9.082618 0.939968
vn -2.666757 -1.918579 -0.072685
v 32.004025 -9.247204 1.168051
vn -5.731630 0.709383 -1.858704
v 31.993586 -9.270718 1.175098
vn -3.891438 -1.365302 2.941800
v 31.993744 -9.247204 1.198600
vn -4.568037 -1.117025 1.489746
v 32.004025 -9.264278 1.151578
vn -2.648878 2.158288 0.124190
v 32.004025 -9.304939 1.151577
vn -4.680175 1.146679 -2.283551
v 32.004025 -9.294228 1.162421
vn 1.645547 3.604374 4.369771
v 32.027534 -9.294223 1.004023
vn 1.597889 -2.505784 5.311436
v 32.027534 -9.247204 1.000892
vn 0.716792 0.932161 5.134830
v 32.004025 -9.270714 0.996158
vn 0.548994 2.304790 0.377595
v 32.004025 -9.136605 1.010505
vn -0.319404 5.601534 -0.979320
v 32.027534 -9.117215 1.010505
vn 3.362981 4.375865 2.175512
v 32.004028 -9.113180 0.986992
vn 4.113664 2.648586 -3.217192
v 32.027534 -9.161240 1.128066
vn 5.513404 -0.979689 0.799950
v 32.054886 -9.200178 1.128066
vn 1.914142 1.853411 -0.433027
v 32.062481 -9.176665 1.104553
vn 1.325013 -2.374905 3.648825
v 32.051048 -9.294238 1.198618
vn 5.627198 -0.776753 0.559871
v 32.061703 -9.270719 1.175092
vn -0.439248 3.107745 1.941136
v 31.768902 -9.137081 0.022981
vn -0.274900 2.482518 4.270196
v 31.768900 -9.153153 0.034740
vn -1.607685 -5.803509 -1.734753
v 31.839436 -9.247205 0.728355
vn 0.302740 -0.469865 -0.883339
v 31.862953 -9.247206 0.576623
vn -1.754014 -4.576554 -0.463878
v 31.830315 -9.247208 0.634306
vn -3.739793 -4.403187 0.733484
v 31.832769 -9.247204 0.305133
vn -3.451532 -4.108034 1.127661
v 31.815928 -9.235403 0.305133
vn -4.340777 -3.598806 2.150213
v 31.839428 -9.233785 0.328645
vn -4.947544 -3.149160 -1.339232
v 31.839434 -9.234000 0.399182
vn -3.744248 -1.890109 0.002458
v 31.830435 -9.247200 0.422693
vn -2.662230 -0.589550 2.320086
v 31.828876 -9.223690 0.446208
vn 3.431716 -0.710184 -0.749239
v 31.897717 -9.223693 0.657817
vn -0.493479 -5.807797 -1.144749
v 31.862949 -9.247204 0.681331
vn 1.434675 -4.848998 -1.839369
v 31.865236 -9.247204 0.681331
vn 5.224121 -1.672042 -0.152965
v 31.892727 -9.223696 0.681331
vn 3.926212 -0.614857 -0.013265
v 31.904440 -9.223692 0.728356
vn 2.461485 -0.181591 1.041000
v 31.956999 -8.967813 0.916454
vn -2.580608 -0.246358 -0.295364
v 31.928345 -8.965056 0.869430
vn -1.511329 -1.795600 -0.636774
v 31.896780 -8.988567 0.869430
vn 0.402791 -0.689081 -4.559493
v 31.933489 -8.965056 0.864286
vn -2.413817 1.344361 0.066740
v 31.899542 -8.965054 0.916476
vn 3.225777 1.408446 -5.175017
v 31.977873 -9.176669 0.798877
vn 0.199436 0.287617 -1.570195
v 31.956997 -9.035594 0.815719
vn 0.913675 -0.884195 -0.126433
v 31.980515 -9.067436 0.845915
vn -2.928476 -0.692984 -0.962728
v 31.923780 -9.035593 0.845918
vn 3.426286 -2.081671 -4.194757
v 31.963518 -9.082615 0.869434
vn -2.272059 -3.880220 0.251426
v 31.933489 -9.031996 0.869430
vn 0.612599 -0.701781 -4.620988
v 31.976303 -9.036777 0.869974
vn 2.992528 3.546422 -4.031211
v 31.944740 -9.012070 0.869430
vn 1.155183 0.287713 -2.060002
v 31.980511 -9.037036 0.869428
vn 5.278099 1.316610 -1.885032
v 31.956993 -8.996729 0.892946
vn 1.115057 0.814750 -1.198711
v 31.980505 -9.035598 0.869433
vn 2.532518 -0.147857 -2.303683
v 31.961685 -8.965055 0.869431
vn -0.901699 -1.722837 -0.574295
v 31.933489 -9.141397 1.151579
vn -4.503067 1.135496 3.125078
v 31.934584 -9.106129 1.170095
vn -3.723955 0.830552 0.028996
v 31.921732 -9.106129 1.151579
vn 0.245986 -0.633618 -1.004529
v 31.933489 -9.129641 1.139823
vn -4.387757 2.537114 -0.148542
v 31.944679 -9.082616 1.151578
vn -4.748962 0.804524 2.968057
v 31.938051 -9.106129 1.175092
vn -4.322060 0.719877 0.190672
v 31.933489 -9.035591 1.109935
vn -5.110905 -1.437380 1.538209
v 31.933489 -9.035592 1.081043
vn -1.906321 1.913490 1.722872
v 31.947100 -9.012080 1.128068
vn -4.016459 0.000883 1.328723
v 31.933491 -9.023343 1.081041
vn 0.320409 0.181711 -2.557729
v 32.004025 -9.059103 1.093810
vn 2.752990 -1.255974 -4.689475
v 31.980513 -9.035594 1.104550
vn -0.007482 2.595692 2.594324
v 31.980513 -9.008122 1.151578
vn 2.825489 0.377286 2.897817
v 32.004021 -9.035592 1.159017
vn 4.014160 0.101092 -2.003649
v 32.017269 -9.082618 0.916458
vn 3.364256 -3.338617 -4.045511
v 31.980515 -9.106129 0.906289
vn 3.107034 -0.652444 -2.919210
v 32.004028 -9.129648 0.947865
vn 3.624104 2.925122 -2.249877
v 32.020081 -9.129646 0.963475
vn 1.168516 -4.373433 -2.763669
v 31.956999 -9.117196 0.892941
vn -0.723773 -1.987624 -0.954667
v 31.933483 -9.117730 0.869430
vn 3.137893 3.579736 -0.881527
v 31.956999 -9.073438 0.869430
vn -0.311403 -0.938371 -6.167033
v 31.956999 -9.035592 0.872485
vn -1.433722 -1.150506 -5.767387
v 31.933489 -9.035592 0.871891
vn 0.754589 3.378505 1.772072
v 32.004028 -9.046426 1.057531
vn 3.252593 1.413961 1.704134
v 32.019585 -9.059105 1.057532
vn 2.089593 4.958994 -0.278743
v 32.004021 -9.056532 0.939969
vn 5.065684 3.425178 0.567107
v 31.977360 -9.035591 0.916454
vn 5.158906 2.987939 -0.136396
v 31.960669 -9.012075 0.939965
vn 4.276426 0.703475 0.318772
v 31.944117 -8.988567 0.986992
vn 5.059114 2.102121 1.292437
v 31.944361 -8.988567 1.010505
vn -4.392409 -1.694141 0.351521
v 31.969257 -9.176665 1.198603
vn -2.239666 -0.661233 1.073953
v 31.970922 -9.200176 1.222113
vn 1.808335 -5.070151 0.603620
v 31.957012 -9.045873 1.081044
vn 5.209933 -1.339209 -0.306206
v 31.969831 -9.035592 1.081043
vn 2.719557 2.793796 -0.047510
v 31.957012 -9.012080 1.081043
vn 0.927939 1.183408 -2.447862
v 31.980515 -9.005029 1.104554
vn -2.153657 1.580567 1.634712
v 31.933493 -9.012081 1.081039
vn 1.328596 0.302566 -1.250403
v 32.004025 -9.001907 1.104556
vn 4.444986 2.973506 -0.210971
v 31.974745 -9.012078 0.986992
vn 3.209905 4.262215 -0.170147
v 31.957001 -9.002521 0.986992
vn -1.123806 3.141154 1.552223
v 31.933491 -8.993015 1.057528
vn 0.225379 1.764343 1.879974
v 31.933491 -8.988570 1.052929
vn 3.767867 1.554961 -1.402240
v 32.010269 -9.153153 0.822406
vn -0.112724 0.757684 -5.519510
v 31.956999 -9.059104 0.876485
vn 4.397783 2.154081 1.853747
v 31.980501 -9.042853 1.057533
vn -0.096093 -2.520639 5.309829
v 31.957012 -9.059105 1.068907
vn -2.970475 3.340367 3.385611
v 32.004028 -9.312115 1.034021
vn -3.113581 -0.801556 1.004902
v 31.991268 -9.294234 1.175097
vn -0.349796 -4.654360 3.814948
v 32.004025 -9.349815 1.128069
vn -3.061815 -1.489951 1.672105
v 31.969860 -9.341252 1.128058
vn -3.702723 -4.361017 0.126181
v 31.980511 -9.352655 1.104558
vn -3.787479 -4.328769 2.195285
v 31.996809 -9.364766 1.104555
vn -1.176554 -4.297157 1.893828
v 32.004025 -9.371976 1.104553
vn 1.688918 -1.163625 1.106227
v 31.961645 -9.247202 1.010506
vn 2.842649 2.287724 4.205899
v 31.980513 -9.270713 1.004957
vn -0.283863 -3.125963 -4.542871
v 32.004025 -9.270711 1.066872
vn 4.094913 -2.021915 -1.475058
v 32.068707 -9.247204 1.057528
vn 0.740906 -3.746179 -1.158846
v 31.964119 -9.247214 1.034010
vn 0.842255 -0.549092 -5.874363
v 32.027531 -9.270707 1.066793
vn 3.875418 -1.892222 -3.231524
v 32.074558 -9.270703 1.076638
vn -1.951990 -2.474330 2.448417
v 31.980534 -9.210366 1.222115
vn -2.392365 -3.592144 3.576620
v 31.991194 -9.223692 1.198604
vn 0.982336 2.224700 2.813994
v 32.004036 -9.129642 1.083302
vn 0.426337 5.306161 0.195185
v 32.004025 -9.114262 1.057531
vn 3.378500 0.831409 3.152901
v 31.995403 -9.106130 1.057533
vn -2.513632 0.465661 5.471135
v 31.964266 -9.106126 1.057529
vn -0.252031 0.379530 5.397270
v 32.004025 -9.082617 1.068241
vn 4.861494 2.472765 0.105474
v 32.021877 -9.082617 1.057534
vn 0.536039 -4.796181 1.500903
v 32.004025 -9.097742 1.057533
vn 1.657529 3.086328 0.496380
v 32.027538 -9.098001 1.104556
vn 3.685849 0.129943 0.008912
v 32.019142 -9.035592 1.128065
vn 4.853027 0.813142 1.367863
v 31.997406 -9.106126 0.986993
vn 2.934680 4.824366 -2.544111
v 32.028362 -9.129644 0.972670
vn -0.681425 -4.612993 3.944507
v 32.051048 -9.376310 1.081041
vn -4.934699 -2.505997 -0.383602
v 31.992359 -9.364764 1.081041
vn -0.307511 3.502260 -3.639964
v 32.027534 -9.294229 1.057528
vn 0.616301 4.828748 2.902436
v 32.027534 -9.300510 1.010509
vn -4.221253 -1.333650 -4.268167
v 31.980513 -9.341253 1.093157
vn 2.361021 5.287603 1.897978
v 32.074554 -9.315280 1.034014
vn 5.173037 -2.329558 -1.425548
v 32.007687 -9.082618 1.034017
vn 3.404354 0.313269 -0.737188
v 32.051044 -9.153149 0.966738
vn 3.697304 3.740906 -1.538253
v 32.051048 -9.200176 1.023604
vn 3.473540 2.151268 -1.169140
v 32.072479 -9.200182 1.034019
vn 2.830220 4.503963 -2.296890
v 32.004025 -9.183992 0.916453
vn 4.547263 1.830972 1.481787
v 32.004025 -9.176668 0.836507
vn 3.139507 2.147835 -4.233402
v 32.004025 -9.153151 0.947491
vn 2.720846 -2.691452 4.122325
v 32.074562 -9.348461 1.104556
vn 4.482071 0.507383 2.393398
v 32.019279 -9.153155 1.010505
vn 4.209705 3.331711 1.036764
v 32.021278 -9.176668 1.034016
vn 4.532763 2.069153 0.638228
v 32.067410 -9.200176 1.081039
vn 4.451902 3.159722 -1.104265
v 32.020481 -9.176664 1.104554
vn 1.676513 3.191263 -0.450177
v 32.027534 -9.185101 1.104554
vn 4.890573 0.268030 -2.996719
v 32.061935 -9.176666 1.151578
vn 2.199265 0.883893 -2.277709
v 32.027527 -9.129643 1.146970
vn 1.716788 4.153898 -1.902521
v 32.004036 -9.134124 1.104554
vn 3.758084 2.357103 -0.016805
v 32.041264 -9.129642 0.986991
vn 4.550394 -0.281372 0.065103
v 32.034782 -9.106126 1.104554
vn 4.097196 -3.798258 -1.984285
v 32.027531 -9.115862 1.128065
vn 5.649700 -0.551750 -1.079303
v 32.034969 -9.106125 1.128066
vn 1.767409 3.555051 -2.407060
v 32.027534 -9.106129 1.043389
vn -4.883640 0.332304 -0.803406
v 32.014343 -9.106129 1.057531
vn 3.395353 1.698136 0.720673
v 32.051044 -9.252330 1.104553
vn 5.159594 -0.117490 1.348645
v 32.045330 -9.223690 1.128064
vn 1.827301 2.068709 1.406525
v 32.051048 -9.231851 1.128066
vn 4.077566 1.015602 -1.377321
v 32.064541 -9.247205 1.128066
vn 3.787859 2.744450 3.733206
v 32.074562 -9.270716 1.109918
vn 1.210088 0.366004 -0.126726
v 32.082584 -9.247203 1.151578
vn 1.215685 1.958525 -0.040102
v 32.051048 -9.256569 1.151578
vn 3.906838 -1.323613 -1.085544
v 32.043022 -9.200179 1.151578
vn 5.212605 -0.320571 -0.643904
v 32.074562 -9.247204 1.175092
vn 4.112070 1.603349 1.441939
v 32.060791 -9.294228 1.128066
vn 3.419349 1.050769 0.863158
v 32.084084 -9.270716 1.104553
vn -1.829217 2.999222 4.979216
v 31.745390 -9.176666 0.030547
vn 0.026002 -0.234294 1.438434
v 31.745392 -9.200182 0.061178
vn -0.236162 1.012955 0.011293
v 31.815928 -9.164911 0.258108
vn -4.748407 2.387760 -1.466742
v 31.811172 -9.200177 0.281619
vn -1.296376 -2.426931 5.094302
v 31.839437 -9.223694 0.785725
vn -3.799001 4.493367 1.085186
v 31.815926 -9.193159 0.187571
vn -0.272249 1.107345 0.007465
v 31.815928 -9.164910 0.211083
vn -2.652723 4.021037 2.212571
v 31.815928 -9.197424 0.234595
vn -1.568597 3.056886 5.084103
v 31.886461 -9.176668 1.044194
vn -4.698123 -2.160175 3.193295
v 31.926485 -9.082620 1.034039
vn -1.130761 -0.197343 0.060199
v 31.898216 -9.059099 1.057530
vn -5.599030 1.932069 1.080113
v 31.922516 -9.035589 1.057534
vn -5.222276 -1.688914 -2.407246
v 31.914747 -9.082616 0.892944
vn -0.091351 -3.661222 -4.765387
v 31.956997 -9.129643 0.916453
vn -5.058542 -2.360134 1.720949
v 31.986769 -9.247204 1.151577
vn -5.776523 -0.315006 -0.749730
v 31.893064 -9.012079 0.916463
vn -6.090413 0.162489 0.242861
v 31.901043 -9.106129 0.963476
vn -5.551064 0.447884 2.736126
v 31.919256 -9.106133 1.010523
vn -3.402203 -1.216208 -0.797692
v 31.895494 -8.988569 0.892968
vn -5.059208 1.319138 -1.341164
v 31.974850 -9.153158 1.104549
vn -5.566666 -0.481822 2.596390
v 31.984034 -9.270715 1.128065
vn -4.859370 -0.395702 1.851245
v 31.792408 -9.200183 0.156607
vn -3.681928 -0.936873 1.068179
v 31.800669 -9.223686 0.234594
vn -2.573171 1.185421 0.364282
v 31.779291 -9.176675 0.140546
vn -2.980249 4.393332 3.193793
v 31.815926 -9.176665 0.157811
vn -3.177247 -3.528841 3.381505
v 31.862978 -9.228763 0.798887
vn -4.623310 -3.330066 0.649057
v 31.820759 -9.223691 0.258108
vn -2.150784 -1.072315 1.274346
v 31.800070 -9.223690 0.305131
vn -4.007858 0.576765 -0.139095
v 31.796131 -9.200178 0.305133
vn -4.298882 2.702275 2.561237
v 31.812382 -9.200179 0.234595
vn -5.279014 0.208083 -3.104738
v 31.907785 -9.129641 0.939966
vn -2.042036 -2.491507 -5.088986
v 31.933489 -9.129641 0.920581
vn -2.186806 0.758519 5.544601
v 31.933487 -9.200175 1.075403
vn -4.115808 1.461802 4.291873
v 31.957005 -9.176665 1.081038
vn -2.840607 2.889160 4.644366
v 31.926880 -9.176663 1.057534
vn -3.874005 -0.740654 3.436331
v 31.973604 -9.270717 1.081054
vn -4.975292 -0.849501 -3.197413
v 31.909985 -9.059104 0.891721
vn -0.848945 3.850585 -2.779185
v 31.933489 -9.059104 0.872240
vn -4.511371 0.110235 4.155257
v 31.935127 -9.106129 1.034015
vn -3.523706 0.885926 -3.609523
v 31.933493 -9.106127 1.136031
vn -5.068102 -3.020416 -1.129690
v 31.966965 -9.153154 1.175092
vn -3.944892 -1.359712 -0.990364
v 31.966803 -9.341253 1.104554
vn -5.587209 2.045075 1.345333
v 31.980515 -9.317741 1.128065
# 464 vertices, 0 vertices normals


usemtl material_0
vt 0.866492 0.380681
vt 0.866446 0.376297
vt 0.862625 0.376434
f 4/1/4 2/2/2 1/3/1

usemtl material_1
vt 0.135255 0.593108
vt 0.128314 0.605033
vt 0.134739 0.608458
f 5/4/5 6/5/6 7/6/7
vt 0.760938 0.151611
vt 0.758545 0.146556
vt 0.763176 0.144604
f 6/7/6 8/8/8 7/9/7
vt 0.971333 0.732366
vt 0.971700 0.736115
vt 0.971569 0.736531
f 9/10/9 10/11/10 11/12/11
vt 0.758545 0.167687
vt 0.763834 0.168395
vt 0.758545 0.218018
f 12/13/12 13/14/13 14/15/14
vt 0.184587 0.647603
vt 0.183462 0.632325
vt 0.180532 0.644016
f 15/16/15 16/17/16 17/18/17
vt 0.942483 0.351150
vt 0.946899 0.353306
vt 0.947197 0.349169
f 18/19/18 19/20/19 20/21/20
vt 0.176714 0.644262
vt 0.179599 0.628740
vt 0.175058 0.617128
f 21/22/21 24/23/24 22/24/22
vt 0.196141 0.585565
vt 0.196848 0.597017
vt 0.200901 0.600598
f 25/25/25 29/26/29 26/27/26
vt 0.179458 0.563567
vt 0.177507 0.594374
vt 0.184682 0.586247
f 3/28/3 23/29/23 31/30/31
vt 0.187102 0.563085
f 31/30/31 30/31/30 3/28/3
vt 0.183726 0.593971
f 23/29/23 32/32/32 31/30/31
vt 0.184914 0.590063
f 32/32/32 33/33/33 31/30/31
vt 0.177734 0.598110
f 23/29/23 34/34/34 32/32/32
vt 0.174850 0.613681
f 5/4/5 7/6/7 35/35/35
f 35/35/35 23/29/23 5/4/5
vt 0.736262 0.013784
vt 0.732863 0.017311
vt 0.737037 0.022705
f 41/36/41 42/37/42 43/38/43
vt 0.193251 0.601063
vt 0.193717 0.608697
f 26/27/26 44/39/44 45/40/45
f 26/27/26 29/26/29 44/39/44
vt 0.728949 0.015477
vt 0.717154 0.010518
f 43/38/43 46/41/46 10/42/10
vt 0.706309 0.022705
f 10/42/10 47/43/47 43/38/43
vt 0.705849 0.015132
f 10/42/10 48/44/48 47/43/47
vt 0.713351 0.010676
f 10/42/10 9/45/9 48/44/48
f 43/38/43 42/37/42 46/41/46
vt 0.701852 0.011430
f 9/45/9 49/46/49 48/44/48
vt 0.702282 0.019074
f 48/44/48 50/47/50 47/43/47
vt 0.190430 0.617635
vt 0.240497 0.621183
vt 0.224048 0.603028
f 12/48/12 14/49/14 28/50/28
f 28/50/28 26/27/26 12/48/12
vt 0.243842 0.613321
f 14/49/14 39/51/39 28/50/28
vt 0.247669 0.613080
vt 0.247193 0.605431
f 39/51/39 38/52/38 40/53/40
vt 0.758545 0.103439
vt 0.764628 0.104215
f 7/9/7 22/54/22 35/55/35
f 7/9/7 8/8/8 22/54/22
vt 0.694492 0.019877
f 51/56/51 50/47/50 48/44/48
vt 0.960289 0.706445
vt 0.970777 0.690726
f 52/57/52 53/58/53 9/10/9
vt 0.961254 0.721579
f 9/10/9 54/59/54 52/57/52
vt 0.959576 0.691248
f 52/57/52 55/60/55 53/58/53
vt 0.961711 0.729153
f 9/10/9 56/61/56 54/59/54
f 9/10/9 11/12/11 56/61/56
vt 0.957129 0.740941
f 11/12/11 57/62/57 56/61/56
vt 0.967015 0.749866
f 11/12/11 58/63/58 57/62/57
vt 0.957301 0.744742
f 58/63/58 59/64/59 57/62/57
vt 0.961880 0.753067
f 58/63/58 60/65/60 59/64/59
vt 0.957738 0.752321
f 60/65/60 61/66/61 59/64/59
vt 0.967970 0.751771
f 58/63/58 62/67/62 60/65/60
vt 0.957172 0.760151
f 63/68/63 61/66/61 60/65/60
vt 0.960161 0.760289
f 60/65/60 45/69/45 63/68/63
vt 0.668701 0.013516
vt 0.682934 0.016404
f 49/46/49 64/70/64 65/71/65
f 65/71/65 51/56/51 49/46/49
f 51/56/51 48/44/48 49/46/49
vt 0.731316 0.013536
f 66/72/66 46/41/46 42/37/42
vt 0.975587 0.755183
vt 0.975293 0.764893
vt 0.969532 0.759943
f 67/73/67 36/74/36 12/75/12
vt 0.182939 0.620555
vt 0.183423 0.628493
vt 0.190832 0.624229
f 67/76/67 68/77/68 36/78/36
f 12/75/12 62/67/62 67/73/67
f 12/75/12 60/65/60 62/67/62
f 12/75/12 45/69/45 60/65/60
vt 0.972079 0.764535
f 36/74/36 13/79/13 12/75/12
vt 0.183436 0.628708
f 24/23/24 69/80/69 68/77/68
vt 0.982292 0.379008
vt 0.978572 0.381491
vt 0.985896 0.385986
f 70/81/70 71/82/71 72/83/72
vt 0.978980 0.377409
f 70/81/70 73/84/73 71/82/71
vt 0.978461 0.381434
f 73/84/73 74/85/74 71/82/71
vt 0.972437 0.751689
f 75/86/75 67/73/67 62/67/62
vt 0.984668 0.376649
vt 0.980808 0.374034
f 70/81/70 76/87/76 77/88/77
f 77/88/77 73/84/73 70/81/70
vt 0.979983 0.374422
f 77/88/77 78/89/78 73/84/73
vt 0.979615 0.373571
f 77/88/77 79/90/79 78/89/78
vt 0.853717 0.055917
vt 0.862245 0.048000
vt 0.852589 0.049888
f 83/91/83 84/92/84 85/93/85
vt 0.864243 0.056089
f 83/91/83 86/94/86 84/92/84
vt 0.865719 0.049409
f 86/94/86 87/95/87 84/92/84
vt 0.849649 0.054778
f 85/93/85 88/96/88 83/91/83
vt 0.965836 0.371472
vt 0.965613 0.383636
f 89/97/89 84/98/84 78/89/78
vt 0.957396 0.375310
f 89/97/89 90/99/90 84/98/84
vt 0.956814 0.383577
f 90/99/90 85/100/85 84/98/84
vt 0.189110 0.658839
f 36/78/36 15/16/15 37/101/37
f 36/78/36 16/17/16 15/16/15
vt 0.180769 0.647821
f 15/16/15 91/102/91 37/101/37
vt 0.181692 0.663112
f 91/102/91 92/103/92 37/101/37
f 36/78/36 69/80/69 16/17/16
f 36/78/36 68/77/68 69/80/69
vt 0.343059 0.185499
vt 0.336487 0.187558
vt 0.336547 0.182162
f 93/104/93 94/105/94 95/106/95
vt 0.174526 0.671232
f 21/22/21 96/107/96 92/103/92
f 17/18/17 16/17/16 21/22/21
vt 0.843212 0.077864
vt 0.845698 0.078078
vt 0.851166 0.062564
f 97/108/97 98/109/98 99/110/99
vt 0.842353 0.060762
f 99/110/99 100/111/100 97/108/97
f 99/110/99 88/96/88 100/111/100
f 99/110/99 83/91/83 88/96/88
vt 0.842787 0.080406
vt 0.837807 0.080093
vt 0.840089 0.083435
f 101/112/101 102/113/102 103/114/103
f 101/112/101 97/108/97 102/113/102
f 101/112/101 98/109/98 97/108/97
vt 0.336793 0.194364
f 93/104/93 104/115/104 94/105/94
vt 0.339518 0.199202
f 93/104/93 105/116/105 104/115/104
vt 0.333205 0.192392
f 104/115/104 106/117/106 94/105/94
vt 0.888501 0.184796
vt 0.887451 0.190674
vt 0.894312 0.187090
f 107/118/107 108/119/108 109/120/109
vt 0.896334 0.182471
f 109/120/109 110/121/110 107/118/107
vt 0.899225 0.185187
f 109/120/109 111/122/111 110/121/110
vt 0.899244 0.190674
f 109/120/109 112/123/112 111/122/111
vt 0.968851 0.363874
vt 0.960394 0.364038
f 89/97/89 113/124/113 114/125/114
vt 0.971468 0.369406
f 89/97/89 115/126/115 113/124/113
vt 0.839244 0.058950
vt 0.826149 0.078159
f 97/108/97 116/127/116 117/128/117
f 97/108/97 100/111/100 116/127/116
f 117/128/117 102/113/102 97/108/97
vt 0.325430 0.184444
vt 0.335868 0.181032
f 95/106/95 120/129/120 121/130/121
vt 0.327010 0.189712
f 95/106/95 122/131/122 120/129/120
vt 0.324951 0.178611
f 120/129/120 119/132/119 121/130/121
f 122/131/122 94/105/94 106/117/106
f 122/131/122 95/106/95 94/105/94
vt 0.951294 0.385986
vt 0.948085 0.375044
vt 0.940625 0.384210
f 88/133/88 123/134/123 116/135/116
f 88/133/88 85/100/85 123/134/123
f 85/100/85 90/99/90 123/134/123
f 116/127/116 100/111/100 88/96/88
vt 0.953126 0.373228
f 90/99/90 124/136/124 123/134/123
vt 0.954674 0.365510
f 90/99/90 114/125/114 125/137/125
f 90/99/90 89/97/89 114/125/114
f 125/137/125 124/136/124 90/99/90
vt 0.953172 0.360539
f 114/125/114 126/138/126 125/137/125
f 125/137/125 123/134/123 124/136/124
vt 0.944667 0.373391
vt 0.952863 0.364670
f 127/139/127 123/134/123 128/140/128
vt 0.940243 0.361891
f 128/140/128 129/141/129 127/139/127
vt 0.937597 0.357257
f 129/141/129 19/20/19 130/142/130
vt 0.949961 0.363278
f 129/141/129 131/143/131 19/20/19
f 19/20/19 18/19/18 130/142/130
vt 0.939625 0.362494
f 130/142/130 132/144/132 129/141/129
vt 0.336320 0.206916
vt 0.327711 0.214111
vt 0.334782 0.203961
f 133/145/133 134/146/134 135/147/135
vt 0.339465 0.202490
f 135/147/135 136/148/136 133/145/133
f 135/147/135 105/116/105 136/148/136
vt 0.330285 0.194112
vt 0.325552 0.202840
f 137/149/137 135/147/135 138/150/138
f 137/149/137 104/115/104 135/147/135
vt 0.325290 0.195143
f 138/150/138 139/151/139 137/149/137
f 104/115/104 105/116/105 135/147/135
vt 0.327254 0.192737
f 139/151/139 140/152/140 137/149/137
vt 0.324951 0.206298
f 135/147/135 141/153/141 138/150/138
f 135/147/135 134/146/134 141/153/141
vt 0.927990 0.373840
f 116/135/116 127/139/127 142/154/142
vt 0.918898 0.377970
f 142/154/142 117/155/117 116/135/116
f 116/135/116 123/134/123 127/139/127
vt 0.940690 0.367243
vt 0.926711 0.368981
f 142/154/142 143/156/143 144/157/144
f 142/154/142 127/139/127 143/156/143
f 127/139/127 129/141/129 143/156/143
vt 0.922020 0.370972
vt 0.916858 0.372748
f 117/155/117 145/158/145 146/159/146
f 117/155/117 142/154/142 145/158/145
f 142/154/142 144/157/144 145/158/145
vt 0.916107 0.368134
f 145/158/145 147/160/147 146/159/146
vt 0.915935 0.376549
f 146/159/146 118/161/118 117/155/117
vt 0.923638 0.363290
f 145/158/145 148/162/148 147/160/147
vt 0.926346 0.367384
f 145/158/145 149/163/149 148/162/148
vt 0.914795 0.363259
f 148/162/148 150/164/150 147/160/147
vt 0.985787 0.033361
vt 0.977295 0.034424
vt 0.991095 0.034424
f 150/165/150 151/166/151 147/167/147
vt 0.177971 0.602001
f 35/35/35 152/168/152 34/34/34
f 35/35/35 34/34/34 23/29/23
f 78/89/78 79/90/79 89/97/89
vt 0.977196 0.367975
f 79/90/79 153/169/153 89/97/89
vt 0.671770 0.016920
f 64/70/64 154/170/154 65/71/65
vt 0.675394 0.020940
f 154/170/154 155/171/155 65/71/65
vt 0.832734 0.320691
vt 0.836366 0.315474
vt 0.832960 0.311829
f 156/172/156 157/173/157 158/174/158
vt 0.867442 0.052237
vt 0.860174 0.061210
f 159/175/159 86/94/86 160/176/160
vt 0.811210 0.299986
vt 0.807752 0.298001
vt 0.815173 0.299766
f 161/177/161 162/178/162 163/179/163
vt 0.846499 0.077328
vt 0.853376 0.073637
f 164/180/164 165/181/165 98/109/98
vt 0.900847 0.224163
vt 0.883545 0.225830
vt 0.900938 0.225830
f 166/182/166 167/183/167 168/184/168
vt 0.701327 0.283630
vt 0.711082 0.256152
vt 0.675433 0.258066
f 170/185/170 171/186/171 169/187/169
vt 0.873724 0.618694
vt 0.865608 0.616871
vt 0.867525 0.630916
f 171/188/171 172/189/172 173/190/173
vt 0.680226 0.250624
f 173/191/173 169/187/169 171/186/171
vt 0.955667 0.755798
vt 0.955113 0.759781
f 174/192/174 63/68/63 175/193/175
f 174/192/174 61/66/61 63/68/63
vt 0.956930 0.751467
f 174/192/174 176/194/176 61/66/61
vt 0.954654 0.756471
f 174/192/174 177/195/177 176/194/176
vt 0.956303 0.743882
f 176/194/176 178/196/178 59/64/59
f 59/64/59 61/66/61 176/194/176
vt 0.953857 0.740875
f 179/197/179 59/64/59 178/196/178
f 179/197/179 57/62/57 59/64/59
vt 0.788419 0.323486
vt 0.792485 0.322812
vt 0.786053 0.314558
f 180/198/180 181/199/181 182/200/182
vt 0.777678 0.318151
f 182/200/182 183/201/183 180/198/180
vt 0.789903 0.314821
f 181/199/181 184/202/184 182/200/182
vt 0.770923 0.312292
f 182/200/182 185/203/185 183/201/183
vt 0.769781 0.319434
f 185/203/185 186/204/186 183/201/183
vt 0.766357 0.316595
f 187/205/187 186/204/186 185/203/185
vt 0.814230 0.306761
vt 0.799683 0.300512
f 188/206/188 162/178/162 189/207/189
vt 0.801702 0.312707
f 189/207/189 190/208/190 188/206/188
vt 0.809501 0.312136
f 190/208/190 191/209/191 188/206/188
vt 0.794707 0.308047
f 189/207/189 192/210/192 190/208/190
f 188/206/188 163/179/163 162/178/162
vt 0.794652 0.316381
f 192/210/192 193/211/193 190/208/190
vt 0.803846 0.298652
f 162/178/162 194/212/194 189/207/189
f 192/210/192 184/202/184 193/211/193
f 184/202/184 181/199/181 193/211/193
vt 0.795159 0.321377
f 181/199/181 195/213/195 193/211/193
vt 0.953857 0.761451
f 63/68/63 45/69/45 44/214/44
vt 0.877830 0.075822
vt 0.870071 0.065456
vt 0.862457 0.071466
f 196/215/196 197/216/197 198/217/198
vt 0.864850 0.084349
f 198/217/198 199/218/199 196/215/196
vt 0.873641 0.061784
f 196/215/196 200/219/200 197/216/197
vt 0.861167 0.083653
f 198/217/198 201/220/201 199/218/199
vt 0.959036 0.690985
f 202/221/202 55/60/55 52/57/52
vt 0.958279 0.708516
f 52/57/52 203/222/203 202/221/202
vt 0.957926 0.710456
f 52/57/52 204/223/204 203/222/203
vt 0.877914 0.070486
f 205/224/205 200/219/200 196/215/196
vt 0.820234 0.319154
vt 0.813660 0.310696
vt 0.813224 0.313132
f 205/225/205 206/226/206 200/227/200
vt 0.825811 0.308247
vt 0.819827 0.306571
f 205/225/205 209/228/209 210/229/210
vt 0.824234 0.318651
f 205/225/205 207/230/207 209/228/209
f 210/229/210 206/226/206 205/225/205
vt 0.813738 0.310195
f 210/229/210 211/231/211 206/226/206
vt 0.869385 0.085205
f 196/215/196 199/218/199 212/232/212
f 207/230/207 158/174/158 209/228/209
f 207/230/207 156/172/156 158/174/158
vt 0.833592 0.307624
f 158/174/158 213/233/213 209/228/209
vt 0.790646 0.308702
f 76/234/76 182/200/182 184/202/184
vt 0.848219 0.085205
vt 0.848764 0.082802
f 214/235/214 201/220/201 215/236/215
vt 0.844136 0.084481
f 215/236/215 216/237/216 214/235/214
vt 0.874568 0.058214
f 159/175/159 197/216/197 191/238/191
f 159/175/159 160/176/160 197/216/197
vt 0.875303 0.049245
f 191/238/191 217/239/217 159/175/159
vt 0.856970 0.060655
f 160/176/160 218/240/218 197/216/197
vt 0.878853 0.052226
f 191/238/191 190/241/190 217/239/217
f 197/216/197 200/219/200 191/238/191
vt 0.855115 0.063783
f 198/217/198 218/240/218 219/242/219
f 198/217/198 197/216/197 218/240/218
f 219/242/219 165/181/165 198/217/198
vt 0.855667 0.077094
f 165/181/165 220/243/220 198/217/198
f 191/209/191 206/226/206 188/206/188
f 191/209/191 200/227/200 206/226/206
f 206/226/206 211/231/211 188/206/188
f 210/229/210 163/179/163 188/206/188
vt 0.820712 0.295738
f 210/229/210 221/244/221 163/179/163
vt 0.815643 0.296264
f 221/244/221 222/245/222 163/179/163
f 188/206/188 211/231/211 210/229/210
f 222/245/222 161/177/161 163/179/163
vt 0.815208 0.291278
f 222/245/222 223/246/223 161/177/161
vt 0.871781 0.047930
f 159/175/159 224/247/224 87/95/87
f 159/175/159 217/239/217 224/247/224
f 87/95/87 86/94/86 159/175/159
f 220/243/220 215/236/215 201/220/201
f 201/220/201 198/217/198 220/243/220
f 83/91/83 218/240/218 160/176/160
f 160/176/160 86/94/86 83/91/83
f 83/91/83 99/110/99 218/240/218
f 99/110/99 219/242/219 218/240/218
vt 0.796158 0.298815
vt 0.795040 0.305152
vt 0.797248 0.304531
f 225/248/225 226/249/226 227/250/227
vt 0.794325 0.305371
f 225/248/225 77/251/77 226/249/226
vt 0.799030 0.294948
f 189/207/189 228/252/228 225/248/225
f 189/207/189 194/212/194 228/252/228
vt 0.804801 0.292493
f 194/212/194 229/253/229 228/252/228
vt 0.800687 0.294674
f 229/253/229 230/254/230 228/252/228
f 225/248/225 227/250/227 189/207/189
f 162/178/162 223/246/223 229/253/229
f 162/178/162 161/177/161 223/246/223
f 229/253/229 194/212/194 162/178/162
f 165/181/165 219/242/219 99/110/99
f 99/110/99 98/109/98 165/181/165
vt 0.851376 0.078537
f 220/243/220 164/180/164 231/255/231
f 220/243/220 165/181/165 164/180/164

usemtl material_2
vt 0.997832 0.882080
vt 0.995460 0.878882
vt 0.992920 0.882080
f 232/256/232 33/257/33 32/258/32
vt 0.567536 0.964087
vt 0.564457 0.960706
vt 0.563808 0.963875
f 233/259/233 187/260/187 234/261/234
vt 0.744264 0.862549
vt 0.746167 0.860411
vt 0.742920 0.861299
f 204/262/204 235/263/235 236/264/236
vt 0.094483 0.132080
vt 0.094482 0.123140
vt 0.096324 0.126799
f 237/265/237 238/266/238 239/267/239
vt 0.116646 0.929666
vt 0.119166 0.926052
vt 0.116369 0.928739
f 240/268/240 241/269/241 242/270/242
vt 0.737848 0.936768
vt 0.742357 0.932339
vt 0.733219 0.936251
f 243/271/243 244/272/244 245/273/245
vt 0.124058 0.971924
vt 0.124602 0.970249
vt 0.122107 0.967583
f 246/274/246 247/275/247 248/276/248
vt 0.105462 0.932328
vt 0.109822 0.932954
vt 0.109043 0.930415
f 249/277/249 250/278/250 251/279/251
vt 0.184206 0.948945
vt 0.187835 0.950397
vt 0.188754 0.949170
f 254/280/254 255/281/255 256/282/256
vt 0.527891 0.912896
vt 0.527893 0.917840
vt 0.531582 0.916269
f 257/283/257 258/284/258 259/285/259
vt 0.079812 0.800926
vt 0.083360 0.800085
vt 0.079592 0.796202
f 260/286/260 261/287/261 262/288/262
vt 0.082551 0.803647
vt 0.089101 0.803794
vt 0.087382 0.802005
f 263/289/263 264/290/264 265/291/265
vt 0.169322 0.126260
vt 0.167596 0.133241
vt 0.172180 0.130265
f 266/292/266 267/293/267 268/294/268
vt 0.870679 0.882080
vt 0.872011 0.877309
vt 0.867920 0.878975
f 269/295/269 270/296/270 271/297/271
vt 0.699951 0.999268
vt 0.705108 0.996160
vt 0.700748 0.993426
f 104/298/104 137/299/137 106/300/106
vt 0.442139 0.827393
vt 0.449884 0.827393
vt 0.447462 0.822397
f 272/301/272 273/302/273 274/303/274
vt 0.785889 0.819580
vt 0.790891 0.819580
vt 0.788778 0.815002
f 17/304/17 91/305/91 15/306/15
vt 0.130683 0.737549
vt 0.130913 0.733129
vt 0.126672 0.734634
f 275/307/275 151/308/151 276/309/276
vt 0.821045 0.964205
vt 0.831352 0.968977
vt 0.830379 0.964715
f 43/310/43 35/311/35 41/312/41
vt 0.821125 0.971924
f 43/310/43 152/313/152 35/311/35
vt 0.920018 0.918432
vt 0.910889 0.921142
vt 0.931368 0.921143
f 45/314/45 12/315/12 26/316/26
vt 0.544113 0.869609
vt 0.547988 0.866729
vt 0.545506 0.864868
f 44/317/44 277/318/277 278/319/278
vt 0.550083 0.870361
f 44/317/44 29/320/29 277/318/277
vt 0.241214 0.882080
vt 0.236766 0.876839
vt 0.233056 0.875725
f 180/321/180 279/322/279 72/323/72
vt 0.227295 0.882080
f 72/323/72 71/324/71 180/321/180
vt 0.697686 0.946406
vt 0.696045 0.952393
vt 0.705503 0.947694
f 233/325/233 280/326/280 281/327/281
vt 0.701565 0.943045
f 281/327/281 187/328/187 233/325/233
vt 0.705461 0.942193
f 281/327/281 186/329/186 187/328/187
vt 0.068437 0.046143
vt 0.068207 0.044638
vt 0.060339 0.045204
f 51/330/51 282/331/282 50/332/50
vt 0.067762 0.041324
f 282/331/282 283/333/283 50/332/50
vt 0.071658 0.043671
vt 0.079506 0.046143
vt 0.082971 0.042117
f 284/334/284 65/335/65 285/336/285
f 284/334/284 51/330/51 65/335/65
f 284/334/284 282/331/282 51/330/51
vt 0.087346 0.043744
f 155/337/155 285/336/285 65/335/65
vt 0.087034 0.041709
f 155/337/155 286/338/286 285/336/285
vt 0.188486 0.235863
vt 0.186490 0.235307
vt 0.183207 0.238769
f 286/339/286 155/340/155 154/341/154
vt 0.190513 0.239928
f 154/341/154 287/342/287 286/339/286
vt 0.903690 0.971924
vt 0.912553 0.966271
vt 0.898832 0.960732
f 281/343/281 280/344/280 288/345/288
vt 0.895583 0.967773
f 288/345/288 289/346/289 281/343/281
vt 0.895549 0.967435
f 288/345/288 290/347/290 289/346/289
vt 0.895096 0.961807
f 288/345/288 291/348/291 290/347/290
vt 0.887972 0.968792
f 289/346/289 290/347/290 72/349/72
vt 0.888312 0.971924
f 72/349/72 279/350/279 289/346/289
vt 0.191670 0.245361
vt 0.180420 0.245361
f 55/351/55 154/341/154 53/352/53
f 55/351/55 287/342/287 154/341/154
vt 0.472850 0.854736
vt 0.469523 0.851556
vt 0.465576 0.854736
f 154/353/154 64/354/64 53/355/53
vt 0.192377 0.243175
f 55/351/55 202/356/202 287/342/287
vt 0.828770 0.958094
vt 0.832920 0.958455
f 66/357/66 41/312/41 75/358/75
vt 0.825482 0.960281
f 66/357/66 42/359/42 41/312/41
vt 0.569198 0.970550
vt 0.559333 0.966338
vt 0.554860 0.971924
f 280/360/280 237/361/237 288/362/288
f 280/360/280 233/259/233 237/361/237
f 233/259/233 234/261/234 237/361/237
vt 0.554769 0.968342
f 237/361/237 239/363/239 288/362/288
vt 0.559606 0.961230
f 234/261/234 185/364/185 237/361/237
vt 0.397580 0.885854
vt 0.409370 0.889893
vt 0.409795 0.889674
f 46/365/46 11/366/11 10/367/10
vt 0.395264 0.889893
f 46/365/46 58/368/58 11/366/11
vt 0.477295 0.843018
vt 0.480316 0.842969
vt 0.479919 0.839172
f 46/369/46 66/370/66 58/371/58
vt 0.550743 0.967911
vt 0.539840 0.967415
vt 0.543436 0.971924
f 238/372/238 76/373/76 292/374/292
vt 0.544643 0.960129
f 238/372/238 182/375/182 76/373/76
f 238/372/238 185/364/185 182/375/182
f 238/372/238 237/361/237 185/364/185
vt 0.539795 0.971137
f 76/373/76 70/376/70 292/374/292
vt 0.847321 0.966782
vt 0.845947 0.961090
vt 0.837272 0.960157
f 24/377/24 68/378/68 67/379/67
vt 0.836045 0.971924
f 67/379/67 22/380/22 24/377/24
f 67/379/67 41/312/41 22/380/22
f 41/312/41 35/311/35 22/380/22
f 67/379/67 75/358/75 41/312/41
vt 0.033961 0.007080
vt 0.045495 0.006932
vt 0.003539 0.002860
f 49/381/49 9/382/9 53/383/53
vt 0.000732 0.007080
f 53/383/53 64/384/64 49/381/49
vt 0.887300 0.960749
f 72/349/72 291/348/291 292/385/292
f 72/349/72 290/347/290 291/348/291
vt 0.883545 0.961633
f 292/385/292 70/386/70 72/349/72
vt 0.481948 0.839133
vt 0.484302 0.843018
f 62/387/62 66/370/66 75/388/75
f 62/387/62 58/371/58 66/370/66
vt 0.551255 0.970967
f 291/389/291 239/363/239 238/372/238
f 291/389/291 288/362/288 239/363/239
f 238/372/238 292/374/292 291/389/291
vt 0.723977 0.927549
vt 0.723389 0.933399
vt 0.730779 0.935606
f 80/390/80 82/391/82 253/392/253
vt 0.735697 0.927457
f 253/392/253 297/393/297 80/390/80
vt 0.845327 0.991455
vt 0.838335 0.989209
vt 0.832764 0.991455
f 153/394/153 115/395/115 89/396/89
vt 0.177402 0.413880
vt 0.175136 0.416834
vt 0.176752 0.421142
f 153/397/153 298/398/298 115/399/115
vt 0.122231 0.016288
vt 0.126809 0.012441
vt 0.119294 0.015240
f 251/400/251 299/401/299 300/402/300
vt 0.126625 0.015874
f 251/400/251 301/403/301 299/401/299
vt 0.117494 0.019203
f 300/402/300 302/404/302 251/400/251
vt 0.422592 0.892883
vt 0.417996 0.895595
vt 0.419312 0.895378
f 301/405/301 240/406/240 242/407/242
vt 0.427347 0.892439
f 242/407/242 299/408/299 301/405/301
vt 0.190223 0.418363
vt 0.183870 0.420933
vt 0.190316 0.421143
f 303/409/303 304/410/304 305/411/305
vt 0.184584 0.414662
f 303/409/303 251/412/251 304/410/304
vt 0.190971 0.414793
f 303/409/303 301/413/301 251/412/251
vt 0.180420 0.415569
f 251/412/251 300/414/300 304/410/304
vt 0.193104 0.419743
f 303/409/303 240/415/240 301/413/301
vt 0.424875 0.901271
f 304/416/304 299/408/299 242/407/242
vt 0.430779 0.899120
f 304/416/304 300/417/300 299/408/299
vt 0.419497 0.897627
f 242/407/242 305/418/305 304/416/304
vt 0.416760 0.901612
f 242/407/242 307/419/307 305/418/305
vt 0.414795 0.892384
f 242/407/242 241/420/241 307/419/307
vt 0.196045 0.577393
vt 0.202187 0.572991
vt 0.197719 0.572246
f 307/421/307 296/422/296 309/423/309
vt 0.205422 0.577393
f 307/421/307 241/424/241 296/422/296
vt 0.203504 0.569391
vt 0.197533 0.567719
f 244/425/244 243/426/243 309/423/309
f 309/423/309 296/422/296 244/425/244
vt 0.202595 0.573110
f 296/422/296 294/427/294 244/425/244
vt 0.734515 0.936740
f 293/428/293 245/273/245 244/272/244
vt 0.742645 0.933035
f 244/272/244 294/429/294 293/428/293
vt 0.183763 0.939561
vt 0.187265 0.944537
vt 0.189292 0.941613
f 310/430/310 311/431/311 312/432/312
vt 0.176926 0.737050
vt 0.173307 0.739980
vt 0.173814 0.741455
f 312/433/312 313/434/313 310/435/310
vt 0.162373 0.495279
vt 0.167424 0.497631
vt 0.162997 0.491545
f 256/436/256 121/437/121 314/438/314
vt 0.166347 0.498328
f 256/436/256 95/439/95 121/437/121
vt 0.190887 0.946121
vt 0.186717 0.945325
f 314/440/314 315/441/315 256/282/256
f 315/441/315 254/280/254 256/282/256
vt 0.127220 0.966357
f 248/276/248 247/275/247 316/442/316
vt 0.125554 0.962168
f 316/442/316 317/443/317 248/276/248
vt 0.166760 0.486848
vt 0.174643 0.488859
vt 0.171353 0.485391
f 247/444/247 318/445/318 316/446/316
vt 0.127390 0.961401
f 316/442/316 319/447/319 317/443/317
vt 0.172037 0.729573
vt 0.163335 0.725922
vt 0.165279 0.732633
f 246/448/246 320/449/320 109/450/109
vt 0.168380 0.723794
f 246/448/246 321/451/321 320/449/320
vt 0.172849 0.731397
f 109/450/109 108/452/108 246/448/246
vt 0.175030 0.732070
f 108/452/108 314/453/314 246/448/246
vt 0.176150 0.730218
f 314/453/314 247/454/247 246/448/246
vt 0.175773 0.495437
f 121/437/121 322/455/322 318/445/318
f 318/445/318 247/444/247 121/437/121
f 247/444/247 314/438/314 121/437/121
vt 0.172530 0.499268
f 121/437/121 323/456/323 322/455/322
vt 0.106543 0.015313
vt 0.110275 0.021555
f 302/404/302 324/457/324 325/458/325
vt 0.118059 0.011512
f 302/404/302 306/459/306 324/457/324
vt 0.101842 0.023419
f 324/457/324 326/460/326 325/458/325
vt 0.113664 0.024888
f 325/458/325 328/461/328 302/404/302
vt 0.118773 0.026611
f 328/461/328 329/462/329 302/404/302
vt 0.122229 0.021581
f 329/462/329 249/463/249 302/404/302
f 249/463/249 251/400/251 302/404/302
vt 0.402207 0.830028
vt 0.399737 0.834929
vt 0.401429 0.835205
f 300/464/300 330/465/330 302/466/302
vt 0.398061 0.830784
f 300/464/300 251/467/251 330/465/330
vt 0.395264 0.835205
f 251/467/251 250/468/250 330/465/330
vt 0.202333 0.058322
vt 0.200724 0.061767
vt 0.204977 0.061767
f 331/469/331 332/470/332 305/471/305
vt 0.189956 0.418268
f 332/472/332 303/409/303 305/411/305
vt 0.817139 0.918802
vt 0.817241 0.921143
vt 0.832514 0.921143
f 333/473/333 334/474/334 257/475/257
vt 0.836339 0.919116
f 257/475/257 335/476/335 333/473/333
vt 0.103470 0.308728
vt 0.098389 0.315371
vt 0.103859 0.312656
f 257/477/257 324/478/324 335/479/335
vt 0.107771 0.317334
f 324/478/324 336/480/336 335/479/335
vt 0.105701 0.324724
f 324/478/324 306/481/306 336/480/336
vt 0.099124 0.311627
f 257/477/257 259/482/259 324/478/324
vt 0.105911 0.324774
vt 0.113894 0.322588
f 308/483/308 307/484/307 336/480/336
vt 0.425085 0.901612
f 308/485/308 305/418/305 307/419/307
vt 0.113085 0.314557
f 307/484/307 337/486/337 336/480/336
vt 0.119219 0.308046
vt 0.120413 0.316263
vt 0.122572 0.308860
f 338/487/338 253/488/253 82/489/82
f 338/487/338 337/486/337 253/488/253
vt 0.116384 0.317022
f 337/486/337 252/490/252 253/488/253
f 337/486/337 307/484/307 252/490/252
vt 0.118936 0.319868
f 307/484/307 293/491/293 252/490/252
vt 0.117381 0.327392
f 307/484/307 309/492/309 293/491/293
vt 0.122664 0.324696
f 309/492/309 243/493/243 293/491/293
vt 0.122965 0.319878
f 243/493/243 245/494/245 293/491/293
vt 0.120034 0.304311
f 82/489/82 339/495/339 338/487/338
vt 0.172585 0.952393
vt 0.173671 0.944056
f 105/496/105 254/280/254 340/497/340
vt 0.186460 0.952393
f 105/496/105 93/498/93 254/280/254
f 254/280/254 315/441/315 340/497/340
vt 0.169376 0.950302
f 340/497/340 136/499/136 105/496/105
vt 0.168939 0.944106
f 340/497/340 341/500/341 136/499/136
f 93/498/93 255/281/255 254/280/254
vt 0.339724 0.933973
vt 0.334902 0.931051
vt 0.334706 0.935476
f 342/501/342 321/502/321 246/503/246
vt 0.339902 0.936767
f 246/503/246 248/504/248 342/501/342
vt 0.343168 0.932708
f 248/504/248 317/505/317 342/501/342
vt 0.338416 0.932172
f 342/501/342 343/506/343 321/502/321
vt 0.160889 0.499268
f 95/439/95 256/436/256 93/507/93
vt 0.129639 0.036677
vt 0.131226 0.040397
vt 0.129639 0.042236
f 256/508/256 255/509/255 93/510/93
vt 0.197633 0.875797
vt 0.196045 0.882080
vt 0.201705 0.882080
f 345/511/345 318/512/318 322/513/322
vt 0.113852 0.306980
f 348/514/348 336/480/336 337/486/337
vt 0.116369 0.307455
f 337/486/337 349/515/349 348/514/348
f 337/486/337 338/487/338 349/515/349
vt 0.121735 0.296777
f 348/514/348 349/515/349 350/516/350
vt 0.118295 0.292190
f 350/516/350 344/517/344 348/514/348
vt 0.676514 0.811768
vt 0.681311 0.811767
vt 0.681311 0.807939
f 350/518/350 346/519/346 344/520/344
vt 0.124687 0.309282
f 81/521/81 339/495/339 82/489/82
vt 0.122220 0.297662
f 81/521/81 351/522/351 339/495/339
vt 0.442139 0.909424
vt 0.461884 0.909424
vt 0.447579 0.903837
f 21/523/21 92/524/92 91/525/91
vt 0.443147 0.905383
f 91/525/91 17/526/17 21/523/21
vt 0.984762 0.895298
vt 0.981979 0.901611
vt 0.997763 0.901611
f 16/527/16 24/528/24 21/529/21
vt 0.981201 0.895811
f 16/527/16 69/530/69 24/528/24
vt 0.172728 0.409072
vt 0.170604 0.408481
f 298/398/298 228/531/228 230/532/230
vt 0.168741 0.419193
f 230/532/230 352/533/352 298/398/298
f 298/398/298 153/397/153 228/531/228
vt 0.167712 0.412977
f 229/534/229 352/533/352 230/532/230
vt 0.160889 0.421142
f 229/534/229 223/535/223 352/533/352
vt 0.203829 0.054761
vt 0.196045 0.054038
vt 0.198819 0.056678
f 306/536/306 302/537/302 353/538/353
vt 0.196925 0.055641
f 302/537/302 330/539/330 353/538/353
vt 0.679505 0.823459
vt 0.676514 0.827393
vt 0.683180 0.827393
f 166/540/166 335/541/335 336/542/336
vt 0.678049 0.823593
f 166/540/166 168/543/168 335/541/335
vt 0.111492 0.294658
vt 0.108738 0.295832
f 348/514/348 354/544/354 167/545/167
f 348/514/348 344/517/344 354/544/354
vt 0.105403 0.312807
f 167/545/167 166/546/166 348/514/348
f 166/546/166 336/480/336 348/514/348
vt 0.114057 0.291265
f 344/517/344 343/547/343 354/544/354
vt 0.210654 0.159516
vt 0.208159 0.160446
vt 0.212761 0.163330
f 343/548/343 342/549/342 354/550/354
vt 0.207764 0.163330
f 342/549/342 355/551/355 354/550/354
vt 0.180420 0.624268
vt 0.184370 0.623931
vt 0.185852 0.614744
f 98/552/98 101/553/101 356/554/356
vt 0.183707 0.613899
f 356/554/356 164/555/164 98/552/98
vt 0.028252 0.161082
vt 0.016373 0.162978
vt 0.030628 0.170904
f 357/556/357 358/557/358 275/558/275
vt 0.017505 0.157417
f 357/556/357 359/559/359 358/557/358
vt 0.013560 0.159057
f 359/559/359 360/560/360 358/557/358
vt 0.012038 0.161712
f 360/560/360 361/561/361 358/557/358
vt 0.011138 0.162888
f 361/561/361 362/562/362 358/557/358
vt 0.178056 0.135986
f 363/563/363 268/294/268 267/293/267
vt 0.160889 0.135986
f 267/293/267 130/564/130 363/563/363
vt 0.175919 0.131501
f 363/563/363 364/565/364 268/294/268
vt 0.187429 0.064197
vt 0.185708 0.068714
vt 0.190701 0.069580
f 267/566/267 132/567/132 130/568/130
vt 0.146951 0.259809
vt 0.137195 0.248152
vt 0.136227 0.256564
f 365/569/365 130/570/130 366/571/366
vt 0.154056 0.250020
f 365/569/365 363/572/363 130/570/130
vt 0.446425 0.991455
vt 0.437457 0.989220
vt 0.434326 0.991455
f 365/573/365 367/574/367 363/575/363
vt 0.143340 0.259906
f 366/571/366 368/576/368 365/569/365
vt 0.135822 0.261388
f 366/571/366 369/577/369 368/576/368
vt 0.043583 0.159509
vt 0.039401 0.161150
vt 0.045222 0.167173
f 370/578/370 371/579/371 133/580/133
vt 0.164795 0.950297
vt 0.166919 0.944148
f 133/581/133 136/499/136 370/582/370
f 136/499/136 341/500/341 370/582/370
vt 0.313264 0.885774
vt 0.309086 0.888144
vt 0.309111 0.889893
f 372/583/372 373/584/373 374/585/374
vt 0.988765 0.984922
vt 0.986961 0.980199
vt 0.985107 0.987549
f 374/586/374 375/587/375 372/588/372
vt 0.993321 0.976294
vt 0.992534 0.984813
vt 0.997400 0.978927
f 355/589/355 376/590/376 354/591/354
f 355/589/355 375/587/375 376/590/376
vt 0.998228 0.982707
f 376/590/376 333/592/333 354/591/354
f 375/587/375 374/586/374 376/590/376
vt 0.997226 0.985814
f 376/590/376 334/593/334 333/592/333
vt 0.993830 0.987549
f 376/590/376 377/594/377 334/593/334
vt 0.990524 0.985734
f 374/586/374 378/595/378 376/590/376
vt 0.327734 0.929517
vt 0.330116 0.934292
f 321/502/321 380/596/380 119/597/119
vt 0.333036 0.925421
f 321/502/321 347/598/347 380/596/380
vt 0.335997 0.926258
f 321/502/321 345/599/345 347/598/347
f 321/502/321 343/506/343 345/599/345
vt 0.340935 0.928674
f 343/506/343 344/600/344 345/599/345
vt 0.331953 0.934831
f 119/597/119 320/601/320 321/502/321
vt 0.186637 0.027924
vt 0.180420 0.029116
vt 0.181121 0.034424
f 258/602/258 271/603/271 327/604/327
vt 0.189328 0.032128
f 327/604/327 259/605/259 258/602/258
vt 0.191922 0.034424
f 327/604/327 324/606/324 259/605/259
vt 0.181235 0.027897
f 258/602/258 381/607/381 271/603/271
vt 0.123042 0.990230
vt 0.126204 0.994323
vt 0.127567 0.992842
f 271/608/271 382/609/382 327/610/327
vt 0.819136 0.914850
f 335/476/335 167/611/167 333/473/333
vt 0.836527 0.915159
f 335/476/335 168/612/168 167/611/167
vt 0.208160 0.058600
vt 0.207764 0.061768
vt 0.211637 0.061768
f 167/613/167 354/614/354 333/615/333
vt 0.007964 0.170443
vt 0.000732 0.162606
vt 0.006433 0.174636
f 383/616/383 102/617/102 118/618/118
vt 0.007006 0.160279
f 383/616/383 103/619/103 102/617/102
vt 0.010069 0.174296
f 118/618/118 146/620/146 383/616/383
vt 0.197080 0.588565
vt 0.203859 0.593018
vt 0.202707 0.582220
f 362/621/362 103/622/103 383/623/383
vt 0.200283 0.591601
f 362/621/362 384/624/384 103/622/103
vt 0.196757 0.589991
f 362/621/362 361/625/361 384/624/384
vt 0.192515 0.624268
vt 0.190685 0.611006
f 356/554/356 384/626/384 385/627/385
vt 0.188717 0.623908
f 356/554/356 103/628/103 384/626/384
f 356/554/356 101/553/101 103/628/103
vt 0.183409 0.610676
f 385/627/385 386/629/386 356/554/356
vt 0.152960 0.270103
vt 0.144663 0.261054
f 387/630/387 365/569/365 385/631/385
vt 0.152546 0.270936
f 385/631/385 384/632/384 387/630/387
f 365/569/365 368/576/368 385/631/385
vt 0.153139 0.272705
f 360/633/360 387/630/387 384/632/384
vt 0.196045 0.593018
f 384/624/384 361/625/361 360/634/360
vt 0.138695 0.120361
vt 0.152955 0.120361
vt 0.146861 0.113647
f 144/635/144 143/636/143 266/637/266
vt 0.139187 0.119304
f 266/637/266 388/638/388 144/635/144
vt 0.145455 0.113380
f 266/637/266 386/639/386 388/638/388
vt 0.150938 0.110133
f 266/637/266 268/640/268 386/639/386
vt 0.145672 0.105164
f 268/640/268 164/641/164 386/639/386
vt 0.142312 0.108667
f 164/641/164 356/642/356 386/639/386
vt 0.150745 0.106077
f 268/640/268 364/643/364 164/641/164
vt 0.133545 0.119374
f 388/638/388 145/644/145 144/635/144
vt 0.036520 0.161570
f 262/645/262 275/558/275 133/580/133
f 262/645/262 357/556/357 275/558/275
f 133/580/133 371/579/371 262/645/262
vt 0.087094 0.800217
f 262/288/262 261/287/261 357/646/357
vt 0.512588 0.912538
vt 0.516359 0.916875
f 257/283/257 334/647/334 389/648/389
vt 0.523941 0.921143
f 389/648/389 381/649/381 257/283/257
f 381/649/381 258/284/258 257/283/257
vt 0.512486 0.921143
f 389/648/389 374/650/374 381/649/381
vt 0.512451 0.915801
f 334/647/334 377/651/377 389/648/389
vt 0.512478 0.919297
f 389/648/389 378/652/378 374/650/374
vt 0.162265 0.727078
f 112/653/112 109/450/109 320/449/320
vt 0.223243 0.870361
vt 0.220363 0.865577
vt 0.214756 0.865632
f 119/654/119 380/655/380 323/656/323
vt 0.211670 0.870361
f 323/656/323 121/657/121 119/654/119
vt 0.206431 0.875465
vt 0.207143 0.881002
f 380/658/380 322/513/322 323/659/323
vt 0.200237 0.873591
f 380/658/380 347/660/347 322/513/322
vt 0.971505 0.981217
vt 0.968788 0.985102
vt 0.980198 0.985778
f 125/661/125 128/662/128 123/663/123
vt 0.302746 0.991455
vt 0.299479 0.989438
vt 0.289795 0.991455
f 128/664/128 131/665/131 129/666/129
vt 0.966125 0.981093
vt 0.955452 0.987221
vt 0.966205 0.987549
f 126/667/126 19/668/19 131/669/131
vt 0.955077 0.980423
f 126/667/126 390/670/390 19/668/19
vt 0.952790 0.983196
f 390/670/390 20/671/20 19/668/19
f 131/669/131 128/662/128 126/667/126
f 128/662/128 125/661/125 126/667/126
vt 0.103480 0.714064
vt 0.108035 0.714773
vt 0.111480 0.711316
f 18/672/18 391/673/391 130/674/130
vt 0.513313 0.869293
vt 0.511684 0.865774
vt 0.508545 0.870361
f 391/675/391 392/676/392 130/677/130
vt 0.138699 0.993209
vt 0.139734 0.999268
vt 0.146509 0.995197
f 393/678/393 126/679/126 114/680/114
vt 0.287423 0.884549
vt 0.281254 0.888252
vt 0.294147 0.889892
f 114/681/114 394/682/394 393/683/393
vt 0.279041 0.886961
f 114/681/114 113/684/113 394/682/394
vt 0.131836 0.991923
vt 0.128758 0.999074
f 126/679/126 395/685/395 390/686/390
f 126/679/126 393/678/393 395/685/395
f 395/685/395 327/610/327 390/686/390
vt 0.100710 0.026611
vt 0.098389 0.022285
f 395/687/395 326/460/326 327/688/327
vt 0.278076 0.889893
f 394/682/394 113/684/113 352/689/352
vt 0.555420 0.882080
vt 0.565732 0.882080
vt 0.557805 0.878174
f 352/690/352 223/691/223 394/692/394
vt 0.013835 0.174359
f 383/616/383 396/693/396 358/557/358
f 358/557/358 362/562/362 383/616/383
f 383/616/383 146/620/146 396/693/396
vt 0.014705 0.175049
vt 0.028035 0.175049
f 358/557/358 147/694/147 151/695/151
f 151/695/151 275/558/275 358/557/358
f 358/557/358 396/693/396 147/694/147
vt 0.098868 0.711483
vt 0.098819 0.715802
f 18/672/18 20/696/20 397/697/397
vt 0.103536 0.718323
f 397/697/397 398/698/398 18/672/18
f 398/698/398 391/673/391 18/672/18
vt 0.111948 0.723095
vt 0.109778 0.715711
f 398/698/398 399/699/399 392/700/392
vt 0.107173 0.729188
f 398/698/398 400/701/400 399/699/399
vt 0.108779 0.728601
f 400/701/400 401/702/401 399/699/399
vt 0.519619 0.870361
f 392/676/392 391/675/391 398/703/398
vt 0.336813 0.915707
vt 0.334108 0.920332
vt 0.341540 0.921143
f 402/704/402 273/705/273 272/706/272
vt 0.342968 0.914900
f 272/706/272 139/707/139 402/704/402
vt 0.345955 0.917345
f 272/706/272 403/708/403 139/707/139
vt 0.106579 0.733259
vt 0.103026 0.737549
f 272/709/272 400/701/400 403/710/403
f 272/709/272 401/702/401 400/701/400
vt 0.345481 0.916105
f 403/708/403 140/711/140 139/707/139
vt 0.036324 0.174235
f 133/580/133 275/558/275 134/712/134
vt 0.098389 0.728490
f 372/713/372 400/701/400 398/698/398
f 398/698/398 397/697/397 372/713/372
vt 0.100141 0.731560
f 372/713/372 404/714/404 400/701/400
f 404/714/404 403/710/403 400/701/400
vt 0.099739 0.732468
f 404/714/404 110/715/110 403/710/403
vt 0.735291 0.993879
vt 0.715810 0.992440
vt 0.719186 0.998443
f 405/716/405 406/717/406 372/718/372
vt 0.731705 0.999268
f 372/718/372 397/719/397 405/716/405
vt 0.712167 0.994571
f 406/717/406 407/720/407 372/718/372
vt 0.950029 0.987549
vt 0.949951 0.981061
f 397/721/397 20/671/20 405/722/405
vt 0.712065 0.992581
f 406/717/406 408/723/408 407/720/407
f 20/671/20 390/670/390 405/722/405
vt 0.878890 0.882080
vt 0.877576 0.877716
f 269/295/269 373/724/373 409/725/409
f 409/725/409 270/296/270 269/295/269
vt 0.879460 0.880020
f 373/724/373 410/726/410 409/725/409
vt 0.114324 0.995024
vt 0.105621 0.998346
vt 0.124081 0.996629
f 409/727/409 406/728/406 405/729/405
vt 0.119863 0.994657
f 405/729/405 270/730/270 409/727/409
vt 0.110480 0.992909
f 409/727/409 377/731/377 406/728/406
vt 0.105023 0.996706
f 377/731/377 379/732/379 406/728/406
vt 0.239306 0.827393
vt 0.237991 0.824270
vt 0.231201 0.827393
f 377/733/377 376/734/376 379/735/379
f 405/729/405 382/609/382 270/730/270
f 382/609/382 271/608/271 270/730/270
vt 0.113913 0.990075
f 409/727/409 389/736/389 377/731/377
vt 0.172573 0.308632
vt 0.164646 0.310034
vt 0.171279 0.310871
f 410/737/410 379/738/379 376/739/376
vt 0.168819 0.304060
f 410/737/410 372/740/372 379/738/379
vt 0.164839 0.308433
f 372/740/372 111/741/111 379/738/379
vt 0.160889 0.307137
f 372/740/372 407/742/407 111/741/111
vt 0.172932 0.306649
f 410/737/410 373/743/373 372/740/372
vt 0.172956 0.308950
f 376/739/376 378/744/378 410/737/410
vt 0.211331 0.780382
vt 0.209087 0.777306
vt 0.207764 0.784424
f 407/745/407 403/746/403 110/747/110
vt 0.212622 0.784424
f 110/747/110 111/748/111 407/745/407
vt 0.708909 0.995725
f 407/720/407 408/723/408 140/749/140
vt 0.174343 0.309965
f 378/744/378 409/750/409 410/737/410
vt 0.176580 0.311768
f 378/744/378 389/751/389 409/750/409
vt 0.137596 0.114254
f 386/639/386 149/752/149 388/638/388
vt 0.139924 0.110425
f 386/639/386 385/753/385 149/752/149
vt 0.138655 0.264239
f 368/576/368 369/577/369 148/754/148
vt 0.859457 0.835205
vt 0.853783 0.831435
vt 0.852295 0.835205
f 148/755/148 385/756/385 368/757/368
vt 0.858203 0.830506
f 148/755/148 149/758/149 385/756/385
vt 0.180420 0.069580
f 267/566/267 143/759/143 132/567/132
vt 0.181157 0.060794
f 267/566/267 266/760/266 143/759/143
vt 0.119752 0.724929
vt 0.116545 0.729973
f 411/761/411 399/699/399 412/762/412
vt 0.117549 0.717381
f 411/761/411 366/763/366 399/699/399
vt 0.109522 0.727890
f 399/699/399 274/764/274 412/762/412
vt 0.120999 0.728350
vt 0.123989 0.724221
f 414/765/414 415/766/415 411/761/411
vt 0.118038 0.729439
vt 0.123234 0.731406
f 413/767/413 416/768/416 414/765/414
vt 0.122816 0.731970
f 417/769/417 413/767/413 412/762/412
vt 0.114266 0.734688
f 412/762/412 418/770/418 417/769/417
vt 0.334306 0.918970
vt 0.332079 0.913012
vt 0.324951 0.915532
f 418/771/418 141/772/141 419/773/419
vt 0.325311 0.921143
f 419/773/419 417/774/417 418/771/418
vt 0.727295 0.975830
vt 0.736296 0.975830
vt 0.731031 0.974068
f 412/775/412 274/776/274 273/777/273
vt 0.925660 0.843018
vt 0.927920 0.839375
vt 0.922607 0.840299
f 273/778/273 418/779/418 412/780/412
vt 0.931160 0.843018
f 273/778/273 402/781/402 418/779/418
vt 0.169127 0.194580
vt 0.167320 0.191172
vt 0.160889 0.194580
f 134/782/134 419/783/419 141/784/141
vt 0.906418 0.885584
vt 0.903076 0.889893
vt 0.910377 0.889892
f 401/785/401 272/786/272 274/787/274
vt 0.914324 0.886104
f 274/787/274 399/788/399 401/785/401
vt 0.335861 0.912165
f 402/704/402 138/789/138 141/772/141
f 141/772/141 418/771/418 402/704/402
f 402/704/402 139/707/139 138/789/138
vt 0.708375 0.992435
f 122/790/122 106/300/106 137/299/137
f 137/299/137 140/749/140 122/790/122
f 140/749/140 408/723/408 122/790/122
vt 0.820746 0.843018
vt 0.822218 0.839362
vt 0.817139 0.841681
f 408/791/408 120/792/120 122/793/122
vt 0.822288 0.839315
f 408/791/408 112/794/112 120/792/120
vt 0.824971 0.843018
f 408/791/408 379/795/379 112/794/112
vt 0.102295 0.999268
f 408/796/408 406/728/406 379/732/379
vt 0.560146 0.956299
vt 0.559096 0.955432
vt 0.555420 0.956299
f 147/797/147 396/798/396 146/799/146
vt 0.131891 0.724840
vt 0.127544 0.726406
f 150/800/150 420/801/420 151/308/151
f 420/801/420 276/309/276 151/308/151
f 145/644/145 388/638/388 149/752/149
vt 0.133545 0.265027
f 421/802/421 148/754/148 369/577/369
vt 0.135884 0.272705
f 421/802/421 150/803/150 148/754/148
vt 0.122250 0.719108
vt 0.124242 0.723103
f 369/804/369 366/763/366 421/805/421
vt 0.761628 0.823775
vt 0.767157 0.827393
vt 0.766594 0.825705
f 420/806/420 421/807/421 415/808/415
vt 0.758545 0.827393
f 420/806/420 150/809/150 421/807/421
f 415/766/415 414/765/414 420/801/420
vt 0.673364 0.827392
vt 0.670105 0.823836
vt 0.664795 0.827392
f 414/810/414 416/811/416 276/812/276
f 276/309/276 420/801/420 414/765/414
vt 0.165242 0.187792
vt 0.171226 0.189398
f 416/813/416 419/783/419 276/814/276
f 419/783/419 134/782/134 276/814/276
vt 0.176662 0.191062
f 134/782/134 275/815/275 276/814/276
vt 0.809326 0.991455
vt 0.815480 0.991455
vt 0.810680 0.990302
f 421/816/421 411/817/411 415/818/415
f 421/805/421 366/763/366 411/761/411
vt 0.962945 0.831082
vt 0.959529 0.835205
vt 0.966127 0.835205
f 417/819/417 416/820/416 413/821/413
vt 0.957764 0.832118
f 417/819/417 419/822/419 416/820/416
f 366/763/366 392/700/392 399/699/399
f 366/763/366 130/674/130 392/700/392
f 327/610/327 382/609/382 390/686/390
f 382/609/382 405/729/405 390/686/390
vt 0.203561 0.055398
vt 0.204037 0.054863
f 304/823/304 305/471/305 308/824/308
f 331/469/331 305/471/305 304/823/304
f 314/440/314 312/432/312 311/431/311
f 314/440/314 311/431/311 315/441/315
f 304/823/304 353/538/353 331/469/331
f 306/536/306 353/538/353 304/823/304
vt 0.610783 0.835205
vt 0.606545 0.830595
vt 0.606201 0.835205
f 422/825/422 423/826/423 177/827/177
vt 0.332763 0.811768
vt 0.338313 0.811767
vt 0.334696 0.805842
f 54/828/54 424/829/424 425/830/425
vt 0.169777 0.514647
vt 0.172194 0.514892
vt 0.169956 0.512329
f 193/831/193 195/832/195 426/833/426
vt 0.207764 0.509975
vt 0.208088 0.514893
vt 0.211932 0.510848
f 427/834/427 428/835/428 56/836/56
vt 0.213670 0.514892
f 56/836/56 428/835/428 429/837/429
vt 0.129639 0.096294
vt 0.131989 0.097764
vt 0.129639 0.100830
f 204/838/204 236/839/236 203/840/203
vt 0.120042 0.079636
vt 0.118180 0.088197
vt 0.125210 0.085412
f 156/841/156 430/842/430 157/843/157
vt 0.123639 0.087105
f 430/842/430 158/844/158 157/843/157
vt 0.208408 0.707039
vt 0.207764 0.714111
vt 0.213267 0.714111
f 431/845/431 432/846/432 433/847/433
vt 0.103081 0.940925
vt 0.107165 0.937100
vt 0.101032 0.936625
f 328/848/328 434/849/434 329/850/329
vt 0.398565 0.834937
f 250/468/250 353/851/353 330/465/330
vt 0.186711 0.052235
vt 0.190608 0.054121
vt 0.191657 0.049483
f 435/852/435 328/853/328 325/854/325
vt 0.459111 0.870361
vt 0.449965 0.866444
vt 0.446045 0.870362
f 394/855/394 222/856/222 393/857/393
vt 0.639589 0.854736
vt 0.632234 0.849835
vt 0.629639 0.854736
f 394/858/394 223/859/223 222/860/222
vt 0.033213 0.163119
vt 0.031486 0.160244
f 260/861/260 262/645/262 436/862/436
vt 0.301409 0.884845
f 373/584/373 269/863/269 374/585/374
vt 0.130983 0.955147
vt 0.131816 0.942470
vt 0.123912 0.958328
f 351/864/351 80/865/80 433/866/433
vt 0.943160 0.862549
vt 0.931726 0.858928
vt 0.930420 0.862549
f 351/867/351 81/868/81 80/869/80
vt 0.130582 0.956092
f 433/866/433 350/870/350 351/864/351
vt 0.129079 0.960696
f 433/866/433 346/871/346 350/870/350
f 433/866/433 319/447/319 346/871/346
f 433/866/433 317/443/317 319/447/319
vt 0.119753 0.958844
f 433/866/433 432/872/432 317/443/317
vt 0.118533 0.935242
vt 0.107350 0.948261
f 433/866/433 437/873/437 438/874/438
f 433/866/433 80/865/80 437/873/437
vt 0.115608 0.958021
f 438/874/438 431/875/431 433/866/433
vt 0.125754 0.932554
f 80/865/80 297/876/297 437/873/437
vt 0.110538 0.955799
f 438/874/438 439/877/439 431/875/431
vt 0.120767 0.930459
f 297/876/297 440/878/440 437/873/437
vt 0.063940 0.811431
vt 0.083106 0.807872
vt 0.079398 0.803936
f 441/879/441 442/880/442 436/881/436
vt 0.073366 0.792541
f 436/881/436 370/882/370 441/879/441
f 436/862/436 371/579/371 370/578/370
f 436/862/436 262/645/262 371/579/371
vt 0.093686 0.407285
vt 0.070891 0.417236
vt 0.093850 0.416330
f 30/883/30 25/884/25 27/885/27
vt 0.070655 0.405136
f 30/883/30 31/886/31 25/884/25
vt 0.063076 0.407949
vt 0.059417 0.417236
f 422/887/422 29/888/29 25/884/25
f 25/884/25 31/886/31 422/887/422
vt 0.059380 0.414370
f 422/887/422 277/889/277 29/888/29
vt 0.066829 0.404949
f 31/886/31 33/890/33 422/887/422
vt 0.613312 0.831407
vt 0.610044 0.830056
f 33/891/33 232/892/232 422/825/422
f 232/892/232 423/826/423 422/825/422
vt 0.191995 0.210205
vt 0.190375 0.204648
vt 0.188046 0.208809
f 423/893/423 32/894/32 177/895/177
vt 0.194018 0.207276
f 423/893/423 232/896/232 32/894/32
vt 0.180420 0.202461
vt 0.181446 0.210205
f 152/897/152 43/898/43 177/895/177
vt 0.183743 0.200404
f 177/895/177 34/899/34 152/897/152
f 177/895/177 32/894/32 34/899/34
vt 0.881679 0.987549
vt 0.885236 0.982653
vt 0.879639 0.980915
f 43/900/43 176/901/176 177/902/177
vt 0.059173 0.404007
vt 0.055420 0.406981
vt 0.059326 0.411187
f 177/903/177 174/904/174 278/905/278
f 278/905/278 422/887/422 177/903/177
f 278/905/278 277/889/277 422/887/422
vt 0.908276 0.985155
vt 0.897726 0.980994
f 43/900/43 47/906/47 443/907/443
vt 0.891779 0.981221
f 443/907/443 178/908/178 43/900/43
vt 0.907968 0.982079
f 47/906/47 444/909/444 443/907/443
f 178/908/178 176/901/176 43/900/43
vt 0.895917 0.977619
f 443/907/443 445/910/445 178/908/178
vt 0.133545 0.518799
vt 0.135233 0.518159
vt 0.135026 0.515478
f 178/911/178 445/912/445 179/913/179
vt 0.139524 0.518039
f 179/913/179 445/912/445 443/914/443
vt 0.139036 0.512895
f 443/914/443 446/915/446 179/913/179
vt 0.539795 0.864846
vt 0.541936 0.868246
f 278/319/278 174/916/174 175/917/175
f 175/917/175 44/317/44 278/319/278
vt 0.166104 0.504586
vt 0.165852 0.510595
f 71/918/71 447/919/447 426/833/426
vt 0.178366 0.510451
f 426/833/426 180/920/180 71/918/71
vt 0.175240 0.514825
f 426/833/426 181/921/181 180/920/180
vt 0.163364 0.506281
f 71/918/71 217/922/217 447/919/447
f 426/833/426 195/832/195 181/921/181
vt 0.165916 0.504438
f 71/918/71 74/923/74 217/922/217
vt 0.160889 0.503516
f 74/923/74 224/924/224 217/922/217
vt 0.059940 0.041863
vt 0.067326 0.038146
f 448/925/448 283/333/283 449/926/449
f 448/925/448 50/332/50 283/333/283
vt 0.912512 0.984186
vt 0.913141 0.987549
f 448/927/448 47/906/47 50/928/50
f 448/927/448 444/909/444 47/906/47
vt 0.071932 0.037198
vt 0.066657 0.035362
f 283/333/283 203/929/203 450/930/450
f 283/333/283 284/334/284 203/929/203
f 450/930/450 449/926/449 283/333/283
vt 0.071815 0.034848
f 203/929/203 236/931/236 450/930/450
f 283/333/283 282/331/282 284/334/284
vt 0.713076 0.944453
vt 0.713080 0.952393
f 183/932/183 281/327/281 289/933/289
f 183/932/183 186/329/186 281/327/281
vt 0.720783 0.949007
f 183/932/183 289/933/289 279/934/279
vt 0.724687 0.943927
f 279/934/279 180/935/180 183/932/183
vt 0.144418 0.514198
vt 0.152670 0.518799
f 427/936/427 443/914/443 444/937/444
vt 0.151592 0.515363
f 444/937/444 451/938/451 427/936/427
f 427/936/427 446/915/446 443/914/443
vt 0.156803 0.515953
f 444/937/444 448/939/448 451/938/451
vt 0.062998 0.037826
vt 0.058303 0.035550
vt 0.055420 0.039223
f 425/940/425 424/941/424 429/942/429
f 429/942/429 448/925/448 425/940/425
f 448/925/448 449/926/449 425/940/425
f 449/926/449 450/930/450 425/940/425
vt 0.151542 0.514646
f 429/943/429 451/938/451 448/939/448
f 187/260/187 185/364/185 234/261/234
vt 0.146055 0.512177
f 428/944/428 451/938/451 429/943/429
f 428/944/428 427/936/427 451/938/451
vt 0.750138 0.859218
f 450/945/450 236/264/236 235/263/235
vt 0.753003 0.860410
f 235/263/235 425/946/425 450/945/450
vt 0.906666 0.909424
vt 0.895162 0.906738
vt 0.891357 0.909424
f 54/947/54 204/948/204 52/949/52
vt 0.754657 0.862549
f 54/950/54 425/946/425 204/262/204
f 425/946/425 235/263/235 204/262/204
vt 0.541116 0.870361
f 63/951/63 44/317/44 175/917/175
vt 0.148461 0.510603
f 446/915/446 427/936/427 56/952/56
vt 0.135911 0.512142
f 56/952/56 57/953/57 446/915/446
f 57/953/57 179/913/179 446/915/446
vt 0.089511 0.036436
f 285/336/285 202/954/202 203/929/203
f 203/929/203 284/334/284 285/336/285
vt 0.090151 0.038707
f 285/336/285 287/955/287 202/954/202
f 285/336/285 286/338/286 287/955/287
vt 0.525631 0.827393
vt 0.529842 0.823753
vt 0.524170 0.823075
f 54/956/54 429/957/429 424/958/424
vt 0.532600 0.827393
f 54/956/54 56/959/56 429/957/429
vt 0.103711 0.949561
vt 0.102644 0.946589
vt 0.098389 0.946168
f 209/960/209 452/961/452 210/962/210
vt 0.181221 0.055810
vt 0.184876 0.054662
vt 0.180420 0.057861
f 452/963/452 453/964/453 210/965/210
vt 0.112079 0.079669
vt 0.100609 0.097450
vt 0.112480 0.096243
f 212/966/212 214/967/214 454/968/454
vt 0.115887 0.079964
f 454/968/454 208/969/208 212/966/212
vt 0.115466 0.100830
f 214/967/214 455/970/455 454/968/454
vt 0.116805 0.094957
f 454/968/454 456/971/456 430/842/430
f 430/842/430 208/969/208 454/968/454
vt 0.124915 0.090958
f 456/971/456 213/972/213 430/842/430
f 213/972/213 158/844/158 430/842/430
f 430/842/430 156/841/156 208/969/208
vt 0.161818 0.514892
f 447/919/447 190/973/190 193/831/193
f 193/831/193 426/833/426 447/919/447
vt 0.557551 0.895936
vt 0.551514 0.901611
vt 0.560031 0.900682
f 76/974/76 184/975/184 192/976/192
vt 0.562518 0.896362
f 192/976/192 77/977/77 76/974/76
vt 0.562984 0.897433
f 192/976/192 226/978/226 77/977/77
vt 0.098389 0.100830
vt 0.100080 0.100132
f 216/979/216 457/980/457 214/967/214
f 190/973/190 447/919/447 217/922/217
vt 0.704474 0.906798
vt 0.712131 0.909424
vt 0.711327 0.906671
f 224/981/224 84/982/84 87/983/87
vt 0.696045 0.909424
f 224/981/224 78/984/78 84/982/84
vt 0.698243 0.907113
f 224/981/224 73/985/73 78/984/78
vt 0.700653 0.903119
f 224/981/224 74/986/74 73/985/73
vt 0.564406 0.900613
f 192/976/192 227/987/227 226/978/226
vt 0.568861 0.901611
f 192/976/192 189/988/189 227/987/227
vt 0.191722 0.057861
f 453/964/453 434/989/434 328/853/328
f 453/964/453 452/963/452 434/989/434
f 328/853/328 435/852/435 453/964/453
vt 0.110496 0.935264
f 437/873/437 458/990/458 434/849/434
f 434/849/434 438/874/438 437/873/437
f 434/849/434 452/961/452 438/874/438
f 458/990/458 250/278/250 434/849/434
f 250/278/250 249/277/249 434/849/434
f 249/277/249 329/850/329 434/849/434
f 452/961/452 209/960/209 438/874/438
vt 0.113491 0.931840
f 458/990/458 240/268/240 332/991/332
f 458/990/458 437/873/437 240/268/240
vt 0.109985 0.933363
f 332/991/332 459/992/459 458/990/458
vt 0.113888 0.931258
f 240/268/240 303/993/303 332/991/332
vt 0.119443 0.927096
f 240/268/240 440/878/440 295/994/295
f 240/268/240 437/873/437 440/878/440
f 295/994/295 241/269/241 240/268/240
vt 0.242920 0.865127
vt 0.247602 0.867908
vt 0.251810 0.864135
f 220/995/220 231/996/231 215/997/215
vt 0.105924 0.957257
f 213/998/213 439/877/439 438/874/438
f 438/874/438 209/960/209 213/998/213
vt 0.112307 0.959829
f 213/998/213 460/999/460 439/877/439
vt 0.102872 0.967331
f 213/998/213 456/1000/456 460/999/460
vt 0.487186 0.882080
vt 0.487630 0.875036
vt 0.479300 0.876353
f 432/1001/432 431/1002/431 355/1003/355
vt 0.479335 0.882080
f 355/1003/355 317/1004/317 432/1001/432
vt 0.114423 0.964384
vt 0.121941 0.962805
f 431/875/431 375/1005/375 355/1006/355
f 431/875/431 460/999/460 375/1005/375
vt 0.477295 0.878478
f 355/1003/355 342/1007/342 317/1004/317
f 431/875/431 439/877/439 460/999/460
vt 0.805420 0.870361
vt 0.815741 0.870361
vt 0.811952 0.864294
f 77/1008/77 225/1009/225 153/1010/153
vt 0.805761 0.869105
f 153/1010/153 79/1011/79 77/1008/77
vt 0.819093 0.866921
f 225/1009/225 228/1012/228 153/1010/153
vt 0.184957 0.049690
f 221/1013/221 453/964/453 435/852/435
f 221/1013/221 210/965/210 453/964/453
f 435/852/435 325/854/325 221/1013/221
vt 0.110843 0.934902
f 250/278/250 459/992/459 353/1014/353
f 250/278/250 458/990/458 459/992/459
vt 0.105013 0.971924
f 456/1000/456 455/1015/455 375/1005/375
f 375/1005/375 460/999/460 456/1000/456
vt 0.192579 0.397705
vt 0.184724 0.390248
vt 0.180420 0.397705
f 455/1016/455 372/1017/372 375/1018/375
vt 0.067294 0.815674
vt 0.060819 0.814184
f 455/1019/455 441/879/441 372/1020/372
vt 0.100549 0.971654
f 456/1000/456 454/1021/454 455/1015/455
vt 0.061555 0.810769
f 441/879/441 404/1022/404 372/1020/372
vt 0.174035 0.736605
vt 0.169273 0.735468
f 461/1023/461 108/452/108 107/1024/107
f 461/1023/461 314/453/314 108/452/108
f 461/1023/461 312/433/312 314/453/314
f 461/1023/461 313/434/313 312/433/312
vt 0.197305 0.060110
f 459/1025/459 332/470/332 331/469/331
f 331/469/331 353/538/353 459/1025/459
f 461/1023/461 310/435/310 313/434/313
vt 0.055420 0.807018
vt 0.063802 0.800202
vt 0.061111 0.804635
f 461/1026/461 462/1027/462 310/1028/310
vt 0.067658 0.796444
vt 0.055552 0.800619
f 462/1027/462 340/1029/340 315/1030/315
f 315/1030/315 310/1028/310 462/1027/462
vt 0.055468 0.801496
f 315/1030/315 311/1031/311 310/1028/310
vt 0.163791 0.741455
vt 0.161501 0.735960
f 441/1032/441 107/1024/107 110/1033/110
f 441/1032/441 461/1023/461 107/1024/107
vt 0.160889 0.736719
f 110/1033/110 404/1034/404 441/1032/441
f 462/1027/462 370/882/370 340/1029/340
f 462/1027/462 441/879/441 370/882/370
f 462/1027/462 461/1026/461 441/879/441
vt 0.071500 0.792700
f 370/882/370 341/1035/341 340/1029/340
vt 0.946045 0.862549
vt 0.953692 0.860693
vt 0.946648 0.861726
f 350/1036/350 339/1037/339 351/1038/351
vt 0.958229 0.862549
f 350/1036/350 349/1039/349 339/1037/339
vt 0.899365 0.835205
vt 0.906896 0.835205
vt 0.905187 0.831831
f 298/1040/298 352/1041/352 113/1042/113
vt 0.899170 0.830645
f 113/1042/113 115/1043/115 298/1040/298
vt 0.096206 0.812035
vt 0.094137 0.808416
vt 0.094050 0.812272
f 360/1044/360 359/1045/359 463/1046/463
vt 0.154735 0.271508
f 463/1047/463 387/630/387 360/633/360
vt 0.151214 0.261496
vt 0.150578 0.262471
f 463/1047/463 457/1048/457 216/1049/216
f 216/1049/216 387/630/387 463/1047/463
f 216/1049/216 365/569/365 387/630/387
vt 0.082831 0.815674
f 442/880/442 455/1019/455 457/1050/457
f 442/880/442 441/879/441 455/1019/455
f 455/970/455 214/967/214 457/980/457
vt 0.090598 0.808113
f 457/1050/457 464/1051/464 442/880/442
f 457/1050/457 463/1046/463 464/1051/464
f 463/1046/463 359/1045/359 464/1051/464
f 464/1051/464 357/646/357 264/290/264
f 464/1051/464 359/1045/359 357/646/357
f 357/646/357 265/291/265 264/290/264
vt 0.245198 0.843018
vt 0.250181 0.843018
vt 0.250170 0.838832
f 364/1052/364 363/1053/363 231/1054/231
vt 0.242920 0.838199
f 231/1054/231 164/1055/164 364/1052/364
vt 0.244571 0.870361
vt 0.247797 0.869768
f 363/1056/363 367/1057/367 231/996/231
vt 0.256657 0.870361
vt 0.256811 0.866145
f 215/997/215 365/1058/365 216/1059/216
f 215/997/215 367/1057/367 365/1058/365
f 215/997/215 231/996/231 367/1057/367
vt 0.430420 0.876570
vt 0.435816 0.878975
vt 0.436523 0.873478
f 393/1060/393 221/1061/221 395/1062/395
vt 0.430917 0.882080
f 393/1060/393 222/1063/222 221/1061/221
vt 0.440231 0.873977
f 221/1061/221 326/1064/326 395/1062/395
vt 0.442541 0.882080
f 221/1061/221 325/1065/325 326/1064/326
f 264/290/264 263/289/263 442/880/442
f 442/880/442 464/1051/464 264/290/264
f 263/289/263 436/881/436 442/880/442
f 265/291/265 357/646/357 261/287/261
f 261/287/261 263/289/263 265/291/265
f 261/287/261 260/286/260 263/289/263
f 260/286/260 436/881/436 263/289/263
vt 0.297607 0.888427
vt 0.297628 0.889893
f 269/863/269 271/1066/271 381/1067/381
f 381/1067/381 374/585/374 269/863/269
vt 0.107871 0.082412
f 214/967/214 212/966/212 199/1068/199
vt 0.104454 0.084639
f 214/967/214 199/1068/199 201/1069/201
# 881 faces, 1069 coords texture

# End of File
