####
#
# OBJ File Generated by Meshlab
#
####
# Object office_table.obj
#
# Vertices: 124
# Faces: 169
#
####
mtllib ./office_table.obj.mtl

vn -2.997060 -0.416746 0.447003
v 32.994545 -6.818459 0.375704
vn -1.946336 -1.758945 -2.030627
v 32.991550 -6.819287 0.681332
vn -3.116174 -0.363823 0.295250
v 33.001202 -6.821557 0.164054
vn -2.721729 -0.366330 -0.876599
v 32.997581 -6.821560 0.046494
vn -1.913092 -0.195907 -0.817791
v 33.015110 -6.821721 0.022976
vn -3.096978 -1.441008 0.031846
v 33.015114 -6.821598 0.437231
vn -0.384424 -0.254709 -0.921382
v 32.931038 -6.820773 0.704840
vn -4.422601 -2.866552 -0.462583
v 33.000996 -6.821454 0.281535
vn -3.014472 -2.249828 0.006399
v 33.015099 -6.821663 0.219843
vn -2.797877 -1.151752 0.583705
v 33.015099 -6.821606 0.408327
vn -0.017444 -2.711917 1.057649
v 33.344234 -6.792341 0.775482
vn -0.472317 -0.145988 1.892778
v 32.991627 -6.801705 0.745657
vn -0.031998 -0.272830 2.016988
v 33.508842 -6.801839 0.753844
vn 0.252831 -4.752009 -2.456438
v 33.062080 -7.295554 0.636024
vn 0.263071 -5.520571 -2.221240
v 33.391258 -7.302472 0.634329
vn 0.238029 -2.837979 -5.317033
v 33.203163 -7.319238 0.639782
vn -0.690966 -4.234938 -2.902903
v 33.109104 -7.348911 0.657846
vn 0.146330 -4.835464 -3.149028
v 33.156132 -7.347463 0.657857
vn -0.622557 -3.353219 -0.061651
v 33.562893 -7.293832 0.164123
vn -1.527701 -1.642852 0.037212
v 33.571411 -7.319186 0.117033
vn -1.695773 -5.740485 -1.278539
v 33.532360 -7.283403 0.093608
vn -0.981544 -1.466496 -0.688709
v 33.565121 -7.272164 0.022986
vn -0.258564 -2.820753 -0.045385
v 33.578419 -7.295720 0.446213
vn 0.122095 -3.045921 0.029372
v 33.579056 -7.294573 0.352187
vn -0.022453 -0.100050 2.315413
v 33.585751 -6.896082 0.750085
vn -5.209218 1.519333 1.594886
v 32.997059 -7.060549 0.022983
vn -3.021191 1.794236 3.886855
v 32.991547 -7.060549 0.013208
vn -2.361210 0.957892 2.485530
v 32.968037 -7.084056 0.012289
vn -5.725032 1.804837 0.557079
v 32.997108 -6.872450 0.022984
vn -2.433122 0.889749 0.664177
v 32.991547 -6.872450 0.002609
vn -2.867549 0.264369 1.900635
v 32.991547 -7.013514 0.002733
vn -0.581382 -2.493225 -1.744108
v 33.085594 -7.350964 0.681332
vn 0.202516 -2.460227 -2.036904
v 33.250191 -7.352392 0.681278
vn -0.099343 -3.119549 -0.972182
v 33.508739 -7.260549 0.022688
vn -0.027258 -0.071528 1.636294
v 33.555862 -7.342738 0.730495
vn -0.106161 -2.933698 -0.519312
v 33.320717 -7.253219 -0.008343
vn 1.246164 -1.061790 0.175217
v 33.142609 -7.248215 -0.008841
vn 2.166795 -0.148127 1.918631
v 33.156162 -7.272203 -0.008738
vn -2.263142 1.060579 0.121834
v 33.015060 -6.848935 0.005344
vn -0.314047 -0.504485 0.766056
v 32.944508 -7.084069 -0.017468
vn -2.285258 -1.617610 2.946915
v 32.948078 -7.060553 -0.000518
vn -0.088744 -0.142559 0.216474
v 32.872498 -7.013523 -0.000531
vn 0.153588 -0.475886 0.881603
v 33.156151 -7.319214 -0.022602
vn -3.150738 0.477167 -0.304142
v 32.942455 -7.201621 0.681263
vn -5.467711 0.963399 -1.859115
v 32.984730 -7.178030 0.657789
vn -3.978621 -2.410703 -3.445738
v 32.982658 -7.295533 0.657771
vn -1.633148 -0.428226 -1.817516
v 32.950256 -7.295673 0.681306
vn -0.860235 -2.389212 -3.008543
v 32.991539 -7.342700 0.673778
vn -5.015833 -0.907273 1.364836
v 32.967926 -6.872441 0.706243
vn -4.765021 0.759033 0.821860
v 32.968029 -7.154599 0.704829
vn -0.155109 -0.076170 1.692662
v 32.991550 -7.342618 0.720736
vn -4.405707 -0.985178 -3.239025
v 32.967903 -6.872455 0.703746
vn -5.520893 0.364622 -1.833474
v 32.986725 -7.130956 0.681279
vn -0.631385 -2.307563 -3.331885
v 32.991550 -6.825424 0.686878
vn -2.715736 0.968897 -4.921699
v 32.991528 -6.872449 0.695108
vn -0.012164 -1.120026 -1.110265
v 32.991547 -7.350224 0.681326
vn -0.275497 -4.013472 -0.289757
v 33.015076 -7.282969 0.234574
vn -0.941881 -2.170021 -0.021178
v 32.972763 -7.272174 0.328645
vn -0.125455 -1.877735 -0.059008
v 32.991547 -7.278041 0.187571
vn 0.110901 -6.270640 -0.006728
v 33.038582 -7.281183 0.187551
vn -2.368459 -2.249903 0.773459
v 32.981739 -7.272293 0.352206
vn -2.900521 0.112949 -0.018475
v 32.987206 -7.225083 0.258093
vn -0.890734 -1.807294 0.942289
v 33.038570 -7.248647 -0.000519
vn -5.158597 1.356473 -2.420225
v 32.990936 -6.895946 0.681328
vn -0.908776 -6.110663 -0.507344
v 33.015060 -7.291221 0.399182
vn 0.395800 -6.205822 0.148033
v 33.038559 -7.301253 0.563766
vn -2.439211 -4.239948 -0.676064
v 32.991570 -7.298074 0.446211
vn -4.485839 -1.539729 -0.105044
v 32.981071 -7.272308 0.422740
vn -2.127021 -3.296827 -2.946282
v 32.991550 -7.298909 0.657819
vn -1.206874 -5.303165 -2.491488
v 33.015060 -7.303871 0.634308
vn 1.089413 -5.650762 1.372436
v 33.057529 -7.295744 0.563769
vn -6.248470 0.385561 -0.358129
v 32.998714 -6.872291 0.281555
vn -6.008293 1.089139 0.563265
v 32.997101 -6.848857 0.399136
vn -3.631406 0.265556 0.294498
v 32.990028 -7.131120 0.093540
vn -6.267654 0.329219 0.153572
v 32.999222 -6.919345 0.069956
vn -6.103525 0.952049 0.468747
v 32.991222 -7.084115 0.070034
vn -1.009504 -2.391087 -0.520547
v 32.982258 -7.272260 0.375701
vn -3.043321 2.988124 0.258211
v 32.995125 -7.083925 0.046439
vn 0.307685 -2.168808 0.024019
v 32.984154 -7.295606 0.399154
vn -4.229357 -1.695981 -0.200558
v 33.015076 -6.828749 0.634305
vn -4.169598 1.507448 -1.271453
v 33.007469 -6.872417 0.681333
vn 0.154045 -1.060092 -1.068660
v 33.532333 -7.353072 0.704859
vn -0.051842 -0.178153 3.499804
v 33.518452 -6.824905 0.752508
vn -1.450291 -2.448535 -1.282900
v 33.030098 -7.248647 0.093522
vn -2.460218 -1.306985 -1.237355
v 33.038574 -7.265535 0.117034
vn -1.533184 -5.903769 -0.649763
v 33.062069 -7.242901 0.046412
vn -0.952955 -1.504596 -0.116166
v 33.015060 -7.213134 0.046495
vn -0.170532 -5.717230 1.648592
v 33.062077 -7.244033 0.022980
vn -6.210034 0.090960 0.384502
v 33.003944 -6.872452 0.070011
vn -5.838825 0.232765 -1.394597
v 33.001160 -6.848938 0.046497
vn -6.155852 0.966060 0.030715
v 33.004379 -6.872448 0.187569
vn -4.611605 1.437059 -1.759607
v 33.015060 -6.848938 0.029612
vn -1.491669 -4.306207 1.136111
v 33.132629 -7.248496 0.019669
vn -0.666017 -2.275150 2.209834
v 33.062084 -7.263359 -0.000542
vn -0.254054 -6.254665 -0.408917
v 33.156105 -7.295648 0.306723
vn -0.397878 -6.241572 0.171902
v 33.250191 -7.295136 0.478066
vn 0.012459 -6.189035 -1.000049
v 33.109131 -7.275718 0.164035
vn 0.482602 -3.555396 -0.809495
v 33.038597 -7.282350 0.140678
vn -0.009748 -2.799707 -1.320917
v 33.038586 -7.271888 0.122121
vn -0.572545 -6.058443 -0.471978
v 33.297215 -7.302328 0.493285
vn -0.205128 -6.216747 -0.271260
v 33.508823 -7.291231 0.563711
vn 0.204849 -2.525214 -1.383168
v 33.532318 -7.301817 0.657790
vn -0.485601 -3.421445 -0.244445
v 33.532326 -7.296249 0.587255
vn -0.256243 -5.865605 -1.716183
v 33.344219 -7.304387 0.305101
vn 0.397450 -6.260331 -0.117182
v 33.391136 -7.305118 0.328495
vn -1.013234 -2.523195 -0.965351
v 33.555801 -7.265724 0.022796
vn 0.964888 -5.961268 -0.413795
v 33.367725 -7.308399 0.328596
vn -0.192663 -6.133773 0.847325
v 33.320686 -7.303503 0.493253
vn -4.743773 -1.077283 -3.121815
v 33.005447 -6.848938 0.681331
vn -0.059543 -1.261610 0.383591
v 33.344231 -7.327809 0.328645
vn -1.705660 0.132463 0.585423
v 32.971428 -7.131082 0.022989
vn -0.971053 -6.068861 0.128495
v 33.320717 -7.303073 0.328646
vn -0.478515 0.122571 1.861535
v 32.944519 -7.037033 0.005612
vn 0.476930 2.402607 1.186858
v 32.780006 -6.731288 0.798891
vn 0.621202 1.005348 0.495022
v 32.756512 -6.716756 0.798861
vn -0.131185 1.056840 0.523366
v 32.803440 -6.728433 0.799000
vn 0.016123 2.851480 -1.318071
v 33.309032 -6.677176 0.716574
vn 0.000532 0.094120 -0.043506
v 33.109241 -6.681497 0.704782
vn 0.013009 2.300825 -1.063532
v 33.297207 -6.674373 0.722493
vn 0.208878 0.798280 0.394148
v 32.779827 -6.708022 0.751865
vn -0.000766 1.304550 0.022969
v 33.320721 -6.707867 0.916454
vn 0.002583 0.456854 -0.211177
v 33.332676 -6.682782 0.704735
vn -0.000589 1.003674 0.017671
v 33.438278 -6.709868 1.034012
vn -0.000489 0.832882 0.014664
v 33.485271 -6.706115 0.822412
# 124 vertices, 0 vertices normals


usemtl material_0
vt 0.448784 0.250412
vt 0.458774 0.253803
vt 0.498522 0.250145
f 1/1/1 6/2/6 2/3/2
vt 0.414327 0.251342
vt 0.433447 0.251393
f 3/4/3 8/5/8 1/1/1
vt 0.423396 0.253644
f 3/4/3 9/6/9 8/5/8
vt 0.454070 0.253780
f 1/1/1 10/7/10 6/2/6
vt 0.513654 0.307615
vt 0.509032 0.250203
vt 0.509991 0.334391
f 11/8/11 12/9/12 13/10/13
vt 0.617920 0.010986
vt 0.671506 0.010986
vt 0.640959 0.007567
f 14/11/14 15/12/15 16/13/16
vt 0.625730 0.001751
f 16/13/16 17/14/17 14/11/14
vt 0.633376 0.002110
f 16/13/16 18/15/18 17/14/17
vt 0.898712 0.971148
vt 0.900498 0.982582
vt 0.894670 0.978860
f 19/16/19 21/17/21 20/18/20
vt 0.992920 0.651545
vt 0.994702 0.651560
vt 0.995944 0.655518
f 26/19/26 27/20/27 28/21/28
vt 0.992920 0.620951
vt 0.996356 0.620948
vt 0.996335 0.643892
f 29/22/29 30/23/30 31/24/31
f 31/24/31 26/19/26 29/22/29
f 31/24/31 27/20/27 26/19/26

usemtl material_1
vt 0.852404 0.500341
vt 0.844106 0.496280
vt 0.848596 0.504197
f 32/25/32 14/26/14 17/27/17
vt 0.848629 0.511837
vt 0.845283 0.519356
vt 0.852617 0.527121
f 18/28/18 16/29/16 33/30/33
vt 0.540806 0.767756
vt 0.544661 0.768090
vt 0.551553 0.755345
f 40/31/40 41/32/41 42/33/42
vt 0.330252 0.039371
vt 0.326618 0.043512
vt 0.326607 0.024390
f 44/34/44 45/35/45 46/36/46
vt 0.330293 0.024133
f 46/36/46 47/37/47 44/34/44
vt 0.329250 0.016781
f 46/36/46 48/38/48 47/37/47
vt 0.340944 0.104736
vt 0.334427 0.093074
vt 0.334198 0.047194
f 12/39/12 49/40/49 50/41/50
vt 0.336890 0.016785
f 50/41/50 51/42/51 12/39/12
vt 0.334021 0.093072
f 49/40/49 52/43/52 50/41/50
vt 0.330449 0.051176
f 45/35/45 50/41/50 53/44/53
f 45/35/45 44/34/44 50/41/50
vt 0.334037 0.101214
f 7/45/7 52/43/52 49/40/49
vt 0.330478 0.101889
f 52/43/52 7/45/7 2/46/2
vt 0.331380 0.100890
vt 0.332719 0.093242
f 54/47/54 55/48/55 52/43/52
vt 0.771131 0.485517
vt 0.771237 0.493186
vt 0.778851 0.489288
f 59/49/59 60/50/60 57/51/57
vt 0.330475 0.089419
f 52/43/52 64/52/64 53/44/53
f 53/44/53 50/41/50 52/43/52
f 52/43/52 55/48/55 64/52/64
vt 0.805637 0.489035
vt 0.832477 0.492618
f 65/53/65 57/51/57 66/54/66
vt 0.813337 0.485169
f 66/54/66 67/55/67 65/53/65
vt 0.793846 0.482173
f 65/53/65 58/56/58 57/51/57
vt 0.292225 0.024080
vt 0.288360 0.028200
f 67/57/67 46/36/46 68/58/68
vt 0.847606 0.484788
vt 0.847530 0.483323
f 67/55/67 69/59/69 46/60/46
vt 0.843912 0.488683
f 69/59/69 66/54/66 70/61/70
f 69/59/69 67/55/67 66/54/66
f 66/54/66 14/26/14 70/61/70
vt 0.832407 0.495671
f 66/54/66 71/62/71 14/26/14
vt 0.326653 0.023904
vt 0.322932 0.023269
f 48/38/48 69/63/69 70/64/70
f 48/38/48 46/36/46 69/63/69
vt 0.265465 0.093397
vt 0.261598 0.035954
f 45/35/45 72/65/72 62/66/62
f 45/35/45 64/52/64 72/65/72
f 62/66/62 68/58/68 45/35/45
vt 0.284589 0.097174
f 64/52/64 73/67/73 72/65/72
vt 0.234838 0.051284
f 72/65/72 74/68/74 62/66/62
vt 0.231040 0.085789
f 72/65/72 75/69/75 74/68/74
f 45/35/45 53/44/53 64/52/64
f 68/58/68 46/36/46 45/35/45
vt 0.231018 0.058940
f 75/69/75 76/70/76 74/68/74
vt 0.227197 0.059003
f 75/69/75 78/71/78 76/70/76
vt 0.280765 0.102103
f 73/67/73 1/72/1 72/65/72
vt 0.265472 0.101680
f 1/72/1 8/73/8 72/65/72
vt 0.322930 0.100526
vt 0.290866 0.101727
f 73/67/73 80/74/80 6/75/6
f 73/67/73 64/52/64 80/74/80
vt 0.330548 0.093363
f 64/52/64 81/76/81 80/74/80
vt 0.286163 0.101731
f 6/75/6 10/77/10 73/67/73
vt 0.852278 0.485040
f 70/61/70 32/25/32 56/78/56
vt 0.850929 0.485009
f 56/78/56 48/79/48 70/61/70
f 32/25/32 18/28/18 33/30/33
f 32/25/32 17/27/17 18/28/18
vt 0.214717 0.012698
vt 0.122863 0.012708
vt 0.128917 0.097069
f 51/80/51 35/81/35 83/82/83
vt 0.214662 0.100830
f 83/82/83 12/83/12 51/80/51
vt 0.130478 0.100830
f 83/82/83 13/84/13 12/83/12
vt 0.117970 0.085474
f 35/81/35 25/85/25 83/82/83
vt 0.747771 0.497040
vt 0.759558 0.493222
vt 0.755456 0.491788
f 86/86/86 85/87/85 84/88/84
vt 0.747226 0.489223
f 84/88/84 87/89/87 86/86/86
vt 0.740243 0.493337
f 87/89/87 63/90/63 86/86/86
vt 0.743997 0.497091
f 63/90/63 88/91/88 86/86/86
vt 0.223389 0.093409
vt 0.223389 0.062823
f 75/69/75 29/92/29 26/93/26
f 26/93/26 78/71/78 75/69/75
vt 0.231070 0.093448
f 75/69/75 89/94/89 29/92/29
vt 0.227232 0.097256
f 89/94/89 90/95/90 29/92/29
vt 0.227216 0.101683
f 89/94/89 4/96/4 90/95/90
vt 0.246359 0.101687
f 89/94/89 3/97/3 4/96/4
vt 0.250199 0.093430
f 89/94/89 91/98/91 3/97/3
f 75/69/75 91/98/91 89/94/89
f 75/69/75 72/65/72 91/98/91
vt 0.255497 0.101757
f 72/65/72 9/99/9 91/98/91
f 72/65/72 8/73/8 9/99/9
vt 0.224546 0.097358
f 92/100/92 90/95/90 4/96/4
vt 0.223466 0.101785
f 4/96/4 5/101/5 92/100/92
vt 0.504701 0.804471
vt 0.515956 0.799918
vt 0.512843 0.788620
f 43/102/43 93/103/93 94/104/94
vt 0.512338 0.803997
f 43/102/43 38/105/38 93/103/93
vt 0.790914 0.512169
vt 0.818754 0.527159
f 66/54/66 95/106/95 96/107/96
f 66/54/66 57/51/57 95/106/95
f 96/107/96 71/62/71 66/54/66
vt 0.767423 0.504671
f 57/51/57 97/108/97 95/106/95
f 57/51/57 60/50/60 97/108/97
vt 0.763669 0.493280
f 60/50/60 98/109/98 97/108/97
vt 0.739014 0.510271
vt 0.739393 0.539268
f 97/108/97 37/110/37 36/111/36
vt 0.743622 0.508597
f 97/108/97 93/112/93 37/110/37
f 97/108/97 86/86/86 93/112/93
vt 0.760488 0.493250
f 97/108/97 99/113/99 86/86/86
f 97/108/97 98/109/98 99/113/99
f 86/86/86 88/91/88 93/112/93
vt 0.844343 0.549863
f 14/26/14 96/107/96 15/114/15
f 14/26/14 71/62/71 96/107/96
vt 0.821396 0.534822
f 96/107/96 100/115/100 15/114/15
vt 0.832863 0.569048
f 100/115/100 101/116/101 15/114/15
vt 0.848299 0.572760
f 101/116/101 102/117/102 15/114/15
vt 0.836787 0.572857
f 101/116/101 103/118/103 102/117/102
vt 0.756660 0.573680
vt 0.791024 0.542818
f 36/111/36 21/119/21 104/120/104
f 104/120/104 97/108/97 36/111/36
vt 0.768287 0.578579
f 21/119/21 19/121/19 104/120/104
f 104/120/104 95/106/95 97/108/97
vt 0.794880 0.550411
f 19/121/19 105/122/105 104/120/104
vt 0.744765 0.569834
f 36/111/36 34/123/34 21/119/21
vt 0.744927 0.577519
f 34/123/34 106/124/106 21/119/21
vt 0.794924 0.546622
f 105/122/105 107/125/107 104/120/104
vt 0.856784 0.572973
f 15/114/15 82/126/82 33/30/33
f 15/114/15 102/117/102 82/126/82
f 33/30/33 16/29/16 15/114/15
vt 0.798763 0.580872
f 101/116/101 105/122/105 24/127/24
vt 0.821439 0.538646
f 101/116/101 108/128/108 105/122/105
f 101/116/101 100/115/100 108/128/108
f 105/122/105 19/121/19 24/127/24
vt 0.814002 0.580605
f 101/116/101 23/129/23 103/118/103
f 101/116/101 24/127/24 23/129/23
vt 0.745077 0.579072
f 21/119/21 106/124/106 22/130/22
vt 0.761103 0.580196
f 22/130/22 20/131/20 21/119/21
vt 0.330539 0.097166
f 80/74/80 81/76/81 109/132/109
f 55/48/55 109/132/109 81/76/81
f 55/48/55 54/47/54 109/132/109
f 81/76/81 64/52/64 55/48/55

usemtl material_2
vt 0.662603 0.882080
vt 0.660730 0.878091
vt 0.655951 0.879201
f 65/133/65 79/134/79 77/135/77
vt 0.290969 0.819580
vt 0.285928 0.814161
vt 0.285889 0.819580
f 65/136/65 68/137/68 79/138/79
vt 0.047607 0.171757
vt 0.047607 0.159642
vt 0.052274 0.170091
f 94/139/94 93/140/93 88/141/88
vt 0.715523 0.851683
vt 0.711670 0.854736
vt 0.718807 0.854736
f 37/142/37 93/143/93 38/144/38
vt 0.593724 0.815186
vt 0.590576 0.819580
vt 0.596025 0.819580
f 110/145/110 104/146/104 107/147/107
vt 0.157002 0.358643
vt 0.148371 0.354627
vt 0.133545 0.358642
f 50/148/50 44/149/44 47/150/47
vt 0.050555 0.243969
vt 0.052217 0.248799
vt 0.051675 0.247784
f 52/151/52 2/152/2 54/153/54
vt 0.652867 0.881204
vt 0.649170 0.882080
f 65/133/65 61/154/61 58/155/58
f 65/133/65 77/135/77 61/154/61
vt 0.579673 0.827393
vt 0.576500 0.822390
vt 0.571045 0.827393
f 67/156/67 68/157/68 65/158/65
vt 0.899329 0.901611
vt 0.894284 0.895693
vt 0.883545 0.901611
f 70/159/70 14/160/14 32/161/32
vt 0.051514 0.534424
vt 0.051514 0.520687
vt 0.052256 0.521784
f 86/162/86 99/163/99 85/164/85
vt 0.050401 0.175049
f 63/165/63 94/139/94 88/141/88
vt 0.364122 0.830405
vt 0.363011 0.835205
vt 0.366941 0.835205
f 29/166/29 92/167/92 39/168/39
vt 0.367353 0.829801
f 39/168/39 30/169/30 29/166/29
vt 0.360107 0.833696
f 29/166/29 90/170/90 92/167/92
vt 0.199991 0.229064
vt 0.196045 0.237549
vt 0.205184 0.237549
f 9/171/9 3/172/3 91/173/91
vt 0.745310 0.819580
vt 0.741471 0.814635
vt 0.739014 0.819580
f 1/174/1 73/175/73 10/176/10
vt 0.207764 0.452393
vt 0.213041 0.452393
vt 0.210894 0.449077
f 5/177/5 39/178/39 92/179/92
vt 0.632403 0.814935
vt 0.629639 0.819580
vt 0.635194 0.819580
f 104/180/104 110/181/110 112/182/112
vt 0.875732 0.835205
vt 0.883433 0.835205
vt 0.879177 0.831636
f 107/183/107 112/184/112 110/185/110
vt 0.009258 0.757867
vt 0.000733 0.758476
vt 0.004493 0.764893
f 113/186/113 27/187/27 31/188/31
vt 0.002163 0.753271
f 113/186/113 28/189/28 27/187/27
vt 0.096343 0.150412
vt 0.094482 0.155517
vt 0.094483 0.146904
f 41/190/41 28/191/28 113/192/113
vt 0.008332 0.719709
vt 0.017488 0.712171
vt 0.009856 0.708548
f 111/193/111 74/194/74 76/195/76
vt 0.002388 0.715174
f 76/195/76 28/196/28 111/193/111
vt 0.512451 0.843018
vt 0.519341 0.841325
vt 0.515604 0.837782
f 28/197/28 78/198/78 26/199/26
vt 0.522448 0.843018
f 28/197/28 76/200/76 78/198/78
vt 0.196045 0.632293
vt 0.196046 0.639893
vt 0.203717 0.639893
f 98/201/98 60/202/60 59/203/59
vt 0.047956 0.256379
vt 0.047608 0.288330
f 80/204/80 2/152/2 6/205/6
vt 0.047607 0.248323
f 80/204/80 109/206/109 2/152/2
f 109/206/109 54/153/54 2/152/2
vt 0.128047 0.843017
vt 0.100381 0.839551
vt 0.098895 0.843018
f 108/207/108 107/208/107 105/209/105
vt 0.103418 0.832487
f 108/207/108 112/210/112 107/208/107
vt 0.110675 0.806424
f 108/207/108 95/211/95 112/210/112
vt 0.098389 0.834503
f 95/211/95 104/212/104 112/210/112
vt 0.129555 0.839502
vt 0.130320 0.831445
f 108/207/108 100/213/100 96/214/96
f 96/214/96 95/211/95 108/207/108

usemtl material_3
vt 0.706850 0.547199
vt 0.705914 0.579762
vt 0.707872 0.549092
f 117/215/117 118/216/118 119/217/119
vt 0.722949 0.636701
vt 0.722837 0.632886
vt 0.715190 0.633134
f 115/218/115 114/219/114 120/220/120
vt 0.722740 0.629072
f 120/220/120 114/219/114 116/221/116
vt 0.704807 0.543414
f 117/215/117 122/222/122 118/216/118

usemtl material_4
vt 0.196409 0.724138
vt 0.215710 0.705170
vt 0.181341 0.697237
f 121/223/121 123/224/123 124/225/124
# 169 faces, 225 coords texture

# End of File
