####
#
# OBJ File Generated by Meshlab
#
####
# Object office_chair_14.obj
#
# Vertices: 472
# Faces: 856
#
####
mtllib ./office_chair_14.obj.mtl

vn -0.789256 -0.211205 -1.785767
v 7.845297 0.226148 0.687037
vn 6.100284 1.278048 -0.078878
v 7.814011 0.246147 0.447013
vn 2.487986 0.274710 -0.205874
v 7.809657 0.286151 0.467011
vn -1.466134 -0.174632 -2.694888
v 7.825298 0.206148 0.692170
vn 2.623119 -2.473276 1.500134
v 7.839251 0.166148 0.447012
vn 5.417839 1.192413 1.822481
v 7.837695 0.186146 0.447013
vn 5.605713 0.332612 -0.753929
v 7.835431 0.086147 0.427013
vn 5.407303 0.228147 -0.326138
v 7.845283 0.166146 0.427012
vn 5.560910 -0.215796 -2.396950
v 7.805294 0.246146 0.367010
vn 3.140930 -0.744846 -1.464373
v 7.808749 0.306141 0.347010
vn 0.328120 -1.195575 3.221885
v 7.785283 0.286148 0.505203
vn 1.487410 -0.593222 -2.661520
v 7.795652 0.346157 0.307025
vn 0.149710 -1.003064 2.941252
v 7.765292 0.326146 0.524368
vn -2.190277 0.148074 2.745010
v 7.705300 0.365952 0.518171
vn -0.372343 -0.221982 1.871873
v 7.745288 0.366147 0.534325
vn -0.930833 -0.017626 1.608358
v 7.755218 0.306150 -0.052983
vn 0.214659 -0.149762 -1.408466
v 7.765290 0.406145 0.284627
vn -1.571354 1.202497 3.129509
v 7.725288 0.306147 -0.070305
vn -1.700742 -1.663249 5.269506
v 7.725287 0.326147 0.525603
vn -3.024428 -0.497832 4.721172
v 7.705287 0.346147 0.520027
vn 4.484888 -0.075006 -4.313008
v 7.804285 0.206146 0.367000
vn 4.708766 0.017004 -3.608732
v 7.825304 0.166141 0.386981
vn 3.126081 -1.611058 -4.675947
v 7.765288 0.266151 0.303806
vn 3.551479 -1.353339 -4.920928
v 7.779805 0.206141 0.347010
vn 1.919217 -2.264310 -5.511801
v 7.685295 0.146141 0.320749
vn -1.104485 1.294793 2.878258
v 7.705285 0.339494 -0.092982
vn 3.023273 -2.449187 -4.167050
v 7.745294 -0.013869 0.438534
vn 1.755191 -4.055243 -4.113962
v 7.745290 0.008169 0.407014
vn -0.016383 -0.194635 -6.030558
v 7.725294 0.326143 0.287038
vn 1.214416 -0.757589 -5.640600
v 7.725281 0.266153 0.286972
vn -0.782882 0.110351 -3.640786
v 7.705312 0.366161 0.292783
vn 1.145471 -2.165227 -5.606332
v 7.645294 0.166141 0.297918
vn 0.404324 -1.449886 -5.876112
v 7.645291 0.186142 0.291676
vn -0.558945 2.409807 3.537014
v 7.685278 0.326134 -0.091358
vn 0.274184 2.373707 2.693943
v 7.685293 0.286154 -0.061640
vn 0.118102 0.387512 0.388675
v 7.645292 0.246157 -0.009608
vn 0.062640 0.584670 0.676464
v 7.645290 0.349838 -0.112978
vn -0.808482 -0.077656 -6.032270
v 7.625297 0.226141 0.287081
vn 0.826795 -0.041245 1.266563
v 7.563542 0.506146 0.467043
vn -0.773250 0.017302 -6.188943
v 7.565279 0.326153 0.313739
vn -0.286387 0.102255 -4.344066
v 7.625291 0.366167 0.312290
vn 3.227431 0.356803 5.200728
v 7.496335 0.386147 0.507007
vn 2.631590 -1.172258 2.060649
v 7.527840 0.486153 0.507001
vn 1.014972 -0.847184 0.598594
v 7.485284 0.486149 0.587020
vn 1.563946 -0.385798 -0.492240
v 7.485278 0.488393 0.607007
vn 0.003942 -0.072925 -1.298502
v 7.585290 0.506150 0.294557
vn 4.032525 -1.454549 3.782322
v 7.470587 0.426147 0.527020
vn 4.565220 0.536268 4.034750
v 7.471593 0.386147 0.527012
vn 4.706624 -2.102778 0.548069
v 7.460685 0.446145 0.567010
vn 5.119539 -1.192408 1.672430
v 7.457549 0.426147 0.547014
vn 3.191245 1.368203 4.950247
v 7.485291 0.246147 0.523969
vn -1.673745 -0.313186 -5.955905
v 7.565288 0.206144 0.303451
vn -0.002756 -2.584547 -5.505883
v 7.625286 0.146132 0.304420
vn 0.599609 -3.135287 -5.313056
v 7.665284 0.078391 0.346944
vn 0.033494 -3.553065 -5.157031
v 7.625286 0.046130 0.368708
vn -0.938956 -2.077900 -5.692388
v 7.585286 0.146130 0.309380
vn 0.003538 -1.132446 -6.172942
v 7.545291 0.346144 0.311922
vn -1.160729 0.039847 -5.776398
v 7.465288 0.386151 0.300932
vn 2.276239 -0.955914 1.175337
v 7.475288 0.186147 0.547013
vn -2.508084 -1.033095 -4.094010
v 7.445272 0.086108 0.366934
vn -2.068254 -2.326759 -4.544110
v 7.465295 0.086194 0.353235
vn -2.225561 -0.239369 -5.766697
v 7.545286 0.206145 0.309692
vn -1.518099 0.014254 -0.724563
v 7.469582 0.506150 0.327020
vn -2.438559 0.651687 -5.520905
v 7.445291 0.371466 0.307011
vn -1.554753 0.958214 -3.780124
v 7.485285 0.446148 0.307007
vn 1.690260 0.193570 2.028965
v 7.485288 0.446146 0.707015
vn -1.391997 -1.168724 -5.902130
v 7.505312 0.286144 0.328211
vn -0.305276 -2.003182 -5.929588
v 7.505287 0.289574 0.326998
vn -1.459410 -2.154310 -4.930174
v 7.425288 0.326152 0.315636
vn 2.003615 2.310123 2.150785
v 7.451348 0.206148 0.547011
vn 3.359037 0.294010 4.686773
v 7.475632 0.246149 0.527012
vn 5.545570 -1.764458 1.990342
v 7.405302 0.206139 0.615119
vn 5.522957 -1.707136 2.318287
v 7.445328 0.280131 0.587012
vn 4.288679 -0.693429 4.197298
v 7.445287 0.206148 0.555520
vn 3.611909 -0.799538 4.180952
v 7.445290 0.166147 0.545228
vn 3.065692 -0.385681 4.615222
v 7.440252 0.166146 0.547016
vn 5.372307 -1.170076 2.486261
v 7.405289 0.195495 0.607013
vn 5.906526 1.573397 0.402232
v 7.405283 0.106147 0.647012
vn 5.573714 0.018105 2.582760
v 7.411274 0.126150 0.587004
vn 5.774562 -1.671368 0.462086
v 7.401637 0.086146 0.607013
vn 5.278048 -1.662745 -2.387738
v 7.405285 0.066147 0.630797
vn -3.671593 1.878901 1.424729
v 7.403400 0.466149 0.487016
vn -3.925068 -0.117969 -2.012614
v 7.405302 0.466151 0.445108
vn -5.216656 0.094022 -3.272381
v 7.421292 0.446151 0.427017
vn 0.719251 1.133664 3.093829
v 7.445290 0.466144 0.720840
vn -3.876585 2.377344 -1.276856
v 7.378415 0.406147 0.467012
vn 6.017180 0.660266 0.977985
v 7.392956 0.146147 0.647014
vn 6.057178 -0.556500 0.959059
v 7.390029 0.186146 0.667013
vn 3.543165 0.538711 1.363654
v 7.418622 0.086148 0.667011
vn 5.866132 0.307239 1.833984
v 7.401062 0.086146 0.687013
vn -2.785084 0.377027 0.303554
v 7.418045 0.486147 0.527012
vn -3.791760 0.438268 -1.837247
v 7.405287 0.466147 0.549171
vn -2.537201 -0.139471 -0.858362
v 7.385288 0.486147 0.587013
vn -1.182396 0.184571 -0.613511
v 7.379743 0.486148 0.607011
vn -4.688365 2.285946 -2.700282
v 7.394253 0.446147 0.567013
vn -4.626764 2.266102 -0.085527
v 7.412630 0.446146 0.527013
vn -3.228794 3.281849 -1.145670
v 7.375226 0.406147 0.507013
vn -4.167728 3.619759 1.429940
v 7.385289 0.423671 0.507013
vn -4.093801 1.336285 -4.462113
v 7.385288 0.406147 0.455235
vn -3.519171 1.103377 -2.123323
v 7.465275 0.460768 0.327010
vn -5.007849 1.179033 -3.195777
v 7.419270 0.426160 0.427002
vn -4.826786 2.184154 -2.719461
v 7.413005 0.406183 0.426995
vn -2.508387 -1.346992 -5.124743
v 7.405291 0.326149 0.323847
vn 6.109265 -0.155126 0.106772
v 7.397484 0.106144 0.727014
vn 4.291250 -1.277477 -0.883301
v 7.417108 0.066151 0.647012
vn -0.684468 3.447606 5.108122
v 7.385287 0.418926 0.747015
vn -1.734684 3.874390 3.929528
v 7.365289 0.406011 0.755686
vn -0.945523 0.766647 -0.931885
v 7.348013 0.446148 0.627012
vn -4.754571 2.855523 -1.341194
v 7.336380 0.426149 0.667014
vn -4.759728 1.107252 -1.691797
v 7.362308 0.366144 0.507014
vn 3.489733 -0.160330 5.076565
v 7.405290 0.366143 0.756795
vn 3.065984 2.183861 4.754159
v 7.385290 0.386148 0.765024
vn -5.467331 2.697414 -0.923399
v 7.347427 0.326149 0.487012
vn -2.308776 -0.924958 -5.578473
v 7.485295 0.246152 0.345049
vn -1.803633 -1.585569 -5.769992
v 7.445289 0.226150 0.359899
vn 5.792648 -1.754733 1.651018
v 7.405298 0.266139 0.714465
vn 5.992757 -1.531641 0.952139
v 7.385317 0.212811 0.727031
vn 5.263279 -0.057220 3.341383
v 7.392399 0.326150 0.767013
vn 5.586038 -1.499715 2.336171
v 7.405314 0.286123 0.732072
vn 1.297881 5.427702 2.054420
v 7.365289 0.396587 0.767014
vn -5.541195 1.811064 -0.290794
v 7.323171 0.306147 0.567013
vn -4.753784 1.801543 -0.202128
v 7.321024 0.286146 0.547013
vn 2.663069 1.587925 5.423171
v 7.325292 0.386148 0.836561
vn 4.821599 0.196773 3.547899
v 7.351984 0.266150 0.847013
vn -5.326119 3.098231 -0.756028
v 7.345352 0.323854 0.467030
vn -4.962467 3.638685 -0.915536
v 7.305287 0.257980 0.467012
vn 1.711981 1.908467 5.145654
v 7.305287 0.342646 0.867013
vn -4.350577 3.782049 0.228639
v 7.325286 0.387315 0.727014
vn -4.919042 1.281418 -1.795408
v 7.313657 0.366143 0.747017
vn 2.831216 -0.827882 4.298328
v 7.317949 0.246146 0.887008
vn 2.887416 -2.057444 5.046226
v 7.305288 0.226147 0.877711
vn 0.597153 2.909619 1.272948
v 7.325288 0.420160 0.827014
vn -2.706925 2.715698 2.788473
v 7.265290 0.366146 0.853259
vn 0.762244 2.617392 5.005214
v 7.285293 0.301644 0.887018
vn -2.539413 3.313573 4.548113
v 7.265288 0.306147 0.877230
vn 0.792580 1.543260 4.606674
v 7.285287 0.286147 0.897082
vn 0.357063 -0.972566 5.714562
v 7.285296 0.246150 0.895936
vn -1.342611 3.986320 -0.455101
v 7.305287 0.418487 0.807013
vn -5.498700 3.027696 0.055453
v 7.345287 0.322154 0.487012
vn -0.748501 0.135282 1.039717
v 7.765265 0.346149 -0.046730
vn 3.788179 -0.920110 -0.800626
v 7.841330 0.066141 0.427011
vn 3.870165 -2.148573 0.365846
v 7.414696 0.086148 0.587013
vn 5.055074 -0.237565 0.606537
v 7.401366 0.106143 0.747000
vn 5.032152 -0.040124 3.628156
v 7.337642 0.186146 0.847022
vn 5.892256 -0.088672 1.984965
v 7.374358 0.186154 0.767014
vn -5.038691 1.473309 -0.356130
v 7.330605 0.326147 0.567013
vn -4.581830 1.836861 -1.516284
v 7.345287 0.346147 0.547013
vn -4.546481 1.691625 -3.157962
v 7.325289 0.346147 0.571928
vn -4.411001 1.202570 -3.419933
v 7.335290 0.386147 0.587013
vn -4.448141 2.442398 -3.159600
v 7.335288 0.366147 0.587013
vn -5.762415 0.178151 -0.897546
v 7.345288 0.349645 0.547013
vn -4.468799 3.365260 -0.875323
v 7.365288 0.404244 0.567013
vn -4.058563 1.430616 -3.407532
v 7.401466 0.346138 0.327025
vn -3.929128 -0.904897 -4.296643
v 7.400661 0.326149 0.327023
vn -5.247483 2.086511 -2.469969
v 7.362293 0.306133 0.387016
vn -3.830795 -0.197830 -4.704950
v 7.345282 0.246146 0.397116
vn 5.755189 0.970451 1.714501
v 7.813024 0.226147 0.467013
vn 4.583210 0.728676 3.928972
v 7.820342 0.166146 0.467015
vn 3.055399 -3.388975 -1.635623
v 7.783685 0.006143 0.447009
vn -0.129649 -3.683283 -4.981240
v 7.605287 -0.013856 0.408822
vn 0.241821 -3.021113 -3.918757
v 7.565289 0.006147 0.398947
vn 3.166456 0.914122 5.241800
v 7.505282 0.326147 0.515483
vn 1.504463 -0.210034 3.021247
v 7.525290 0.306147 0.519544
vn 3.240300 -2.025824 4.762016
v 7.505288 0.286146 0.509421
vn 3.151608 2.010020 4.794839
v 7.465288 0.206146 0.543282
vn 2.863279 -0.665814 1.211986
v 7.495289 0.226147 0.527013
vn 4.890562 -3.206399 -0.521959
v 7.475288 0.206147 0.527013
vn 6.068311 -0.545711 -0.901757
v 7.458785 0.366147 0.607014
vn 5.725099 -2.078338 1.473055
v 7.445343 0.286126 0.595073
vn 5.716787 -1.935387 -0.223079
v 7.483877 0.406137 0.667025
vn 4.119924 0.243974 -0.490430
v 7.455288 0.166147 0.527013
vn -1.662054 1.487014 2.369548
v 7.365287 0.486147 0.691190
vn -0.599390 0.885449 1.495558
v 7.385289 0.506148 0.695376
vn -1.560994 2.265520 -0.172421
v 7.365288 0.440014 0.567013
vn -2.721355 5.114038 -1.756376
v 7.385288 0.438207 0.567013
vn -4.045685 2.421947 -1.798563
v 7.365288 0.426147 0.587013
vn -2.146035 0.373232 -2.311020
v 7.365288 0.426147 0.552496
vn -5.080699 1.987085 -2.149188
v 7.366594 0.406147 0.567013
vn -3.239309 4.541680 -1.603343
v 7.385288 0.426147 0.547013
vn -2.909868 0.182384 -1.255929
v 7.365288 0.386147 0.527013
vn -5.020607 2.002127 -1.874818
v 7.355289 0.406147 0.527013
vn -4.473584 2.061107 -3.543101
v 7.385320 0.382697 0.447022
vn -5.292375 0.404598 -2.089796
v 7.369349 0.366121 0.467027
vn 5.748829 -1.993776 1.421825
v 7.381225 0.066148 0.747013
vn -3.335927 3.398527 3.937926
v 7.365289 0.426146 0.731486
vn 4.683815 1.261122 3.567167
v 7.339070 0.386148 0.827018
vn 2.901446 1.129603 1.021377
v 7.341145 0.406148 0.827013
vn 3.508446 4.783269 -0.910421
v 7.331491 0.406147 0.807013
vn -1.957656 4.444793 3.609912
v 7.285288 0.377355 0.847013
vn 0.138181 2.723686 4.782887
v 7.305287 0.386147 0.844553
vn -0.216307 2.972828 5.389777
v 7.285288 0.366147 0.855776
vn -1.047096 5.620399 -1.340123
v 7.325285 0.398235 0.767010
vn -4.951062 2.130948 -3.008050
v 7.300089 0.366143 0.765579
vn 4.123623 0.255599 4.547336
v 7.315714 0.206147 0.867013
vn -3.881828 2.177979 0.118439
v 7.257440 0.366147 0.827014
vn -3.499154 1.544900 -2.259338
v 7.269799 0.366143 0.807018
vn -1.122843 -0.806104 -0.978906
v 7.825288 0.266147 0.677050
vn -2.503019 -0.387685 -3.928308
v 7.805290 0.266147 0.699988
vn -2.334596 0.266950 0.564947
v 7.807669 0.346147 0.707013
vn -4.067556 0.212872 -1.023685
v 7.793581 0.266147 0.707015
vn -2.857762 -0.510136 -0.275786
v 7.808817 0.186147 0.707012
vn -0.792875 -0.136798 0.611742
v 7.816646 0.166146 0.727089
vn -3.346503 -0.323082 3.857224
v 7.802779 0.246147 0.727006
vn -0.803551 0.084663 0.609846
v 7.815524 0.366146 0.727140
vn -0.301525 0.005246 2.549047
v 7.845261 0.266165 0.731990
vn 3.419603 0.087900 0.977421
v 7.814719 0.266145 0.487041
vn 4.730148 -0.789845 2.613534
v 7.813762 0.246146 0.487037
vn 2.839654 0.544477 3.969588
v 7.813509 0.206146 0.487028
vn 1.111503 -0.723738 3.369818
v 7.805287 0.266147 0.496433
vn 3.005523 0.026173 4.896922
v 7.805292 0.221077 0.487038
vn 2.212563 0.928195 5.664645
v 7.793556 0.166146 0.487034
vn 3.194666 0.639559 3.887661
v 7.817070 0.146147 0.487012
vn 2.304396 -0.599757 2.565477
v 7.825288 0.066147 0.476655
vn 3.103040 -0.588491 4.991866
v 7.805297 0.086146 0.482463
vn 1.068648 -1.484049 -1.051650
v 7.778801 -0.013858 0.467009
vn 3.742677 -2.975789 -3.905243
v 7.759123 -0.013856 0.447010
vn 1.697866 -3.811726 -0.114806
v 7.765293 -0.022177 0.467008
vn 1.760681 -1.647424 -3.927467
v 7.745289 -0.033853 0.437099
vn 1.158338 -3.090672 -0.105051
v 7.745289 -0.043767 0.447013
vn 0.398215 -3.786889 -4.879777
v 7.725287 -0.033845 0.438086
vn 0.802859 -5.044802 -1.110357
v 7.725288 -0.042789 0.447013
vn -0.184823 -3.360291 -2.692205
v 7.685289 -0.043760 0.447014
vn -1.862497 0.361240 1.818088
v 7.683249 0.386156 0.487035
vn -0.266379 -2.191140 5.834008
v 7.745288 0.280041 0.507010
vn -0.648959 -0.979489 6.061015
v 7.745295 0.246145 0.495818
vn -4.141144 0.036804 4.616718
v 7.674741 0.346145 0.487019
vn -2.394436 -2.160487 5.323356
v 7.725290 0.291533 0.507010
vn -0.021603 -2.386313 1.560088
v 7.686535 -0.053852 0.467013
vn 1.031503 -3.788541 -4.755599
v 7.665289 -0.021214 0.427012
vn 0.940299 -3.543025 -2.118198
v 7.645281 -0.042945 0.426955
vn 0.354425 -4.308389 1.829872
v 7.665289 -0.039496 0.467015
vn 0.505482 -4.338574 -1.624564
v 7.665290 -0.035979 0.447001
vn -0.518848 -1.791281 1.870280
v 7.765287 -0.019648 0.487065
vn 0.581828 1.336506 2.837269
v 7.785287 0.026147 0.495062
vn 0.317395 -2.641226 4.952904
v 7.745287 -0.013856 0.487064
vn 1.434516 -0.113322 5.987309
v 7.765286 0.046143 0.488634
vn 0.606553 -0.484229 6.107677
v 7.745286 0.086149 0.499992
vn 1.224772 -2.903464 4.101366
v 7.725287 -0.025916 0.487052
vn -0.764283 -2.977597 4.898983
v 7.625287 -0.033856 0.482933
vn -0.539057 -0.981552 -0.305942
v 7.585289 -0.050594 0.447013
vn 0.385888 -5.769506 -0.926521
v 7.605289 -0.041641 0.447013
vn -0.966321 -5.059374 -3.194692
v 7.605281 -0.033900 0.426940
vn -1.368881 0.223944 2.593495
v 7.665262 0.386166 0.470174
vn -1.612254 -0.076594 5.717142
v 7.685291 0.226148 0.468511
vn -1.942245 -0.376581 5.880192
v 7.647754 0.306147 0.466985
vn -0.066288 0.441539 6.111701
v 7.745297 0.186143 0.499012
vn 0.135727 0.548865 6.011982
v 7.745296 0.166142 0.501601
vn 2.806983 0.070986 5.592908
v 7.545290 0.346147 0.487019
vn 3.952012 -0.180887 4.770903
v 7.545288 0.326147 0.487013
vn -2.489402 0.773273 5.232387
v 7.685291 0.206147 0.469176
vn -2.143719 1.197780 5.731000
v 7.705292 0.186144 0.488630
vn 4.858639 -3.592660 -1.222874
v 7.485289 0.229033 0.507013
vn 5.661291 -1.705734 1.248700
v 7.495392 0.246147 0.507013
vn -0.800438 -5.279246 -2.669535
v 7.564528 -0.025625 0.426576
vn 1.315319 -3.516959 -4.234169
v 7.565282 -0.014354 0.418251
vn -1.879468 -5.655618 -0.389240
v 7.577972 -0.033846 0.447014
vn 0.603187 -2.375437 -1.030921
v 7.545288 -0.013858 0.397326
vn 4.686845 -3.577410 1.732184
v 7.485287 0.227893 0.487011
vn 4.918342 0.925074 2.615777
v 7.542313 0.306147 0.487012
vn 4.319819 -3.088260 2.930932
v 7.499009 0.246148 0.487012
vn 3.819405 -0.284328 3.553330
v 7.535282 0.306152 0.507007
vn 0.821760 0.087877 2.150303
v 7.605287 0.406141 0.466992
vn 2.430279 -1.504740 5.369297
v 7.565286 0.286150 0.460504
vn 2.062351 -0.960057 5.095329
v 7.585293 0.366148 0.469097
vn -0.134873 -0.150111 2.664911
v 7.625291 0.386150 0.465284
vn -0.050021 -0.458477 6.160055
v 7.565287 0.226147 0.450295
vn -0.883857 1.043668 5.886693
v 7.545296 0.126146 0.449110
vn -1.703640 1.520379 5.815866
v 7.585283 0.106141 0.470808
vn -0.415261 1.436423 5.919323
v 7.525291 0.106152 0.451038
vn 4.608957 -3.938847 -0.905197
v 7.465288 0.206147 0.507013
vn 4.709733 -3.475809 -1.506378
v 7.448502 0.186148 0.507013
vn 4.399348 -3.911366 1.713690
v 7.467046 0.206148 0.487012
vn 2.369223 -3.253464 4.390923
v 7.482513 0.206145 0.467015
vn 1.646272 -1.963714 5.633699
v 7.485288 0.186148 0.455516
vn 4.458658 -4.098371 -0.393410
v 7.429006 0.166147 0.487013
vn 4.291029 -3.572219 -2.852433
v 7.425289 0.147801 0.507013
vn 4.729626 -2.151141 0.806322
v 7.425291 0.112571 0.567013
vn 2.947046 -0.754493 1.053060
v 7.454571 0.146148 0.547013
vn -1.571595 -1.441202 5.080052
v 7.605291 -0.013850 0.487013
vn -1.443368 -1.093533 5.676102
v 7.585288 0.006146 0.484912
vn -2.053991 -4.466711 3.632242
v 7.605287 -0.033854 0.471006
vn -0.618366 0.062230 6.115675
v 7.545293 0.026148 0.478930
vn -1.711264 -1.493079 -2.764779
v 7.425275 0.046149 0.378029
vn -0.680261 0.083294 0.206419
v 7.405301 0.526147 0.470578
vn -1.310477 -0.169317 -0.789165
v 7.405292 0.526146 0.436423
vn -3.086569 -0.451733 -2.142899
v 7.371003 0.426147 0.467014
vn -1.353244 1.264803 -1.985278
v 7.375288 0.446147 0.467013
vn -0.734771 1.063765 1.962725
v 7.385290 0.460575 0.487012
vn -3.824227 0.030225 1.143479
v 7.370599 0.426147 0.487012
vn -2.965461 -0.331709 -5.503711
v 7.405284 0.126146 0.388627
vn 0.514750 -0.895790 5.996151
v 7.425290 0.126146 0.453376
vn -1.491233 -2.672433 5.292841
v 7.405290 0.126146 0.452164
vn -0.259489 1.613866 6.008931
v 7.425289 0.106144 0.455413
vn -0.616190 0.848273 5.721257
v 7.425290 0.066136 0.474592
vn -3.290987 -0.362792 5.034421
v 7.392576 0.126147 0.447013
vn -1.357981 1.747966 2.407695
v 7.387279 0.066144 0.467026
vn -2.651330 -2.291380 4.390612
v 7.405289 0.026146 0.462856
vn -3.584653 -0.109613 3.445822
v 7.385288 0.066147 0.465250
vn -5.238344 -0.417617 0.983886
v 7.369908 0.126146 0.427011
vn -2.952264 -3.261334 0.403201
v 7.405279 0.008304 0.447008
vn -3.504508 -2.359203 -3.388532
v 7.411389 0.046150 0.386987
vn -3.961127 -0.527335 -4.479602
v 7.405285 0.086145 0.387012
vn -4.422889 -0.217126 1.100063
v 7.372107 0.086146 0.447012
vn -3.830880 0.034662 -1.870228
v 7.355289 0.386147 0.467013
vn -3.057996 3.488134 -1.888638
v 7.365288 0.402370 0.467013
vn -3.766600 4.360242 -1.858322
v 7.365288 0.402956 0.507013
vn -5.468000 -0.080929 0.542334
v 7.355289 0.386147 0.507013
vn 4.901107 -3.272697 -1.662393
v 7.391186 0.066146 0.587012
vn 4.888701 -3.535892 0.462772
v 7.375019 0.046151 0.747012
vn 4.290841 -4.199549 0.342071
v 7.385283 0.031703 0.647012
vn 5.576813 -2.622743 -1.132059
v 7.385298 0.046140 0.607008
vn -1.680593 0.167841 -0.520314
v 7.345289 0.466147 0.651140
vn -2.925431 0.738297 1.292690
v 7.335289 0.466148 0.687015
vn -5.203144 2.400238 -1.708757
v 7.335290 0.406147 0.607013
vn -4.102945 0.680562 -0.921899
v 7.345289 0.446147 0.647013
vn -3.055439 3.121460 -2.040283
v 7.335289 0.406147 0.647013
vn -3.358383 1.790478 -1.738652
v 7.345289 0.443421 0.627013
vn -4.084828 2.372767 -3.994463
v 7.345289 0.386147 0.537013
vn -4.399031 3.514479 0.619491
v 7.345289 0.396147 0.547013
vn -3.084456 0.427287 4.448606
v 7.345288 0.386147 0.557013
vn -3.476892 1.187147 0.413034
v 7.335291 0.386147 0.547013
vn -1.345818 -0.591230 -5.998153
v 7.365282 0.186145 0.398270
vn 0.819557 -5.043294 2.342350
v 7.405290 0.142067 0.467013
vn 3.126457 -4.473722 -2.832212
v 7.405288 0.112140 0.527013
vn 2.567981 -3.789352 -4.160867
v 7.359011 0.106143 0.507010
vn 2.893933 -4.815410 -2.314702
v 7.405287 0.139703 0.487013
vn 3.903645 -4.686492 1.433872
v 7.365289 0.028143 0.687013
vn 3.836634 -4.023932 -0.477393
v 7.345290 0.006146 0.681107
vn -5.995220 -1.097313 -0.450618
v 7.315287 0.326147 0.607013
vn -4.811820 0.942201 -1.615674
v 7.315293 0.346146 0.587014
vn -3.341422 3.493472 1.394027
v 7.325291 0.421451 0.687012
vn -5.388638 2.910749 -0.537145
v 7.308651 0.366149 0.687014
vn -5.751469 1.764457 -1.395536
v 7.325289 0.374847 0.607013
vn -3.356588 3.330264 -1.406772
v 7.325290 0.421798 0.667014
vn -5.415666 2.547362 -1.052652
v 7.325290 0.286147 0.507013
vn -3.422812 1.664537 -0.531920
v 7.315289 0.326147 0.547013
vn -5.635832 1.771775 -1.326142
v 7.315589 0.286144 0.527013
vn -3.331724 3.867528 0.044607
v 7.325291 0.336147 0.547013
vn -1.328752 0.300151 -6.037087
v 7.345286 0.206146 0.399058
vn -4.115788 1.578427 -4.289017
v 7.330313 0.206145 0.406995
vn -2.398572 -1.881145 -5.405269
v 7.365291 0.146147 0.402866
vn -2.313936 -0.346421 -4.150875
v 7.325289 0.186147 0.398140
vn -0.486733 -5.276840 -2.730278
v 7.345290 0.146146 0.463113
vn 3.247991 -3.695926 -1.861182
v 7.373656 0.026143 0.587012
vn -5.473163 2.678260 -0.311309
v 7.295290 0.346146 0.707013
vn -4.594511 3.299330 -0.715341
v 7.305283 0.362783 0.687014
vn -5.727268 1.396295 -1.839366
v 7.295287 0.306147 0.667013
vn -5.215309 2.243622 -1.910154
v 7.315286 0.346148 0.647013
vn -4.912832 2.590816 -2.099785
v 7.305283 0.335222 0.647013
vn -5.179276 3.023001 -1.721536
v 7.305292 0.267578 0.547012
vn -4.559187 2.515209 -1.869777
v 7.315284 0.326149 0.627012
vn -5.117651 3.267133 -1.364756
v 7.296036 0.266148 0.567013
vn -4.062508 -4.705576 0.908105
v 7.325289 0.160434 0.447014
vn -3.201344 -4.068791 -1.349307
v 7.325289 0.156337 0.427013
vn -4.058963 -0.064701 -2.494399
v 7.316416 0.186147 0.407013
vn -5.238240 -1.660421 -2.603316
v 7.305281 0.186148 0.443563
vn 3.746807 -1.003271 2.064193
v 7.374747 0.046141 0.767020
vn 3.962281 -3.710145 2.968545
v 7.353486 0.046141 0.787019
vn 3.905256 -2.353369 2.830977
v 7.354220 0.066154 0.827013
vn 1.424522 -3.805578 -2.843883
v 7.345290 0.030599 0.547012
vn 2.430863 -1.201276 -4.926203
v 7.345296 0.106143 0.497472
vn 2.516087 -5.555080 0.719373
v 7.345291 0.027462 0.727013
vn 3.094100 -5.090644 -0.961221
v 7.352475 0.026149 0.747012
vn 0.505560 -3.477114 1.777258
v 7.305295 0.027228 0.807020
vn -1.745210 -4.163345 0.042356
v 7.305288 0.026146 0.799851
vn 1.884577 -4.716440 1.121034
v 7.345295 0.019641 0.767020
vn -1.685794 -4.848451 -2.183110
v 7.305288 0.026145 0.562777
vn -3.424083 -3.131267 0.550577
v 7.296644 0.046147 0.787013
vn -3.388569 3.892595 -0.800995
v 7.305285 0.250145 0.527012
vn -2.791616 5.111767 -0.599689
v 7.285286 0.250545 0.567012
vn -4.577303 2.393410 -3.393358
v 7.285288 0.228404 0.467013
vn -3.899296 4.426538 -0.948343
v 7.285288 0.244074 0.487013
vn -2.062005 5.681493 -1.014163
v 7.285287 0.246149 0.517318
vn 2.107759 -1.232445 5.703287
v 7.285289 0.226147 0.887014
vn -0.500759 -0.312625 5.971294
v 7.265289 0.226147 0.892442
vn 1.536179 0.699940 5.935725
v 7.285290 0.206147 0.887016
vn 3.314585 0.952725 3.166524
v 7.313438 0.186147 0.887014
vn -2.374379 1.614436 -4.283604
v 7.285288 0.226147 0.465646
vn -4.625079 1.743958 -2.388849
v 7.269231 0.226147 0.487012
vn 3.367455 -1.002643 1.698624
v 7.313143 0.166147 0.887014
vn 3.586690 0.275843 4.430500
v 7.325300 0.126148 0.876722
vn 2.973786 -0.243189 5.372859
v 7.305288 0.146147 0.883599
vn 3.346408 -1.121844 4.417260
v 7.325311 0.106145 0.875659
vn -4.326185 -3.977408 -1.521192
v 7.318610 0.166151 0.447019
vn -4.851301 -2.069424 -3.223470
v 7.303338 0.186153 0.447014
vn -1.008627 -2.932507 -4.906390
v 7.325278 0.086144 0.505556
vn -1.413292 -3.470865 -4.631721
v 7.325277 0.119650 0.486997
vn 0.339486 -2.317337 4.786156
v 7.285292 0.086142 0.887017
vn -1.600707 -4.538139 1.955742
v 7.285006 0.030370 0.767013
vn -0.437380 -3.757957 3.237731
v 7.285289 0.066145 0.872691
vn 1.406116 -1.010189 0.526766
v 7.345286 0.000814 0.687013
vn -2.411603 -5.248103 1.514325
v 7.294783 0.026142 0.767013
vn -3.291570 -4.175149 1.005701
v 7.302859 0.026134 0.787014
vn 0.886288 -5.006139 -0.925605
v 7.345283 0.000291 0.627014
vn -1.862842 -5.576877 -1.254756
v 7.305283 0.015606 0.607012
vn -5.404216 2.254704 -1.003680
v 7.295288 0.266144 0.627014
vn -3.119979 4.333295 -0.999204
v 7.285286 0.250543 0.627012
vn -2.868186 3.540850 -0.701740
v 7.275281 0.286155 0.747007
vn -4.583584 3.510663 -2.242463
v 7.285297 0.266142 0.647015
vn -4.890270 1.596549 -1.510215
v 7.285289 0.286146 0.702917
vn -4.762798 2.861911 -1.464586
v 7.275288 0.286148 0.727014
vn -3.072118 3.556417 -0.893846
v 7.251797 0.246145 0.547013
vn 0.032461 0.043357 5.783817
v 7.285287 0.166147 0.895113
vn -5.028240 1.433769 -2.239947
v 7.252652 0.226147 0.527014
vn -5.584964 0.231974 -1.171641
v 7.245307 0.226147 0.547015
vn -4.005059 -2.956771 2.131558
v 7.252040 0.086145 0.867014
vn -3.324453 -0.171155 2.339569
v 7.254874 0.106147 0.887016
vn -1.700078 -0.304716 4.450140
v 7.265287 0.126147 0.896287
vn -2.504160 -2.539133 -0.224028
v 7.265280 0.038902 0.767013
vn -5.639406 -0.401291 -1.979029
v 7.252345 0.166136 0.527007
vn -4.018216 -4.542223 -1.228498
v 7.288759 0.026092 0.606995
vn -4.951882 -1.911284 -2.185226
v 7.256127 0.146142 0.527005
vn -3.368136 -2.927607 -2.805525
v 7.289882 0.046129 0.547008
vn -4.284050 -3.811368 -0.572493
v 7.283069 0.026112 0.627000
vn -3.374880 -1.174097 -0.115527
v 7.245288 0.061116 0.787014
vn -4.548587 -1.985065 1.192857
v 7.246442 0.086140 0.847016
vn -6.044191 -0.320759 -0.694574
v 7.228411 0.166121 0.686998
vn -5.741794 2.133238 -0.891104
v 7.242477 0.226147 0.667010
vn -4.055918 4.534455 -1.098599
v 7.260205 0.246146 0.647013
vn -5.329483 2.450678 -1.956233
v 7.243944 0.286145 0.787013
vn -3.421373 0.820350 2.789225
v 7.253512 0.286147 0.887014
vn -5.672163 1.568479 0.163475
v 7.246522 0.326148 0.827016
vn -3.139486 0.022743 3.010953
v 7.245291 0.206147 0.888335
vn -5.886508 -0.542237 1.463320
v 7.232677 0.166146 0.847013
vn -4.103764 2.529198 2.202645
v 7.252103 0.306148 0.867015
vn -5.289060 -0.175031 2.665221
v 7.238731 0.186146 0.867014
vn -5.957938 1.224867 -0.072302
v 7.238855 0.286150 0.807015
vn -4.025492 0.535419 3.921066
v 7.256690 0.246152 0.887022
vn -5.994682 0.745427 0.235412
v 7.225244 0.226143 0.789176
vn 3.111456 -2.250492 -4.180518
v 7.803210 0.066133 0.386986
vn -1.088404 0.562664 1.691043
v 7.710728 0.346149 -0.092986
vn -1.473369 1.099232 5.896812
v 7.615293 0.166147 0.459143
vn -4.664302 1.335956 -3.714015
v 7.404056 0.446147 0.447012
vn -1.545839 1.690617 -0.557688
v 7.305288 0.399610 0.747013
vn -3.198270 4.298584 -0.813764
v 7.365291 0.419532 0.527013
vn 1.911069 -3.343663 -4.504477
v 7.765291 0.038379 0.387001
vn 3.846095 -1.443904 0.476701
v 7.491544 0.426147 0.687013
vn 5.206054 -0.315485 3.178933
v 7.465278 0.306146 0.549755
vn 4.945391 -1.140370 3.500562
v 7.344752 0.225807 0.847017
vn -4.392792 2.607209 2.194635
v 7.338899 0.426147 0.687013
vn -3.298557 3.365810 -0.290223
v 7.291330 0.406142 0.807019
vn 4.522975 -1.026501 3.050823
v 7.485287 0.426146 0.707009
vn 3.918470 -2.801090 3.459981
v 7.805291 0.046145 0.467018
vn 1.737990 -5.002407 0.807295
v 7.345284 0.000631 0.647014
vn -0.114593 -4.787545 1.648923
v 7.325291 0.006151 0.707013
vn -1.965481 -3.667901 -0.548414
v 7.285287 0.040555 0.807014
vn -0.331667 -3.580890 3.446621
v 7.505288 -0.017359 0.467014
vn -5.200768 1.606495 0.286359
v 7.275294 0.306145 0.727012
vn -0.426145 -6.008369 -1.261021
v 7.625288 -0.040971 0.447013
vn -3.307135 -4.375221 0.815016
v 7.366883 0.146145 0.427009
vn -5.578107 0.613864 -0.823286
v 7.249374 0.166134 0.547006
vn 2.457449 -1.644057 0.359269
v 7.785288 0.016244 0.467013
vn 2.285849 0.623328 1.554575
v 7.793327 0.026147 0.487013
vn -2.081379 -5.195774 2.477376
v 7.605289 -0.035989 0.467013
vn -0.533808 -3.272879 0.454847
v 7.625288 -0.053853 0.467013
vn -0.178257 -3.803316 -1.517929
v 7.485288 -0.020315 0.427012
vn 0.332024 -3.026395 0.121096
v 7.485288 -0.033855 0.447011
vn -4.590489 -2.184255 -3.241381
v 7.376738 0.126147 0.407013
vn -3.062684 -4.353235 -3.040322
v 7.345289 0.159195 0.407013
vn -1.150139 -5.744177 0.131941
v 7.325290 0.004220 0.667013
vn 3.668768 -4.947207 1.120208
v 7.365288 0.022132 0.667013
vn -1.527655 -5.897205 0.743173
v 7.305285 0.020088 0.727013
vn 1.010145 -5.463973 1.524850
v 7.325289 0.023072 0.727013
vn -5.460839 2.723811 0.777593
v 7.285291 0.322656 0.727012
vn -3.940123 -0.142426 -2.442882
v 7.285288 0.306147 0.677812
vn 0.807989 -1.453408 0.371060
v 7.265289 0.043514 0.787013
vn -0.178442 -3.146553 0.350308
v 7.285288 0.054632 0.787013
vn -5.195611 -2.370602 -1.720190
v 7.253481 0.206147 0.547012
vn -5.659087 0.145395 -2.010928
v 7.247816 0.186147 0.567013
vn -5.837611 0.443507 0.276885
v 7.254814 0.186147 0.527013
vn -1.954804 0.063334 -0.108106
v 7.275145 0.186147 0.547013
vn -5.798741 -1.822036 -0.378097
v 7.237950 0.086145 0.747011
# 472 vertices, 0 vertices normals


usemtl material_0
vt 0.420122 0.557861
vt 0.415556 0.556814
vt 0.414795 0.557861
f 445/1/445 391/2/391 328/3/328
vt 0.793593 0.150187
vt 0.791218 0.156270
vt 0.791562 0.159541
f 263/4/263 259/5/259 261/6/261
vt 0.584869 0.557861
vt 0.580451 0.556225
vt 0.578857 0.557861
f 257/7/257 255/8/255 254/9/254
vt 0.787932 0.156436
vt 0.780290 0.151194
vt 0.784727 0.156884
f 249/10/249 264/11/264 248/12/248
f 249/10/249 263/4/263 264/11/264
f 249/10/249 259/5/259 263/4/263
vt 0.783389 0.220214
vt 0.783277 0.221898
vt 0.786539 0.221648
f 188/13/188 187/14/187 186/15/186
vt 0.836062 0.200055
vt 0.840331 0.207452
vt 0.839598 0.202826
f 184/16/184 358/17/358 357/18/357
vt 0.778158 0.187497
vt 0.797901 0.179111
vt 0.784799 0.181179
f 170/19/170 169/20/169 168/21/168
vt 0.809383 0.165613
vt 0.805630 0.164158
vt 0.809780 0.168681
f 167/22/167 166/23/166 165/24/165
vt 0.837407 0.213035
vt 0.817169 0.206000
vt 0.818782 0.219905
f 359/25/359 145/26/145 144/27/144
vt 0.829101 0.199033
f 359/25/359 143/28/143 145/26/145
vt 0.828961 0.223600
f 144/27/144 381/29/381 359/25/359
vt 0.832158 0.223012
f 381/29/381 383/30/383 359/25/359
vt 0.976480 0.202393
vt 0.984307 0.202393
vt 0.984016 0.188350
f 398/31/398 420/32/420 196/33/196
vt 0.981870 0.181286
vt 0.976034 0.188471
f 196/33/196 441/34/441 193/35/193
vt 0.974071 0.182305
f 441/34/441 192/36/192 193/35/193
vt 0.980786 0.178703
f 441/34/441 138/37/138 192/36/192
vt 0.989274 0.194645
f 420/32/420 422/38/422 196/33/196
vt 0.987611 0.201808
f 420/32/420 427/39/427 422/38/422
vt 0.987738 0.188166
f 422/38/422 195/40/195 196/33/196
vt 0.996205 0.194380
vt 0.991237 0.186600
f 135/41/135 133/42/133 422/38/422
f 133/42/133 195/40/195 422/38/422
vt 0.988891 0.184121
f 195/40/195 133/42/133 189/43/189
vt 0.810970 0.232596
vt 0.813490 0.227874
vt 0.810009 0.228327
f 137/44/137 131/45/131 130/46/130
vt 0.814108 0.230988
f 137/44/137 374/47/374 131/45/131
vt 0.814697 0.233597
f 137/44/137 375/48/375 374/47/374
vt 0.972458 0.188525
vt 0.967947 0.194203
vt 0.972066 0.197342
f 129/49/129 345/50/345 464/51/464
f 464/51/464 398/31/398 129/49/129
vt 0.968298 0.185637
f 129/49/129 128/52/128 345/50/345
vt 0.963714 0.191392
f 128/52/128 332/53/332 345/50/345
vt 0.961502 0.182350
f 128/52/128 331/54/331 332/53/332
vt 0.963984 0.192072
f 332/53/332 346/55/346 345/50/345
vt 0.826356 0.226847
f 382/56/382 381/29/381 144/27/144
vt 0.816329 0.225042
f 144/27/144 194/57/194 382/56/382
vt 0.812231 0.220117
f 144/27/144 439/58/439 194/57/194
f 439/58/439 131/45/131 194/57/194
vt 0.817313 0.230540
f 131/45/131 376/59/376 194/57/194
f 131/45/131 374/47/374 376/59/376
vt 0.805568 0.220332
vt 0.794738 0.229093
vt 0.802009 0.232680
f 124/60/124 127/61/127 134/62/134
f 124/60/124 186/15/186 127/61/127
f 134/62/134 130/46/130 124/60/124
vt 0.786988 0.224201
f 186/15/186 123/63/123 127/61/127
vt 0.804569 0.233643
f 134/62/134 136/64/136 130/46/130
f 136/64/136 137/44/137 130/46/130
vt 0.567139 0.581299
vt 0.574023 0.581299
vt 0.569015 0.579810
f 347/65/347 400/66/400 465/67/465
vt 0.965034 0.201893
f 465/68/465 464/51/464 345/50/345
vt 0.962833 0.201809
f 345/50/345 347/69/347 465/68/465
vt 0.972181 0.184069
f 129/49/129 434/70/434 128/52/128
f 129/49/129 193/35/193 434/70/434
vt 0.822961 0.226993
f 380/71/380 382/56/382 194/57/194
f 439/58/439 124/60/124 130/46/130
f 130/46/130 131/45/131 439/58/439
vt 0.957764 0.195693
f 348/72/348 346/55/346 332/53/332
vt 0.958587 0.197850
f 348/72/348 349/73/349 346/55/346
f 123/63/123 186/15/186 187/14/187
vt 0.800036 0.200748
vt 0.794239 0.207421
f 119/74/119 118/75/118 124/60/124
f 124/60/124 145/26/145 119/74/119
vt 0.812294 0.200352
f 145/26/145 117/76/117 119/74/119
vt 0.803105 0.198010
f 117/76/117 116/77/116 119/74/119
vt 0.784803 0.209183
f 186/15/186 118/75/118 112/78/112
f 186/15/186 124/60/124 118/75/118
vt 0.787400 0.205761
f 118/75/118 111/79/111 112/78/112
vt 0.115723 0.202525
vt 0.115885 0.214703
vt 0.114231 0.210720
f 333/80/333 334/81/334 316/82/316
vt 0.114014 0.215115
f 334/81/334 109/83/109 316/82/316
vt 0.114014 0.218018
vt 0.116295 0.217560
f 440/84/440 109/83/109 331/85/331
f 109/83/109 334/81/334 331/85/331
f 184/16/184 143/28/143 359/25/359
f 359/25/359 358/17/358 184/16/184
vt 0.839437 0.200197
vt 0.831859 0.190807
f 309/86/309 90/87/90 184/16/184
vt 0.834321 0.183627
f 309/86/309 105/88/105 90/87/90
vt 0.829056 0.196801
f 90/87/90 104/89/104 184/16/184
vt 0.831227 0.186534
f 105/88/105 89/90/89 90/87/90
f 184/16/184 357/18/357 309/86/309
vt 0.815984 0.191496
f 145/26/145 88/91/88 117/76/117
f 145/26/145 104/89/104 88/91/88
vt 0.822162 0.187718
f 104/89/104 87/92/87 88/91/88
f 104/89/104 90/87/90 87/92/87
vt 0.834577 0.178286
vt 0.830728 0.176497
vt 0.831237 0.180342
f 308/93/308 142/94/142 80/95/80
vt 0.824411 0.177718
vt 0.828235 0.185649
f 79/96/79 87/92/87 78/97/78
vt 0.813613 0.182445
f 79/96/79 77/98/77 87/92/87
f 77/98/77 88/91/88 87/92/87
f 78/97/78 80/95/80 79/96/79
vt 0.826051 0.173478
vt 0.819717 0.168842
vt 0.816904 0.170653
f 277/99/277 278/100/278 76/101/76
f 76/101/76 79/96/79 277/99/277
f 79/96/79 142/94/142 277/99/277
f 79/96/79 80/95/80 142/94/142
vt 0.816753 0.169941
f 278/100/278 75/102/75 76/101/76
f 90/87/90 78/97/78 87/92/87
f 90/87/90 89/90/89 78/97/78
vt 0.810420 0.172177
vt 0.798801 0.177929
vt 0.811968 0.183737
f 74/103/74 73/104/73 72/105/72
vt 0.802963 0.166476
f 74/103/74 71/106/71 73/104/73
f 72/105/72 77/98/77 74/103/74
f 77/98/77 76/101/76 74/103/74
f 77/98/77 79/96/79 76/101/76
vt 0.793803 0.171765
f 71/106/71 438/107/438 73/104/73
vt 0.810190 0.170493
f 74/103/74 70/108/70 71/106/71
f 88/91/88 116/77/116 117/76/117
f 88/91/88 72/105/72 116/77/116
f 88/91/88 77/98/77 72/105/72
vt 0.775216 0.193014
f 170/19/170 442/109/442 119/74/119
f 119/74/119 169/20/169 170/19/170
f 119/74/119 116/77/116 169/20/169
f 116/77/116 72/105/72 169/20/169
f 72/105/72 73/104/73 169/20/169
vt 0.774893 0.189817
f 170/19/170 437/110/437 442/109/442
vt 0.772011 0.193463
f 442/109/442 66/111/66 111/79/111
f 111/79/111 119/74/119 442/109/442
f 111/79/111 118/75/118 119/74/119
vt 0.770006 0.199516
f 111/79/111 66/111/66 85/112/85
f 85/112/85 112/78/112 111/79/111
vt 0.812740 0.167767
f 76/101/76 75/102/75 59/113/59
f 59/113/59 74/103/74 76/101/76
vt 0.816341 0.166619
vt 0.813170 0.165111
f 75/102/75 171/114/171 271/115/271
f 75/102/75 278/100/278 171/114/171
f 165/24/165 166/23/166 71/106/71
f 71/106/71 70/108/70 165/24/165
vt 0.802675 0.165161
f 166/23/166 51/116/51 71/106/71
vt 0.802270 0.161993
f 166/23/166 253/117/253 51/116/51
f 165/24/165 74/103/74 59/113/59
f 165/24/165 70/108/70 74/103/74
f 59/113/59 167/22/167 165/24/165
vt 0.774762 0.174833
vt 0.771623 0.177585
f 50/118/50 49/119/49 168/21/168
f 168/21/168 438/107/438 50/118/50
f 168/21/168 169/20/169 438/107/438
f 169/20/169 73/104/73 438/107/438
vt 0.789243 0.163947
vt 0.780637 0.169998
f 438/107/438 162/120/162 48/121/48
f 48/121/48 50/118/50 438/107/438
vt 0.795607 0.162261
f 438/107/438 164/122/164 162/120/162
f 438/107/438 71/106/71 164/122/164
f 71/106/71 51/116/51 164/122/164
vt 0.774254 0.170991
f 48/121/48 47/123/47 50/118/50
vt 0.764482 0.181397
f 170/19/170 49/119/49 45/124/45
f 170/19/170 168/21/168 49/119/49
f 45/124/45 437/110/437 170/19/170
vt 0.764690 0.178745
f 47/123/47 44/125/44 49/119/49
vt 0.762918 0.164283
f 47/123/47 43/126/43 44/125/44
f 49/119/49 50/118/50 47/123/47
vt 0.779808 0.165040
f 162/120/162 248/12/248 42/127/42
f 42/127/42 48/121/48 162/120/162
f 162/120/162 249/10/249 248/12/248
f 42/127/42 43/126/43 47/123/47
vt 0.758434 0.156134
f 42/127/42 39/128/39 43/126/43
f 47/123/47 48/121/48 42/127/42
f 66/111/66 442/109/442 437/110/437
vt 0.802020 0.159046
f 260/129/260 261/6/261 164/122/164
f 164/122/164 253/117/253 260/129/260
f 164/122/164 51/116/51 253/117/253
vt 0.773317 0.149914
f 42/127/42 262/130/262 39/128/39
f 42/127/42 248/12/248 262/130/262
f 248/12/248 264/11/264 262/130/262
vt 0.791931 0.162124
f 162/120/162 163/131/163 261/6/261
f 261/6/261 249/10/249 162/120/162
f 261/6/261 259/5/259 249/10/249
f 124/60/124 439/58/439 145/26/145
f 439/58/439 144/27/144 145/26/145
f 398/31/398 196/33/196 193/35/193
f 398/31/398 193/35/193 129/49/129

usemtl material_1
vt 0.790462 0.663330
vt 0.787426 0.659819
vt 0.785889 0.663330
f 471/132/471 470/133/470 451/134/451
vt 0.762658 0.749267
vt 0.767456 0.749268
vt 0.766546 0.745360
f 471/135/471 451/136/451 469/137/469
vt 0.791140 0.659421
f 471/132/471 468/138/468 470/133/470
vt 0.762451 0.745048
f 471/135/471 469/137/469 468/139/468
vt 0.801514 0.827393
vt 0.805495 0.827393
vt 0.802555 0.823817
f 467/140/467 446/141/446 466/142/466
vt 0.790268 0.850830
vt 0.782597 0.848035
vt 0.781982 0.850830
f 465/143/465 448/144/448 464/145/464
vt 0.752580 0.860864
vt 0.755649 0.863748
vt 0.757379 0.861185
f 445/146/445 463/147/463 462/148/462
vt 0.766650 0.712251
vt 0.762451 0.718018
vt 0.767091 0.718018
f 461/149/461 460/150/460 444/151/444
vt 0.926514 0.858643
vt 0.933939 0.858643
vt 0.930475 0.855213
f 459/152/459 458/153/458 450/154/450
vt 0.808180 0.840218
vt 0.805420 0.843018
vt 0.812715 0.843018
f 457/155/457 456/156/456 447/157/447
vt 0.872548 0.065674
vt 0.875646 0.064822
vt 0.872490 0.061947
f 455/158/455 454/159/454 449/160/449
vt 0.807267 0.962154
vt 0.791547 0.960570
vt 0.802104 0.970562
f 429/161/429 428/162/428 427/163/427
vt 0.796988 0.952315
f 429/161/429 426/164/426 428/162/428
vt 0.792049 0.970879
f 428/162/428 425/165/425 427/163/427
vt 0.800886 0.950149
f 429/161/429 424/166/424 426/164/426
vt 0.792890 0.954417
f 426/164/426 423/167/423 428/162/428
vt 0.797374 0.975830
f 425/165/425 422/168/422 427/163/427
vt 0.789795 0.966859
f 428/162/428 421/169/421 425/165/425
vt 0.805304 0.971371
vt 0.829141 0.971044
vt 0.826618 0.967281
f 420/170/420 419/171/419 418/172/418
f 418/172/418 429/161/429 420/170/420
vt 0.825858 0.957217
f 418/172/418 417/173/417 429/161/429
f 429/161/429 427/163/427 420/170/420
vt 0.820020 0.941969
f 429/161/429 472/174/472 424/166/424
f 429/161/429 417/173/417 472/174/472
vt 0.804496 0.937471
f 472/174/472 416/175/416 424/166/424
vt 0.814935 0.936208
f 472/174/472 415/176/415 416/175/416
vt 0.841990 0.937253
vt 0.848050 0.963077
vt 0.853744 0.943795
f 414/177/414 451/178/451 413/179/413
f 414/177/414 417/173/417 451/178/451
f 414/177/414 472/174/472 417/173/417
vt 0.852128 0.960741
f 451/178/451 412/180/412 413/179/413
vt 0.845200 0.938051
f 413/179/413 411/181/411 414/177/414
vt 0.851220 0.963914
f 451/178/451 410/182/410 412/180/412
vt 0.819292 0.933349
f 472/174/472 409/183/409 415/176/415
f 472/174/472 414/177/414 409/183/409
vt 0.795344 0.941307
f 424/166/424 416/175/416 408/184/408
f 408/184/408 426/164/426 424/166/424
vt 0.797502 0.938729
f 416/175/416 407/185/407 408/184/408
vt 0.801446 0.936520
f 416/175/416 406/186/406 407/185/407
vt 0.844044 0.965346
f 417/173/417 418/172/418 469/187/469
f 469/187/469 451/178/451 417/173/417
vt 0.845429 0.972503
f 418/172/418 405/188/405 469/187/469
vt 0.846398 0.969271
f 405/188/405 468/189/468 469/187/469
vt 0.848660 0.973282
f 405/188/405 404/190/404 468/189/468
vt 0.653962 0.864122
vt 0.649170 0.874268
vt 0.656281 0.872907
f 426/191/426 408/192/408 403/193/403
vt 0.657614 0.863756
f 403/193/403 423/194/423 426/191/426
vt 0.844666 0.975540
f 405/188/405 419/171/419 402/195/402
vt 0.731201 0.983643
vt 0.750737 0.983643
vt 0.747415 0.979344
f 405/196/405 418/197/418 419/198/419
vt 0.450444 0.751867
vt 0.454953 0.737930
vt 0.456584 0.741849
f 419/199/419 401/200/401 400/201/400
vt 0.449951 0.728115
f 419/199/419 420/202/420 401/200/401
vt 0.455545 0.751412
f 400/201/400 399/203/399 419/199/419
vt 0.454806 0.734752
f 420/202/420 398/204/398 401/200/401
vt 0.454560 0.755120
f 399/203/399 397/205/397 419/199/419
vt 0.457146 0.754680
f 399/203/399 396/206/396 397/205/397
vt 0.396150 0.671143
vt 0.390878 0.662568
vt 0.380607 0.665023
f 414/207/414 460/208/460 462/209/462
vt 0.373088 0.671142
f 462/209/462 409/210/409 414/207/414
vt 0.384419 0.661705
f 460/208/460 445/211/445 462/209/462
vt 0.399968 0.667687
f 414/207/414 395/212/395 460/208/460
vt 0.397791 0.660307
f 395/212/395 394/213/394 460/208/460
vt 0.394569 0.659840
f 394/213/394 444/214/444 460/208/460
vt 0.370831 0.664272
vt 0.373874 0.665975
f 462/209/462 393/215/393 392/216/392
vt 0.388131 0.658877
f 460/208/460 391/217/391 445/211/445
vt 0.399492 0.670771
f 414/207/414 411/218/411 395/212/395
vt 0.641810 0.780531
vt 0.630393 0.780551
vt 0.633077 0.788330
f 446/219/446 390/220/390 416/221/416
vt 0.630103 0.786923
f 390/220/390 406/222/406 416/221/416
vt 0.626878 0.781765
f 388/223/388 406/222/406 390/220/390
vt 0.625732 0.787570
f 388/223/388 407/224/407 406/222/406
vt 0.537470 0.809633
vt 0.547168 0.819308
vt 0.551677 0.815182
f 412/225/412 387/226/387 386/227/386
vt 0.553758 0.804748
f 386/227/386 413/228/413 412/225/412
vt 0.535889 0.826017
f 412/225/412 385/229/385 387/226/387
vt 0.539954 0.826283
f 385/229/385 384/230/384 387/226/387
vt 0.615731 0.897240
vt 0.614750 0.904684
vt 0.621028 0.905056
f 388/231/388 383/232/383 382/233/382
vt 0.622154 0.897585
f 382/233/382 408/234/408 388/231/388
vt 0.625477 0.903693
f 382/233/382 403/235/403 408/234/408
vt 0.619442 0.894691
f 408/234/408 407/236/407 388/231/388
vt 0.617082 0.906317
f 383/232/383 381/237/381 382/233/382
vt 0.623230 0.907725
f 382/233/382 380/238/380 403/235/403
vt 0.855150 0.974815
f 412/180/412 410/182/410 379/239/379
vt 0.863593 0.969868
f 379/239/379 385/240/385 412/180/412
vt 0.858717 0.975538
f 379/239/379 378/241/378 385/240/385
vt 0.850399 0.967006
f 379/239/379 470/242/470 404/190/404
f 379/239/379 410/182/410 470/242/470
f 470/242/470 468/189/468 404/190/404
f 410/182/410 451/178/451 470/242/470
vt 0.661408 0.874268
vt 0.661370 0.868776
f 403/193/403 377/243/377 376/244/376
f 376/244/376 423/194/423 403/193/403
vt 0.662205 0.864502
f 376/244/376 375/245/375 423/194/423
vt 0.625431 0.909424
f 403/235/403 380/238/380 377/246/377
vt 0.663911 0.861300
f 375/245/375 428/247/428 423/194/423
vt 0.663991 0.866849
f 376/244/376 374/248/374 375/245/375
vt 0.660234 0.694580
vt 0.663409 0.691483
vt 0.656692 0.689238
f 404/249/404 402/250/402 373/251/373
vt 0.653211 0.694580
f 373/251/373 379/252/379 404/249/404
vt 0.652243 0.690809
f 373/251/373 372/253/372 379/252/379
f 404/190/404 405/188/405 402/195/402
vt 0.649170 0.693496
f 372/253/372 371/254/371 379/252/379
vt 0.858407 0.975830
f 371/255/371 378/241/378 379/239/379
vt 0.454998 0.764657
f 419/199/419 397/205/397 370/256/370
vt 0.449951 0.767688
f 370/256/370 402/257/402 419/199/419
vt 0.455043 0.772705
f 370/256/370 373/258/373 402/257/402
vt 0.458173 0.771206
f 370/256/370 369/259/369 373/258/373
vt 0.787024 0.714608
vt 0.790840 0.718018
vt 0.789011 0.713958
f 467/260/467 389/261/389 368/262/368
vt 0.785889 0.718018
f 467/260/467 466/263/466 389/261/389
vt 0.373614 0.667688
vt 0.370464 0.666346
f 389/264/389 392/216/392 368/265/368
vt 0.787634 0.846513
vt 0.783718 0.844998
f 400/266/400 401/267/401 448/144/448
f 448/144/448 465/143/465 400/266/400
vt 0.852346 0.939777
f 367/268/367 411/181/411 413/179/413
vt 0.406963 0.669361
f 367/269/367 395/212/395 411/218/411
vt 0.381005 0.662181
vt 0.375040 0.658001
f 462/209/462 463/270/463 366/271/366
f 366/271/366 393/215/393 462/209/462
vt 0.368817 0.663595
f 366/271/366 365/272/365 393/215/393
vt 0.367651 0.663481
f 366/271/366 364/273/364 365/272/365
vt 0.378339 0.657777
f 463/270/463 363/274/363 366/271/366
vt 0.381386 0.659419
f 463/270/463 362/275/362 363/274/363
vt 0.568673 0.679999
vt 0.570787 0.675702
vt 0.558464 0.681282
f 386/276/386 361/277/361 360/278/360
vt 0.561424 0.808690
f 360/279/360 413/228/413 386/227/386
vt 0.558131 0.803007
f 360/279/360 367/280/367 413/228/413
vt 0.755820 0.802205
vt 0.754639 0.803955
vt 0.758747 0.803955
f 393/281/393 365/282/365 368/283/368
vt 0.757942 0.799419
f 368/283/368 392/284/392 393/281/393
vt 0.356201 0.667109
vt 0.367065 0.667252
f 364/273/364 390/285/390 446/286/446
vt 0.370120 0.668538
f 446/286/446 467/287/467 368/265/368
f 368/265/368 365/272/365 446/286/446
vt 0.611959 0.895897
vt 0.603614 0.906440
f 390/288/390 359/289/359 383/232/383
vt 0.599531 0.896887
f 390/288/390 364/290/364 359/289/359
vt 0.597088 0.905562
f 364/290/364 358/291/358 359/289/359
f 383/232/383 388/231/388 390/288/390
vt 0.592381 0.902673
f 364/290/364 366/292/366 358/291/358
vt 0.593872 0.908944
f 366/292/366 357/293/357 358/291/358
vt 0.536026 0.826626
vt 0.536492 0.832263
vt 0.541488 0.828907
f 356/294/356 355/295/355 354/296/354
f 354/296/354 384/230/384 356/294/356
f 384/230/384 385/229/385 356/294/356
vt 0.541355 0.826558
f 354/296/354 353/297/353 384/230/384
vt 0.913322 0.906750
vt 0.899474 0.909053
vt 0.915642 0.909424
f 352/298/352 351/299/351 350/300/350
vt 0.896082 0.907545
f 352/298/352 349/301/349 351/299/351
vt 0.459291 0.767437
vt 0.457694 0.764224
f 350/302/350 370/256/370 352/303/352
f 350/302/350 369/259/369 370/256/370
vt 0.894898 0.909424
f 349/301/349 348/304/348 351/299/351
vt 0.905754 0.900897
vt 0.896603 0.901638
f 349/301/349 396/305/396 347/306/347
f 349/301/349 352/298/352 396/305/396
vt 0.888206 0.906851
f 347/306/347 346/307/346 349/301/349
vt 0.887451 0.902379
f 347/306/347 345/308/345 346/307/346
vt 0.459751 0.746969
f 396/206/396 399/203/399 347/309/347
vt 0.556665 0.686768
vt 0.551706 0.676990
f 367/310/367 360/278/360 344/311/344
vt 0.549457 0.686768
f 344/311/344 395/312/395 367/310/367
vt 0.544678 0.682266
f 344/311/344 394/313/394 395/312/395
vt 0.545502 0.825466
f 384/230/384 353/297/353 343/314/343
f 343/314/343 387/226/387 384/230/384
vt 0.537245 0.834161
vt 0.542829 0.833334
f 355/295/355 342/315/342 459/316/459
f 459/316/459 354/296/354 355/295/355
vt 0.546442 0.834900
f 342/315/342 341/317/341 459/316/459
vt 0.550188 0.834307
f 341/317/341 458/318/458 459/316/459
vt 0.810827 0.832134
vt 0.805420 0.835205
vt 0.813333 0.835205
f 355/319/355 356/320/356 340/321/340
vt 0.819928 0.862505
vt 0.818332 0.865496
vt 0.819613 0.866455
f 340/322/340 342/323/342 355/324/355
vt 0.817904 0.860924
f 340/322/340 339/325/339 342/323/342
vt 0.750732 0.874268
vt 0.759136 0.871317
vt 0.751969 0.872428
f 338/326/338 337/327/337 336/328/336
vt 0.761136 0.874268
f 338/326/338 335/329/335 337/327/337
vt 0.638418 0.768750
vt 0.628274 0.776611
vt 0.640668 0.776611
f 348/330/348 334/331/334 333/332/333
vt 0.631313 0.767104
f 348/330/348 332/333/332 334/331/334
vt 0.625732 0.774609
f 332/333/332 331/334/331 334/331/334
vt 0.642982 0.768206
f 333/332/333 351/335/351 348/330/348
vt 0.646147 0.774628
f 333/332/333 330/336/330 351/335/351
vt 0.645558 0.770165
f 330/336/330 329/337/329 351/335/351
vt 0.539465 0.683799
vt 0.537113 0.680624
vt 0.535889 0.680968
f 460/338/460 328/339/328 391/340/391
vt 0.539843 0.676806
f 460/338/460 461/341/461 328/339/328
vt 0.746826 0.866455
vt 0.753953 0.866455
f 445/146/445 327/342/327 362/343/362
vt 0.747320 0.861615
f 445/146/445 328/344/328 327/342/327
f 362/343/362 463/147/463 445/146/445
vt 0.612967 0.695255
vt 0.603032 0.693291
vt 0.606815 0.702393
f 343/345/343 326/346/326 325/347/325
vt 0.552714 0.818933
f 325/348/325 387/226/387 343/314/343
vt 0.598941 0.700002
f 326/346/326 324/349/324 325/347/325
vt 0.569104 0.673643
vt 0.573636 0.677453
f 325/350/325 361/277/361 387/351/387
f 361/277/361 386/276/386 387/351/387
vt 0.605125 0.691014
f 323/352/323 326/346/326 343/345/343
vt 0.614084 0.689739
f 343/345/343 450/353/450 323/352/323
vt 0.547061 0.831944
f 343/314/343 354/296/354 450/354/450
f 354/296/354 459/316/459 450/354/450
f 343/314/343 353/297/353 354/296/354
vt 0.813340 0.861387
f 342/323/342 339/325/339 322/355/322
vt 0.809326 0.866455
f 322/355/322 341/356/341 342/323/342
vt 0.950268 0.873770
vt 0.949991 0.871535
vt 0.948264 0.872735
f 321/357/321 320/358/320 319/359/319
vt 0.948401 0.874268
f 319/359/319 318/360/318 321/357/321
vt 0.512841 0.872704
vt 0.519699 0.873880
vt 0.514220 0.870005
f 317/361/317 316/362/316 315/363/315
vt 0.516292 0.878707
f 317/361/317 314/364/314 316/362/316
vt 0.549861 0.673243
vt 0.543015 0.673674
f 344/311/344 311/365/311 310/366/310
f 310/366/310 394/313/394 344/311/344
f 310/366/310 461/341/461 394/313/394
vt 0.541759 0.681819
f 461/341/461 444/367/444 394/313/394
vt 0.537303 0.675862
f 310/366/310 327/368/327 461/341/461
f 327/368/327 328/339/328 461/341/461
vt 0.590576 0.904647
vt 0.591686 0.909424
f 363/369/363 309/370/309 357/293/357
f 357/293/357 366/292/366 363/369/363
vt 0.554015 0.671111
f 360/278/360 325/350/325 308/371/308
f 360/278/360 361/277/361 325/350/325
f 308/371/308 344/311/344 360/278/360
f 308/371/308 311/365/311 344/311/344
vt 0.508744 0.893492
vt 0.506032 0.892044
vt 0.502695 0.896933
f 307/372/307 306/373/306 305/374/305
vt 0.505337 0.898319
f 305/374/305 304/375/304 307/372/307
vt 0.555426 0.826699
vt 0.557735 0.837231
vt 0.563333 0.835672
f 303/376/303 302/377/302 301/378/301
vt 0.568526 0.825484
f 301/378/301 300/379/300 303/376/303
f 303/376/303 458/318/458 302/377/302
vt 0.549857 0.831159
f 303/376/303 299/380/299 458/318/458
f 299/380/299 450/354/450 458/318/458
vt 0.891279 0.863416
vt 0.901219 0.866455
vt 0.898556 0.863650
f 298/381/298 300/382/300 297/383/297
vt 0.887451 0.866455
f 298/381/298 303/384/303 300/382/300
vt 0.967540 0.935712
vt 0.974663 0.935561
vt 0.974793 0.935239
f 297/385/297 296/386/296 298/387/298
vt 0.983410 0.939819
vt 0.984876 0.936153
vt 0.978670 0.934263
f 295/388/295 299/389/299 303/390/303
f 303/390/303 298/387/298 295/388/295
vt 0.972275 0.941356
vt 0.978343 0.943587
f 298/387/298 294/391/294 293/392/293
f 293/392/293 295/388/295 298/387/298
f 298/387/298 296/386/296 294/391/294
vt 0.982605 0.941793
f 293/392/293 292/393/292 295/388/295
vt 0.981356 0.944805
f 293/392/293 291/394/291 292/393/292
vt 0.541389 0.837575
vt 0.552799 0.839111
f 341/317/341 322/395/322 290/396/290
f 290/396/290 458/318/458 341/317/341
f 290/396/290 302/377/302 458/318/458
vt 0.988072 0.936945
f 450/397/450 299/389/299 295/388/295
vt 0.984958 0.942985
f 295/388/295 323/398/323 450/397/450
f 295/388/295 292/393/292 323/398/323
vt 0.579989 0.833416
vt 0.564602 0.838010
f 456/399/456 300/379/300 283/400/283
vt 0.582046 0.830148
f 456/399/456 457/401/457 300/379/300
f 300/379/300 301/378/301 283/400/283
vt 0.954761 0.948036
vt 0.958780 0.956898
f 447/402/447 282/403/282 294/391/294
f 294/391/294 297/385/297 447/402/447
vt 0.946045 0.962040
f 447/402/447 281/404/281 282/403/282
vt 0.953266 0.961724
f 281/404/281 280/405/280 282/403/282
vt 0.352295 0.206489
vt 0.354476 0.210043
vt 0.352295 0.214111
f 281/406/281 279/407/279 280/408/280
f 294/391/294 296/386/296 297/385/297
vt 0.953581 0.943743
f 457/409/457 447/402/447 297/385/297
vt 0.964901 0.934385
f 297/385/297 300/410/300 457/409/457
vt 0.590576 0.694713
vt 0.592249 0.702392
f 324/349/324 278/411/278 277/412/277
vt 0.598411 0.692903
f 324/349/324 276/413/276 278/411/278
f 324/349/324 326/346/326 276/413/276
vt 0.599976 0.688805
f 326/346/326 275/414/275 276/413/276
vt 0.986637 0.957555
f 323/398/323 291/394/291 274/415/274
vt 0.989785 0.958540
f 274/415/274 273/416/273 323/398/323
f 323/398/323 292/393/292 291/394/291
vt 0.714425 0.883005
vt 0.716071 0.886644
vt 0.725053 0.886854
f 273/417/273 272/418/272 275/419/275
vt 0.730621 0.883848
f 275/419/275 323/420/323 273/417/273
vt 0.720438 0.889893
f 272/418/272 271/421/271 275/419/275
f 275/414/275 326/346/326 323/352/323
vt 0.716195 0.889857
f 272/418/272 270/422/270 271/421/271
vt 0.972131 0.958505
f 269/423/269 294/391/294 282/403/282
f 269/423/269 293/392/293 294/391/294
vt 0.968340 0.967758
f 282/403/282 268/424/268 269/423/269
vt 0.973897 0.962720
f 291/394/291 269/423/269 267/425/267
vt 0.987685 0.971956
f 267/425/267 266/426/266 291/394/291
f 291/394/291 293/392/293 269/423/269
vt 0.602358 0.134964
vt 0.604893 0.141671
vt 0.617478 0.146456
f 265/427/265 264/428/264 263/429/263
vt 0.627178 0.147705
f 263/429/263 266/430/266 265/427/265
vt 0.996679 0.975830
f 263/431/263 274/415/274 266/426/266
f 274/415/274 291/394/291 266/426/266
vt 0.699951 0.850830
vt 0.709519 0.850830
vt 0.706655 0.839322
f 263/432/263 261/433/261 260/434/260
vt 0.700396 0.829980
f 260/434/260 274/435/274 263/432/263
vt 0.994718 0.963772
f 260/436/260 273/416/273 274/415/274
vt 0.707764 0.886622
vt 0.711459 0.886605
f 260/437/260 258/438/258 273/417/273
f 258/438/258 272/418/272 273/417/273
vt 0.989883 0.889893
vt 0.993326 0.883588
vt 0.983972 0.878229
f 447/439/447 456/440/456 257/441/257
vt 0.977962 0.886218
vt 0.973389 0.889893
f 256/442/256 281/443/281 447/439/447
vt 0.708094 0.889893
f 258/438/258 260/437/260 253/444/253
vt 0.711252 0.889791
f 253/444/253 252/445/252 258/438/258
vt 0.646964 0.146214
vt 0.636149 0.125184
vt 0.632543 0.128415
f 268/446/268 251/447/251 250/448/250
vt 0.975526 0.975830
f 432/449/432 267/425/267 268/424/268
f 267/425/267 269/423/269 268/424/268
vt 0.640101 0.118862
f 247/450/247 251/447/251 268/446/268
vt 0.663156 0.147705
f 268/446/268 280/451/280 247/450/247
f 268/424/268 282/403/282 280/405/280
vt 0.636862 0.118559
f 247/450/247 246/452/246 251/447/251
vt 0.615700 0.132729
f 250/448/250 245/453/245 266/430/266
vt 0.637774 0.140557
f 266/430/266 432/454/432 250/448/250
f 245/453/245 265/427/265 266/430/266
vt 0.629307 0.128076
f 250/448/250 244/455/244 245/453/245
vt 0.603064 0.128448
f 245/453/245 243/456/243 265/427/265
vt 0.670311 0.145572
vt 0.670331 0.142019
vt 0.669968 0.145459
f 454/457/454 239/458/239 281/459/281
vt 0.673553 0.142672
f 454/457/454 455/460/455 239/458/239
vt 0.666745 0.144803
f 239/458/239 279/461/279 281/459/281
vt 0.875746 0.061979
f 454/159/454 241/462/241 449/160/449
vt 0.879072 0.062406
f 454/159/454 240/463/240 241/462/241
vt 0.670811 0.125732
vt 0.653042 0.120301
f 280/451/280 238/464/238 237/465/237
f 237/465/237 247/450/247 280/451/280
f 280/451/280 279/461/279 238/464/238
f 279/461/279 239/458/239 238/464/238
vt 0.659858 0.118007
f 238/464/238 236/466/236 237/465/237
vt 0.669212 0.122306
f 238/464/238 235/467/235 236/466/236
vt 0.663451 0.115022
f 235/467/235 234/468/234 236/466/236
vt 0.670502 0.119194
f 235/467/235 233/469/233 234/468/234
vt 0.865947 0.061707
vt 0.865924 0.064990
f 449/160/449 232/470/232 231/471/231
f 231/471/231 455/158/455 449/160/449
vt 0.869310 0.058920
f 449/160/449 230/472/230 232/470/232
vt 0.865873 0.057893
f 230/472/230 229/473/229 232/470/232
vt 0.875138 0.073970
vt 0.865094 0.076756
vt 0.881302 0.077393
f 231/474/231 238/475/238 239/476/239
vt 0.872222 0.072370
f 231/474/231 228/477/228 238/475/238
vt 0.671935 0.135992
f 239/458/239 455/460/455 231/478/231
vt 0.619464 0.119768
f 227/479/227 245/453/245 244/455/244
vt 0.609721 0.127309
f 227/479/227 226/480/226 245/453/245
vt 0.627151 0.117564
f 244/455/244 225/481/225 227/479/227
vt 0.621676 0.116757
f 225/481/225 224/482/224 227/479/227
vt 0.603397 0.125238
f 243/456/243 226/480/226 223/483/223
f 243/456/243 245/453/245 226/480/226
vt 0.856254 0.062034
vt 0.862763 0.062080
vt 0.856201 0.060218
f 221/484/221 222/485/222 220/486/220
vt 0.862594 0.065674
f 221/484/221 228/487/228 222/485/222
vt 0.684439 0.023354
vt 0.686608 0.026611
vt 0.686496 0.023354
f 220/488/220 219/489/219 221/490/221
vt 0.684326 0.026611
f 220/488/220 218/491/218 219/489/219
vt 0.865715 0.069805
vt 0.861510 0.077393
f 221/492/221 235/493/235 238/475/238
f 238/475/238 228/477/228 221/492/221
f 251/447/251 225/481/225 244/455/244
f 251/447/251 246/452/246 225/481/225
f 244/455/244 250/448/250 251/447/251
vt 0.862559 0.069349
vt 0.858628 0.073547
f 221/492/221 219/494/219 217/495/217
f 217/495/217 235/493/235 221/492/221
vt 0.858511 0.076534
f 233/496/233 235/493/235 217/495/217
vt 0.660544 0.111988
vt 0.654085 0.110990
f 236/466/236 443/497/443 214/498/214
f 214/498/214 237/465/237 236/466/236
vt 0.657668 0.108240
f 443/497/443 213/499/213 214/498/214
vt 0.644588 0.107957
f 237/465/237 214/498/214 212/500/212
f 212/500/212 247/450/247 237/465/237
vt 0.640938 0.111383
f 212/500/212 211/501/211 247/450/247
f 211/501/211 246/452/246 247/450/247
vt 0.632257 0.108531
f 211/501/211 210/502/210 246/452/246
f 210/502/210 225/481/225 246/452/246
vt 0.624972 0.107560
f 210/502/210 209/503/209 225/481/225
f 209/503/209 224/482/224 225/481/225
vt 0.634817 0.107473
f 211/501/211 208/504/208 210/502/210
vt 0.628350 0.106729
f 210/502/210 207/505/207 209/503/209
vt 0.377305 0.190007
vt 0.379905 0.189016
vt 0.378705 0.187371
f 207/506/207 206/507/206 209/508/209
vt 0.753373 0.477122
vt 0.772859 0.479485
vt 0.769694 0.472487
f 204/509/204 203/510/203 205/511/205
vt 0.785909 0.477425
f 203/510/203 202/512/202 205/511/205
vt 0.813540 0.722563
vt 0.809955 0.725792
vt 0.810852 0.712817
f 203/513/203 200/514/200 201/515/201
vt 0.814376 0.709585
f 201/515/201 202/516/202 203/513/203
vt 0.814135 0.742128
vt 0.810639 0.738852
f 203/513/203 204/517/204 199/518/199
f 199/518/199 200/514/200 203/513/203
vt 0.980434 0.882932
f 257/441/257 254/519/254 447/439/447
f 254/519/254 256/442/256 447/439/447
f 462/209/462 392/216/392 389/264/389
f 462/209/462 389/264/389 409/210/409
f 250/448/250 432/454/432 268/446/268
f 266/426/266 267/425/267 432/449/432
vt 0.768140 0.853113
vt 0.765080 0.857554
vt 0.769569 0.858643
f 376/520/376 377/521/377 194/522/194
vt 0.782684 0.811768
vt 0.780883 0.805745
vt 0.778076 0.811768
f 434/523/434 193/524/193 192/525/192
vt 0.656581 0.919463
vt 0.661133 0.921256
vt 0.658723 0.918648
f 191/526/191 190/527/190 189/528/189
vt 0.715576 0.858643
vt 0.726468 0.858643
vt 0.722312 0.853596
f 185/529/185 313/530/313 440/531/440
vt 0.506732 0.900852
vt 0.501921 0.902029
f 183/532/183 304/375/304 182/533/182
vt 0.512007 0.889560
vt 0.508062 0.888985
vt 0.509740 0.891390
f 318/534/318 181/535/181 180/536/180
vt 0.809326 0.796143
vt 0.814844 0.796143
vt 0.811647 0.793692
f 179/537/179 178/538/178 177/539/177
vt 0.754639 0.743559
vt 0.755676 0.747923
vt 0.756923 0.744981
f 176/540/176 175/541/175 174/542/174
vt 0.709152 0.675049
vt 0.704470 0.668480
vt 0.704549 0.675049
f 278/543/278 276/544/276 171/545/171
vt 0.757983 0.658492
vt 0.757248 0.663326
vt 0.758760 0.663330
f 164/546/164 163/547/163 162/548/162
vt 0.798284 0.811768
vt 0.795892 0.807709
vt 0.793701 0.811768
f 255/549/255 257/550/257 161/551/161
vt 0.981003 0.805409
vt 0.978970 0.797100
vt 0.976503 0.807012
f 230/552/230 160/553/160 229/554/229
vt 0.940310 0.018791
vt 0.944906 0.015875
vt 0.940529 0.014704
f 158/555/158 211/556/211 212/557/212
vt 0.373315 0.191088
vt 0.375266 0.194068
f 207/506/207 210/558/210 157/559/157
vt 0.529107 0.912648
vt 0.516791 0.921096
vt 0.523463 0.923624
f 371/560/371 156/561/156 340/562/340
vt 0.507572 0.916566
f 371/560/371 155/563/155 156/561/156
vt 0.530735 0.920524
f 340/562/340 356/564/356 371/560/371
vt 0.497359 0.922907
f 155/563/155 154/565/154 156/561/156
vt 0.494918 0.920840
f 155/563/155 153/566/153 154/565/154
vt 0.529260 0.913049
f 356/564/356 378/567/378 371/560/371
vt 0.531166 0.920047
f 356/564/356 385/568/385 378/567/378
vt 0.510988 0.884669
vt 0.517213 0.892174
vt 0.519359 0.885308
f 152/569/152 151/570/151 150/571/150
vt 0.516974 0.883214
f 150/571/150 149/572/149 152/569/152
vt 0.521168 0.888910
f 151/570/151 148/573/148 150/571/150
vt 0.517630 0.892540
f 151/570/151 147/574/147 148/573/148
vt 0.522758 0.891762
f 147/574/147 146/575/146 148/573/148
vt 0.659814 0.777841
vt 0.653116 0.775410
vt 0.649170 0.784424
f 324/576/324 277/577/277 308/578/308
vt 0.664588 0.784424
f 308/578/308 325/579/325 324/576/324
vt 0.649203 0.779426
f 277/577/277 142/580/142 308/578/308
vt 0.883545 0.037666
vt 0.883992 0.046143
vt 0.888702 0.045426
f 141/581/141 213/582/213 443/583/443
vt 0.896406 0.042991
f 443/583/443 159/584/159 141/581/141
vt 0.894503 0.046111
f 443/583/443 452/585/452 159/584/159
vt 0.636266 0.920251
vt 0.637138 0.925049
vt 0.642671 0.924037
f 428/586/428 137/587/137 136/588/136
vt 0.641713 0.918699
f 136/588/136 421/589/421 428/586/428
vt 0.633545 0.922393
f 428/586/428 375/590/375 137/587/137
vt 0.645753 0.919347
vt 0.645500 0.923031
f 135/591/135 136/588/136 134/592/134
f 135/591/135 421/589/421 136/588/136
vt 0.645749 0.916778
f 135/591/135 425/593/425 421/589/421
vt 0.650877 0.913063
f 135/591/135 422/594/422 425/593/425
vt 0.665674 0.916433
f 189/528/189 190/527/190 441/595/441
vt 0.657040 0.913617
f 441/595/441 195/596/195 189/528/189
vt 0.668062 0.922301
f 190/527/190 132/597/132 441/595/441
vt 0.668114 0.918186
f 132/597/132 138/598/138 441/595/441
vt 0.742025 0.710205
vt 0.739433 0.708636
vt 0.735107 0.710205
f 464/599/464 448/600/448 398/601/398
vt 0.736538 0.707403
f 448/600/448 401/602/401 398/601/398
vt 0.653569 0.923743
vt 0.655728 0.916327
f 135/591/135 127/603/127 133/604/133
f 135/591/135 134/592/134 127/603/127
f 127/603/127 191/526/191 133/604/133
f 191/526/191 189/528/189 133/604/133
vt 0.524164 0.910176
vt 0.513472 0.904528
f 155/563/155 126/605/126 125/606/125
f 155/563/155 371/560/371 126/605/126
vt 0.528942 0.908594
f 371/560/371 372/607/372 126/605/126
vt 0.729728 0.819776
vt 0.724835 0.820161
vt 0.723389 0.823486
f 372/608/372 373/609/373 369/610/369
vt 0.733219 0.823486
f 369/610/369 126/611/126 372/608/372
vt 0.758545 0.850830
vt 0.768311 0.850830
vt 0.768311 0.847814
f 370/612/370 397/613/397 396/614/396
vt 0.758545 0.847746
f 396/614/396 352/615/352 370/612/370
vt 0.699951 0.710205
vt 0.707410 0.710205
vt 0.700598 0.703351
f 347/616/347 399/617/399 400/618/400
vt 0.662671 0.923778
f 191/526/191 123/619/123 190/527/190
f 191/526/191 127/603/127 123/619/123
vt 0.762451 0.858643
f 194/522/194 377/521/377 380/620/380
vt 0.522795 0.903024
vt 0.515382 0.902292
f 125/606/125 335/621/335 139/622/139
f 125/606/125 126/605/126 335/621/335
vt 0.530209 0.903755
f 126/605/126 369/623/369 335/621/335
vt 0.525186 0.900308
f 369/623/369 337/624/337 335/621/335
vt 0.529832 0.899517
f 369/623/369 350/625/350 337/624/337
vt 0.735107 0.764893
vt 0.738111 0.763819
vt 0.736350 0.760942
f 350/626/350 122/627/122 337/628/337
vt 0.742558 0.764893
vt 0.743504 0.760240
f 122/627/122 121/629/121 336/630/336
f 336/630/336 337/628/337 122/627/122
vt 0.827149 0.873539
vt 0.825742 0.871013
vt 0.823481 0.874268
f 121/631/121 146/632/146 336/633/336
vt 0.528953 0.884044
vt 0.527250 0.886457
vt 0.525670 0.893624
f 351/634/351 329/635/329 121/636/121
f 121/636/121 350/625/350 351/634/351
vt 0.526504 0.898064
f 121/636/121 122/637/122 350/625/350
vt 0.523160 0.886778
f 146/575/146 329/635/329 330/638/330
f 146/575/146 121/636/121 329/635/329
f 330/638/330 148/573/148 146/575/146
vt 0.821073 0.868920
vt 0.822499 0.872219
f 146/632/146 147/639/147 338/640/338
f 338/640/338 336/633/336 146/632/146
vt 0.520733 0.881672
f 330/638/330 333/641/333 150/571/150
f 150/571/150 148/573/148 330/638/330
vt 0.665315 0.850333
vt 0.658978 0.852650
vt 0.661227 0.858643
f 128/642/128 192/643/192 120/644/120
vt 0.660696 0.848388
f 128/642/128 434/645/434 192/643/192
vt 0.653139 0.855947
f 192/643/192 188/646/188 120/644/120
vt 0.651053 0.851818
f 192/643/192 138/647/138 188/646/188
vt 0.649170 0.856027
f 138/647/138 132/648/132 188/646/188
vt 0.650787 0.858643
f 132/648/132 187/649/187 188/646/188
vt 0.666903 0.925049
f 132/597/132 123/619/123 187/650/187
f 132/597/132 190/527/190 123/619/123
vt 0.400903 0.690767
vt 0.417179 0.682755
vt 0.407406 0.676448
f 115/651/115 290/652/290 322/653/322
vt 0.397791 0.697772
f 115/651/115 114/654/114 290/652/290
vt 0.397559 0.673700
f 322/653/322 156/655/156 115/651/115
vt 0.403980 0.673375
f 322/653/322 339/656/339 156/655/156
vt 0.521728 0.925049
f 339/657/339 340/562/340 156/561/156
vt 0.513567 0.888041
vt 0.514754 0.901941
f 151/570/151 321/658/321 113/659/113
f 113/659/113 147/574/147 151/570/151
vt 0.813232 0.874268
f 113/660/113 338/640/338 147/639/147
vt 0.520238 0.892963
f 113/659/113 335/621/335 338/661/338
f 113/659/113 139/622/139 335/621/335
vt 0.828857 0.843018
vt 0.834677 0.840997
vt 0.833565 0.839108
f 151/662/151 320/663/320 321/664/321
vt 0.510634 0.895804
f 321/658/321 318/534/318 110/665/110
f 110/665/110 113/659/113 321/658/321
f 318/534/318 180/536/180 110/665/110
f 333/641/333 316/362/316 314/364/314
f 314/364/314 149/572/149 333/641/333
f 149/572/149 150/571/150 333/641/333
vt 0.510079 0.879963
f 149/572/149 314/364/314 176/666/176
f 176/666/176 152/569/152 149/572/149
vt 0.512323 0.872504
f 314/364/314 108/667/108 176/666/176
f 314/364/314 317/361/317 108/667/108
vt 0.510669 0.884510
f 176/666/176 178/668/178 152/569/152
vt 0.505257 0.885413
f 178/668/178 179/669/179 152/569/152
vt 0.542309 0.739133
vt 0.549902 0.741170
vt 0.550505 0.734724
f 128/670/128 185/671/185 440/672/440
vt 0.548590 0.733456
f 440/672/440 331/673/331 128/670/128
vt 0.546150 0.744563
vt 0.550198 0.745307
f 107/674/107 106/675/106 185/671/185
vt 0.535889 0.748208
vt 0.544394 0.746151
vt 0.538476 0.744215
f 186/676/186 120/677/120 188/678/188
vt 0.545761 0.749268
f 186/676/186 112/679/112 120/677/120
f 112/679/112 107/674/107 120/677/120
vt 0.518939 0.869407
vt 0.515949 0.862772
vt 0.512186 0.867414
f 109/680/109 313/681/313 312/682/312
vt 0.520464 0.867072
f 109/680/109 440/683/440 313/681/313
f 312/682/312 315/363/315 109/680/109
f 315/363/315 316/362/316 109/680/109
vt 0.562296 0.734499
vt 0.558597 0.733385
f 106/675/106 173/684/173 172/685/172
f 172/685/172 185/671/185 106/675/106
vt 0.553810 0.731062
f 172/685/172 313/686/313 185/671/185
vt 0.885492 0.925028
vt 0.894888 0.917438
vt 0.877273 0.918837
f 327/687/327 105/688/105 309/689/309
vt 0.892465 0.924670
f 327/687/327 310/690/310 105/688/105
vt 0.878635 0.925049
f 309/689/309 362/691/362 327/687/327
vt 0.875732 0.923445
f 309/689/309 363/692/363 362/691/362
vt 0.876034 0.897705
vt 0.870307 0.894112
vt 0.869809 0.897388
f 184/693/184 104/694/104 143/695/143
vt 0.383339 0.685495
vt 0.383300 0.686343
f 115/651/115 154/696/154 103/697/103
f 115/651/115 156/655/156 154/696/154
vt 0.495454 0.902850
vt 0.492629 0.900954
vt 0.476728 0.910832
f 102/698/102 101/699/101 100/700/100
f 100/700/100 153/566/153 102/698/102
f 153/566/153 155/563/155 102/698/102
f 155/563/155 182/533/182 102/698/102
f 155/563/155 125/606/125 182/533/182
f 125/606/125 183/532/183 182/533/182
f 125/606/125 113/659/113 183/532/183
f 113/659/113 110/665/110 183/532/183
f 125/606/125 139/622/139 113/659/113
vt 0.946956 0.868130
f 152/701/152 319/359/319 320/358/320
vt 0.838841 0.843018
f 320/663/320 151/662/151 152/702/152
vt 0.740187 0.869154
vt 0.739176 0.872427
vt 0.745390 0.874268
f 110/703/110 307/704/307 304/705/304
vt 0.746448 0.870477
f 304/705/304 183/706/183 110/703/110
vt 0.736139 0.870778
f 110/703/110 180/707/180 307/704/307
vt 0.735107 0.874268
f 180/707/180 181/708/181 307/704/307
vt 0.499826 0.898582
f 182/533/182 305/374/305 99/709/99
f 182/533/182 304/375/304 305/374/305
f 99/709/99 102/698/102 182/533/182
vt 0.813564 0.819580
vt 0.810168 0.816401
vt 0.809326 0.819580
f 435/710/435 98/711/98 97/712/97
vt 0.617920 0.714300
vt 0.619591 0.714608
vt 0.618157 0.718018
f 97/713/97 306/714/306 435/715/435
vt 0.505758 0.887896
f 306/373/306 181/535/181 435/716/435
f 306/373/306 307/372/307 181/535/181
vt 0.942351 0.873341
f 152/701/152 435/717/435 319/359/319
vt 0.941181 0.868761
f 152/701/152 179/718/179 435/717/435
vt 0.511666 0.887306
f 435/716/435 181/535/181 319/719/319
f 181/535/181 318/534/318 319/719/319
vt 0.506722 0.880925
f 174/720/174 178/668/178 176/666/176
vt 0.507140 0.884128
f 174/720/174 177/721/177 178/668/178
vt 0.938232 0.874268
f 98/722/98 435/717/435 179/718/179
vt 0.499233 0.886586
vt 0.502145 0.890500
f 179/669/179 96/723/96 98/724/98
vt 0.503940 0.881186
f 179/669/179 95/725/95 96/723/96
vt 0.505522 0.881737
f 179/669/179 175/726/175 95/725/95
vt 0.759032 0.749267
vt 0.759570 0.745942
f 179/727/179 177/728/177 175/541/175
f 177/728/177 174/542/174 175/541/175
vt 0.503603 0.871719
f 176/666/176 94/729/94 95/725/95
vt 0.754755 0.749268
f 95/730/95 175/541/175 176/540/176
vt 0.501507 0.874306
f 93/731/93 95/725/95 94/729/94
vt 0.499254 0.881589
f 93/731/93 92/732/92 95/725/95
f 92/732/92 96/723/96 95/725/95
vt 0.494078 0.882568
f 92/732/92 91/733/91 96/723/96
vt 0.856201 0.897705
f 145/734/145 143/695/143 104/694/104
vt 0.620800 0.708276
f 305/735/305 306/714/306 97/713/97
vt 0.618616 0.707863
f 97/713/97 86/736/86 305/735/305
vt 0.617920 0.705756
f 86/736/86 99/737/99 305/735/305
vt 0.563137 0.746847
f 85/738/85 173/684/173 106/675/106
f 106/675/106 112/679/112 85/738/85
f 106/675/106 107/674/107 112/679/112
vt 0.493026 0.895973
f 433/739/433 101/699/101 102/698/102
f 102/698/102 99/709/99 433/739/433
vt 0.496765 0.892662
f 99/709/99 287/740/287 433/739/433
vt 0.499454 0.894622
f 99/709/99 286/741/286 287/740/287
vt 0.490102 0.898923
f 433/739/433 84/742/84 101/699/101
vt 0.501315 0.896947
f 99/709/99 86/743/86 286/741/286
vt 0.490389 0.894148
f 433/739/433 83/744/83 84/742/84
vt 0.501186 0.892196
f 86/743/86 289/745/289 286/741/286
vt 0.504948 0.892020
f 86/743/86 97/746/97 289/745/289
vt 0.494094 0.889031
vt 0.485403 0.884794
f 82/747/82 96/723/96 284/748/284
vt 0.708566 0.726386
vt 0.702947 0.732313
vt 0.709383 0.733643
f 82/749/82 98/750/98 96/751/96
vt 0.705873 0.726201
f 82/749/82 288/752/288 98/750/98
vt 0.700580 0.729021
f 288/752/288 289/753/289 98/750/98
vt 0.699951 0.733643
f 289/753/289 97/754/97 98/750/98
vt 0.887451 0.850830
vt 0.894731 0.850830
vt 0.891752 0.845968
f 82/755/82 433/756/433 287/757/287
vt 0.897001 0.919466
f 310/690/310 81/758/81 105/688/105
vt 0.899215 0.925049
f 310/690/310 311/759/311 81/758/81
vt 0.901350 0.918723
f 311/759/311 80/760/80 81/758/81
vt 0.903294 0.923149
f 311/759/311 308/761/308 80/760/80
vt 0.896097 0.913945
f 78/762/78 81/758/81 80/760/80
vt 0.383308 0.689809
vt 0.390580 0.701865
f 103/697/103 69/763/69 68/764/68
f 68/764/68 115/651/115 103/697/103
f 68/764/68 114/654/114 115/651/115
vt 0.391165 0.701804
f 68/764/68 67/765/67 114/654/114
vt 0.475352 0.915400
vt 0.487091 0.921970
f 100/700/100 65/766/65 64/767/64
f 64/767/64 153/566/153 100/700/100
vt 0.494646 0.925049
f 64/767/64 69/768/69 153/566/153
vt 0.496761 0.923435
f 69/768/69 103/769/103 153/566/153
f 103/769/103 154/565/154 153/566/153
f 83/744/83 433/739/433 82/747/82
vt 0.482494 0.888916
vt 0.471011 0.906215
f 285/770/285 63/771/63 84/742/84
f 84/742/84 83/744/83 285/770/285
vt 0.403830 0.708294
vt 0.423208 0.693281
f 114/654/114 62/772/62 61/773/61
f 61/773/61 290/652/290 114/654/114
vt 0.423389 0.689616
f 61/773/61 60/774/60 290/652/290
f 114/654/114 67/765/67 62/772/62
vt 0.423485 0.682556
f 60/774/60 302/775/302 290/652/290
vt 0.429826 0.685791
f 60/774/60 283/776/283 302/775/302
vt 0.429925 0.683269
f 283/776/283 301/777/301 302/775/302
vt 0.892650 0.913910
f 105/688/105 78/762/78 89/778/89
f 105/688/105 81/758/81 78/762/78
f 100/700/100 84/742/84 63/771/63
f 100/700/100 101/699/101 84/742/84
f 284/748/284 96/723/96 91/733/91
vt 0.700059 0.668686
vt 0.699951 0.674201
f 276/544/276 275/779/275 271/780/271
f 271/780/271 171/545/171 276/544/276
vt 0.373843 0.697065
vt 0.381648 0.709113
f 58/781/58 57/782/57 68/764/68
f 68/764/68 69/763/69 58/781/58
vt 0.376100 0.693581
f 69/763/69 64/783/64 58/781/58
vt 0.413905 0.714268
vt 0.432258 0.717863
f 61/773/61 56/784/56 55/785/55
vt 0.438769 0.707010
f 55/785/55 161/786/161 61/773/61
f 161/786/161 60/774/60 61/773/61
vt 0.954090 0.780583
vt 0.959575 0.797832
vt 0.967665 0.794807
f 56/787/56 54/788/54 55/789/55
vt 0.951188 0.786223
f 56/787/56 53/790/53 54/788/54
vt 0.978512 0.789666
f 55/789/55 160/553/160 161/791/161
vt 0.982442 0.799025
vt 0.984032 0.792564
f 160/553/160 242/792/242 254/793/254
f 160/553/160 230/552/230 242/792/242
vt 0.403902 0.711690
f 62/772/62 52/794/52 56/784/56
f 56/784/56 61/773/61 62/772/62
vt 0.660218 0.811840
vt 0.657103 0.817361
vt 0.660998 0.819580
f 271/795/271 167/796/167 59/797/59
vt 0.665692 0.816258
f 59/797/59 75/798/75 271/795/271
vt 0.656444 0.813782
f 271/795/271 270/799/270 167/796/167
vt 0.364775 0.700406
vt 0.356201 0.717104
f 65/800/65 46/801/46 58/781/58
vt 0.483406 0.921790
f 58/802/58 64/767/64 65/766/65
vt 0.654851 0.811216
vt 0.652062 0.816074
f 272/803/272 252/804/252 270/799/270
vt 0.650747 0.813327
f 272/803/272 258/805/258 252/804/252
vt 0.653073 0.819580
f 252/804/252 166/806/166 167/796/167
f 167/796/167 270/799/270 252/804/252
vt 0.649170 0.817369
f 252/804/252 253/807/253 166/806/166
vt 0.379569 0.721924
f 58/781/58 46/801/46 41/808/41
f 41/808/41 57/782/57 58/781/58
vt 0.385157 0.712092
f 41/808/41 40/809/40 57/782/57
vt 0.754639 0.663330
f 261/810/261 163/547/163 164/546/164
vt 0.401014 0.721924
f 62/772/62 40/809/40 38/811/38
f 62/772/62 67/765/67 40/809/40
f 38/811/38 52/794/52 62/772/62
f 67/765/67 68/764/68 40/809/40
f 68/764/68 57/782/57 40/809/40
vt 0.758455 0.179803
vt 0.747276 0.181881
vt 0.744354 0.194580
f 36/812/36 35/813/35 37/814/37
vt 0.890946 0.717949
vt 0.883520 0.715590
vt 0.876140 0.718511
f 35/815/35 34/816/34 37/817/37
vt 0.946624 0.773794
vt 0.939103 0.780693
vt 0.943643 0.786215
f 52/818/52 38/819/38 33/820/33
f 33/820/33 56/787/56 52/818/52
f 33/820/33 53/790/53 56/787/56
vt 0.946725 0.787673
f 33/820/33 32/821/32 53/790/53
vt 0.919742 0.773189
vt 0.913629 0.784097
vt 0.926481 0.792846
f 41/822/41 31/823/31 30/824/30
f 30/824/30 38/819/38 41/822/41
vt 0.929667 0.766918
f 38/819/38 40/825/40 41/822/41
f 30/824/30 33/820/33 38/819/38
vt 0.917840 0.789213
f 31/823/31 29/826/29 30/824/30
vt 0.966142 0.816115
f 55/789/55 28/827/28 229/554/229
f 229/554/229 160/553/160 55/789/55
vt 0.974566 0.816964
f 28/827/28 220/828/220 229/554/229
vt 0.979024 0.812080
f 220/828/220 222/829/222 229/554/229
vt 0.970332 0.818688
f 28/827/28 27/830/27 220/828/220
vt 0.684326 0.028536
vt 0.686669 0.031127
vt 0.684326 0.034424
f 222/831/222 232/832/232 229/833/229
vt 0.959774 0.816416
f 54/788/54 436/834/436 28/827/28
f 28/827/28 55/789/55 54/788/54
vt 0.953176 0.820264
f 54/788/54 430/835/430 436/834/436
vt 0.947599 0.795616
f 54/788/54 25/836/25 430/835/430
f 54/788/54 53/790/53 25/836/25
f 53/790/53 32/821/32 25/836/25
vt 0.933323 0.806792
f 25/836/25 30/824/30 24/837/24
f 25/836/25 33/820/33 30/824/30
vt 0.924281 0.799342
f 30/824/30 23/838/23 24/837/24
f 25/836/25 32/821/32 33/820/33
vt 0.937254 0.817422
f 430/835/430 24/837/24 22/839/22
f 430/835/430 25/836/25 24/837/24
vt 0.932287 0.811146
f 24/837/24 21/840/21 22/839/22
vt 0.918996 0.299289
vt 0.916728 0.292827
vt 0.911543 0.304178
f 20/841/20 226/842/226 227/843/227
vt 0.917147 0.303524
f 227/843/227 19/844/19 20/841/20
vt 0.923285 0.291698
f 223/845/223 226/842/226 20/841/20
vt 0.890413 0.712301
vt 0.883109 0.712219
f 18/846/18 26/847/26 34/816/34
f 34/816/34 35/815/35 18/846/18
vt 0.882682 0.710946
f 18/846/18 431/848/431 26/847/26
vt 0.903495 0.790101
f 17/849/17 29/826/29 31/823/31
vt 0.890495 0.702337
f 431/848/431 18/846/18 140/850/140
vt 0.893959 0.708113
f 18/846/18 16/851/16 140/850/140
vt 0.969655 0.821037
vt 0.973165 0.819843
f 27/830/27 216/852/216 218/853/218
f 218/853/218 220/828/220 27/830/27
vt 0.924487 0.304564
vt 0.921978 0.298032
f 19/844/19 15/854/15 14/855/14
vt 0.919314 0.308837
f 19/844/19 13/856/13 15/854/15
f 14/855/14 20/841/20 19/844/19
vt 0.910777 0.799045
f 29/826/29 12/857/12 23/838/23
f 29/826/29 17/849/17 12/857/12
f 23/838/23 30/824/30 29/826/29
vt 0.910889 0.307532
f 19/844/19 227/843/227 224/858/224
f 224/858/224 13/856/13 19/844/19
vt 0.913975 0.312456
f 224/858/224 11/859/11 13/856/13
vt 0.911868 0.315674
f 224/858/224 209/860/209 11/859/11
vt 0.951851 0.827393
vt 0.965090 0.823407
f 430/835/430 141/861/141 159/862/159
f 159/862/159 436/834/436 430/835/430
f 159/862/159 28/827/28 436/834/436
f 159/862/159 27/830/27 28/827/28
f 159/862/159 216/852/216 27/830/27
vt 0.968950 0.824691
f 159/862/159 215/863/215 216/852/216
vt 0.971075 0.823225
f 215/863/215 217/864/217 216/852/216
vt 0.916932 0.804950
vt 0.926456 0.808868
f 23/838/23 10/865/10 9/866/9
f 9/866/9 24/837/24 23/838/23
f 23/838/23 12/857/12 10/865/10
f 9/866/9 21/840/21 24/837/24
vt 0.371143 0.209627
vt 0.372070 0.203934
vt 0.361063 0.207761
f 22/867/22 8/868/8 7/869/7
vt 0.949373 0.825319
f 7/870/7 430/835/430 22/839/22
f 7/870/7 141/861/141 430/835/430
vt 0.368487 0.197261
vt 0.373274 0.199693
vt 0.372271 0.192024
f 158/871/158 6/872/6 208/873/208
vt 0.946158 0.022705
f 208/874/208 211/556/211 158/555/158
vt 0.370926 0.200738
f 158/871/158 5/875/5 6/872/6
vt 0.374582 0.210205
vt 0.379692 0.208204
f 21/876/21 9/877/9 8/868/8
f 8/868/8 22/867/22 21/876/21
vt 0.531387 0.322032
vt 0.531288 0.324111
vt 0.540904 0.327679
f 200/878/200 198/879/198 4/880/4
vt 0.544360 0.324656
f 4/880/4 201/881/201 200/878/200
vt 0.382443 0.190962
vt 0.378409 0.196142
f 9/877/9 3/882/3 2/883/2
vt 0.388091 0.208310
f 9/877/9 10/884/10 3/882/3
f 3/882/3 206/507/206 2/883/2
f 206/507/206 207/506/207 2/883/2
f 207/506/207 157/559/157 2/883/2
vt 0.356201 0.200947
vt 0.359150 0.208902
f 7/869/7 213/885/213 141/886/141
vt 0.356542 0.198609
f 7/869/7 214/887/214 213/885/213
vt 0.365115 0.195137
f 7/869/7 8/868/8 212/888/212
f 212/888/212 214/887/214 7/869/7
vt 0.934326 0.022705
f 8/889/8 158/555/158 212/557/212
f 8/868/8 5/875/5 158/871/158
f 8/868/8 2/883/2 6/872/6
f 8/868/8 9/877/9 2/883/2
f 6/872/6 5/875/5 8/868/8
f 6/872/6 2/883/2 157/559/157
f 157/559/157 208/873/208 6/872/6
f 157/559/157 210/558/210 208/873/208
vt 0.530956 0.327979
vt 0.537594 0.330985
f 198/879/198 197/890/197 1/891/1
f 1/891/1 4/880/4 198/879/198
vt 0.982088 0.791665
f 160/553/160 254/793/254 255/892/255
f 160/553/160 255/892/255 161/791/161
f 128/670/128 120/677/120 107/674/107
f 128/670/128 107/674/107 185/671/185
f 20/841/20 14/855/14 223/845/223

usemtl material_2
vt 0.579765 0.663956
vt 0.577681 0.667023
vt 0.583503 0.667236
f 453/893/453 452/894/452 443/895/443
vt 0.339104 0.460695
vt 0.343435 0.464111
vt 0.343723 0.460628
f 256/896/256 242/897/242 241/898/241
vt 0.336670 0.464111
f 256/896/256 254/899/254 242/897/242
vt 0.351955 0.050049
vt 0.348389 0.050049
vt 0.348415 0.047074
f 241/900/241 240/901/240 256/902/256
vt 0.348389 0.206299
vt 0.351343 0.206299
vt 0.350503 0.201198
f 256/903/256 240/904/240 454/905/454
vt 0.350141 0.200658
f 454/905/454 281/906/281 256/903/256
vt 0.354180 0.479736
vt 0.349960 0.476425
vt 0.348389 0.479736
f 219/907/219 216/908/216 217/909/217
vt 0.354108 0.477456
f 219/907/219 218/910/218 216/908/216
vt 0.344062 0.440674
vt 0.341710 0.436596
vt 0.339917 0.436891
f 236/911/236 234/912/234 453/913/453
vt 0.336670 0.440674
f 453/913/453 443/914/443 236/911/236
vt 0.341593 0.643750
vt 0.343770 0.643799
vt 0.342100 0.630685
f 198/915/198 200/916/200 199/917/199
vt 0.336670 0.385986
vt 0.340113 0.382708
vt 0.336906 0.382536
f 242/918/242 449/919/449 241/920/241
vt 0.343322 0.385986
f 242/918/242 230/921/230 449/919/449
# 856 faces, 921 coords texture

# End of File
